time,latitude[unit="degrees_north"],longitude[unit="degrees_east"],air_temperature[unit="C"]
1970-01-01T00:00:00Z,-35.6557,148.152,19.805110931396484
1970-02-01T00:00:00Z,-35.6557,148.152,22.903236389160156
1970-03-01T00:00:00Z,-35.6557,148.152,18.052515029907227
1970-04-01T00:00:00Z,-35.6557,148.152,14.153485298156738
1970-05-01T00:00:00Z,-35.6557,148.152,8.898694038391113
1970-06-01T00:00:00Z,-35.6557,148.152,7.290235996246338
1970-07-01T00:00:00Z,-35.6557,148.152,5.366804599761963
1970-08-01T00:00:00Z,-35.6557,148.152,5.509973526000977
1970-09-01T00:00:00Z,-35.6557,148.152,7.631801605224609
1970-10-01T00:00:00Z,-35.6557,148.152,13.586423873901367
1970-11-01T00:00:00Z,-35.6557,148.152,16.44734764099121
1970-12-01T00:00:00Z,-35.6557,148.152,20.350862503051758
1971-01-01T00:00:00Z,-35.6557,148.152,21.529333114624023
1971-02-01T00:00:00Z,-35.6557,148.152,20.816431045532227
1971-03-01T00:00:00Z,-35.6557,148.152,19.973857879638672
1971-04-01T00:00:00Z,-35.6557,148.152,14.981712341308594
1971-05-01T00:00:00Z,-35.6557,148.152,9.051336288452148
1971-06-01T00:00:00Z,-35.6557,148.152,6.198003768920898
1971-07-01T00:00:00Z,-35.6557,148.152,5.964219570159912
1971-08-01T00:00:00Z,-35.6557,148.152,5.720427513122559
1971-09-01T00:00:00Z,-35.6557,148.152,9.858772277832031
1971-10-01T00:00:00Z,-35.6557,148.152,12.322356224060059
1971-11-01T00:00:00Z,-35.6557,148.152,14.573469161987305
1971-12-01T00:00:00Z,-35.6557,148.152,19.62188148498535
1972-01-01T00:00:00Z,-35.6557,148.152,19.650997161865234
1972-02-01T00:00:00Z,-35.6557,148.152,20.213380813598633
1972-03-01T00:00:00Z,-35.6557,148.152,19.373577117919922
1972-04-01T00:00:00Z,-35.6557,148.152,14.975759506225586
1972-05-01T00:00:00Z,-35.6557,148.152,11.864949226379395
1972-06-01T00:00:00Z,-35.6557,148.152,8.704349517822266
1972-07-01T00:00:00Z,-35.6557,148.152,5.417834758758545
1972-08-01T00:00:00Z,-35.6557,148.152,7.474508762359619
1972-09-01T00:00:00Z,-35.6557,148.152,13.012469291687012
1972-10-01T00:00:00Z,-35.6557,148.152,15.548263549804688
1972-11-01T00:00:00Z,-35.6557,148.152,17.68973731994629
1972-12-01T00:00:00Z,-35.6557,148.152,23.774255752563477
1973-01-01T00:00:00Z,-35.6557,148.152,25.568235397338867
1973-02-01T00:00:00Z,-35.6557,148.152,20.903894424438477
1973-03-01T00:00:00Z,-35.6557,148.152,18.58240509033203
1973-04-01T00:00:00Z,-35.6557,148.152,15.028564453125
1973-05-01T00:00:00Z,-35.6557,148.152,10.61627197265625
1973-06-01T00:00:00Z,-35.6557,148.152,6.722243309020996
1973-07-01T00:00:00Z,-35.6557,148.152,8.080690383911133
1973-08-01T00:00:00Z,-35.6557,148.152,7.515974521636963
1973-09-01T00:00:00Z,-35.6557,148.152,11.200037002563477
1973-10-01T00:00:00Z,-35.6557,148.152,13.936838150024414
1973-11-01T00:00:00Z,-35.6557,148.152,16.097309112548828
1973-12-01T00:00:00Z,-35.6557,148.152,20.722896575927734
1974-01-01T00:00:00Z,-35.6557,148.152,22.225709915161133
1974-02-01T00:00:00Z,-35.6557,148.152,21.50371742248535
1974-03-01T00:00:00Z,-35.6557,148.152,20.75855255126953
1974-04-01T00:00:00Z,-35.6557,148.152,13.373620986938477
1974-05-01T00:00:00Z,-35.6557,148.152,10.768047332763672
1974-06-01T00:00:00Z,-35.6557,148.152,7.101130485534668
1974-07-01T00:00:00Z,-35.6557,148.152,4.864311695098877
1974-08-01T00:00:00Z,-35.6557,148.152,5.638406753540039
1974-09-01T00:00:00Z,-35.6557,148.152,7.879073619842529
1974-10-01T00:00:00Z,-35.6557,148.152,12.302821159362793
1974-11-01T00:00:00Z,-35.6557,148.152,15.21700382232666
1974-12-01T00:00:00Z,-35.6557,148.152,19.769643783569336
1975-01-01T00:00:00Z,-35.6557,148.152,21.482839584350586
1975-02-01T00:00:00Z,-35.6557,148.152,22.184751510620117
1975-03-01T00:00:00Z,-35.6557,148.152,17.19590187072754
1975-04-01T00:00:00Z,-35.6557,148.152,14.361811637878418
1975-05-01T00:00:00Z,-35.6557,148.152,10.256168365478516
1975-06-01T00:00:00Z,-35.6557,148.152,7.731135368347168
1975-07-01T00:00:00Z,-35.6557,148.152,7.024339199066162
1975-08-01T00:00:00Z,-35.6557,148.152,6.744389533996582
1975-09-01T00:00:00Z,-35.6557,148.152,11.177440643310547
1975-10-01T00:00:00Z,-35.6557,148.152,12.147275924682617
1975-11-01T00:00:00Z,-35.6557,148.152,17.861454010009766
1975-12-01T00:00:00Z,-35.6557,148.152,22.33449935913086
1976-01-01T00:00:00Z,-35.6557,148.152,20.69029426574707
1976-02-01T00:00:00Z,-35.6557,148.152,21.506406784057617
1976-03-01T00:00:00Z,-35.6557,148.152,19.57416534423828
1976-04-01T00:00:00Z,-35.6557,148.152,14.44571304321289
1976-05-01T00:00:00Z,-35.6557,148.152,11.210880279541016
1976-06-01T00:00:00Z,-35.6557,148.152,7.344531536102295
1976-07-01T00:00:00Z,-35.6557,148.152,7.026035785675049
1976-08-01T00:00:00Z,-35.6557,148.152,7.235815048217773
1976-09-01T00:00:00Z,-35.6557,148.152,9.267910957336426
1976-10-01T00:00:00Z,-35.6557,148.152,10.6202974319458
1976-11-01T00:00:00Z,-35.6557,148.152,15.378229141235352
1976-12-01T00:00:00Z,-35.6557,148.152,19.58358383178711
1977-01-01T00:00:00Z,-35.6557,148.152,22.81363868713379
1977-02-01T00:00:00Z,-35.6557,148.152,23.739891052246094
1977-03-01T00:00:00Z,-35.6557,148.152,18.43927574157715
1977-04-01T00:00:00Z,-35.6557,148.152,14.276766777038574
1977-05-01T00:00:00Z,-35.6557,148.152,9.058430671691895
1977-06-01T00:00:00Z,-35.6557,148.152,6.279358386993408
1977-07-01T00:00:00Z,-35.6557,148.152,5.486087799072266
1977-08-01T00:00:00Z,-35.6557,148.152,9.232181549072266
1977-09-01T00:00:00Z,-35.6557,148.152,9.817500114440918
1977-10-01T00:00:00Z,-35.6557,148.152,16.506149291992188
1977-11-01T00:00:00Z,-35.6557,148.152,18.8029842376709
1977-12-01T00:00:00Z,-35.6557,148.152,22.291608810424805
1978-01-01T00:00:00Z,-35.6557,148.152,21.30141830444336
1978-02-01T00:00:00Z,-35.6557,148.152,23.783918380737305
1978-03-01T00:00:00Z,-35.6557,148.152,20.709455490112305
1978-04-01T00:00:00Z,-35.6557,148.152,14.709786415100098
1978-05-01T00:00:00Z,-35.6557,148.152,11.18026351928711
1978-06-01T00:00:00Z,-35.6557,148.152,5.831475734710693
1978-07-01T00:00:00Z,-35.6557,148.152,4.3576178550720215
1978-08-01T00:00:00Z,-35.6557,148.152,6.310009956359863
1978-09-01T00:00:00Z,-35.6557,148.152,9.131929397583008
1978-10-01T00:00:00Z,-35.6557,148.152,13.491597175598145
1978-11-01T00:00:00Z,-35.6557,148.152,16.072816848754883
1978-12-01T00:00:00Z,-35.6557,148.152,18.55763816833496
1979-01-01T00:00:00Z,-35.6557,148.152,26.674802780151367
1979-02-01T00:00:00Z,-35.6557,148.152,24.83666229248047
1979-03-01T00:00:00Z,-35.6557,148.152,20.20829200744629
1979-04-01T00:00:00Z,-35.6557,148.152,13.403573036193848
1979-05-01T00:00:00Z,-35.6557,148.152,9.185026168823242
1979-06-01T00:00:00Z,-35.6557,148.152,8.747639656066895
1979-07-01T00:00:00Z,-35.6557,148.152,5.986616611480713
1979-08-01T00:00:00Z,-35.6557,148.152,6.663114070892334
1979-09-01T00:00:00Z,-35.6557,148.152,9.561982154846191
1979-10-01T00:00:00Z,-35.6557,148.152,13.810221672058105
1979-11-01T00:00:00Z,-35.6557,148.152,18.652589797973633
1979-12-01T00:00:00Z,-35.6557,148.152,23.05417823791504
1980-01-01T00:00:00Z,-35.6557,148.152,20.946096420288086
1980-02-01T00:00:00Z,-35.6557,148.152,24.183530807495117
1980-03-01T00:00:00Z,-35.6557,148.152,21.828960418701172
1980-04-01T00:00:00Z,-35.6557,148.152,17.12970733642578
1980-05-01T00:00:00Z,-35.6557,148.152,11.323686599731445
1980-06-01T00:00:00Z,-35.6557,148.152,7.12449836730957
1980-07-01T00:00:00Z,-35.6557,148.152,5.443907737731934
1980-08-01T00:00:00Z,-35.6557,148.152,7.453332901000977
1980-09-01T00:00:00Z,-35.6557,148.152,10.676410675048828
1980-10-01T00:00:00Z,-35.6557,148.152,15.75121021270752
1980-11-01T00:00:00Z,-35.6557,148.152,19.319000244140625
1980-12-01T00:00:00Z,-35.6557,148.152,22.01148223876953
1981-01-01T00:00:00Z,-35.6557,148.152,26.939823150634766
1981-02-01T00:00:00Z,-35.6557,148.152,23.27920150756836
1981-03-01T00:00:00Z,-35.6557,148.152,19.27939224243164
1981-04-01T00:00:00Z,-35.6557,148.152,16.831417083740234
1981-05-01T00:00:00Z,-35.6557,148.152,10.597875595092773
1981-06-01T00:00:00Z,-35.6557,148.152,5.315965175628662
1981-07-01T00:00:00Z,-35.6557,148.152,4.724642753601074
1981-08-01T00:00:00Z,-35.6557,148.152,5.325589656829834
1981-09-01T00:00:00Z,-35.6557,148.152,12.033427238464355
1981-10-01T00:00:00Z,-35.6557,148.152,15.097990036010742
1981-11-01T00:00:00Z,-35.6557,148.152,15.987669944763184
1981-12-01T00:00:00Z,-35.6557,148.152,20.252601623535156
1982-01-01T00:00:00Z,-35.6557,148.152,24.663230895996094
1982-02-01T00:00:00Z,-35.6557,148.152,25.03367042541504
1982-03-01T00:00:00Z,-35.6557,148.152,20.074268341064453
1982-04-01T00:00:00Z,-35.6557,148.152,14.6683349609375
1982-05-01T00:00:00Z,-35.6557,148.152,10.105545997619629
1982-06-01T00:00:00Z,-35.6557,148.152,6.505216598510742
1982-07-01T00:00:00Z,-35.6557,148.152,5.828688144683838
1982-08-01T00:00:00Z,-35.6557,148.152,11.390908241271973
1982-09-01T00:00:00Z,-35.6557,148.152,10.192498207092285
1982-10-01T00:00:00Z,-35.6557,148.152,15.07736587524414
1982-11-01T00:00:00Z,-35.6557,148.152,22.90725326538086
1982-12-01T00:00:00Z,-35.6557,148.152,22.646528244018555
1983-01-01T00:00:00Z,-35.6557,148.152,23.47123908996582
1983-02-01T00:00:00Z,-35.6557,148.152,26.390193939208984
1983-03-01T00:00:00Z,-35.6557,148.152,22.163320541381836
1983-04-01T00:00:00Z,-35.6557,148.152,12.220399856567383
1983-05-01T00:00:00Z,-35.6557,148.152,10.394546508789062
1983-06-01T00:00:00Z,-35.6557,148.152,6.026109218597412
1983-07-01T00:00:00Z,-35.6557,148.152,5.439701557159424
1983-08-01T00:00:00Z,-35.6557,148.152,7.587885856628418
1983-09-01T00:00:00Z,-35.6557,148.152,10.086429595947266
1983-10-01T00:00:00Z,-35.6557,148.152,14.201682090759277
1983-11-01T00:00:00Z,-35.6557,148.152,14.981825828552246
1983-12-01T00:00:00Z,-35.6557,148.152,20.09467887878418
1984-01-01T00:00:00Z,-35.6557,148.152,18.96638298034668
1984-02-01T00:00:00Z,-35.6557,148.152,20.7960262298584
1984-03-01T00:00:00Z,-35.6557,148.152,17.30339813232422
1984-04-01T00:00:00Z,-35.6557,148.152,14.572038650512695
1984-05-01T00:00:00Z,-35.6557,148.152,10.844661712646484
1984-06-01T00:00:00Z,-35.6557,148.152,8.712491989135742
1984-07-01T00:00:00Z,-35.6557,148.152,5.077664852142334
1984-08-01T00:00:00Z,-35.6557,148.152,6.428422451019287
1984-09-01T00:00:00Z,-35.6557,148.152,8.26970386505127
1984-10-01T00:00:00Z,-35.6557,148.152,13.775507926940918
1984-11-01T00:00:00Z,-35.6557,148.152,17.632680892944336
1984-12-01T00:00:00Z,-35.6557,148.152,18.478124618530273
1985-01-01T00:00:00Z,-35.6557,148.152,24.17947769165039
1985-02-01T00:00:00Z,-35.6557,148.152,23.26877784729004
1985-03-01T00:00:00Z,-35.6557,148.152,21.174461364746094
1985-04-01T00:00:00Z,-35.6557,148.152,14.731164932250977
1985-05-01T00:00:00Z,-35.6557,148.152,10.832515716552734
1985-06-01T00:00:00Z,-35.6557,148.152,5.894547462463379
1985-07-01T00:00:00Z,-35.6557,148.152,5.923949241638184
1985-08-01T00:00:00Z,-35.6557,148.152,6.4746198654174805
1985-09-01T00:00:00Z,-35.6557,148.152,10.019302368164062
1985-10-01T00:00:00Z,-35.6557,148.152,13.763532638549805
1985-11-01T00:00:00Z,-35.6557,148.152,16.705238342285156
1985-12-01T00:00:00Z,-35.6557,148.152,17.4576416015625
1986-01-01T00:00:00Z,-35.6557,148.152,20.649791717529297
1986-02-01T00:00:00Z,-35.6557,148.152,22.546052932739258
1986-03-01T00:00:00Z,-35.6557,148.152,23.837278366088867
1986-04-01T00:00:00Z,-35.6557,148.152,15.590263366699219
1986-05-01T00:00:00Z,-35.6557,148.152,11.209595680236816
1986-06-01T00:00:00Z,-35.6557,148.152,6.359155178070068
1986-07-01T00:00:00Z,-35.6557,148.152,5.443457126617432
1986-08-01T00:00:00Z,-35.6557,148.152,7.291891574859619
1986-09-01T00:00:00Z,-35.6557,148.152,10.07994270324707
1986-10-01T00:00:00Z,-35.6557,148.152,10.357351303100586
1986-11-01T00:00:00Z,-35.6557,148.152,16.179668426513672
1986-12-01T00:00:00Z,-35.6557,148.152,18.597219467163086
1987-01-01T00:00:00Z,-35.6557,148.152,22.218870162963867
1987-02-01T00:00:00Z,-35.6557,148.152,23.330223083496094
1987-03-01T00:00:00Z,-35.6557,148.152,17.562341690063477
1987-04-01T00:00:00Z,-35.6557,148.152,16.648685455322266
1987-05-01T00:00:00Z,-35.6557,148.152,10.011876106262207
1987-06-01T00:00:00Z,-35.6557,148.152,8.006892204284668
1987-07-01T00:00:00Z,-35.6557,148.152,5.493136882781982
1987-08-01T00:00:00Z,-35.6557,148.152,8.115249633789062
1987-09-01T00:00:00Z,-35.6557,148.152,11.38634967803955
1987-10-01T00:00:00Z,-35.6557,148.152,13.525372505187988
1987-11-01T00:00:00Z,-35.6557,148.152,17.56660270690918
1987-12-01T00:00:00Z,-35.6557,148.152,20.65153694152832
1988-01-01T00:00:00Z,-35.6557,148.152,26.21604347229004
1988-02-01T00:00:00Z,-35.6557,148.152,22.215749740600586
1988-03-01T00:00:00Z,-35.6557,148.152,20.075119018554688
1988-04-01T00:00:00Z,-35.6557,148.152,15.880959510803223
1988-05-01T00:00:00Z,-35.6557,148.152,11.529979705810547
1988-06-01T00:00:00Z,-35.6557,148.152,7.3722991943359375
1988-07-01T00:00:00Z,-35.6557,148.152,7.257336616516113
1988-08-01T00:00:00Z,-35.6557,148.152,7.928252696990967
1988-09-01T00:00:00Z,-35.6557,148.152,11.12150764465332
1988-10-01T00:00:00Z,-35.6557,148.152,14.148996353149414
1988-11-01T00:00:00Z,-35.6557,148.152,17.168943405151367
1988-12-01T00:00:00Z,-35.6557,148.152,20.547698974609375
1989-01-01T00:00:00Z,-35.6557,148.152,20.268640518188477
1989-02-01T00:00:00Z,-35.6557,148.152,21.993436813354492
1989-03-01T00:00:00Z,-35.6557,148.152,19.589214324951172
1989-04-01T00:00:00Z,-35.6557,148.152,15.02139949798584
1989-05-01T00:00:00Z,-35.6557,148.152,11.36857795715332
1989-06-01T00:00:00Z,-35.6557,148.152,6.630560874938965
1989-07-01T00:00:00Z,-35.6557,148.152,4.988367557525635
1989-08-01T00:00:00Z,-35.6557,148.152,4.966179847717285
1989-09-01T00:00:00Z,-35.6557,148.152,10.072113990783691
1989-10-01T00:00:00Z,-35.6557,148.152,12.586136817932129
1989-11-01T00:00:00Z,-35.6557,148.152,17.49706268310547
1989-12-01T00:00:00Z,-35.6557,148.152,20.437664031982422
1990-01-01T00:00:00Z,-35.6557,148.152,23.265047073364258
1990-02-01T00:00:00Z,-35.6557,148.152,20.830076217651367
1990-03-01T00:00:00Z,-35.6557,148.152,21.076099395751953
1990-04-01T00:00:00Z,-35.6557,148.152,14.865001678466797
1990-05-01T00:00:00Z,-35.6557,148.152,11.549052238464355
1990-06-01T00:00:00Z,-35.6557,148.152,5.992456912994385
1990-07-01T00:00:00Z,-35.6557,148.152,5.446829795837402
1990-08-01T00:00:00Z,-35.6557,148.152,5.368296146392822
1990-09-01T00:00:00Z,-35.6557,148.152,10.171060562133789
1990-10-01T00:00:00Z,-35.6557,148.152,13.898344039916992
1990-11-01T00:00:00Z,-35.6557,148.152,18.924007415771484
1990-12-01T00:00:00Z,-35.6557,148.152,23.18361473083496
1991-01-01T00:00:00Z,-35.6557,148.152,24.657875061035156
1991-02-01T00:00:00Z,-35.6557,148.152,25.99468421936035
1991-03-01T00:00:00Z,-35.6557,148.152,20.875837326049805
1991-04-01T00:00:00Z,-35.6557,148.152,15.470934867858887
1991-05-01T00:00:00Z,-35.6557,148.152,11.877213478088379
1991-06-01T00:00:00Z,-35.6557,148.152,8.820337295532227
1991-07-01T00:00:00Z,-35.6557,148.152,5.342594146728516
1991-08-01T00:00:00Z,-35.6557,148.152,5.145850658416748
1991-09-01T00:00:00Z,-35.6557,148.152,9.087715148925781
1991-10-01T00:00:00Z,-35.6557,148.152,16.423784255981445
1991-11-01T00:00:00Z,-35.6557,148.152,17.614561080932617
1991-12-01T00:00:00Z,-35.6557,148.152,18.992389678955078
1992-01-01T00:00:00Z,-35.6557,148.152,20.7718448638916
1992-02-01T00:00:00Z,-35.6557,148.152,19.790855407714844
1992-03-01T00:00:00Z,-35.6557,148.152,21.248817443847656
1992-04-01T00:00:00Z,-35.6557,148.152,14.759602546691895
1992-05-01T00:00:00Z,-35.6557,148.152,10.722735404968262
1992-06-01T00:00:00Z,-35.6557,148.152,6.95095157623291
1992-07-01T00:00:00Z,-35.6557,148.152,6.3096923828125
1992-08-01T00:00:00Z,-35.6557,148.152,5.847240447998047
1992-09-01T00:00:00Z,-35.6557,148.152,7.3811936378479
1992-10-01T00:00:00Z,-35.6557,148.152,12.894061088562012
1992-11-01T00:00:00Z,-35.6557,148.152,12.959200859069824
1992-12-01T00:00:00Z,-35.6557,148.152,17.98584747314453
1993-01-01T00:00:00Z,-35.6557,148.152,23.11922836303711
1993-02-01T00:00:00Z,-35.6557,148.152,20.78497314453125
1993-03-01T00:00:00Z,-35.6557,148.152,17.782360076904297
1993-04-01T00:00:00Z,-35.6557,148.152,16.726526260375977
1993-05-01T00:00:00Z,-35.6557,148.152,11.628722190856934
1993-06-01T00:00:00Z,-35.6557,148.152,6.3360490798950195
1993-07-01T00:00:00Z,-35.6557,148.152,8.184234619140625
1993-08-01T00:00:00Z,-35.6557,148.152,8.43155574798584
1993-09-01T00:00:00Z,-35.6557,148.152,10.605006217956543
1993-10-01T00:00:00Z,-35.6557,148.152,12.880303382873535
1993-11-01T00:00:00Z,-35.6557,148.152,16.6494197845459
1993-12-01T00:00:00Z,-35.6557,148.152,18.404335021972656
1994-01-01T00:00:00Z,-35.6557,148.152,21.700424194335938
1994-02-01T00:00:00Z,-35.6557,148.152,22.12212562561035
1994-03-01T00:00:00Z,-35.6557,148.152,17.730772018432617
1994-04-01T00:00:00Z,-35.6557,148.152,15.31346607208252
1994-05-01T00:00:00Z,-35.6557,148.152,9.80726146697998
1994-06-01T00:00:00Z,-35.6557,148.152,7.063388824462891
1994-07-01T00:00:00Z,-35.6557,148.152,6.757046222686768
1994-08-01T00:00:00Z,-35.6557,148.152,7.435713291168213
1994-09-01T00:00:00Z,-35.6557,148.152,9.50364875793457
1994-10-01T00:00:00Z,-35.6557,148.152,14.61519718170166
1994-11-01T00:00:00Z,-35.6557,148.152,17.41667366027832
1994-12-01T00:00:00Z,-35.6557,148.152,23.879262924194336
1995-01-01T00:00:00Z,-35.6557,148.152,21.159183502197266
1995-02-01T00:00:00Z,-35.6557,148.152,22.1464900970459
1995-03-01T00:00:00Z,-35.6557,148.152,18.62971305847168
1995-04-01T00:00:00Z,-35.6557,148.152,12.351597785949707
1995-05-01T00:00:00Z,-35.6557,148.152,10.324457168579102
1995-06-01T00:00:00Z,-35.6557,148.152,6.760515213012695
1995-07-01T00:00:00Z,-35.6557,148.152,4.247887134552002
1995-08-01T00:00:00Z,-35.6557,148.152,9.734258651733398
1995-09-01T00:00:00Z,-35.6557,148.152,10.674986839294434
1995-10-01T00:00:00Z,-35.6557,148.152,14.009225845336914
1995-11-01T00:00:00Z,-35.6557,148.152,16.06858253479004
1995-12-01T00:00:00Z,-35.6557,148.152,18.38349723815918
1996-01-01T00:00:00Z,-35.6557,148.152,21.27406883239746
1996-02-01T00:00:00Z,-35.6557,148.152,19.308523178100586
1996-03-01T00:00:00Z,-35.6557,148.152,19.01662254333496
1996-04-01T00:00:00Z,-35.6557,148.152,12.29935073852539
1996-05-01T00:00:00Z,-35.6557,148.152,12.02946949005127
1996-06-01T00:00:00Z,-35.6557,148.152,7.982946395874023
1996-07-01T00:00:00Z,-35.6557,148.152,5.579580307006836
1996-08-01T00:00:00Z,-35.6557,148.152,6.132439136505127
1996-09-01T00:00:00Z,-35.6557,148.152,9.292247772216797
1996-10-01T00:00:00Z,-35.6557,148.152,14.606200218200684
1996-11-01T00:00:00Z,-35.6557,148.152,14.28284740447998
1996-12-01T00:00:00Z,-35.6557,148.152,19.813426971435547
1997-01-01T00:00:00Z,-35.6557,148.152,22.333789825439453
1997-02-01T00:00:00Z,-35.6557,148.152,26.25125503540039
1997-03-01T00:00:00Z,-35.6557,148.152,19.25055694580078
1997-04-01T00:00:00Z,-35.6557,148.152,16.879541397094727
1997-05-01T00:00:00Z,-35.6557,148.152,11.352686882019043
1997-06-01T00:00:00Z,-35.6557,148.152,7.616877555847168
1997-07-01T00:00:00Z,-35.6557,148.152,6.212634086608887
1997-08-01T00:00:00Z,-35.6557,148.152,6.443033218383789
1997-09-01T00:00:00Z,-35.6557,148.152,10.21591567993164
1997-10-01T00:00:00Z,-35.6557,148.152,15.117037773132324
1997-11-01T00:00:00Z,-35.6557,148.152,20.066390991210938
1997-12-01T00:00:00Z,-35.6557,148.152,22.97405433654785
1998-01-01T00:00:00Z,-35.6557,148.152,24.01793098449707
1998-02-01T00:00:00Z,-35.6557,148.152,24.434465408325195
1998-03-01T00:00:00Z,-35.6557,148.152,22.631521224975586
1998-04-01T00:00:00Z,-35.6557,148.152,15.831387519836426
1998-05-01T00:00:00Z,-35.6557,148.152,10.964019775390625
1998-06-01T00:00:00Z,-35.6557,148.152,7.436065673828125
1998-07-01T00:00:00Z,-35.6557,148.152,5.456852436065674
1998-08-01T00:00:00Z,-35.6557,148.152,8.614465713500977
1998-09-01T00:00:00Z,-35.6557,148.152,11.347195625305176
1998-10-01T00:00:00Z,-35.6557,148.152,11.697537422180176
1998-11-01T00:00:00Z,-35.6557,148.152,15.957653999328613
1998-12-01T00:00:00Z,-35.6557,148.152,21.949665069580078
1999-01-01T00:00:00Z,-35.6557,148.152,25.221025466918945
1999-02-01T00:00:00Z,-35.6557,148.152,22.361610412597656
1999-03-01T00:00:00Z,-35.6557,148.152,19.966899871826172
1999-04-01T00:00:00Z,-35.6557,148.152,13.810898780822754
1999-05-01T00:00:00Z,-35.6557,148.152,12.096148490905762
1999-06-01T00:00:00Z,-35.6557,148.152,7.559278964996338
1999-07-01T00:00:00Z,-35.6557,148.152,7.377679824829102
1999-08-01T00:00:00Z,-35.6557,148.152,8.572680473327637
1999-09-01T00:00:00Z,-35.6557,148.152,12.256694793701172
1999-10-01T00:00:00Z,-35.6557,148.152,14.148444175720215
1999-11-01T00:00:00Z,-35.6557,148.152,14.780400276184082
1999-12-01T00:00:00Z,-35.6557,148.152,18.792314529418945
2000-01-01T00:00:00Z,-35.6557,148.152,19.310794830322266
2000-02-01T00:00:00Z,-35.6557,148.152,24.360233306884766
2000-03-01T00:00:00Z,-35.6557,148.152,20.52116584777832
2000-04-01T00:00:00Z,-35.6557,148.152,14.986797332763672
2000-05-01T00:00:00Z,-35.6557,148.152,9.493257522583008
2000-06-01T00:00:00Z,-35.6557,148.152,6.271340370178223
2000-07-01T00:00:00Z,-35.6557,148.152,5.951694488525391
2000-08-01T00:00:00Z,-35.6557,148.152,6.739835262298584
2000-09-01T00:00:00Z,-35.6557,148.152,10.771121978759766
2000-10-01T00:00:00Z,-35.6557,148.152,12.751893043518066
2000-11-01T00:00:00Z,-35.6557,148.152,18.21272087097168
2000-12-01T00:00:00Z,-35.6557,148.152,21.997390747070312
2001-01-01T00:00:00Z,-35.6557,148.152,26.24517250061035
2001-02-01T00:00:00Z,-35.6557,148.152,24.305723190307617
2001-03-01T00:00:00Z,-35.6557,148.152,18.670169830322266
2001-04-01T00:00:00Z,-35.6557,148.152,16.105838775634766
2001-05-01T00:00:00Z,-35.6557,148.152,10.611679077148438
2001-06-01T00:00:00Z,-35.6557,148.152,8.495409965515137
2001-07-01T00:00:00Z,-35.6557,148.152,7.356057643890381
2001-08-01T00:00:00Z,-35.6557,148.152,6.886828422546387
2001-09-01T00:00:00Z,-35.6557,148.152,12.541755676269531
2001-10-01T00:00:00Z,-35.6557,148.152,11.64725399017334
2001-11-01T00:00:00Z,-35.6557,148.152,16.103416442871094
2001-12-01T00:00:00Z,-35.6557,148.152,19.741323471069336
2002-01-01T00:00:00Z,-35.6557,148.152,22.513914108276367
2002-02-01T00:00:00Z,-35.6557,148.152,19.64883804321289
2002-03-01T00:00:00Z,-35.6557,148.152,21.13658905029297
2002-04-01T00:00:00Z,-35.6557,148.152,17.521352767944336
2002-05-01T00:00:00Z,-35.6557,148.152,10.990313529968262
2002-06-01T00:00:00Z,-35.6557,148.152,7.485753536224365
2002-07-01T00:00:00Z,-35.6557,148.152,7.035068988800049
2002-08-01T00:00:00Z,-35.6557,148.152,8.717297554016113
2002-09-01T00:00:00Z,-35.6557,148.152,11.138014793395996
2002-10-01T00:00:00Z,-35.6557,148.152,15.09299087524414
2002-11-01T00:00:00Z,-35.6557,148.152,21.906322479248047
2002-12-01T00:00:00Z,-35.6557,148.152,23.011981964111328
2003-01-01T00:00:00Z,-35.6557,148.152,25.897159576416016
2003-02-01T00:00:00Z,-35.6557,148.152,25.39847755432129
2003-03-01T00:00:00Z,-35.6557,148.152,19.533353805541992
2003-04-01T00:00:00Z,-35.6557,148.152,15.40998363494873
2003-05-01T00:00:00Z,-35.6557,148.152,12.379740715026855
2003-06-01T00:00:00Z,-35.6557,148.152,7.260069370269775
2003-07-01T00:00:00Z,-35.6557,148.152,6.541684150695801
2003-08-01T00:00:00Z,-35.6557,148.152,6.571638584136963
2003-09-01T00:00:00Z,-35.6557,148.152,9.176300048828125
2003-10-01T00:00:00Z,-35.6557,148.152,11.326058387756348
2003-11-01T00:00:00Z,-35.6557,148.152,18.649494171142578
2003-12-01T00:00:00Z,-35.6557,148.152,22.436853408813477
2004-01-01T00:00:00Z,-35.6557,148.152,23.3183536529541
2004-02-01T00:00:00Z,-35.6557,148.152,25.82105255126953
2004-03-01T00:00:00Z,-35.6557,148.152,22.66213607788086
2004-04-01T00:00:00Z,-35.6557,148.152,17.238018035888672
2004-05-01T00:00:00Z,-35.6557,148.152,10.1391019821167
2004-06-01T00:00:00Z,-35.6557,148.152,6.42080020904541
2004-07-01T00:00:00Z,-35.6557,148.152,5.531912803649902
2004-08-01T00:00:00Z,-35.6557,148.152,7.228477478027344
2004-09-01T00:00:00Z,-35.6557,148.152,10.05046558380127
2004-10-01T00:00:00Z,-35.6557,148.152,14.792549133300781
2004-11-01T00:00:00Z,-35.6557,148.152,17.051883697509766
2004-12-01T00:00:00Z,-35.6557,148.152,20.31904411315918
2005-01-01T00:00:00Z,-35.6557,148.152,23.173879623413086
2005-02-01T00:00:00Z,-35.6557,148.152,20.668743133544922
2005-03-01T00:00:00Z,-35.6557,148.152,19.170215606689453
2005-04-01T00:00:00Z,-35.6557,148.152,18.88282585144043
2005-05-01T00:00:00Z,-35.6557,148.152,13.039169311523438
2005-06-01T00:00:00Z,-35.6557,148.152,8.920409202575684
2005-07-01T00:00:00Z,-35.6557,148.152,6.569254398345947
2005-08-01T00:00:00Z,-35.6557,148.152,7.946132659912109
2005-09-01T00:00:00Z,-35.6557,148.152,10.453874588012695
2005-10-01T00:00:00Z,-35.6557,148.152,14.532422065734863
2005-11-01T00:00:00Z,-35.6557,148.152,17.61326789855957
2005-12-01T00:00:00Z,-35.6557,148.152,21.47247886657715
2006-01-01T00:00:00Z,-35.6557,148.152,26.60831642150879
2006-02-01T00:00:00Z,-35.6557,148.152,25.538511276245117
2006-03-01T00:00:00Z,-35.6557,148.152,23.0490665435791
2006-04-01T00:00:00Z,-35.6557,148.152,12.909943580627441
2006-05-01T00:00:00Z,-35.6557,148.152,9.925137519836426
2006-06-01T00:00:00Z,-35.6557,148.152,7.309256076812744
2006-07-01T00:00:00Z,-35.6557,148.152,6.778785705566406
2006-08-01T00:00:00Z,-35.6557,148.152,9.14580249786377
2006-09-01T00:00:00Z,-35.6557,148.152,13.20131778717041
2006-10-01T00:00:00Z,-35.6557,148.152,18.32847023010254
2006-11-01T00:00:00Z,-35.6557,148.152,20.901535034179688
2006-12-01T00:00:00Z,-35.6557,148.152,22.846818923950195
2007-01-01T00:00:00Z,-35.6557,148.152,25.241579055786133
2007-02-01T00:00:00Z,-35.6557,148.152,24.968584060668945
2007-03-01T00:00:00Z,-35.6557,148.152,20.997880935668945
2007-04-01T00:00:00Z,-35.6557,148.152,16.9408016204834
2007-05-01T00:00:00Z,-35.6557,148.152,12.194538116455078
2007-06-01T00:00:00Z,-35.6557,148.152,6.708375453948975
2007-07-01T00:00:00Z,-35.6557,148.152,5.35752010345459
2007-08-01T00:00:00Z,-35.6557,148.152,8.993576049804688
2007-09-01T00:00:00Z,-35.6557,148.152,11.224214553833008
2007-10-01T00:00:00Z,-35.6557,148.152,16.431901931762695
2007-11-01T00:00:00Z,-35.6557,148.152,19.89298439025879
2007-12-01T00:00:00Z,-35.6557,148.152,20.430824279785156
2008-01-01T00:00:00Z,-35.6557,148.152,24.49989128112793
2008-02-01T00:00:00Z,-35.6557,148.152,19.954545974731445
2008-03-01T00:00:00Z,-35.6557,148.152,21.145206451416016
2008-04-01T00:00:00Z,-35.6557,148.152,14.286734580993652
2008-05-01T00:00:00Z,-35.6557,148.152,11.183557510375977
2008-06-01T00:00:00Z,-35.6557,148.152,9.175230979919434
2008-07-01T00:00:00Z,-35.6557,148.152,5.629137992858887
2008-08-01T00:00:00Z,-35.6557,148.152,5.715158939361572
2008-09-01T00:00:00Z,-35.6557,148.152,11.867837905883789
2008-10-01T00:00:00Z,-35.6557,148.152,17.196359634399414
2008-11-01T00:00:00Z,-35.6557,148.152,17.373632431030273
2008-12-01T00:00:00Z,-35.6557,148.152,18.950658798217773
2009-01-01T00:00:00Z,-35.6557,148.152,26.275724411010742
2009-02-01T00:00:00Z,-35.6557,148.152,24.80236053466797
2009-03-01T00:00:00Z,-35.6557,148.152,21.5267391204834
2009-04-01T00:00:00Z,-35.6557,148.152,14.295544624328613
2009-05-01T00:00:00Z,-35.6557,148.152,11.29904556274414
2009-06-01T00:00:00Z,-35.6557,148.152,7.285240173339844
2009-07-01T00:00:00Z,-35.6557,148.152,5.811712741851807
2009-08-01T00:00:00Z,-35.6557,148.152,7.732860565185547
2009-09-01T00:00:00Z,-35.6557,148.152,11.396383285522461
2009-10-01T00:00:00Z,-35.6557,148.152,13.551664352416992
2009-11-01T00:00:00Z,-35.6557,148.152,23.165790557861328
2009-12-01T00:00:00Z,-35.6557,148.152,23.006183624267578
2010-01-01T00:00:00Z,-35.6557,148.152,25.997676849365234
2010-02-01T00:00:00Z,-35.6557,148.152,22.443313598632812
2010-03-01T00:00:00Z,-35.6557,148.152,20.03036880493164
2010-04-01T00:00:00Z,-35.6557,148.152,15.742892265319824
2010-05-01T00:00:00Z,-35.6557,148.152,11.038918495178223
2010-06-01T00:00:00Z,-35.6557,148.152,7.2157673835754395
2010-07-01T00:00:00Z,-35.6557,148.152,7.023664951324463
2010-08-01T00:00:00Z,-35.6557,148.152,5.544375896453857
2010-09-01T00:00:00Z,-35.6557,148.152,10.4077730178833
2010-10-01T00:00:00Z,-35.6557,148.152,14.38110637664795
2010-11-01T00:00:00Z,-35.6557,148.152,17.269397735595703
2010-12-01T00:00:00Z,-35.6557,148.152,19.081754684448242
2011-01-01T00:00:00Z,-35.6557,148.152,24.418149948120117
2011-02-01T00:00:00Z,-35.6557,148.152,21.440763473510742
2011-03-01T00:00:00Z,-35.6557,148.152,18.48261260986328
2011-04-01T00:00:00Z,-35.6557,148.152,14.091558456420898
2011-05-01T00:00:00Z,-35.6557,148.152,9.975059509277344
2011-06-01T00:00:00Z,-35.6557,148.152,7.19059419631958
2011-07-01T00:00:00Z,-35.6557,148.152,5.955685138702393
2011-08-01T00:00:00Z,-35.6557,148.152,9.945401191711426
2011-09-01T00:00:00Z,-35.6557,148.152,11.376703262329102
2011-10-01T00:00:00Z,-35.6557,148.152,14.787067413330078
2011-11-01T00:00:00Z,-35.6557,148.152,18.997699737548828
2011-12-01T00:00:00Z,-35.6557,148.152,19.33098793029785
2012-01-01T00:00:00Z,-35.6557,148.152,22.50373077392578
2012-02-01T00:00:00Z,-35.6557,148.152,20.515745162963867
2012-03-01T00:00:00Z,-35.6557,148.152,17.502653121948242
2012-04-01T00:00:00Z,-35.6557,148.152,15.393828392028809
2012-05-01T00:00:00Z,-35.6557,148.152,10.2100830078125
2012-06-01T00:00:00Z,-35.6557,148.152,7.117395877838135
2012-07-01T00:00:00Z,-35.6557,148.152,6.762713432312012
2012-08-01T00:00:00Z,-35.6557,148.152,6.356083869934082
2012-09-01T00:00:00Z,-35.6557,148.152,11.407519340515137
2012-10-01T00:00:00Z,-35.6557,148.152,15.385539054870605
2012-11-01T00:00:00Z,-35.6557,148.152,19.976152420043945
2012-12-01T00:00:00Z,-35.6557,148.152,21.452741622924805
