time,latitude[unit="degrees_north"],longitude[unit="degrees_east"],air_temperature[unit="C"]
1970-01-01T00:00:00Z,-16.11,145.45,30.33880043029785
1970-02-01T00:00:00Z,-16.11,145.45,28.977209091186523
1970-03-01T00:00:00Z,-16.11,145.45,28.07567024230957
1970-04-01T00:00:00Z,-16.11,145.45,26.955825805664062
1970-05-01T00:00:00Z,-16.11,145.45,24.849590301513672
1970-06-01T00:00:00Z,-16.11,145.45,23.63607406616211
1970-07-01T00:00:00Z,-16.11,145.45,22.662389755249023
1970-08-01T00:00:00Z,-16.11,145.45,23.82537078857422
1970-09-01T00:00:00Z,-16.11,145.45,26.420019149780273
1970-10-01T00:00:00Z,-16.11,145.45,27.627967834472656
1970-11-01T00:00:00Z,-16.11,145.45,28.800521850585938
1970-12-01T00:00:00Z,-16.11,145.45,29.40376091003418
1971-01-01T00:00:00Z,-16.11,145.45,30.498353958129883
1971-02-01T00:00:00Z,-16.11,145.45,29.058225631713867
1971-03-01T00:00:00Z,-16.11,145.45,26.70163345336914
1971-04-01T00:00:00Z,-16.11,145.45,24.90345001220703
1971-05-01T00:00:00Z,-16.11,145.45,24.88423728942871
1971-06-01T00:00:00Z,-16.11,145.45,22.54426383972168
1971-07-01T00:00:00Z,-16.11,145.45,22.197376251220703
1971-08-01T00:00:00Z,-16.11,145.45,25.229127883911133
1971-09-01T00:00:00Z,-16.11,145.45,26.703392028808594
1971-10-01T00:00:00Z,-16.11,145.45,29.302343368530273
1971-11-01T00:00:00Z,-16.11,145.45,30.720842361450195
1971-12-01T00:00:00Z,-16.11,145.45,30.368518829345703
1972-01-01T00:00:00Z,-16.11,145.45,30.097766876220703
1972-02-01T00:00:00Z,-16.11,145.45,27.926687240600586
1972-03-01T00:00:00Z,-16.11,145.45,26.898393630981445
1972-04-01T00:00:00Z,-16.11,145.45,25.558815002441406
1972-05-01T00:00:00Z,-16.11,145.45,23.1176700592041
1972-06-01T00:00:00Z,-16.11,145.45,22.110820770263672
1972-07-01T00:00:00Z,-16.11,145.45,22.541486740112305
1972-08-01T00:00:00Z,-16.11,145.45,24.412864685058594
1972-09-01T00:00:00Z,-16.11,145.45,24.002897262573242
1972-10-01T00:00:00Z,-16.11,145.45,27.73736000061035
1972-11-01T00:00:00Z,-16.11,145.45,29.268917083740234
1972-12-01T00:00:00Z,-16.11,145.45,29.121013641357422
1973-01-01T00:00:00Z,-16.11,145.45,30.79640769958496
1973-02-01T00:00:00Z,-16.11,145.45,29.79143714904785
1973-03-01T00:00:00Z,-16.11,145.45,27.68942642211914
1973-04-01T00:00:00Z,-16.11,145.45,25.987335205078125
1973-05-01T00:00:00Z,-16.11,145.45,25.43872833251953
1973-06-01T00:00:00Z,-16.11,145.45,25.016780853271484
1973-07-01T00:00:00Z,-16.11,145.45,23.935588836669922
1973-08-01T00:00:00Z,-16.11,145.45,25.090803146362305
1973-09-01T00:00:00Z,-16.11,145.45,25.68547248840332
1973-10-01T00:00:00Z,-16.11,145.45,27.65833282470703
1973-11-01T00:00:00Z,-16.11,145.45,28.304731369018555
1973-12-01T00:00:00Z,-16.11,145.45,28.183507919311523
1974-01-01T00:00:00Z,-16.11,145.45,28.465848922729492
1974-02-01T00:00:00Z,-16.11,145.45,28.066144943237305
1974-03-01T00:00:00Z,-16.11,145.45,27.411544799804688
1974-04-01T00:00:00Z,-16.11,145.45,26.944631576538086
1974-05-01T00:00:00Z,-16.11,145.45,24.536991119384766
1974-06-01T00:00:00Z,-16.11,145.45,23.083890914916992
1974-07-01T00:00:00Z,-16.11,145.45,23.261245727539062
1974-08-01T00:00:00Z,-16.11,145.45,24.952529907226562
1974-09-01T00:00:00Z,-16.11,145.45,25.824316024780273
1974-10-01T00:00:00Z,-16.11,145.45,27.66088104248047
1974-11-01T00:00:00Z,-16.11,145.45,29.50460433959961
1974-12-01T00:00:00Z,-16.11,145.45,29.830781936645508
1975-01-01T00:00:00Z,-16.11,145.45,29.307464599609375
1975-02-01T00:00:00Z,-16.11,145.45,27.5738582611084
1975-03-01T00:00:00Z,-16.11,145.45,27.950281143188477
1975-04-01T00:00:00Z,-16.11,145.45,26.457515716552734
1975-05-01T00:00:00Z,-16.11,145.45,24.447477340698242
1975-06-01T00:00:00Z,-16.11,145.45,22.90174102783203
1975-07-01T00:00:00Z,-16.11,145.45,24.1619815826416
1975-08-01T00:00:00Z,-16.11,145.45,24.187484741210938
1975-09-01T00:00:00Z,-16.11,145.45,25.05004119873047
1975-10-01T00:00:00Z,-16.11,145.45,27.394895553588867
1975-11-01T00:00:00Z,-16.11,145.45,29.177143096923828
1975-12-01T00:00:00Z,-16.11,145.45,27.71820068359375
1976-01-01T00:00:00Z,-16.11,145.45,28.686851501464844
1976-02-01T00:00:00Z,-16.11,145.45,28.17070770263672
1976-03-01T00:00:00Z,-16.11,145.45,28.31348419189453
1976-04-01T00:00:00Z,-16.11,145.45,25.386362075805664
1976-05-01T00:00:00Z,-16.11,145.45,24.05394172668457
1976-06-01T00:00:00Z,-16.11,145.45,22.742036819458008
1976-07-01T00:00:00Z,-16.11,145.45,22.231882095336914
1976-08-01T00:00:00Z,-16.11,145.45,23.287755966186523
1976-09-01T00:00:00Z,-16.11,145.45,25.997642517089844
1976-10-01T00:00:00Z,-16.11,145.45,28.364517211914062
1976-11-01T00:00:00Z,-16.11,145.45,30.402376174926758
1976-12-01T00:00:00Z,-16.11,145.45,29.92493438720703
1977-01-01T00:00:00Z,-16.11,145.45,28.7930965423584
1977-02-01T00:00:00Z,-16.11,145.45,28.26542091369629
1977-03-01T00:00:00Z,-16.11,145.45,28.168413162231445
1977-04-01T00:00:00Z,-16.11,145.45,25.836688995361328
1977-05-01T00:00:00Z,-16.11,145.45,24.782621383666992
1977-06-01T00:00:00Z,-16.11,145.45,22.114652633666992
1977-07-01T00:00:00Z,-16.11,145.45,21.718151092529297
1977-08-01T00:00:00Z,-16.11,145.45,23.088348388671875
1977-09-01T00:00:00Z,-16.11,145.45,24.968631744384766
1977-10-01T00:00:00Z,-16.11,145.45,26.494380950927734
1977-11-01T00:00:00Z,-16.11,145.45,28.91378402709961
1977-12-01T00:00:00Z,-16.11,145.45,29.395132064819336
1978-01-01T00:00:00Z,-16.11,145.45,28.95078468322754
1978-02-01T00:00:00Z,-16.11,145.45,29.187902450561523
1978-03-01T00:00:00Z,-16.11,145.45,28.841293334960938
1978-04-01T00:00:00Z,-16.11,145.45,26.99966049194336
1978-05-01T00:00:00Z,-16.11,145.45,24.6416015625
1978-06-01T00:00:00Z,-16.11,145.45,24.24197769165039
1978-07-01T00:00:00Z,-16.11,145.45,23.77913475036621
1978-08-01T00:00:00Z,-16.11,145.45,23.8306884765625
1978-09-01T00:00:00Z,-16.11,145.45,26.0086727142334
1978-10-01T00:00:00Z,-16.11,145.45,26.22784423828125
1978-11-01T00:00:00Z,-16.11,145.45,28.153175354003906
1978-12-01T00:00:00Z,-16.11,145.45,29.441675186157227
1979-01-01T00:00:00Z,-16.11,145.45,27.710128784179688
1979-02-01T00:00:00Z,-16.11,145.45,28.128406524658203
1979-03-01T00:00:00Z,-16.11,145.45,28.37950325012207
1979-04-01T00:00:00Z,-16.11,145.45,25.800321578979492
1979-05-01T00:00:00Z,-16.11,145.45,24.884017944335938
1979-06-01T00:00:00Z,-16.11,145.45,23.15924835205078
1979-07-01T00:00:00Z,-16.11,145.45,22.12771987915039
1979-08-01T00:00:00Z,-16.11,145.45,24.029735565185547
1979-09-01T00:00:00Z,-16.11,145.45,25.601001739501953
1979-10-01T00:00:00Z,-16.11,145.45,28.13810920715332
1979-11-01T00:00:00Z,-16.11,145.45,29.033065795898438
1979-12-01T00:00:00Z,-16.11,145.45,30.69988441467285
1980-01-01T00:00:00Z,-16.11,145.45,30.586238861083984
1980-02-01T00:00:00Z,-16.11,145.45,30.065114974975586
1980-03-01T00:00:00Z,-16.11,145.45,27.87639617919922
1980-04-01T00:00:00Z,-16.11,145.45,26.82042121887207
1980-05-01T00:00:00Z,-16.11,145.45,25.241762161254883
1980-06-01T00:00:00Z,-16.11,145.45,24.172460556030273
1980-07-01T00:00:00Z,-16.11,145.45,23.504310607910156
1980-08-01T00:00:00Z,-16.11,145.45,23.09007453918457
1980-09-01T00:00:00Z,-16.11,145.45,25.7439022064209
1980-10-01T00:00:00Z,-16.11,145.45,27.86493492126465
1980-11-01T00:00:00Z,-16.11,145.45,29.200023651123047
1980-12-01T00:00:00Z,-16.11,145.45,29.394367218017578
1981-01-01T00:00:00Z,-16.11,145.45,27.629064559936523
1981-02-01T00:00:00Z,-16.11,145.45,29.9694881439209
1981-03-01T00:00:00Z,-16.11,145.45,29.034639358520508
1981-04-01T00:00:00Z,-16.11,145.45,27.509374618530273
1981-05-01T00:00:00Z,-16.11,145.45,24.645734786987305
1981-06-01T00:00:00Z,-16.11,145.45,24.298309326171875
1981-07-01T00:00:00Z,-16.11,145.45,23.5989990234375
1981-08-01T00:00:00Z,-16.11,145.45,25.780942916870117
1981-09-01T00:00:00Z,-16.11,145.45,25.16481590270996
1981-10-01T00:00:00Z,-16.11,145.45,26.799983978271484
1981-11-01T00:00:00Z,-16.11,145.45,29.535266876220703
1981-12-01T00:00:00Z,-16.11,145.45,30.18170928955078
1982-01-01T00:00:00Z,-16.11,145.45,30.194252014160156
1982-02-01T00:00:00Z,-16.11,145.45,29.50112533569336
1982-03-01T00:00:00Z,-16.11,145.45,28.54867172241211
1982-04-01T00:00:00Z,-16.11,145.45,25.768526077270508
1982-05-01T00:00:00Z,-16.11,145.45,24.788124084472656
1982-06-01T00:00:00Z,-16.11,145.45,22.486297607421875
1982-07-01T00:00:00Z,-16.11,145.45,22.4207706451416
1982-08-01T00:00:00Z,-16.11,145.45,21.736181259155273
1982-09-01T00:00:00Z,-16.11,145.45,24.953474044799805
1982-10-01T00:00:00Z,-16.11,145.45,27.057661056518555
1982-11-01T00:00:00Z,-16.11,145.45,28.33907699584961
1982-12-01T00:00:00Z,-16.11,145.45,30.173038482666016
1983-01-01T00:00:00Z,-16.11,145.45,30.92131805419922
1983-02-01T00:00:00Z,-16.11,145.45,30.780431747436523
1983-03-01T00:00:00Z,-16.11,145.45,28.420726776123047
1983-04-01T00:00:00Z,-16.11,145.45,27.675369262695312
1983-05-01T00:00:00Z,-16.11,145.45,25.394222259521484
1983-06-01T00:00:00Z,-16.11,145.45,23.35402488708496
1983-07-01T00:00:00Z,-16.11,145.45,22.698627471923828
1983-08-01T00:00:00Z,-16.11,145.45,23.345993041992188
1983-09-01T00:00:00Z,-16.11,145.45,26.42940902709961
1983-10-01T00:00:00Z,-16.11,145.45,28.421287536621094
1983-11-01T00:00:00Z,-16.11,145.45,29.327634811401367
1983-12-01T00:00:00Z,-16.11,145.45,28.25599479675293
1984-01-01T00:00:00Z,-16.11,145.45,29.437917709350586
1984-02-01T00:00:00Z,-16.11,145.45,27.483034133911133
1984-03-01T00:00:00Z,-16.11,145.45,27.864839553833008
1984-04-01T00:00:00Z,-16.11,145.45,26.951406478881836
1984-05-01T00:00:00Z,-16.11,145.45,25.017681121826172
1984-06-01T00:00:00Z,-16.11,145.45,23.015321731567383
1984-07-01T00:00:00Z,-16.11,145.45,23.04228973388672
1984-08-01T00:00:00Z,-16.11,145.45,24.62470817565918
1984-09-01T00:00:00Z,-16.11,145.45,26.975013732910156
1984-10-01T00:00:00Z,-16.11,145.45,27.47080421447754
1984-11-01T00:00:00Z,-16.11,145.45,29.056516647338867
1984-12-01T00:00:00Z,-16.11,145.45,30.32120704650879
1985-01-01T00:00:00Z,-16.11,145.45,29.904945373535156
1985-02-01T00:00:00Z,-16.11,145.45,28.53751564025879
1985-03-01T00:00:00Z,-16.11,145.45,27.506654739379883
1985-04-01T00:00:00Z,-16.11,145.45,27.186630249023438
1985-05-01T00:00:00Z,-16.11,145.45,24.158010482788086
1985-06-01T00:00:00Z,-16.11,145.45,22.75863265991211
1985-07-01T00:00:00Z,-16.11,145.45,22.020544052124023
1985-08-01T00:00:00Z,-16.11,145.45,24.624666213989258
1985-09-01T00:00:00Z,-16.11,145.45,25.671802520751953
1985-10-01T00:00:00Z,-16.11,145.45,27.71207618713379
1985-11-01T00:00:00Z,-16.11,145.45,29.530927658081055
1985-12-01T00:00:00Z,-16.11,145.45,30.92598533630371
1986-01-01T00:00:00Z,-16.11,145.45,29.240367889404297
1986-02-01T00:00:00Z,-16.11,145.45,29.892581939697266
1986-03-01T00:00:00Z,-16.11,145.45,27.877714157104492
1986-04-01T00:00:00Z,-16.11,145.45,26.269336700439453
1986-05-01T00:00:00Z,-16.11,145.45,25.683359146118164
1986-06-01T00:00:00Z,-16.11,145.45,24.159982681274414
1986-07-01T00:00:00Z,-16.11,145.45,24.645009994506836
1986-08-01T00:00:00Z,-16.11,145.45,24.920955657958984
1986-09-01T00:00:00Z,-16.11,145.45,26.860143661499023
1986-10-01T00:00:00Z,-16.11,145.45,28.724403381347656
1986-11-01T00:00:00Z,-16.11,145.45,29.25755500793457
1986-12-01T00:00:00Z,-16.11,145.45,30.419292449951172
1987-01-01T00:00:00Z,-16.11,145.45,31.148792266845703
1987-02-01T00:00:00Z,-16.11,145.45,28.8311824798584
1987-03-01T00:00:00Z,-16.11,145.45,28.552213668823242
1987-04-01T00:00:00Z,-16.11,145.45,26.69106674194336
1987-05-01T00:00:00Z,-16.11,145.45,25.49758529663086
1987-06-01T00:00:00Z,-16.11,145.45,24.117088317871094
1987-07-01T00:00:00Z,-16.11,145.45,22.961589813232422
1987-08-01T00:00:00Z,-16.11,145.45,24.61845588684082
1987-09-01T00:00:00Z,-16.11,145.45,25.163875579833984
1987-10-01T00:00:00Z,-16.11,145.45,29.042360305786133
1987-11-01T00:00:00Z,-16.11,145.45,29.825870513916016
1987-12-01T00:00:00Z,-16.11,145.45,29.828216552734375
1988-01-01T00:00:00Z,-16.11,145.45,30.11245346069336
1988-02-01T00:00:00Z,-16.11,145.45,29.527687072753906
1988-03-01T00:00:00Z,-16.11,145.45,27.86747169494629
1988-04-01T00:00:00Z,-16.11,145.45,27.99256706237793
1988-05-01T00:00:00Z,-16.11,145.45,26.112653732299805
1988-06-01T00:00:00Z,-16.11,145.45,23.992338180541992
1988-07-01T00:00:00Z,-16.11,145.45,23.74329376220703
1988-08-01T00:00:00Z,-16.11,145.45,24.192514419555664
1988-09-01T00:00:00Z,-16.11,145.45,26.3671875
1988-10-01T00:00:00Z,-16.11,145.45,28.95527458190918
1988-11-01T00:00:00Z,-16.11,145.45,29.26067352294922
1988-12-01T00:00:00Z,-16.11,145.45,29.262123107910156
1989-01-01T00:00:00Z,-16.11,145.45,29.276348114013672
1989-02-01T00:00:00Z,-16.11,145.45,29.300312042236328
1989-03-01T00:00:00Z,-16.11,145.45,27.46694564819336
1989-04-01T00:00:00Z,-16.11,145.45,26.92577362060547
1989-05-01T00:00:00Z,-16.11,145.45,25.53697967529297
1989-06-01T00:00:00Z,-16.11,145.45,22.915246963500977
1989-07-01T00:00:00Z,-16.11,145.45,23.437715530395508
1989-08-01T00:00:00Z,-16.11,145.45,23.84740447998047
1989-09-01T00:00:00Z,-16.11,145.45,26.51426124572754
1989-10-01T00:00:00Z,-16.11,145.45,28.764434814453125
1989-11-01T00:00:00Z,-16.11,145.45,28.80928611755371
1989-12-01T00:00:00Z,-16.11,145.45,29.11449432373047
1990-01-01T00:00:00Z,-16.11,145.45,30.016313552856445
1990-02-01T00:00:00Z,-16.11,145.45,31.98947525024414
1990-03-01T00:00:00Z,-16.11,145.45,28.45429229736328
1990-04-01T00:00:00Z,-16.11,145.45,27.349544525146484
1990-05-01T00:00:00Z,-16.11,145.45,25.00065040588379
1990-06-01T00:00:00Z,-16.11,145.45,23.186017990112305
1990-07-01T00:00:00Z,-16.11,145.45,23.1345157623291
1990-08-01T00:00:00Z,-16.11,145.45,24.719621658325195
1990-09-01T00:00:00Z,-16.11,145.45,24.58730125427246
1990-10-01T00:00:00Z,-16.11,145.45,27.76805877685547
1990-11-01T00:00:00Z,-16.11,145.45,29.76386260986328
1990-12-01T00:00:00Z,-16.11,145.45,30.204267501831055
1991-01-01T00:00:00Z,-16.11,145.45,28.9400577545166
1991-02-01T00:00:00Z,-16.11,145.45,28.45573616027832
1991-03-01T00:00:00Z,-16.11,145.45,28.087480545043945
1991-04-01T00:00:00Z,-16.11,145.45,26.236648559570312
1991-05-01T00:00:00Z,-16.11,145.45,24.33277130126953
1991-06-01T00:00:00Z,-16.11,145.45,24.407888412475586
1991-07-01T00:00:00Z,-16.11,145.45,23.34254264831543
1991-08-01T00:00:00Z,-16.11,145.45,24.174131393432617
1991-09-01T00:00:00Z,-16.11,145.45,26.447998046875
1991-10-01T00:00:00Z,-16.11,145.45,27.956357955932617
1991-11-01T00:00:00Z,-16.11,145.45,29.107534408569336
1991-12-01T00:00:00Z,-16.11,145.45,30.795862197875977
1992-01-01T00:00:00Z,-16.11,145.45,30.991512298583984
1992-02-01T00:00:00Z,-16.11,145.45,30.314605712890625
1992-03-01T00:00:00Z,-16.11,145.45,29.35784339904785
1992-04-01T00:00:00Z,-16.11,145.45,26.489551544189453
1992-05-01T00:00:00Z,-16.11,145.45,25.839780807495117
1992-06-01T00:00:00Z,-16.11,145.45,24.10129737854004
1992-07-01T00:00:00Z,-16.11,145.45,22.861827850341797
1992-08-01T00:00:00Z,-16.11,145.45,25.237548828125
1992-09-01T00:00:00Z,-16.11,145.45,27.749765396118164
1992-10-01T00:00:00Z,-16.11,145.45,27.2828311920166
1992-11-01T00:00:00Z,-16.11,145.45,30.235774993896484
1992-12-01T00:00:00Z,-16.11,145.45,29.093460083007812
1993-01-01T00:00:00Z,-16.11,145.45,28.187583923339844
1993-02-01T00:00:00Z,-16.11,145.45,28.171598434448242
1993-03-01T00:00:00Z,-16.11,145.45,29.497953414916992
1993-04-01T00:00:00Z,-16.11,145.45,26.429399490356445
1993-05-01T00:00:00Z,-16.11,145.45,24.635665893554688
1993-06-01T00:00:00Z,-16.11,145.45,23.487350463867188
1993-07-01T00:00:00Z,-16.11,145.45,23.3677921295166
1993-08-01T00:00:00Z,-16.11,145.45,23.546728134155273
1993-09-01T00:00:00Z,-16.11,145.45,25.647619247436523
1993-10-01T00:00:00Z,-16.11,145.45,27.624120712280273
1993-11-01T00:00:00Z,-16.11,145.45,29.346542358398438
1993-12-01T00:00:00Z,-16.11,145.45,29.048137664794922
1994-01-01T00:00:00Z,-16.11,145.45,31.259719848632812
1994-02-01T00:00:00Z,-16.11,145.45,28.850502014160156
1994-03-01T00:00:00Z,-16.11,145.45,28.009077072143555
1994-04-01T00:00:00Z,-16.11,145.45,25.861244201660156
1994-05-01T00:00:00Z,-16.11,145.45,24.18175506591797
1994-06-01T00:00:00Z,-16.11,145.45,23.53571319580078
1994-07-01T00:00:00Z,-16.11,145.45,21.96299934387207
1994-08-01T00:00:00Z,-16.11,145.45,22.556232452392578
1994-09-01T00:00:00Z,-16.11,145.45,25.277231216430664
1994-10-01T00:00:00Z,-16.11,145.45,27.86130142211914
1994-11-01T00:00:00Z,-16.11,145.45,29.75020408630371
1994-12-01T00:00:00Z,-16.11,145.45,29.768775939941406
1995-01-01T00:00:00Z,-16.11,145.45,30.715553283691406
1995-02-01T00:00:00Z,-16.11,145.45,29.282670974731445
1995-03-01T00:00:00Z,-16.11,145.45,27.576278686523438
1995-04-01T00:00:00Z,-16.11,145.45,27.527223587036133
1995-05-01T00:00:00Z,-16.11,145.45,25.019195556640625
1995-06-01T00:00:00Z,-16.11,145.45,23.35820770263672
1995-07-01T00:00:00Z,-16.11,145.45,23.93798828125
1995-08-01T00:00:00Z,-16.11,145.45,22.277299880981445
1995-09-01T00:00:00Z,-16.11,145.45,25.93869972229004
1995-10-01T00:00:00Z,-16.11,145.45,27.673246383666992
1995-11-01T00:00:00Z,-16.11,145.45,29.976152420043945
1995-12-01T00:00:00Z,-16.11,145.45,30.972434997558594
1996-01-01T00:00:00Z,-16.11,145.45,29.74057388305664
1996-02-01T00:00:00Z,-16.11,145.45,28.903352737426758
1996-03-01T00:00:00Z,-16.11,145.45,27.123281478881836
1996-04-01T00:00:00Z,-16.11,145.45,27.76636505126953
1996-05-01T00:00:00Z,-16.11,145.45,25.52162742614746
1996-06-01T00:00:00Z,-16.11,145.45,24.39807891845703
1996-07-01T00:00:00Z,-16.11,145.45,23.500701904296875
1996-08-01T00:00:00Z,-16.11,145.45,24.365236282348633
1996-09-01T00:00:00Z,-16.11,145.45,26.295637130737305
1996-10-01T00:00:00Z,-16.11,145.45,26.825429916381836
1996-11-01T00:00:00Z,-16.11,145.45,29.245136260986328
1996-12-01T00:00:00Z,-16.11,145.45,29.60269546508789
1997-01-01T00:00:00Z,-16.11,145.45,28.648588180541992
1997-02-01T00:00:00Z,-16.11,145.45,29.057769775390625
1997-03-01T00:00:00Z,-16.11,145.45,27.411243438720703
1997-04-01T00:00:00Z,-16.11,145.45,25.511377334594727
1997-05-01T00:00:00Z,-16.11,145.45,24.641326904296875
1997-06-01T00:00:00Z,-16.11,145.45,22.396455764770508
1997-07-01T00:00:00Z,-16.11,145.45,22.203140258789062
1997-08-01T00:00:00Z,-16.11,145.45,23.34300422668457
1997-09-01T00:00:00Z,-16.11,145.45,26.274669647216797
1997-10-01T00:00:00Z,-16.11,145.45,27.21340560913086
1997-11-01T00:00:00Z,-16.11,145.45,28.970529556274414
1997-12-01T00:00:00Z,-16.11,145.45,29.486440658569336
1998-01-01T00:00:00Z,-16.11,145.45,29.329971313476562
1998-02-01T00:00:00Z,-16.11,145.45,29.623586654663086
1998-03-01T00:00:00Z,-16.11,145.45,27.84839630126953
1998-04-01T00:00:00Z,-16.11,145.45,27.631271362304688
1998-05-01T00:00:00Z,-16.11,145.45,25.478185653686523
1998-06-01T00:00:00Z,-16.11,145.45,24.189292907714844
1998-07-01T00:00:00Z,-16.11,145.45,23.754985809326172
1998-08-01T00:00:00Z,-16.11,145.45,25.13398551940918
1998-09-01T00:00:00Z,-16.11,145.45,26.733470916748047
1998-10-01T00:00:00Z,-16.11,145.45,29.095375061035156
1998-11-01T00:00:00Z,-16.11,145.45,28.892072677612305
1998-12-01T00:00:00Z,-16.11,145.45,29.213783264160156
1999-01-01T00:00:00Z,-16.11,145.45,29.515562057495117
1999-02-01T00:00:00Z,-16.11,145.45,28.874601364135742
1999-03-01T00:00:00Z,-16.11,145.45,27.377948760986328
1999-04-01T00:00:00Z,-16.11,145.45,25.884239196777344
1999-05-01T00:00:00Z,-16.11,145.45,24.729005813598633
1999-06-01T00:00:00Z,-16.11,145.45,23.64302635192871
1999-07-01T00:00:00Z,-16.11,145.45,22.802490234375
1999-08-01T00:00:00Z,-16.11,145.45,23.04313087463379
1999-09-01T00:00:00Z,-16.11,145.45,25.387365341186523
1999-10-01T00:00:00Z,-16.11,145.45,27.748119354248047
1999-11-01T00:00:00Z,-16.11,145.45,27.548267364501953
1999-12-01T00:00:00Z,-16.11,145.45,27.625972747802734
2000-01-01T00:00:00Z,-16.11,145.45,29.10697364807129
2000-02-01T00:00:00Z,-16.11,145.45,27.976638793945312
2000-03-01T00:00:00Z,-16.11,145.45,27.3999080657959
2000-04-01T00:00:00Z,-16.11,145.45,26.269311904907227
2000-05-01T00:00:00Z,-16.11,145.45,24.668474197387695
2000-06-01T00:00:00Z,-16.11,145.45,21.470163345336914
2000-07-01T00:00:00Z,-16.11,145.45,22.600812911987305
2000-08-01T00:00:00Z,-16.11,145.45,24.218904495239258
2000-09-01T00:00:00Z,-16.11,145.45,26.503740310668945
2000-10-01T00:00:00Z,-16.11,145.45,27.61482810974121
2000-11-01T00:00:00Z,-16.11,145.45,29.015705108642578
2000-12-01T00:00:00Z,-16.11,145.45,26.964828491210938
2001-01-01T00:00:00Z,-16.11,145.45,28.752037048339844
2001-02-01T00:00:00Z,-16.11,145.45,27.335180282592773
2001-03-01T00:00:00Z,-16.11,145.45,28.409526824951172
2001-04-01T00:00:00Z,-16.11,145.45,26.383569717407227
2001-05-01T00:00:00Z,-16.11,145.45,25.483375549316406
2001-06-01T00:00:00Z,-16.11,145.45,23.672197341918945
2001-07-01T00:00:00Z,-16.11,145.45,23.740718841552734
2001-08-01T00:00:00Z,-16.11,145.45,24.42481803894043
2001-09-01T00:00:00Z,-16.11,145.45,26.510395050048828
2001-10-01T00:00:00Z,-16.11,145.45,28.366365432739258
2001-11-01T00:00:00Z,-16.11,145.45,30.060176849365234
2001-12-01T00:00:00Z,-16.11,145.45,31.4263916015625
2002-01-01T00:00:00Z,-16.11,145.45,30.886682510375977
2002-02-01T00:00:00Z,-16.11,145.45,30.6912784576416
2002-03-01T00:00:00Z,-16.11,145.45,28.649911880493164
2002-04-01T00:00:00Z,-16.11,145.45,27.35792350769043
2002-05-01T00:00:00Z,-16.11,145.45,26.067766189575195
2002-06-01T00:00:00Z,-16.11,145.45,24.274734497070312
2002-07-01T00:00:00Z,-16.11,145.45,23.224193572998047
2002-08-01T00:00:00Z,-16.11,145.45,24.0562744140625
2002-09-01T00:00:00Z,-16.11,145.45,26.604888916015625
2002-10-01T00:00:00Z,-16.11,145.45,28.90169906616211
2002-11-01T00:00:00Z,-16.11,145.45,29.41748809814453
2002-12-01T00:00:00Z,-16.11,145.45,30.678794860839844
2003-01-01T00:00:00Z,-16.11,145.45,29.39468765258789
2003-02-01T00:00:00Z,-16.11,145.45,30.5415096282959
2003-03-01T00:00:00Z,-16.11,145.45,28.03037452697754
2003-04-01T00:00:00Z,-16.11,145.45,27.538734436035156
2003-05-01T00:00:00Z,-16.11,145.45,25.34421157836914
2003-06-01T00:00:00Z,-16.11,145.45,24.35489273071289
2003-07-01T00:00:00Z,-16.11,145.45,23.13373374938965
2003-08-01T00:00:00Z,-16.11,145.45,24.469890594482422
2003-09-01T00:00:00Z,-16.11,145.45,26.42891502380371
2003-10-01T00:00:00Z,-16.11,145.45,29.05528450012207
2003-11-01T00:00:00Z,-16.11,145.45,29.22306251525879
2003-12-01T00:00:00Z,-16.11,145.45,30.470121383666992
2004-01-01T00:00:00Z,-16.11,145.45,30.1861629486084
2004-02-01T00:00:00Z,-16.11,145.45,29.50099754333496
2004-03-01T00:00:00Z,-16.11,145.45,27.85784912109375
2004-04-01T00:00:00Z,-16.11,145.45,25.804454803466797
2004-05-01T00:00:00Z,-16.11,145.45,24.875701904296875
2004-06-01T00:00:00Z,-16.11,145.45,22.80991554260254
2004-07-01T00:00:00Z,-16.11,145.45,22.897235870361328
2004-08-01T00:00:00Z,-16.11,145.45,24.381261825561523
2004-09-01T00:00:00Z,-16.11,145.45,25.416112899780273
2004-10-01T00:00:00Z,-16.11,145.45,28.09724235534668
2004-11-01T00:00:00Z,-16.11,145.45,29.26203155517578
2004-12-01T00:00:00Z,-16.11,145.45,29.5805721282959
2005-01-01T00:00:00Z,-16.11,145.45,28.95053482055664
2005-02-01T00:00:00Z,-16.11,145.45,30.029037475585938
2005-03-01T00:00:00Z,-16.11,145.45,28.30055809020996
2005-04-01T00:00:00Z,-16.11,145.45,26.364620208740234
2005-05-01T00:00:00Z,-16.11,145.45,24.871931076049805
2005-06-01T00:00:00Z,-16.11,145.45,24.19702911376953
2005-07-01T00:00:00Z,-16.11,145.45,23.225521087646484
2005-08-01T00:00:00Z,-16.11,145.45,23.082569122314453
2005-09-01T00:00:00Z,-16.11,145.45,26.112354278564453
2005-10-01T00:00:00Z,-16.11,145.45,29.072187423706055
2005-11-01T00:00:00Z,-16.11,145.45,29.841739654541016
2005-12-01T00:00:00Z,-16.11,145.45,31.334753036499023
2006-01-01T00:00:00Z,-16.11,145.45,29.21710968017578
2006-02-01T00:00:00Z,-16.11,145.45,29.27291488647461
2006-03-01T00:00:00Z,-16.11,145.45,27.351516723632812
2006-04-01T00:00:00Z,-16.11,145.45,26.20391845703125
2006-05-01T00:00:00Z,-16.11,145.45,23.999267578125
2006-06-01T00:00:00Z,-16.11,145.45,22.852096557617188
2006-07-01T00:00:00Z,-16.11,145.45,22.435026168823242
2006-08-01T00:00:00Z,-16.11,145.45,23.372756958007812
2006-09-01T00:00:00Z,-16.11,145.45,24.942747116088867
2006-10-01T00:00:00Z,-16.11,145.45,26.36191749572754
2006-11-01T00:00:00Z,-16.11,145.45,29.70332908630371
2006-12-01T00:00:00Z,-16.11,145.45,29.45808982849121
2007-01-01T00:00:00Z,-16.11,145.45,30.16950035095215
2007-02-01T00:00:00Z,-16.11,145.45,27.94906234741211
2007-03-01T00:00:00Z,-16.11,145.45,28.31907081604004
2007-04-01T00:00:00Z,-16.11,145.45,26.28289031982422
2007-05-01T00:00:00Z,-16.11,145.45,25.555816650390625
2007-06-01T00:00:00Z,-16.11,145.45,22.436269760131836
2007-07-01T00:00:00Z,-16.11,145.45,21.9835147857666
2007-08-01T00:00:00Z,-16.11,145.45,23.83193016052246
2007-09-01T00:00:00Z,-16.11,145.45,26.26992416381836
2007-10-01T00:00:00Z,-16.11,145.45,28.204015731811523
2007-11-01T00:00:00Z,-16.11,145.45,29.40614128112793
2007-12-01T00:00:00Z,-16.11,145.45,30.333866119384766
2008-01-01T00:00:00Z,-16.11,145.45,29.957033157348633
2008-02-01T00:00:00Z,-16.11,145.45,28.779285430908203
2008-03-01T00:00:00Z,-16.11,145.45,26.4619083404541
2008-04-01T00:00:00Z,-16.11,145.45,25.761516571044922
2008-05-01T00:00:00Z,-16.11,145.45,24.302568435668945
2008-06-01T00:00:00Z,-16.11,145.45,23.58173179626465
2008-07-01T00:00:00Z,-16.11,145.45,22.725292205810547
2008-08-01T00:00:00Z,-16.11,145.45,23.669418334960938
2008-09-01T00:00:00Z,-16.11,145.45,26.6759033203125
2008-10-01T00:00:00Z,-16.11,145.45,27.86463737487793
2008-11-01T00:00:00Z,-16.11,145.45,30.82276725769043
2008-12-01T00:00:00Z,-16.11,145.45,30.276098251342773
2009-01-01T00:00:00Z,-16.11,145.45,28.474870681762695
2009-02-01T00:00:00Z,-16.11,145.45,29.09214210510254
2009-03-01T00:00:00Z,-16.11,145.45,28.064170837402344
2009-04-01T00:00:00Z,-16.11,145.45,27.561664581298828
2009-05-01T00:00:00Z,-16.11,145.45,24.750032424926758
2009-06-01T00:00:00Z,-16.11,145.45,24.799938201904297
2009-07-01T00:00:00Z,-16.11,145.45,24.32356834411621
2009-08-01T00:00:00Z,-16.11,145.45,25.4394588470459
2009-09-01T00:00:00Z,-16.11,145.45,27.549142837524414
2009-10-01T00:00:00Z,-16.11,145.45,28.468996047973633
2009-11-01T00:00:00Z,-16.11,145.45,28.857824325561523
2009-12-01T00:00:00Z,-16.11,145.45,30.300222396850586
2010-01-01T00:00:00Z,-16.11,145.45,28.639572143554688
2010-02-01T00:00:00Z,-16.11,145.45,29.718700408935547
2010-03-01T00:00:00Z,-16.11,145.45,28.117094039916992
2010-04-01T00:00:00Z,-16.11,145.45,25.9881649017334
2010-05-01T00:00:00Z,-16.11,145.45,25.46451187133789
2010-06-01T00:00:00Z,-16.11,145.45,24.45183753967285
2010-07-01T00:00:00Z,-16.11,145.45,24.1824951171875
2010-08-01T00:00:00Z,-16.11,145.45,25.35127830505371
2010-09-01T00:00:00Z,-16.11,145.45,27.31733512878418
2010-10-01T00:00:00Z,-16.11,145.45,27.187305450439453
2010-11-01T00:00:00Z,-16.11,145.45,27.95165252685547
2010-12-01T00:00:00Z,-16.11,145.45,29.237106323242188
2011-01-01T00:00:00Z,-16.11,145.45,29.237314224243164
2011-02-01T00:00:00Z,-16.11,145.45,28.045392990112305
2011-03-01T00:00:00Z,-16.11,145.45,28.062044143676758
2011-04-01T00:00:00Z,-16.11,145.45,26.144393920898438
2011-05-01T00:00:00Z,-16.11,145.45,24.552047729492188
2011-06-01T00:00:00Z,-16.11,145.45,23.004892349243164
2011-07-01T00:00:00Z,-16.11,145.45,22.6342830657959
2011-08-01T00:00:00Z,-16.11,145.45,24.182401657104492
2011-09-01T00:00:00Z,-16.11,145.45,25.47055435180664
2011-10-01T00:00:00Z,-16.11,145.45,28.371417999267578
2011-11-01T00:00:00Z,-16.11,145.45,28.754409790039062
2011-12-01T00:00:00Z,-16.11,145.45,29.628459930419922
2012-01-01T00:00:00Z,-16.11,145.45,29.511550903320312
2012-02-01T00:00:00Z,-16.11,145.45,29.39801597595215
2012-03-01T00:00:00Z,-16.11,145.45,27.67162322998047
2012-04-01T00:00:00Z,-16.11,145.45,26.650615692138672
2012-05-01T00:00:00Z,-16.11,145.45,24.206378936767578
2012-06-01T00:00:00Z,-16.11,145.45,23.12976837158203
2012-07-01T00:00:00Z,-16.11,145.45,22.56547737121582
2012-08-01T00:00:00Z,-16.11,145.45,23.912864685058594
2012-09-01T00:00:00Z,-16.11,145.45,26.43241310119629
2012-10-01T00:00:00Z,-16.11,145.45,27.6033992767334
2012-11-01T00:00:00Z,-16.11,145.45,29.561105728149414
2012-12-01T00:00:00Z,-16.11,145.45,30.58769416809082
