time,latitude[unit="degrees_north"],longitude[unit="degrees_east"],air_temperature[unit="C"]
1970-01-01T00:00:00Z,-33.62,150.74,28.198081970214844
1970-02-01T00:00:00Z,-33.62,150.74,29.054737091064453
1970-03-01T00:00:00Z,-33.62,150.74,26.62394142150879
1970-04-01T00:00:00Z,-33.62,150.74,25.00249481201172
1970-05-01T00:00:00Z,-33.62,150.74,19.20278549194336
1970-06-01T00:00:00Z,-33.62,150.74,18.694910049438477
1970-07-01T00:00:00Z,-33.62,150.74,18.679702758789062
1970-08-01T00:00:00Z,-33.62,150.74,18.90076446533203
1970-09-01T00:00:00Z,-33.62,150.74,19.62164878845215
1970-10-01T00:00:00Z,-33.62,150.74,25.75017547607422
1970-11-01T00:00:00Z,-33.62,150.74,24.388778686523438
1970-12-01T00:00:00Z,-33.62,150.74,27.89728355407715
1971-01-01T00:00:00Z,-33.62,150.74,27.74471092224121
1971-02-01T00:00:00Z,-33.62,150.74,27.6822452545166
1971-03-01T00:00:00Z,-33.62,150.74,26.737808227539062
1971-04-01T00:00:00Z,-33.62,150.74,24.206892013549805
1971-05-01T00:00:00Z,-33.62,150.74,20.263078689575195
1971-06-01T00:00:00Z,-33.62,150.74,17.455055236816406
1971-07-01T00:00:00Z,-33.62,150.74,16.46204948425293
1971-08-01T00:00:00Z,-33.62,150.74,18.720788955688477
1971-09-01T00:00:00Z,-33.62,150.74,21.97311019897461
1971-10-01T00:00:00Z,-33.62,150.74,26.720500946044922
1971-11-01T00:00:00Z,-33.62,150.74,24.901123046875
1971-12-01T00:00:00Z,-33.62,150.74,27.127208709716797
1972-01-01T00:00:00Z,-33.62,150.74,26.050514221191406
1972-02-01T00:00:00Z,-33.62,150.74,27.103317260742188
1972-03-01T00:00:00Z,-33.62,150.74,25.670503616333008
1972-04-01T00:00:00Z,-33.62,150.74,23.5351505279541
1972-05-01T00:00:00Z,-33.62,150.74,19.59843635559082
1972-06-01T00:00:00Z,-33.62,150.74,17.909563064575195
1972-07-01T00:00:00Z,-33.62,150.74,17.863222122192383
1972-08-01T00:00:00Z,-33.62,150.74,19.846691131591797
1972-09-01T00:00:00Z,-33.62,150.74,24.365854263305664
1972-10-01T00:00:00Z,-33.62,150.74,23.216556549072266
1972-11-01T00:00:00Z,-33.62,150.74,25.00654411315918
1972-12-01T00:00:00Z,-33.62,150.74,30.788082122802734
1973-01-01T00:00:00Z,-33.62,150.74,30.96776580810547
1973-02-01T00:00:00Z,-33.62,150.74,27.063180923461914
1973-03-01T00:00:00Z,-33.62,150.74,27.370033264160156
1973-04-01T00:00:00Z,-33.62,150.74,25.23778533935547
1973-05-01T00:00:00Z,-33.62,150.74,21.784912109375
1973-06-01T00:00:00Z,-33.62,150.74,17.81722640991211
1973-07-01T00:00:00Z,-33.62,150.74,17.866878509521484
1973-08-01T00:00:00Z,-33.62,150.74,18.599271774291992
1973-09-01T00:00:00Z,-33.62,150.74,22.956554412841797
1973-10-01T00:00:00Z,-33.62,150.74,23.748085021972656
1973-11-01T00:00:00Z,-33.62,150.74,26.046051025390625
1973-12-01T00:00:00Z,-33.62,150.74,28.247621536254883
1974-01-01T00:00:00Z,-33.62,150.74,26.920446395874023
1974-02-01T00:00:00Z,-33.62,150.74,26.955665588378906
1974-03-01T00:00:00Z,-33.62,150.74,26.536832809448242
1974-04-01T00:00:00Z,-33.62,150.74,23.386600494384766
1974-05-01T00:00:00Z,-33.62,150.74,20.56865882873535
1974-06-01T00:00:00Z,-33.62,150.74,17.410221099853516
1974-07-01T00:00:00Z,-33.62,150.74,17.571054458618164
1974-08-01T00:00:00Z,-33.62,150.74,17.99080467224121
1974-09-01T00:00:00Z,-33.62,150.74,20.512489318847656
1974-10-01T00:00:00Z,-33.62,150.74,22.841630935668945
1974-11-01T00:00:00Z,-33.62,150.74,24.538368225097656
1974-12-01T00:00:00Z,-33.62,150.74,29.59271812438965
1975-01-01T00:00:00Z,-33.62,150.74,30.360177993774414
1975-02-01T00:00:00Z,-33.62,150.74,28.715534210205078
1975-03-01T00:00:00Z,-33.62,150.74,26.52326011657715
1975-04-01T00:00:00Z,-33.62,150.74,23.06320571899414
1975-05-01T00:00:00Z,-33.62,150.74,21.233715057373047
1975-06-01T00:00:00Z,-33.62,150.74,17.8076171875
1975-07-01T00:00:00Z,-33.62,150.74,19.169584274291992
1975-08-01T00:00:00Z,-33.62,150.74,18.776941299438477
1975-09-01T00:00:00Z,-33.62,150.74,21.717885971069336
1975-10-01T00:00:00Z,-33.62,150.74,23.550262451171875
1975-11-01T00:00:00Z,-33.62,150.74,27.304027557373047
1975-12-01T00:00:00Z,-33.62,150.74,29.533607482910156
1976-01-01T00:00:00Z,-33.62,150.74,27.390274047851562
1976-02-01T00:00:00Z,-33.62,150.74,27.675579071044922
1976-03-01T00:00:00Z,-33.62,150.74,26.148462295532227
1976-04-01T00:00:00Z,-33.62,150.74,23.896440505981445
1976-05-01T00:00:00Z,-33.62,150.74,21.50106430053711
1976-06-01T00:00:00Z,-33.62,150.74,18.435211181640625
1976-07-01T00:00:00Z,-33.62,150.74,17.38193702697754
1976-08-01T00:00:00Z,-33.62,150.74,19.020769119262695
1976-09-01T00:00:00Z,-33.62,150.74,20.172100067138672
1976-10-01T00:00:00Z,-33.62,150.74,21.18020248413086
1976-11-01T00:00:00Z,-33.62,150.74,25.71603775024414
1976-12-01T00:00:00Z,-33.62,150.74,31.696735382080078
1977-01-01T00:00:00Z,-33.62,150.74,30.697629928588867
1977-02-01T00:00:00Z,-33.62,150.74,28.6342830657959
1977-03-01T00:00:00Z,-33.62,150.74,27.48638916015625
1977-04-01T00:00:00Z,-33.62,150.74,25.194223403930664
1977-05-01T00:00:00Z,-33.62,150.74,19.950645446777344
1977-06-01T00:00:00Z,-33.62,150.74,16.98520851135254
1977-07-01T00:00:00Z,-33.62,150.74,16.953540802001953
1977-08-01T00:00:00Z,-33.62,150.74,20.884519577026367
1977-09-01T00:00:00Z,-33.62,150.74,19.982044219970703
1977-10-01T00:00:00Z,-33.62,150.74,27.069293975830078
1977-11-01T00:00:00Z,-33.62,150.74,28.304515838623047
1977-12-01T00:00:00Z,-33.62,150.74,31.02620506286621
1978-01-01T00:00:00Z,-33.62,150.74,28.863372802734375
1978-02-01T00:00:00Z,-33.62,150.74,30.751380920410156
1978-03-01T00:00:00Z,-33.62,150.74,27.36427116394043
1978-04-01T00:00:00Z,-33.62,150.74,23.948583602905273
1978-05-01T00:00:00Z,-33.62,150.74,21.164648056030273
1978-06-01T00:00:00Z,-33.62,150.74,16.620288848876953
1978-07-01T00:00:00Z,-33.62,150.74,16.650394439697266
1978-08-01T00:00:00Z,-33.62,150.74,18.11402702331543
1978-09-01T00:00:00Z,-33.62,150.74,19.918224334716797
1978-10-01T00:00:00Z,-33.62,150.74,23.55589485168457
1978-11-01T00:00:00Z,-33.62,150.74,25.723901748657227
1978-12-01T00:00:00Z,-33.62,150.74,26.668319702148438
1979-01-01T00:00:00Z,-33.62,150.74,31.099918365478516
1979-02-01T00:00:00Z,-33.62,150.74,30.637866973876953
1979-03-01T00:00:00Z,-33.62,150.74,26.7344913482666
1979-04-01T00:00:00Z,-33.62,150.74,24.188753128051758
1979-05-01T00:00:00Z,-33.62,150.74,19.326446533203125
1979-06-01T00:00:00Z,-33.62,150.74,18.557641983032227
1979-07-01T00:00:00Z,-33.62,150.74,17.904434204101562
1979-08-01T00:00:00Z,-33.62,150.74,18.961278915405273
1979-09-01T00:00:00Z,-33.62,150.74,21.640037536621094
1979-10-01T00:00:00Z,-33.62,150.74,24.92664909362793
1979-11-01T00:00:00Z,-33.62,150.74,27.81670570373535
1979-12-01T00:00:00Z,-33.62,150.74,32.535057067871094
1980-01-01T00:00:00Z,-33.62,150.74,29.8939266204834
1980-02-01T00:00:00Z,-33.62,150.74,29.445110321044922
1980-03-01T00:00:00Z,-33.62,150.74,29.323501586914062
1980-04-01T00:00:00Z,-33.62,150.74,26.045597076416016
1980-05-01T00:00:00Z,-33.62,150.74,20.852209091186523
1980-06-01T00:00:00Z,-33.62,150.74,17.999210357666016
1980-07-01T00:00:00Z,-33.62,150.74,16.933809280395508
1980-08-01T00:00:00Z,-33.62,150.74,21.286636352539062
1980-09-01T00:00:00Z,-33.62,150.74,25.769912719726562
1980-10-01T00:00:00Z,-33.62,150.74,26.013648986816406
1980-11-01T00:00:00Z,-33.62,150.74,28.496780395507812
1980-12-01T00:00:00Z,-33.62,150.74,30.544296264648438
1981-01-01T00:00:00Z,-33.62,150.74,30.533588409423828
1981-02-01T00:00:00Z,-33.62,150.74,28.044078826904297
1981-03-01T00:00:00Z,-33.62,150.74,27.649641036987305
1981-04-01T00:00:00Z,-33.62,150.74,25.280202865600586
1981-05-01T00:00:00Z,-33.62,150.74,20.086259841918945
1981-06-01T00:00:00Z,-33.62,150.74,17.343551635742188
1981-07-01T00:00:00Z,-33.62,150.74,17.196828842163086
1981-08-01T00:00:00Z,-33.62,150.74,18.21881103515625
1981-09-01T00:00:00Z,-33.62,150.74,24.241153717041016
1981-10-01T00:00:00Z,-33.62,150.74,24.939613342285156
1981-11-01T00:00:00Z,-33.62,150.74,24.00747299194336
1981-12-01T00:00:00Z,-33.62,150.74,28.808027267456055
1982-01-01T00:00:00Z,-33.62,150.74,29.836719512939453
1982-02-01T00:00:00Z,-33.62,150.74,29.68982696533203
1982-03-01T00:00:00Z,-33.62,150.74,25.496021270751953
1982-04-01T00:00:00Z,-33.62,150.74,24.3841609954834
1982-05-01T00:00:00Z,-33.62,150.74,21.63713836669922
1982-06-01T00:00:00Z,-33.62,150.74,17.533138275146484
1982-07-01T00:00:00Z,-33.62,150.74,16.558345794677734
1982-08-01T00:00:00Z,-33.62,150.74,22.07330894470215
1982-09-01T00:00:00Z,-33.62,150.74,21.95819664001465
1982-10-01T00:00:00Z,-33.62,150.74,24.40797996520996
1982-11-01T00:00:00Z,-33.62,150.74,29.809677124023438
1982-12-01T00:00:00Z,-33.62,150.74,29.137805938720703
1983-01-01T00:00:00Z,-33.62,150.74,30.892221450805664
1983-02-01T00:00:00Z,-33.62,150.74,31.751436233520508
1983-03-01T00:00:00Z,-33.62,150.74,29.42389488220215
1983-04-01T00:00:00Z,-33.62,150.74,21.874441146850586
1983-05-01T00:00:00Z,-33.62,150.74,20.26066017150879
1983-06-01T00:00:00Z,-33.62,150.74,16.581398010253906
1983-07-01T00:00:00Z,-33.62,150.74,16.64593505859375
1983-08-01T00:00:00Z,-33.62,150.74,18.521373748779297
1983-09-01T00:00:00Z,-33.62,150.74,22.858152389526367
1983-10-01T00:00:00Z,-33.62,150.74,23.293428421020508
1983-11-01T00:00:00Z,-33.62,150.74,25.691831588745117
1983-12-01T00:00:00Z,-33.62,150.74,27.514848709106445
1984-01-01T00:00:00Z,-33.62,150.74,27.613513946533203
1984-02-01T00:00:00Z,-33.62,150.74,28.309375762939453
1984-03-01T00:00:00Z,-33.62,150.74,25.610271453857422
1984-04-01T00:00:00Z,-33.62,150.74,23.497316360473633
1984-05-01T00:00:00Z,-33.62,150.74,20.031112670898438
1984-06-01T00:00:00Z,-33.62,150.74,18.509607315063477
1984-07-01T00:00:00Z,-33.62,150.74,15.744989395141602
1984-08-01T00:00:00Z,-33.62,150.74,19.03952980041504
1984-09-01T00:00:00Z,-33.62,150.74,20.47671890258789
1984-10-01T00:00:00Z,-33.62,150.74,24.01502227783203
1984-11-01T00:00:00Z,-33.62,150.74,26.872365951538086
1984-12-01T00:00:00Z,-33.62,150.74,28.632381439208984
1985-01-01T00:00:00Z,-33.62,150.74,31.213958740234375
1985-02-01T00:00:00Z,-33.62,150.74,27.457351684570312
1985-03-01T00:00:00Z,-33.62,150.74,27.630828857421875
1985-04-01T00:00:00Z,-33.62,150.74,23.001298904418945
1985-05-01T00:00:00Z,-33.62,150.74,20.015789031982422
1985-06-01T00:00:00Z,-33.62,150.74,17.44295310974121
1985-07-01T00:00:00Z,-33.62,150.74,17.094087600708008
1985-08-01T00:00:00Z,-33.62,150.74,18.187040328979492
1985-09-01T00:00:00Z,-33.62,150.74,20.737651824951172
1985-10-01T00:00:00Z,-33.62,150.74,23.373796463012695
1985-11-01T00:00:00Z,-33.62,150.74,25.33502197265625
1985-12-01T00:00:00Z,-33.62,150.74,29.309850692749023
1986-01-01T00:00:00Z,-33.62,150.74,28.44839096069336
1986-02-01T00:00:00Z,-33.62,150.74,28.069067001342773
1986-03-01T00:00:00Z,-33.62,150.74,28.182842254638672
1986-04-01T00:00:00Z,-33.62,150.74,26.610450744628906
1986-05-01T00:00:00Z,-33.62,150.74,20.87080192565918
1986-06-01T00:00:00Z,-33.62,150.74,17.990325927734375
1986-07-01T00:00:00Z,-33.62,150.74,17.466209411621094
1986-08-01T00:00:00Z,-33.62,150.74,18.511072158813477
1986-09-01T00:00:00Z,-33.62,150.74,22.108362197875977
1986-10-01T00:00:00Z,-33.62,150.74,23.51780128479004
1986-11-01T00:00:00Z,-33.62,150.74,24.320852279663086
1986-12-01T00:00:00Z,-33.62,150.74,27.641637802124023
1987-01-01T00:00:00Z,-33.62,150.74,31.041481018066406
1987-02-01T00:00:00Z,-33.62,150.74,30.564111709594727
1987-03-01T00:00:00Z,-33.62,150.74,24.91794204711914
1987-04-01T00:00:00Z,-33.62,150.74,24.191957473754883
1987-05-01T00:00:00Z,-33.62,150.74,20.333724975585938
1987-06-01T00:00:00Z,-33.62,150.74,18.065881729125977
1987-07-01T00:00:00Z,-33.62,150.74,17.167478561401367
1987-08-01T00:00:00Z,-33.62,150.74,18.693206787109375
1987-09-01T00:00:00Z,-33.62,150.74,23.04181480407715
1987-10-01T00:00:00Z,-33.62,150.74,22.896095275878906
1987-11-01T00:00:00Z,-33.62,150.74,26.583385467529297
1987-12-01T00:00:00Z,-33.62,150.74,27.278383255004883
1988-01-01T00:00:00Z,-33.62,150.74,29.677783966064453
1988-02-01T00:00:00Z,-33.62,150.74,27.344831466674805
1988-03-01T00:00:00Z,-33.62,150.74,26.007179260253906
1988-04-01T00:00:00Z,-33.62,150.74,22.277706146240234
1988-05-01T00:00:00Z,-33.62,150.74,20.72001838684082
1988-06-01T00:00:00Z,-33.62,150.74,18.55145835876465
1988-07-01T00:00:00Z,-33.62,150.74,18.601516723632812
1988-08-01T00:00:00Z,-33.62,150.74,19.647785186767578
1988-09-01T00:00:00Z,-33.62,150.74,22.733034133911133
1988-10-01T00:00:00Z,-33.62,150.74,28.358163833618164
1988-11-01T00:00:00Z,-33.62,150.74,26.498228073120117
1988-12-01T00:00:00Z,-33.62,150.74,27.4447021484375
1989-01-01T00:00:00Z,-33.62,150.74,26.6939754486084
1989-02-01T00:00:00Z,-33.62,150.74,28.061046600341797
1989-03-01T00:00:00Z,-33.62,150.74,26.11292839050293
1989-04-01T00:00:00Z,-33.62,150.74,23.30325698852539
1989-05-01T00:00:00Z,-33.62,150.74,20.440692901611328
1989-06-01T00:00:00Z,-33.62,150.74,16.981189727783203
1989-07-01T00:00:00Z,-33.62,150.74,16.266666412353516
1989-08-01T00:00:00Z,-33.62,150.74,17.585737228393555
1989-09-01T00:00:00Z,-33.62,150.74,22.15787696838379
1989-10-01T00:00:00Z,-33.62,150.74,25.631059646606445
1989-11-01T00:00:00Z,-33.62,150.74,25.965721130371094
1989-12-01T00:00:00Z,-33.62,150.74,28.24481201171875
1990-01-01T00:00:00Z,-33.62,150.74,28.549779891967773
1990-02-01T00:00:00Z,-33.62,150.74,26.762847900390625
1990-03-01T00:00:00Z,-33.62,150.74,26.39306640625
1990-04-01T00:00:00Z,-33.62,150.74,23.00601577758789
1990-05-01T00:00:00Z,-33.62,150.74,21.220123291015625
1990-06-01T00:00:00Z,-33.62,150.74,17.314271926879883
1990-07-01T00:00:00Z,-33.62,150.74,17.543350219726562
1990-08-01T00:00:00Z,-33.62,150.74,17.77173614501953
1990-09-01T00:00:00Z,-33.62,150.74,20.757373809814453
1990-10-01T00:00:00Z,-33.62,150.74,24.342727661132812
1990-11-01T00:00:00Z,-33.62,150.74,27.9928035736084
1990-12-01T00:00:00Z,-33.62,150.74,32.555545806884766
1991-01-01T00:00:00Z,-33.62,150.74,32.149147033691406
1991-02-01T00:00:00Z,-33.62,150.74,31.545148849487305
1991-03-01T00:00:00Z,-33.62,150.74,28.871641159057617
1991-04-01T00:00:00Z,-33.62,150.74,24.88417625427246
1991-05-01T00:00:00Z,-33.62,150.74,20.841388702392578
1991-06-01T00:00:00Z,-33.62,150.74,19.718976974487305
1991-07-01T00:00:00Z,-33.62,150.74,16.701143264770508
1991-08-01T00:00:00Z,-33.62,150.74,19.083314895629883
1991-09-01T00:00:00Z,-33.62,150.74,22.54322052001953
1991-10-01T00:00:00Z,-33.62,150.74,26.76864242553711
1991-11-01T00:00:00Z,-33.62,150.74,26.673648834228516
1991-12-01T00:00:00Z,-33.62,150.74,27.30487060546875
1992-01-01T00:00:00Z,-33.62,150.74,28.41424560546875
1992-02-01T00:00:00Z,-33.62,150.74,26.39830207824707
1992-03-01T00:00:00Z,-33.62,150.74,26.627546310424805
1992-04-01T00:00:00Z,-33.62,150.74,23.529741287231445
1992-05-01T00:00:00Z,-33.62,150.74,20.068866729736328
1992-06-01T00:00:00Z,-33.62,150.74,17.38224220275879
1992-07-01T00:00:00Z,-33.62,150.74,18.241989135742188
1992-08-01T00:00:00Z,-33.62,150.74,18.707780838012695
1992-09-01T00:00:00Z,-33.62,150.74,21.156654357910156
1992-10-01T00:00:00Z,-33.62,150.74,23.730073928833008
1992-11-01T00:00:00Z,-33.62,150.74,24.65969467163086
1992-12-01T00:00:00Z,-33.62,150.74,26.255985260009766
1993-01-01T00:00:00Z,-33.62,150.74,30.251405715942383
1993-02-01T00:00:00Z,-33.62,150.74,29.96335792541504
1993-03-01T00:00:00Z,-33.62,150.74,25.877700805664062
1993-04-01T00:00:00Z,-33.62,150.74,25.145965576171875
1993-05-01T00:00:00Z,-33.62,150.74,21.003490447998047
1993-06-01T00:00:00Z,-33.62,150.74,17.564189910888672
1993-07-01T00:00:00Z,-33.62,150.74,18.001802444458008
1993-08-01T00:00:00Z,-33.62,150.74,19.98281478881836
1993-09-01T00:00:00Z,-33.62,150.74,21.16261100769043
1993-10-01T00:00:00Z,-33.62,150.74,24.255226135253906
1993-11-01T00:00:00Z,-33.62,150.74,26.172685623168945
1993-12-01T00:00:00Z,-33.62,150.74,28.737581253051758
1994-01-01T00:00:00Z,-33.62,150.74,32.10490417480469
1994-02-01T00:00:00Z,-33.62,150.74,30.013277053833008
1994-03-01T00:00:00Z,-33.62,150.74,24.667917251586914
1994-04-01T00:00:00Z,-33.62,150.74,24.773174285888672
1994-05-01T00:00:00Z,-33.62,150.74,21.307552337646484
1994-06-01T00:00:00Z,-33.62,150.74,18.15938377380371
1994-07-01T00:00:00Z,-33.62,150.74,17.981224060058594
1994-08-01T00:00:00Z,-33.62,150.74,19.29375457763672
1994-09-01T00:00:00Z,-33.62,150.74,23.12821388244629
1994-10-01T00:00:00Z,-33.62,150.74,25.163745880126953
1994-11-01T00:00:00Z,-33.62,150.74,27.57073402404785
1994-12-01T00:00:00Z,-33.62,150.74,28.65056037902832
1995-01-01T00:00:00Z,-33.62,150.74,26.974191665649414
1995-02-01T00:00:00Z,-33.62,150.74,28.040496826171875
1995-03-01T00:00:00Z,-33.62,150.74,26.270273208618164
1995-04-01T00:00:00Z,-33.62,150.74,23.014497756958008
1995-05-01T00:00:00Z,-33.62,150.74,20.216434478759766
1995-06-01T00:00:00Z,-33.62,150.74,17.649703979492188
1995-07-01T00:00:00Z,-33.62,150.74,16.83328628540039
1995-08-01T00:00:00Z,-33.62,150.74,22.417957305908203
1995-09-01T00:00:00Z,-33.62,150.74,20.777013778686523
1995-10-01T00:00:00Z,-33.62,150.74,24.67828941345215
1995-11-01T00:00:00Z,-33.62,150.74,26.323972702026367
1995-12-01T00:00:00Z,-33.62,150.74,26.168289184570312
1996-01-01T00:00:00Z,-33.62,150.74,27.70738410949707
1996-02-01T00:00:00Z,-33.62,150.74,27.030723571777344
1996-03-01T00:00:00Z,-33.62,150.74,26.45307159423828
1996-04-01T00:00:00Z,-33.62,150.74,24.551177978515625
1996-05-01T00:00:00Z,-33.62,150.74,20.981599807739258
1996-06-01T00:00:00Z,-33.62,150.74,18.313329696655273
1996-07-01T00:00:00Z,-33.62,150.74,17.11329460144043
1996-08-01T00:00:00Z,-33.62,150.74,19.41559600830078
1996-09-01T00:00:00Z,-33.62,150.74,22.96131134033203
1996-10-01T00:00:00Z,-33.62,150.74,24.479204177856445
1996-11-01T00:00:00Z,-33.62,150.74,25.950891494750977
1996-12-01T00:00:00Z,-33.62,150.74,27.909412384033203
1997-01-01T00:00:00Z,-33.62,150.74,27.67117691040039
1997-02-01T00:00:00Z,-33.62,150.74,29.067338943481445
1997-03-01T00:00:00Z,-33.62,150.74,27.519773483276367
1997-04-01T00:00:00Z,-33.62,150.74,26.1163330078125
1997-05-01T00:00:00Z,-33.62,150.74,20.8145751953125
1997-06-01T00:00:00Z,-33.62,150.74,18.392318725585938
1997-07-01T00:00:00Z,-33.62,150.74,17.245359420776367
1997-08-01T00:00:00Z,-33.62,150.74,19.72952651977539
1997-09-01T00:00:00Z,-33.62,150.74,20.897781372070312
1997-10-01T00:00:00Z,-33.62,150.74,25.737770080566406
1997-11-01T00:00:00Z,-33.62,150.74,29.47686767578125
1997-12-01T00:00:00Z,-33.62,150.74,31.391427993774414
1998-01-01T00:00:00Z,-33.62,150.74,31.193832397460938
1998-02-01T00:00:00Z,-33.62,150.74,32.01973342895508
1998-03-01T00:00:00Z,-33.62,150.74,30.28667640686035
1998-04-01T00:00:00Z,-33.62,150.74,24.754880905151367
1998-05-01T00:00:00Z,-33.62,150.74,20.13856315612793
1998-06-01T00:00:00Z,-33.62,150.74,17.667646408081055
1998-07-01T00:00:00Z,-33.62,150.74,16.161230087280273
1998-08-01T00:00:00Z,-33.62,150.74,18.410476684570312
1998-09-01T00:00:00Z,-33.62,150.74,22.681976318359375
1998-10-01T00:00:00Z,-33.62,150.74,24.903762817382812
1998-11-01T00:00:00Z,-33.62,150.74,23.796579360961914
1998-12-01T00:00:00Z,-33.62,150.74,28.962203979492188
1999-01-01T00:00:00Z,-33.62,150.74,30.747392654418945
1999-02-01T00:00:00Z,-33.62,150.74,27.725820541381836
1999-03-01T00:00:00Z,-33.62,150.74,27.364395141601562
1999-04-01T00:00:00Z,-33.62,150.74,22.390403747558594
1999-05-01T00:00:00Z,-33.62,150.74,21.622013092041016
1999-06-01T00:00:00Z,-33.62,150.74,17.7168025970459
1999-07-01T00:00:00Z,-33.62,150.74,17.672325134277344
1999-08-01T00:00:00Z,-33.62,150.74,19.582876205444336
1999-09-01T00:00:00Z,-33.62,150.74,22.350692749023438
1999-10-01T00:00:00Z,-33.62,150.74,24.464519500732422
1999-11-01T00:00:00Z,-33.62,150.74,24.12103843688965
1999-12-01T00:00:00Z,-33.62,150.74,26.580053329467773
2000-01-01T00:00:00Z,-33.62,150.74,27.02635383605957
2000-02-01T00:00:00Z,-33.62,150.74,30.86465072631836
2000-03-01T00:00:00Z,-33.62,150.74,26.79177474975586
2000-04-01T00:00:00Z,-33.62,150.74,23.359498977661133
2000-05-01T00:00:00Z,-33.62,150.74,19.93648338317871
2000-06-01T00:00:00Z,-33.62,150.74,17.272249221801758
2000-07-01T00:00:00Z,-33.62,150.74,18.039615631103516
2000-08-01T00:00:00Z,-33.62,150.74,18.93578338623047
2000-09-01T00:00:00Z,-33.62,150.74,24.437002182006836
2000-10-01T00:00:00Z,-33.62,150.74,24.170814514160156
2000-11-01T00:00:00Z,-33.62,150.74,24.987844467163086
2000-12-01T00:00:00Z,-33.62,150.74,30.218441009521484
2001-01-01T00:00:00Z,-33.62,150.74,31.551889419555664
2001-02-01T00:00:00Z,-33.62,150.74,29.356447219848633
2001-03-01T00:00:00Z,-33.62,150.74,26.037200927734375
2001-04-01T00:00:00Z,-33.62,150.74,24.757530212402344
2001-05-01T00:00:00Z,-33.62,150.74,19.813274383544922
2001-06-01T00:00:00Z,-33.62,150.74,19.43018913269043
2001-07-01T00:00:00Z,-33.62,150.74,17.586666107177734
2001-08-01T00:00:00Z,-33.62,150.74,19.491605758666992
2001-09-01T00:00:00Z,-33.62,150.74,23.31686019897461
2001-10-01T00:00:00Z,-33.62,150.74,25.16619873046875
2001-11-01T00:00:00Z,-33.62,150.74,25.935684204101562
2001-12-01T00:00:00Z,-33.62,150.74,30.00626564025879
2002-01-01T00:00:00Z,-33.62,150.74,30.252662658691406
2002-02-01T00:00:00Z,-33.62,150.74,26.802017211914062
2002-03-01T00:00:00Z,-33.62,150.74,27.04177474975586
2002-04-01T00:00:00Z,-33.62,150.74,25.26088523864746
2002-05-01T00:00:00Z,-33.62,150.74,20.306434631347656
2002-06-01T00:00:00Z,-33.62,150.74,18.44655990600586
2002-07-01T00:00:00Z,-33.62,150.74,18.534072875976562
2002-08-01T00:00:00Z,-33.62,150.74,20.628358840942383
2002-09-01T00:00:00Z,-33.62,150.74,24.643388748168945
2002-10-01T00:00:00Z,-33.62,150.74,27.813119888305664
2002-11-01T00:00:00Z,-33.62,150.74,30.257028579711914
2002-12-01T00:00:00Z,-33.62,150.74,29.727624893188477
2003-01-01T00:00:00Z,-33.62,150.74,31.799541473388672
2003-02-01T00:00:00Z,-33.62,150.74,29.575233459472656
2003-03-01T00:00:00Z,-33.62,150.74,26.194316864013672
2003-04-01T00:00:00Z,-33.62,150.74,23.32914924621582
2003-05-01T00:00:00Z,-33.62,150.74,20.727449417114258
2003-06-01T00:00:00Z,-33.62,150.74,19.269855499267578
2003-07-01T00:00:00Z,-33.62,150.74,17.54791831970215
2003-08-01T00:00:00Z,-33.62,150.74,19.38376235961914
2003-09-01T00:00:00Z,-33.62,150.74,23.181276321411133
2003-10-01T00:00:00Z,-33.62,150.74,22.967866897583008
2003-11-01T00:00:00Z,-33.62,150.74,26.17424964904785
2003-12-01T00:00:00Z,-33.62,150.74,28.465810775756836
2004-01-01T00:00:00Z,-33.62,150.74,31.849790573120117
2004-02-01T00:00:00Z,-33.62,150.74,31.97132682800293
2004-03-01T00:00:00Z,-33.62,150.74,27.2188777923584
2004-04-01T00:00:00Z,-33.62,150.74,25.312166213989258
2004-05-01T00:00:00Z,-33.62,150.74,21.4606876373291
2004-06-01T00:00:00Z,-33.62,150.74,19.836557388305664
2004-07-01T00:00:00Z,-33.62,150.74,18.044044494628906
2004-08-01T00:00:00Z,-33.62,150.74,20.298479080200195
2004-09-01T00:00:00Z,-33.62,150.74,23.12989044189453
2004-10-01T00:00:00Z,-33.62,150.74,24.936420440673828
2004-11-01T00:00:00Z,-33.62,150.74,27.29820442199707
2004-12-01T00:00:00Z,-33.62,150.74,28.442859649658203
2005-01-01T00:00:00Z,-33.62,150.74,30.388547897338867
2005-02-01T00:00:00Z,-33.62,150.74,29.765750885009766
2005-03-01T00:00:00Z,-33.62,150.74,25.95808982849121
2005-04-01T00:00:00Z,-33.62,150.74,26.366064071655273
2005-05-01T00:00:00Z,-33.62,150.74,21.47231101989746
2005-06-01T00:00:00Z,-33.62,150.74,19.147430419921875
2005-07-01T00:00:00Z,-33.62,150.74,18.81218910217285
2005-08-01T00:00:00Z,-33.62,150.74,20.39592742919922
2005-09-01T00:00:00Z,-33.62,150.74,22.136228561401367
2005-10-01T00:00:00Z,-33.62,150.74,25.915390014648438
2005-11-01T00:00:00Z,-33.62,150.74,26.37033462524414
2005-12-01T00:00:00Z,-33.62,150.74,32.403568267822266
2006-01-01T00:00:00Z,-33.62,150.74,29.777742385864258
2006-02-01T00:00:00Z,-33.62,150.74,30.902986526489258
2006-03-01T00:00:00Z,-33.62,150.74,28.220136642456055
2006-04-01T00:00:00Z,-33.62,150.74,25.123920440673828
2006-05-01T00:00:00Z,-33.62,150.74,21.003726959228516
2006-06-01T00:00:00Z,-33.62,150.74,17.162439346313477
2006-07-01T00:00:00Z,-33.62,150.74,17.76787567138672
2006-08-01T00:00:00Z,-33.62,150.74,20.165496826171875
2006-09-01T00:00:00Z,-33.62,150.74,24.151432037353516
2006-10-01T00:00:00Z,-33.62,150.74,26.629316329956055
2006-11-01T00:00:00Z,-33.62,150.74,28.596647262573242
2006-12-01T00:00:00Z,-33.62,150.74,28.518224716186523
2007-01-01T00:00:00Z,-33.62,150.74,31.59110450744629
2007-02-01T00:00:00Z,-33.62,150.74,29.074499130249023
2007-03-01T00:00:00Z,-33.62,150.74,27.529245376586914
2007-04-01T00:00:00Z,-33.62,150.74,23.84821319580078
2007-05-01T00:00:00Z,-33.62,150.74,22.44241714477539
2007-06-01T00:00:00Z,-33.62,150.74,16.554153442382812
2007-07-01T00:00:00Z,-33.62,150.74,17.061573028564453
2007-08-01T00:00:00Z,-33.62,150.74,20.435195922851562
2007-09-01T00:00:00Z,-33.62,150.74,22.243112564086914
2007-10-01T00:00:00Z,-33.62,150.74,27.880630493164062
2007-11-01T00:00:00Z,-33.62,150.74,25.865577697753906
2007-12-01T00:00:00Z,-33.62,150.74,26.804515838623047
2008-01-01T00:00:00Z,-33.62,150.74,28.753122329711914
2008-02-01T00:00:00Z,-33.62,150.74,25.933486938476562
2008-03-01T00:00:00Z,-33.62,150.74,27.01551628112793
2008-04-01T00:00:00Z,-33.62,150.74,21.774473190307617
2008-05-01T00:00:00Z,-33.62,150.74,20.87984275817871
2008-06-01T00:00:00Z,-33.62,150.74,18.607601165771484
2008-07-01T00:00:00Z,-33.62,150.74,17.16254425048828
2008-08-01T00:00:00Z,-33.62,150.74,17.958147048950195
2008-09-01T00:00:00Z,-33.62,150.74,22.8581600189209
2008-10-01T00:00:00Z,-33.62,150.74,25.58552360534668
2008-11-01T00:00:00Z,-33.62,150.74,25.668224334716797
2008-12-01T00:00:00Z,-33.62,150.74,28.77184295654297
2009-01-01T00:00:00Z,-33.62,150.74,32.65853500366211
2009-02-01T00:00:00Z,-33.62,150.74,29.139867782592773
2009-03-01T00:00:00Z,-33.62,150.74,27.69071388244629
2009-04-01T00:00:00Z,-33.62,150.74,22.984479904174805
2009-05-01T00:00:00Z,-33.62,150.74,20.652414321899414
2009-06-01T00:00:00Z,-33.62,150.74,17.88783836364746
2009-07-01T00:00:00Z,-33.62,150.74,18.094511032104492
2009-08-01T00:00:00Z,-33.62,150.74,21.734460830688477
2009-09-01T00:00:00Z,-33.62,150.74,24.39278793334961
2009-10-01T00:00:00Z,-33.62,150.74,23.657331466674805
2009-11-01T00:00:00Z,-33.62,150.74,30.669307708740234
2009-12-01T00:00:00Z,-33.62,150.74,29.958711624145508
2010-01-01T00:00:00Z,-33.62,150.74,31.450828552246094
2010-02-01T00:00:00Z,-33.62,150.74,29.577299118041992
2010-03-01T00:00:00Z,-33.62,150.74,27.578811645507812
2010-04-01T00:00:00Z,-33.62,150.74,25.127960205078125
2010-05-01T00:00:00Z,-33.62,150.74,20.78483772277832
2010-06-01T00:00:00Z,-33.62,150.74,17.86273193359375
2010-07-01T00:00:00Z,-33.62,150.74,17.092256546020508
2010-08-01T00:00:00Z,-33.62,150.74,18.498619079589844
2010-09-01T00:00:00Z,-33.62,150.74,22.093786239624023
2010-10-01T00:00:00Z,-33.62,150.74,23.510696411132812
2010-11-01T00:00:00Z,-33.62,150.74,25.85957908630371
2010-12-01T00:00:00Z,-33.62,150.74,28.10491371154785
2011-01-01T00:00:00Z,-33.62,150.74,30.84088706970215
2011-02-01T00:00:00Z,-33.62,150.74,31.042396545410156
2011-03-01T00:00:00Z,-33.62,150.74,27.43076515197754
2011-04-01T00:00:00Z,-33.62,150.74,22.718442916870117
2011-05-01T00:00:00Z,-33.62,150.74,19.578214645385742
2011-06-01T00:00:00Z,-33.62,150.74,17.717662811279297
2011-07-01T00:00:00Z,-33.62,150.74,17.110252380371094
2011-08-01T00:00:00Z,-33.62,150.74,19.932348251342773
2011-09-01T00:00:00Z,-33.62,150.74,22.783082962036133
2011-10-01T00:00:00Z,-33.62,150.74,23.426965713500977
2011-11-01T00:00:00Z,-33.62,150.74,27.935209274291992
2011-12-01T00:00:00Z,-33.62,150.74,24.267606735229492
2012-01-01T00:00:00Z,-33.62,150.74,28.128219604492188
2012-02-01T00:00:00Z,-33.62,150.74,26.975284576416016
2012-03-01T00:00:00Z,-33.62,150.74,25.743295669555664
2012-04-01T00:00:00Z,-33.62,150.74,24.142770767211914
2012-05-01T00:00:00Z,-33.62,150.74,20.716909408569336
2012-06-01T00:00:00Z,-33.62,150.74,17.26999282836914
2012-07-01T00:00:00Z,-33.62,150.74,17.487720489501953
2012-08-01T00:00:00Z,-33.62,150.74,20.21854591369629
2012-09-01T00:00:00Z,-33.62,150.74,24.079980850219727
2012-10-01T00:00:00Z,-33.62,150.74,25.822656631469727
2012-11-01T00:00:00Z,-33.62,150.74,27.52290916442871
2012-12-01T00:00:00Z,-33.62,150.74,29.44443702697754
