time,latitude[unit="degrees_north"],longitude[unit="degrees_east"],air_temperature[unit="C"]
1970-01-01T00:00:00Z,-38.8,143.59,12.612791061401367
1970-02-01T00:00:00Z,-38.8,143.59,12.38925552368164
1970-03-01T00:00:00Z,-38.8,143.59,12.038801193237305
1970-04-01T00:00:00Z,-38.8,143.59,11.431339263916016
1970-05-01T00:00:00Z,-38.8,143.59,8.46212387084961
1970-06-01T00:00:00Z,-38.8,143.59,7.441574573516846
1970-07-01T00:00:00Z,-38.8,143.59,7.102423191070557
1970-08-01T00:00:00Z,-38.8,143.59,5.874294281005859
1970-09-01T00:00:00Z,-38.8,143.59,6.545071601867676
1970-10-01T00:00:00Z,-38.8,143.59,7.745606422424316
1970-11-01T00:00:00Z,-38.8,143.59,10.01817798614502
1970-12-01T00:00:00Z,-38.8,143.59,11.213586807250977
1971-01-01T00:00:00Z,-38.8,143.59,13.790371894836426
1971-02-01T00:00:00Z,-38.8,143.59,15.106310844421387
1971-03-01T00:00:00Z,-38.8,143.59,13.72401237487793
1971-04-01T00:00:00Z,-38.8,143.59,11.851113319396973
1971-05-01T00:00:00Z,-38.8,143.59,8.528732299804688
1971-06-01T00:00:00Z,-38.8,143.59,7.557387351989746
1971-07-01T00:00:00Z,-38.8,143.59,6.439123153686523
1971-08-01T00:00:00Z,-38.8,143.59,6.3305253982543945
1971-09-01T00:00:00Z,-38.8,143.59,7.426384925842285
1971-10-01T00:00:00Z,-38.8,143.59,8.351019859313965
1971-11-01T00:00:00Z,-38.8,143.59,9.445077896118164
1971-12-01T00:00:00Z,-38.8,143.59,11.217957496643066
1972-01-01T00:00:00Z,-38.8,143.59,13.343406677246094
1972-02-01T00:00:00Z,-38.8,143.59,14.316031455993652
1972-03-01T00:00:00Z,-38.8,143.59,11.335077285766602
1972-04-01T00:00:00Z,-38.8,143.59,10.34182071685791
1972-05-01T00:00:00Z,-38.8,143.59,8.514342308044434
1972-06-01T00:00:00Z,-38.8,143.59,5.543069362640381
1972-07-01T00:00:00Z,-38.8,143.59,6.528193473815918
1972-08-01T00:00:00Z,-38.8,143.59,7.332031726837158
1972-09-01T00:00:00Z,-38.8,143.59,8.149649620056152
1972-10-01T00:00:00Z,-38.8,143.59,8.625517845153809
1972-11-01T00:00:00Z,-38.8,143.59,9.513876914978027
1972-12-01T00:00:00Z,-38.8,143.59,11.59696102142334
1973-01-01T00:00:00Z,-38.8,143.59,13.318523406982422
1973-02-01T00:00:00Z,-38.8,143.59,13.958126068115234
1973-03-01T00:00:00Z,-38.8,143.59,11.382949829101562
1973-04-01T00:00:00Z,-38.8,143.59,11.490995407104492
1973-05-01T00:00:00Z,-38.8,143.59,9.344616889953613
1973-06-01T00:00:00Z,-38.8,143.59,6.39007043838501
1973-07-01T00:00:00Z,-38.8,143.59,6.473785400390625
1973-08-01T00:00:00Z,-38.8,143.59,6.730467319488525
1973-09-01T00:00:00Z,-38.8,143.59,8.32906436920166
1973-10-01T00:00:00Z,-38.8,143.59,9.560826301574707
1973-11-01T00:00:00Z,-38.8,143.59,10.068248748779297
1973-12-01T00:00:00Z,-38.8,143.59,12.292378425598145
1974-01-01T00:00:00Z,-38.8,143.59,14.941120147705078
1974-02-01T00:00:00Z,-38.8,143.59,13.871783256530762
1974-03-01T00:00:00Z,-38.8,143.59,14.934452056884766
1974-04-01T00:00:00Z,-38.8,143.59,11.969513893127441
1974-05-01T00:00:00Z,-38.8,143.59,9.681403160095215
1974-06-01T00:00:00Z,-38.8,143.59,7.209134101867676
1974-07-01T00:00:00Z,-38.8,143.59,6.569255352020264
1974-08-01T00:00:00Z,-38.8,143.59,6.848285675048828
1974-09-01T00:00:00Z,-38.8,143.59,7.483401775360107
1974-10-01T00:00:00Z,-38.8,143.59,8.925832748413086
1974-11-01T00:00:00Z,-38.8,143.59,9.191239356994629
1974-12-01T00:00:00Z,-38.8,143.59,10.26662826538086
1975-01-01T00:00:00Z,-38.8,143.59,11.105920791625977
1975-02-01T00:00:00Z,-38.8,143.59,13.577682495117188
1975-03-01T00:00:00Z,-38.8,143.59,11.584606170654297
1975-04-01T00:00:00Z,-38.8,143.59,10.14323902130127
1975-05-01T00:00:00Z,-38.8,143.59,9.97637939453125
1975-06-01T00:00:00Z,-38.8,143.59,7.011196613311768
1975-07-01T00:00:00Z,-38.8,143.59,7.607243061065674
1975-08-01T00:00:00Z,-38.8,143.59,7.309975624084473
1975-09-01T00:00:00Z,-38.8,143.59,8.501853942871094
1975-10-01T00:00:00Z,-38.8,143.59,9.904167175292969
1975-11-01T00:00:00Z,-38.8,143.59,11.406843185424805
1975-12-01T00:00:00Z,-38.8,143.59,12.724265098571777
1976-01-01T00:00:00Z,-38.8,143.59,12.974937438964844
1976-02-01T00:00:00Z,-38.8,143.59,14.67332935333252
1976-03-01T00:00:00Z,-38.8,143.59,12.893301010131836
1976-04-01T00:00:00Z,-38.8,143.59,10.96243667602539
1976-05-01T00:00:00Z,-38.8,143.59,9.089619636535645
1976-06-01T00:00:00Z,-38.8,143.59,7.772891521453857
1976-07-01T00:00:00Z,-38.8,143.59,6.246372222900391
1976-08-01T00:00:00Z,-38.8,143.59,6.401943683624268
1976-09-01T00:00:00Z,-38.8,143.59,7.475433349609375
1976-10-01T00:00:00Z,-38.8,143.59,8.224076271057129
1976-11-01T00:00:00Z,-38.8,143.59,10.314159393310547
1976-12-01T00:00:00Z,-38.8,143.59,11.211776733398438
1977-01-01T00:00:00Z,-38.8,143.59,12.462945938110352
1977-02-01T00:00:00Z,-38.8,143.59,13.707051277160645
1977-03-01T00:00:00Z,-38.8,143.59,12.270302772521973
1977-04-01T00:00:00Z,-38.8,143.59,10.366217613220215
1977-05-01T00:00:00Z,-38.8,143.59,8.573826789855957
1977-06-01T00:00:00Z,-38.8,143.59,7.756577968597412
1977-07-01T00:00:00Z,-38.8,143.59,5.480604648590088
1977-08-01T00:00:00Z,-38.8,143.59,7.403034210205078
1977-09-01T00:00:00Z,-38.8,143.59,6.627127647399902
1977-10-01T00:00:00Z,-38.8,143.59,9.168323516845703
1977-11-01T00:00:00Z,-38.8,143.59,9.353716850280762
1977-12-01T00:00:00Z,-38.8,143.59,11.160496711730957
1978-01-01T00:00:00Z,-38.8,143.59,11.98455810546875
1978-02-01T00:00:00Z,-38.8,143.59,12.118408203125
1978-03-01T00:00:00Z,-38.8,143.59,12.828271865844727
1978-04-01T00:00:00Z,-38.8,143.59,10.148761749267578
1978-05-01T00:00:00Z,-38.8,143.59,10.182205200195312
1978-06-01T00:00:00Z,-38.8,143.59,7.689157485961914
1978-07-01T00:00:00Z,-38.8,143.59,6.45876407623291
1978-08-01T00:00:00Z,-38.8,143.59,6.242010116577148
1978-09-01T00:00:00Z,-38.8,143.59,8.070693016052246
1978-10-01T00:00:00Z,-38.8,143.59,9.161201477050781
1978-11-01T00:00:00Z,-38.8,143.59,10.838423728942871
1978-12-01T00:00:00Z,-38.8,143.59,11.39409351348877
1979-01-01T00:00:00Z,-38.8,143.59,13.601653099060059
1979-02-01T00:00:00Z,-38.8,143.59,13.946120262145996
1979-03-01T00:00:00Z,-38.8,143.59,12.821760177612305
1979-04-01T00:00:00Z,-38.8,143.59,9.873577117919922
1979-05-01T00:00:00Z,-38.8,143.59,8.777063369750977
1979-06-01T00:00:00Z,-38.8,143.59,8.060803413391113
1979-07-01T00:00:00Z,-38.8,143.59,6.1934075355529785
1979-08-01T00:00:00Z,-38.8,143.59,6.750062942504883
1979-09-01T00:00:00Z,-38.8,143.59,8.021646499633789
1979-10-01T00:00:00Z,-38.8,143.59,9.265151023864746
1979-11-01T00:00:00Z,-38.8,143.59,10.82612419128418
1979-12-01T00:00:00Z,-38.8,143.59,11.45303726196289
1980-01-01T00:00:00Z,-38.8,143.59,11.830238342285156
1980-02-01T00:00:00Z,-38.8,143.59,11.541230201721191
1980-03-01T00:00:00Z,-38.8,143.59,11.367500305175781
1980-04-01T00:00:00Z,-38.8,143.59,11.857196807861328
1980-05-01T00:00:00Z,-38.8,143.59,10.418274879455566
1980-06-01T00:00:00Z,-38.8,143.59,8.070924758911133
1980-07-01T00:00:00Z,-38.8,143.59,7.2132039070129395
1980-08-01T00:00:00Z,-38.8,143.59,7.843342304229736
1980-09-01T00:00:00Z,-38.8,143.59,8.970534324645996
1980-10-01T00:00:00Z,-38.8,143.59,9.058234214782715
1980-11-01T00:00:00Z,-38.8,143.59,10.314214706420898
1980-12-01T00:00:00Z,-38.8,143.59,12.299040794372559
1981-01-01T00:00:00Z,-38.8,143.59,15.063827514648438
1981-02-01T00:00:00Z,-38.8,143.59,15.504255294799805
1981-03-01T00:00:00Z,-38.8,143.59,12.07768440246582
1981-04-01T00:00:00Z,-38.8,143.59,11.04208755493164
1981-05-01T00:00:00Z,-38.8,143.59,9.416108131408691
1981-06-01T00:00:00Z,-38.8,143.59,6.984424114227295
1981-07-01T00:00:00Z,-38.8,143.59,6.977717399597168
1981-08-01T00:00:00Z,-38.8,143.59,6.636375427246094
1981-09-01T00:00:00Z,-38.8,143.59,8.931797981262207
1981-10-01T00:00:00Z,-38.8,143.59,8.906232833862305
1981-11-01T00:00:00Z,-38.8,143.59,10.339934349060059
1981-12-01T00:00:00Z,-38.8,143.59,11.470980644226074
1982-01-01T00:00:00Z,-38.8,143.59,14.029470443725586
1982-02-01T00:00:00Z,-38.8,143.59,13.440693855285645
1982-03-01T00:00:00Z,-38.8,143.59,13.6262845993042
1982-04-01T00:00:00Z,-38.8,143.59,10.805063247680664
1982-05-01T00:00:00Z,-38.8,143.59,9.41932487487793
1982-06-01T00:00:00Z,-38.8,143.59,6.283026218414307
1982-07-01T00:00:00Z,-38.8,143.59,5.213467597961426
1982-08-01T00:00:00Z,-38.8,143.59,7.221262454986572
1982-09-01T00:00:00Z,-38.8,143.59,6.627817630767822
1982-10-01T00:00:00Z,-38.8,143.59,8.201051712036133
1982-11-01T00:00:00Z,-38.8,143.59,10.362725257873535
1982-12-01T00:00:00Z,-38.8,143.59,11.266585350036621
1983-01-01T00:00:00Z,-38.8,143.59,10.984207153320312
1983-02-01T00:00:00Z,-38.8,143.59,14.20625114440918
1983-03-01T00:00:00Z,-38.8,143.59,13.861530303955078
1983-04-01T00:00:00Z,-38.8,143.59,9.832904815673828
1983-05-01T00:00:00Z,-38.8,143.59,9.572996139526367
1983-06-01T00:00:00Z,-38.8,143.59,6.967525959014893
1983-07-01T00:00:00Z,-38.8,143.59,6.410505771636963
1983-08-01T00:00:00Z,-38.8,143.59,8.191462516784668
1983-09-01T00:00:00Z,-38.8,143.59,8.147976875305176
1983-10-01T00:00:00Z,-38.8,143.59,8.955954551696777
1983-11-01T00:00:00Z,-38.8,143.59,10.21955680847168
1983-12-01T00:00:00Z,-38.8,143.59,12.004231452941895
1984-01-01T00:00:00Z,-38.8,143.59,12.431757926940918
1984-02-01T00:00:00Z,-38.8,143.59,12.591191291809082
1984-03-01T00:00:00Z,-38.8,143.59,11.636903762817383
1984-04-01T00:00:00Z,-38.8,143.59,10.3173828125
1984-05-01T00:00:00Z,-38.8,143.59,8.492100715637207
1984-06-01T00:00:00Z,-38.8,143.59,7.385196208953857
1984-07-01T00:00:00Z,-38.8,143.59,6.065650463104248
1984-08-01T00:00:00Z,-38.8,143.59,7.366253852844238
1984-09-01T00:00:00Z,-38.8,143.59,7.402205944061279
1984-10-01T00:00:00Z,-38.8,143.59,8.845345497131348
1984-11-01T00:00:00Z,-38.8,143.59,11.12566089630127
1984-12-01T00:00:00Z,-38.8,143.59,10.501945495605469
1985-01-01T00:00:00Z,-38.8,143.59,11.708527565002441
1985-02-01T00:00:00Z,-38.8,143.59,11.744220733642578
1985-03-01T00:00:00Z,-38.8,143.59,13.85245132446289
1985-04-01T00:00:00Z,-38.8,143.59,12.030451774597168
1985-05-01T00:00:00Z,-38.8,143.59,9.08663272857666
1985-06-01T00:00:00Z,-38.8,143.59,6.8074421882629395
1985-07-01T00:00:00Z,-38.8,143.59,5.998689651489258
1985-08-01T00:00:00Z,-38.8,143.59,7.276039123535156
1985-09-01T00:00:00Z,-38.8,143.59,7.7529473304748535
1985-10-01T00:00:00Z,-38.8,143.59,9.126824378967285
1985-11-01T00:00:00Z,-38.8,143.59,11.097797393798828
1985-12-01T00:00:00Z,-38.8,143.59,12.358076095581055
1986-01-01T00:00:00Z,-38.8,143.59,11.71712589263916
1986-02-01T00:00:00Z,-38.8,143.59,12.391369819641113
1986-03-01T00:00:00Z,-38.8,143.59,12.560592651367188
1986-04-01T00:00:00Z,-38.8,143.59,10.739924430847168
1986-05-01T00:00:00Z,-38.8,143.59,9.998143196105957
1986-06-01T00:00:00Z,-38.8,143.59,7.23528528213501
1986-07-01T00:00:00Z,-38.8,143.59,6.533566951751709
1986-08-01T00:00:00Z,-38.8,143.59,7.006809234619141
1986-09-01T00:00:00Z,-38.8,143.59,8.270479202270508
1986-10-01T00:00:00Z,-38.8,143.59,8.293688774108887
1986-11-01T00:00:00Z,-38.8,143.59,9.652674674987793
1986-12-01T00:00:00Z,-38.8,143.59,10.756396293640137
1987-01-01T00:00:00Z,-38.8,143.59,10.736149787902832
1987-02-01T00:00:00Z,-38.8,143.59,11.543481826782227
1987-03-01T00:00:00Z,-38.8,143.59,10.906440734863281
1987-04-01T00:00:00Z,-38.8,143.59,10.962396621704102
1987-05-01T00:00:00Z,-38.8,143.59,9.505547523498535
1987-06-01T00:00:00Z,-38.8,143.59,8.044763565063477
1987-07-01T00:00:00Z,-38.8,143.59,6.126058578491211
1987-08-01T00:00:00Z,-38.8,143.59,7.027431488037109
1987-09-01T00:00:00Z,-38.8,143.59,8.379796028137207
1987-10-01T00:00:00Z,-38.8,143.59,8.695119857788086
1987-11-01T00:00:00Z,-38.8,143.59,11.09471607208252
1987-12-01T00:00:00Z,-38.8,143.59,10.935077667236328
1988-01-01T00:00:00Z,-38.8,143.59,13.45811939239502
1988-02-01T00:00:00Z,-38.8,143.59,12.672954559326172
1988-03-01T00:00:00Z,-38.8,143.59,13.009885787963867
1988-04-01T00:00:00Z,-38.8,143.59,11.753022193908691
1988-05-01T00:00:00Z,-38.8,143.59,11.16062068939209
1988-06-01T00:00:00Z,-38.8,143.59,8.438932418823242
1988-07-01T00:00:00Z,-38.8,143.59,8.040225982666016
1988-08-01T00:00:00Z,-38.8,143.59,7.839764595031738
1988-09-01T00:00:00Z,-38.8,143.59,8.731318473815918
1988-10-01T00:00:00Z,-38.8,143.59,9.166836738586426
1988-11-01T00:00:00Z,-38.8,143.59,10.672080993652344
1988-12-01T00:00:00Z,-38.8,143.59,12.589365005493164
1989-01-01T00:00:00Z,-38.8,143.59,13.400482177734375
1989-02-01T00:00:00Z,-38.8,143.59,13.940072059631348
1989-03-01T00:00:00Z,-38.8,143.59,14.32948112487793
1989-04-01T00:00:00Z,-38.8,143.59,12.289752006530762
1989-05-01T00:00:00Z,-38.8,143.59,10.067912101745605
1989-06-01T00:00:00Z,-38.8,143.59,6.684323310852051
1989-07-01T00:00:00Z,-38.8,143.59,6.289071559906006
1989-08-01T00:00:00Z,-38.8,143.59,6.037364959716797
1989-09-01T00:00:00Z,-38.8,143.59,7.707336902618408
1989-10-01T00:00:00Z,-38.8,143.59,8.349969863891602
1989-11-01T00:00:00Z,-38.8,143.59,11.038969993591309
1989-12-01T00:00:00Z,-38.8,143.59,11.55927562713623
1990-01-01T00:00:00Z,-38.8,143.59,12.764999389648438
1990-02-01T00:00:00Z,-38.8,143.59,13.701656341552734
1990-03-01T00:00:00Z,-38.8,143.59,13.074230194091797
1990-04-01T00:00:00Z,-38.8,143.59,12.135869026184082
1990-05-01T00:00:00Z,-38.8,143.59,9.255763053894043
1990-06-01T00:00:00Z,-38.8,143.59,7.395162582397461
1990-07-01T00:00:00Z,-38.8,143.59,7.298939228057861
1990-08-01T00:00:00Z,-38.8,143.59,6.838558197021484
1990-09-01T00:00:00Z,-38.8,143.59,8.298913955688477
1990-10-01T00:00:00Z,-38.8,143.59,9.26966381072998
1990-11-01T00:00:00Z,-38.8,143.59,10.48267936706543
1990-12-01T00:00:00Z,-38.8,143.59,12.053374290466309
1991-01-01T00:00:00Z,-38.8,143.59,13.605459213256836
1991-02-01T00:00:00Z,-38.8,143.59,11.622775077819824
1991-03-01T00:00:00Z,-38.8,143.59,11.136892318725586
1991-04-01T00:00:00Z,-38.8,143.59,10.05849552154541
1991-05-01T00:00:00Z,-38.8,143.59,9.020182609558105
1991-06-01T00:00:00Z,-38.8,143.59,9.280821800231934
1991-07-01T00:00:00Z,-38.8,143.59,7.336956024169922
1991-08-01T00:00:00Z,-38.8,143.59,6.72233247756958
1991-09-01T00:00:00Z,-38.8,143.59,7.7786030769348145
1991-10-01T00:00:00Z,-38.8,143.59,9.620208740234375
1991-11-01T00:00:00Z,-38.8,143.59,9.326957702636719
1991-12-01T00:00:00Z,-38.8,143.59,11.33836555480957
1992-01-01T00:00:00Z,-38.8,143.59,11.370879173278809
1992-02-01T00:00:00Z,-38.8,143.59,12.645419120788574
1992-03-01T00:00:00Z,-38.8,143.59,13.503545761108398
1992-04-01T00:00:00Z,-38.8,143.59,11.420783042907715
1992-05-01T00:00:00Z,-38.8,143.59,9.119836807250977
1992-06-01T00:00:00Z,-38.8,143.59,7.232415199279785
1992-07-01T00:00:00Z,-38.8,143.59,7.308981895446777
1992-08-01T00:00:00Z,-38.8,143.59,6.269531726837158
1992-09-01T00:00:00Z,-38.8,143.59,6.692309856414795
1992-10-01T00:00:00Z,-38.8,143.59,9.6007080078125
1992-11-01T00:00:00Z,-38.8,143.59,9.642641067504883
1992-12-01T00:00:00Z,-38.8,143.59,13.03371524810791
1993-01-01T00:00:00Z,-38.8,143.59,13.237507820129395
1993-02-01T00:00:00Z,-38.8,143.59,13.537564277648926
1993-03-01T00:00:00Z,-38.8,143.59,12.72981071472168
1993-04-01T00:00:00Z,-38.8,143.59,10.75479793548584
1993-05-01T00:00:00Z,-38.8,143.59,8.93055248260498
1993-06-01T00:00:00Z,-38.8,143.59,7.838138580322266
1993-07-01T00:00:00Z,-38.8,143.59,7.658925533294678
1993-08-01T00:00:00Z,-38.8,143.59,7.9238715171813965
1993-09-01T00:00:00Z,-38.8,143.59,8.469536781311035
1993-10-01T00:00:00Z,-38.8,143.59,8.517860412597656
1993-11-01T00:00:00Z,-38.8,143.59,9.335719108581543
1993-12-01T00:00:00Z,-38.8,143.59,11.145381927490234
1994-01-01T00:00:00Z,-38.8,143.59,10.933561325073242
1994-02-01T00:00:00Z,-38.8,143.59,13.7047700881958
1994-03-01T00:00:00Z,-38.8,143.59,11.93139362335205
1994-04-01T00:00:00Z,-38.8,143.59,10.912301063537598
1994-05-01T00:00:00Z,-38.8,143.59,8.970890045166016
1994-06-01T00:00:00Z,-38.8,143.59,7.22836971282959
1994-07-01T00:00:00Z,-38.8,143.59,6.812911510467529
1994-08-01T00:00:00Z,-38.8,143.59,5.762269496917725
1994-09-01T00:00:00Z,-38.8,143.59,6.582839012145996
1994-10-01T00:00:00Z,-38.8,143.59,8.518619537353516
1994-11-01T00:00:00Z,-38.8,143.59,9.238286018371582
1994-12-01T00:00:00Z,-38.8,143.59,12.205418586730957
1995-01-01T00:00:00Z,-38.8,143.59,13.866425514221191
1995-02-01T00:00:00Z,-38.8,143.59,13.617546081542969
1995-03-01T00:00:00Z,-38.8,143.59,11.880914688110352
1995-04-01T00:00:00Z,-38.8,143.59,8.86929988861084
1995-05-01T00:00:00Z,-38.8,143.59,8.831595420837402
1995-06-01T00:00:00Z,-38.8,143.59,7.578606128692627
1995-07-01T00:00:00Z,-38.8,143.59,6.250515460968018
1995-08-01T00:00:00Z,-38.8,143.59,6.9174017906188965
1995-09-01T00:00:00Z,-38.8,143.59,6.996688365936279
1995-10-01T00:00:00Z,-38.8,143.59,7.9844584465026855
1995-11-01T00:00:00Z,-38.8,143.59,9.711249351501465
1995-12-01T00:00:00Z,-38.8,143.59,9.774086952209473
1996-01-01T00:00:00Z,-38.8,143.59,12.501049995422363
1996-02-01T00:00:00Z,-38.8,143.59,12.09133243560791
1996-03-01T00:00:00Z,-38.8,143.59,11.862738609313965
1996-04-01T00:00:00Z,-38.8,143.59,9.823678016662598
1996-05-01T00:00:00Z,-38.8,143.59,9.086442947387695
1996-06-01T00:00:00Z,-38.8,143.59,7.337082862854004
1996-07-01T00:00:00Z,-38.8,143.59,6.636037349700928
1996-08-01T00:00:00Z,-38.8,143.59,7.231686115264893
1996-09-01T00:00:00Z,-38.8,143.59,7.678884983062744
1996-10-01T00:00:00Z,-38.8,143.59,9.165319442749023
1996-11-01T00:00:00Z,-38.8,143.59,9.227930068969727
1996-12-01T00:00:00Z,-38.8,143.59,9.632187843322754
1997-01-01T00:00:00Z,-38.8,143.59,13.866180419921875
1997-02-01T00:00:00Z,-38.8,143.59,15.41026496887207
1997-03-01T00:00:00Z,-38.8,143.59,11.990601539611816
1997-04-01T00:00:00Z,-38.8,143.59,9.926682472229004
1997-05-01T00:00:00Z,-38.8,143.59,9.338366508483887
1997-06-01T00:00:00Z,-38.8,143.59,7.67728328704834
1997-07-01T00:00:00Z,-38.8,143.59,5.906579971313477
1997-08-01T00:00:00Z,-38.8,143.59,6.600031852722168
1997-09-01T00:00:00Z,-38.8,143.59,7.729689121246338
1997-10-01T00:00:00Z,-38.8,143.59,8.82894229888916
1997-11-01T00:00:00Z,-38.8,143.59,10.261817932128906
1997-12-01T00:00:00Z,-38.8,143.59,11.305110931396484
1998-01-01T00:00:00Z,-38.8,143.59,13.437634468078613
1998-02-01T00:00:00Z,-38.8,143.59,12.436842918395996
1998-03-01T00:00:00Z,-38.8,143.59,12.209220886230469
1998-04-01T00:00:00Z,-38.8,143.59,9.94526481628418
1998-05-01T00:00:00Z,-38.8,143.59,8.831207275390625
1998-06-01T00:00:00Z,-38.8,143.59,6.796115398406982
1998-07-01T00:00:00Z,-38.8,143.59,5.764745712280273
1998-08-01T00:00:00Z,-38.8,143.59,7.080378532409668
1998-09-01T00:00:00Z,-38.8,143.59,8.580896377563477
1998-10-01T00:00:00Z,-38.8,143.59,7.901528835296631
1998-11-01T00:00:00Z,-38.8,143.59,9.361078262329102
1998-12-01T00:00:00Z,-38.8,143.59,11.85220718383789
1999-01-01T00:00:00Z,-38.8,143.59,13.961523056030273
1999-02-01T00:00:00Z,-38.8,143.59,14.925431251525879
1999-03-01T00:00:00Z,-38.8,143.59,12.143234252929688
1999-04-01T00:00:00Z,-38.8,143.59,9.413386344909668
1999-05-01T00:00:00Z,-38.8,143.59,9.495077133178711
1999-06-01T00:00:00Z,-38.8,143.59,7.694305419921875
1999-07-01T00:00:00Z,-38.8,143.59,7.792266845703125
1999-08-01T00:00:00Z,-38.8,143.59,8.018308639526367
1999-09-01T00:00:00Z,-38.8,143.59,8.653447151184082
1999-10-01T00:00:00Z,-38.8,143.59,9.649381637573242
1999-11-01T00:00:00Z,-38.8,143.59,9.973262786865234
1999-12-01T00:00:00Z,-38.8,143.59,12.253664016723633
2000-01-01T00:00:00Z,-38.8,143.59,13.153792381286621
2000-02-01T00:00:00Z,-38.8,143.59,14.91980266571045
2000-03-01T00:00:00Z,-38.8,143.59,13.304176330566406
2000-04-01T00:00:00Z,-38.8,143.59,10.92189884185791
2000-05-01T00:00:00Z,-38.8,143.59,9.341479301452637
2000-06-01T00:00:00Z,-38.8,143.59,7.746506690979004
2000-07-01T00:00:00Z,-38.8,143.59,6.898735523223877
2000-08-01T00:00:00Z,-38.8,143.59,6.552579402923584
2000-09-01T00:00:00Z,-38.8,143.59,8.49321174621582
2000-10-01T00:00:00Z,-38.8,143.59,8.87299919128418
2000-11-01T00:00:00Z,-38.8,143.59,12.73996639251709
2000-12-01T00:00:00Z,-38.8,143.59,11.334986686706543
2001-01-01T00:00:00Z,-38.8,143.59,14.69180965423584
2001-02-01T00:00:00Z,-38.8,143.59,15.55534553527832
2001-03-01T00:00:00Z,-38.8,143.59,12.549288749694824
2001-04-01T00:00:00Z,-38.8,143.59,10.448531150817871
2001-05-01T00:00:00Z,-38.8,143.59,8.993968963623047
2001-06-01T00:00:00Z,-38.8,143.59,8.804943084716797
2001-07-01T00:00:00Z,-38.8,143.59,7.692889213562012
2001-08-01T00:00:00Z,-38.8,143.59,7.52454948425293
2001-09-01T00:00:00Z,-38.8,143.59,9.033411026000977
2001-10-01T00:00:00Z,-38.8,143.59,8.884501457214355
2001-11-01T00:00:00Z,-38.8,143.59,9.84407901763916
2001-12-01T00:00:00Z,-38.8,143.59,10.118488311767578
2002-01-01T00:00:00Z,-38.8,143.59,12.105690956115723
2002-02-01T00:00:00Z,-38.8,143.59,12.937304496765137
2002-03-01T00:00:00Z,-38.8,143.59,12.484929084777832
2002-04-01T00:00:00Z,-38.8,143.59,11.356674194335938
2002-05-01T00:00:00Z,-38.8,143.59,9.125913619995117
2002-06-01T00:00:00Z,-38.8,143.59,7.826167583465576
2002-07-01T00:00:00Z,-38.8,143.59,7.228438377380371
2002-08-01T00:00:00Z,-38.8,143.59,6.842991352081299
2002-09-01T00:00:00Z,-38.8,143.59,7.7739996910095215
2002-10-01T00:00:00Z,-38.8,143.59,8.794726371765137
2002-11-01T00:00:00Z,-38.8,143.59,9.91208553314209
2002-12-01T00:00:00Z,-38.8,143.59,11.708030700683594
2003-01-01T00:00:00Z,-38.8,143.59,12.920955657958984
2003-02-01T00:00:00Z,-38.8,143.59,13.995450973510742
2003-03-01T00:00:00Z,-38.8,143.59,12.499407768249512
2003-04-01T00:00:00Z,-38.8,143.59,11.038596153259277
2003-05-01T00:00:00Z,-38.8,143.59,9.121445655822754
2003-06-01T00:00:00Z,-38.8,143.59,8.225730895996094
2003-07-01T00:00:00Z,-38.8,143.59,6.854996204376221
2003-08-01T00:00:00Z,-38.8,143.59,6.645466327667236
2003-09-01T00:00:00Z,-38.8,143.59,6.957833766937256
2003-10-01T00:00:00Z,-38.8,143.59,7.80030632019043
2003-11-01T00:00:00Z,-38.8,143.59,10.420393943786621
2003-12-01T00:00:00Z,-38.8,143.59,12.61534595489502
2004-01-01T00:00:00Z,-38.8,143.59,11.42565631866455
2004-02-01T00:00:00Z,-38.8,143.59,12.667281150817871
2004-03-01T00:00:00Z,-38.8,143.59,11.623581886291504
2004-04-01T00:00:00Z,-38.8,143.59,10.820232391357422
2004-05-01T00:00:00Z,-38.8,143.59,8.697169303894043
2004-06-01T00:00:00Z,-38.8,143.59,8.015118598937988
2004-07-01T00:00:00Z,-38.8,143.59,6.814720153808594
2004-08-01T00:00:00Z,-38.8,143.59,7.3025126457214355
2004-09-01T00:00:00Z,-38.8,143.59,8.16787338256836
2004-10-01T00:00:00Z,-38.8,143.59,9.150848388671875
2004-11-01T00:00:00Z,-38.8,143.59,10.307286262512207
2004-12-01T00:00:00Z,-38.8,143.59,12.07563591003418
2005-01-01T00:00:00Z,-38.8,143.59,12.774855613708496
2005-02-01T00:00:00Z,-38.8,143.59,12.285487174987793
2005-03-01T00:00:00Z,-38.8,143.59,11.752654075622559
2005-04-01T00:00:00Z,-38.8,143.59,11.59826946258545
2005-05-01T00:00:00Z,-38.8,143.59,9.325634002685547
2005-06-01T00:00:00Z,-38.8,143.59,7.602443218231201
2005-07-01T00:00:00Z,-38.8,143.59,7.6762590408325195
2005-08-01T00:00:00Z,-38.8,143.59,7.667891025543213
2005-09-01T00:00:00Z,-38.8,143.59,7.892003536224365
2005-10-01T00:00:00Z,-38.8,143.59,9.702173233032227
2005-11-01T00:00:00Z,-38.8,143.59,11.415769577026367
2005-12-01T00:00:00Z,-38.8,143.59,11.95171070098877
2006-01-01T00:00:00Z,-38.8,143.59,13.8700590133667
2006-02-01T00:00:00Z,-38.8,143.59,13.023457527160645
2006-03-01T00:00:00Z,-38.8,143.59,12.892220497131348
2006-04-01T00:00:00Z,-38.8,143.59,9.601953506469727
2006-05-01T00:00:00Z,-38.8,143.59,8.145124435424805
2006-06-01T00:00:00Z,-38.8,143.59,6.093277454376221
2006-07-01T00:00:00Z,-38.8,143.59,7.043508052825928
2006-08-01T00:00:00Z,-38.8,143.59,7.044444561004639
2006-09-01T00:00:00Z,-38.8,143.59,7.998476028442383
2006-10-01T00:00:00Z,-38.8,143.59,7.688930034637451
2006-11-01T00:00:00Z,-38.8,143.59,9.451643943786621
2006-12-01T00:00:00Z,-38.8,143.59,10.653532981872559
2007-01-01T00:00:00Z,-38.8,143.59,14.122349739074707
2007-02-01T00:00:00Z,-38.8,143.59,15.440638542175293
2007-03-01T00:00:00Z,-38.8,143.59,12.877012252807617
2007-04-01T00:00:00Z,-38.8,143.59,11.54238224029541
2007-05-01T00:00:00Z,-38.8,143.59,11.50589656829834
2007-06-01T00:00:00Z,-38.8,143.59,7.232394218444824
2007-07-01T00:00:00Z,-38.8,143.59,6.502220153808594
2007-08-01T00:00:00Z,-38.8,143.59,7.630125999450684
2007-09-01T00:00:00Z,-38.8,143.59,7.641782283782959
2007-10-01T00:00:00Z,-38.8,143.59,8.589974403381348
2007-11-01T00:00:00Z,-38.8,143.59,11.511589050292969
2007-12-01T00:00:00Z,-38.8,143.59,12.40719985961914
2008-01-01T00:00:00Z,-38.8,143.59,13.843008995056152
2008-02-01T00:00:00Z,-38.8,143.59,12.901864051818848
2008-03-01T00:00:00Z,-38.8,143.59,12.56556224822998
2008-04-01T00:00:00Z,-38.8,143.59,9.895082473754883
2008-05-01T00:00:00Z,-38.8,143.59,9.094222068786621
2008-06-01T00:00:00Z,-38.8,143.59,8.925164222717285
2008-07-01T00:00:00Z,-38.8,143.59,6.078563690185547
2008-08-01T00:00:00Z,-38.8,143.59,6.374850273132324
2008-09-01T00:00:00Z,-38.8,143.59,7.713615894317627
2008-10-01T00:00:00Z,-38.8,143.59,8.809311866760254
2008-11-01T00:00:00Z,-38.8,143.59,10.41923713684082
2008-12-01T00:00:00Z,-38.8,143.59,10.910102844238281
2009-01-01T00:00:00Z,-38.8,143.59,12.178412437438965
2009-02-01T00:00:00Z,-38.8,143.59,13.931632995605469
2009-03-01T00:00:00Z,-38.8,143.59,12.179405212402344
2009-04-01T00:00:00Z,-38.8,143.59,10.236516952514648
2009-05-01T00:00:00Z,-38.8,143.59,9.477616310119629
2009-06-01T00:00:00Z,-38.8,143.59,7.271885871887207
2009-07-01T00:00:00Z,-38.8,143.59,7.239181995391846
2009-08-01T00:00:00Z,-38.8,143.59,8.16634464263916
2009-09-01T00:00:00Z,-38.8,143.59,8.371047973632812
2009-10-01T00:00:00Z,-38.8,143.59,8.592059135437012
2009-11-01T00:00:00Z,-38.8,143.59,12.94888687133789
2009-12-01T00:00:00Z,-38.8,143.59,11.746549606323242
2010-01-01T00:00:00Z,-38.8,143.59,12.585429191589355
2010-02-01T00:00:00Z,-38.8,143.59,14.986886978149414
2010-03-01T00:00:00Z,-38.8,143.59,13.635690689086914
2010-04-01T00:00:00Z,-38.8,143.59,12.795971870422363
2010-05-01T00:00:00Z,-38.8,143.59,8.942782402038574
2010-06-01T00:00:00Z,-38.8,143.59,6.910538673400879
2010-07-01T00:00:00Z,-38.8,143.59,6.883756160736084
2010-08-01T00:00:00Z,-38.8,143.59,6.800931930541992
2010-09-01T00:00:00Z,-38.8,143.59,8.051721572875977
2010-10-01T00:00:00Z,-38.8,143.59,8.64650821685791
2010-11-01T00:00:00Z,-38.8,143.59,10.72626781463623
2010-12-01T00:00:00Z,-38.8,143.59,11.751760482788086
2011-01-01T00:00:00Z,-38.8,143.59,13.815460205078125
2011-02-01T00:00:00Z,-38.8,143.59,13.601903915405273
2011-03-01T00:00:00Z,-38.8,143.59,12.70424747467041
2011-04-01T00:00:00Z,-38.8,143.59,10.995555877685547
2011-05-01T00:00:00Z,-38.8,143.59,8.779332160949707
2011-06-01T00:00:00Z,-38.8,143.59,7.556350231170654
2011-07-01T00:00:00Z,-38.8,143.59,7.423977375030518
2011-08-01T00:00:00Z,-38.8,143.59,8.131905555725098
2011-09-01T00:00:00Z,-38.8,143.59,8.430038452148438
2011-10-01T00:00:00Z,-38.8,143.59,9.729117393493652
2011-11-01T00:00:00Z,-38.8,143.59,11.674409866333008
2011-12-01T00:00:00Z,-38.8,143.59,12.642568588256836
2012-01-01T00:00:00Z,-38.8,143.59,14.25362491607666
2012-02-01T00:00:00Z,-38.8,143.59,14.585997581481934
2012-03-01T00:00:00Z,-38.8,143.59,12.530760765075684
2012-04-01T00:00:00Z,-38.8,143.59,11.254420280456543
2012-05-01T00:00:00Z,-38.8,143.59,9.526392936706543
2012-06-01T00:00:00Z,-38.8,143.59,7.626263618469238
2012-07-01T00:00:00Z,-38.8,143.59,7.521804332733154
2012-08-01T00:00:00Z,-38.8,143.59,7.142126560211182
2012-09-01T00:00:00Z,-38.8,143.59,8.217732429504395
2012-10-01T00:00:00Z,-38.8,143.59,8.852375030517578
2012-11-01T00:00:00Z,-38.8,143.59,10.797209739685059
2012-12-01T00:00:00Z,-38.8,143.59,11.98453140258789
