time,latitude[unit="degrees_north"],longitude[unit="degrees_east"],air_temperature[unit="C"]
1970-01-01T00:00:00Z,-30.1913,120.6541,35.56845474243164
1970-02-01T00:00:00Z,-30.1913,120.6541,35.20415115356445
1970-03-01T00:00:00Z,-30.1913,120.6541,32.7415771484375
1970-04-01T00:00:00Z,-30.1913,120.6541,24.20479393005371
1970-05-01T00:00:00Z,-30.1913,120.6541,19.76975440979004
1970-06-01T00:00:00Z,-30.1913,120.6541,17.806804656982422
1970-07-01T00:00:00Z,-30.1913,120.6541,18.20842933654785
1970-08-01T00:00:00Z,-30.1913,120.6541,18.643281936645508
1970-09-01T00:00:00Z,-30.1913,120.6541,21.644472122192383
1970-10-01T00:00:00Z,-30.1913,120.6541,26.94297218322754
1970-11-01T00:00:00Z,-30.1913,120.6541,29.94849395751953
1970-12-01T00:00:00Z,-30.1913,120.6541,34.37272262573242
1971-01-01T00:00:00Z,-30.1913,120.6541,35.49720001220703
1971-02-01T00:00:00Z,-30.1913,120.6541,33.544063568115234
1971-03-01T00:00:00Z,-30.1913,120.6541,30.50734519958496
1971-04-01T00:00:00Z,-30.1913,120.6541,26.209802627563477
1971-05-01T00:00:00Z,-30.1913,120.6541,21.288610458374023
1971-06-01T00:00:00Z,-30.1913,120.6541,17.98194122314453
1971-07-01T00:00:00Z,-30.1913,120.6541,17.503074645996094
1971-08-01T00:00:00Z,-30.1913,120.6541,17.781879425048828
1971-09-01T00:00:00Z,-30.1913,120.6541,21.5148868560791
1971-10-01T00:00:00Z,-30.1913,120.6541,25.352842330932617
1971-11-01T00:00:00Z,-30.1913,120.6541,26.850324630737305
1971-12-01T00:00:00Z,-30.1913,120.6541,32.55705642700195
1972-01-01T00:00:00Z,-30.1913,120.6541,34.57568359375
1972-02-01T00:00:00Z,-30.1913,120.6541,33.80695343017578
1972-03-01T00:00:00Z,-30.1913,120.6541,31.62128257751465
1972-04-01T00:00:00Z,-30.1913,120.6541,27.51894760131836
1972-05-01T00:00:00Z,-30.1913,120.6541,24.312602996826172
1972-06-01T00:00:00Z,-30.1913,120.6541,18.756502151489258
1972-07-01T00:00:00Z,-30.1913,120.6541,15.795933723449707
1972-08-01T00:00:00Z,-30.1913,120.6541,17.993661880493164
1972-09-01T00:00:00Z,-30.1913,120.6541,23.55730628967285
1972-10-01T00:00:00Z,-30.1913,120.6541,26.866037368774414
1972-11-01T00:00:00Z,-30.1913,120.6541,30.458837509155273
1972-12-01T00:00:00Z,-30.1913,120.6541,37.2646369934082
1973-01-01T00:00:00Z,-30.1913,120.6541,33.71989059448242
1973-02-01T00:00:00Z,-30.1913,120.6541,34.63967514038086
1973-03-01T00:00:00Z,-30.1913,120.6541,30.506267547607422
1973-04-01T00:00:00Z,-30.1913,120.6541,25.418048858642578
1973-05-01T00:00:00Z,-30.1913,120.6541,21.139413833618164
1973-06-01T00:00:00Z,-30.1913,120.6541,15.33232593536377
1973-07-01T00:00:00Z,-30.1913,120.6541,16.448545455932617
1973-08-01T00:00:00Z,-30.1913,120.6541,16.981576919555664
1973-09-01T00:00:00Z,-30.1913,120.6541,20.45334243774414
1973-10-01T00:00:00Z,-30.1913,120.6541,25.38448715209961
1973-11-01T00:00:00Z,-30.1913,120.6541,28.083805084228516
1973-12-01T00:00:00Z,-30.1913,120.6541,33.11714553833008
1974-01-01T00:00:00Z,-30.1913,120.6541,34.67110061645508
1974-02-01T00:00:00Z,-30.1913,120.6541,31.328697204589844
1974-03-01T00:00:00Z,-30.1913,120.6541,29.91280746459961
1974-04-01T00:00:00Z,-30.1913,120.6541,21.448644638061523
1974-05-01T00:00:00Z,-30.1913,120.6541,19.5164794921875
1974-06-01T00:00:00Z,-30.1913,120.6541,16.846250534057617
1974-07-01T00:00:00Z,-30.1913,120.6541,15.892704963684082
1974-08-01T00:00:00Z,-30.1913,120.6541,18.05948829650879
1974-09-01T00:00:00Z,-30.1913,120.6541,20.704866409301758
1974-10-01T00:00:00Z,-30.1913,120.6541,25.55451774597168
1974-11-01T00:00:00Z,-30.1913,120.6541,28.991674423217773
1974-12-01T00:00:00Z,-30.1913,120.6541,33.853389739990234
1975-01-01T00:00:00Z,-30.1913,120.6541,34.15690612792969
1975-02-01T00:00:00Z,-30.1913,120.6541,32.028717041015625
1975-03-01T00:00:00Z,-30.1913,120.6541,27.38445472717285
1975-04-01T00:00:00Z,-30.1913,120.6541,23.83165168762207
1975-05-01T00:00:00Z,-30.1913,120.6541,20.5472469329834
1975-06-01T00:00:00Z,-30.1913,120.6541,16.955087661743164
1975-07-01T00:00:00Z,-30.1913,120.6541,17.436220169067383
1975-08-01T00:00:00Z,-30.1913,120.6541,17.795745849609375
1975-09-01T00:00:00Z,-30.1913,120.6541,21.35024642944336
1975-10-01T00:00:00Z,-30.1913,120.6541,22.04644775390625
1975-11-01T00:00:00Z,-30.1913,120.6541,29.338603973388672
1975-12-01T00:00:00Z,-30.1913,120.6541,32.69051742553711
1976-01-01T00:00:00Z,-30.1913,120.6541,33.11631774902344
1976-02-01T00:00:00Z,-30.1913,120.6541,33.06035614013672
1976-03-01T00:00:00Z,-30.1913,120.6541,31.84075164794922
1976-04-01T00:00:00Z,-30.1913,120.6541,26.21390724182129
1976-05-01T00:00:00Z,-30.1913,120.6541,22.35991859436035
1976-06-01T00:00:00Z,-30.1913,120.6541,17.811979293823242
1976-07-01T00:00:00Z,-30.1913,120.6541,18.873750686645508
1976-08-01T00:00:00Z,-30.1913,120.6541,19.736038208007812
1976-09-01T00:00:00Z,-30.1913,120.6541,23.30436897277832
1976-10-01T00:00:00Z,-30.1913,120.6541,24.544105529785156
1976-11-01T00:00:00Z,-30.1913,120.6541,27.234220504760742
1976-12-01T00:00:00Z,-30.1913,120.6541,35.42029571533203
1977-01-01T00:00:00Z,-30.1913,120.6541,36.65828323364258
1977-02-01T00:00:00Z,-30.1913,120.6541,35.52812194824219
1977-03-01T00:00:00Z,-30.1913,120.6541,30.29424285888672
1977-04-01T00:00:00Z,-30.1913,120.6541,26.300050735473633
1977-05-01T00:00:00Z,-30.1913,120.6541,19.34333038330078
1977-06-01T00:00:00Z,-30.1913,120.6541,18.423471450805664
1977-07-01T00:00:00Z,-30.1913,120.6541,19.583768844604492
1977-08-01T00:00:00Z,-30.1913,120.6541,20.521949768066406
1977-09-01T00:00:00Z,-30.1913,120.6541,22.26083755493164
1977-10-01T00:00:00Z,-30.1913,120.6541,27.341747283935547
1977-11-01T00:00:00Z,-30.1913,120.6541,29.694026947021484
1977-12-01T00:00:00Z,-30.1913,120.6541,35.628700256347656
1978-01-01T00:00:00Z,-30.1913,120.6541,34.4608268737793
1978-02-01T00:00:00Z,-30.1913,120.6541,33.10670852661133
1978-03-01T00:00:00Z,-30.1913,120.6541,31.628053665161133
1978-04-01T00:00:00Z,-30.1913,120.6541,28.79464340209961
1978-05-01T00:00:00Z,-30.1913,120.6541,21.588520050048828
1978-06-01T00:00:00Z,-30.1913,120.6541,17.018571853637695
1978-07-01T00:00:00Z,-30.1913,120.6541,15.330329895019531
1978-08-01T00:00:00Z,-30.1913,120.6541,18.557897567749023
1978-09-01T00:00:00Z,-30.1913,120.6541,20.390453338623047
1978-10-01T00:00:00Z,-30.1913,120.6541,26.00715446472168
1978-11-01T00:00:00Z,-30.1913,120.6541,29.627851486206055
1978-12-01T00:00:00Z,-30.1913,120.6541,32.160274505615234
1979-01-01T00:00:00Z,-30.1913,120.6541,35.91788101196289
1979-02-01T00:00:00Z,-30.1913,120.6541,32.6949577331543
1979-03-01T00:00:00Z,-30.1913,120.6541,32.04951858520508
1979-04-01T00:00:00Z,-30.1913,120.6541,25.72346305847168
1979-05-01T00:00:00Z,-30.1913,120.6541,18.593494415283203
1979-06-01T00:00:00Z,-30.1913,120.6541,18.47780990600586
1979-07-01T00:00:00Z,-30.1913,120.6541,18.160375595092773
1979-08-01T00:00:00Z,-30.1913,120.6541,16.826772689819336
1979-09-01T00:00:00Z,-30.1913,120.6541,20.71023941040039
1979-10-01T00:00:00Z,-30.1913,120.6541,27.67915153503418
1979-11-01T00:00:00Z,-30.1913,120.6541,31.331058502197266
1979-12-01T00:00:00Z,-30.1913,120.6541,34.174251556396484
1980-01-01T00:00:00Z,-30.1913,120.6541,36.12275695800781
1980-02-01T00:00:00Z,-30.1913,120.6541,32.521949768066406
1980-03-01T00:00:00Z,-30.1913,120.6541,33.93189239501953
1980-04-01T00:00:00Z,-30.1913,120.6541,26.111845016479492
1980-05-01T00:00:00Z,-30.1913,120.6541,20.188682556152344
1980-06-01T00:00:00Z,-30.1913,120.6541,15.403901100158691
1980-07-01T00:00:00Z,-30.1913,120.6541,15.640739440917969
1980-08-01T00:00:00Z,-30.1913,120.6541,19.137346267700195
1980-09-01T00:00:00Z,-30.1913,120.6541,24.361305236816406
1980-10-01T00:00:00Z,-30.1913,120.6541,24.050121307373047
1980-11-01T00:00:00Z,-30.1913,120.6541,32.04658889770508
1980-12-01T00:00:00Z,-30.1913,120.6541,34.48014450073242
1981-01-01T00:00:00Z,-30.1913,120.6541,33.234134674072266
1981-02-01T00:00:00Z,-30.1913,120.6541,30.21369743347168
1981-03-01T00:00:00Z,-30.1913,120.6541,30.746524810791016
1981-04-01T00:00:00Z,-30.1913,120.6541,30.03272819519043
1981-05-01T00:00:00Z,-30.1913,120.6541,20.304031372070312
1981-06-01T00:00:00Z,-30.1913,120.6541,15.100114822387695
1981-07-01T00:00:00Z,-30.1913,120.6541,16.653160095214844
1981-08-01T00:00:00Z,-30.1913,120.6541,17.88578987121582
1981-09-01T00:00:00Z,-30.1913,120.6541,25.677608489990234
1981-10-01T00:00:00Z,-30.1913,120.6541,28.68701171875
1981-11-01T00:00:00Z,-30.1913,120.6541,26.651758193969727
1981-12-01T00:00:00Z,-30.1913,120.6541,30.835580825805664
1982-01-01T00:00:00Z,-30.1913,120.6541,33.94279861450195
1982-02-01T00:00:00Z,-30.1913,120.6541,34.01776123046875
1982-03-01T00:00:00Z,-30.1913,120.6541,27.907787322998047
1982-04-01T00:00:00Z,-30.1913,120.6541,26.674480438232422
1982-05-01T00:00:00Z,-30.1913,120.6541,21.111835479736328
1982-06-01T00:00:00Z,-30.1913,120.6541,16.72829246520996
1982-07-01T00:00:00Z,-30.1913,120.6541,16.808420181274414
1982-08-01T00:00:00Z,-30.1913,120.6541,21.757509231567383
1982-09-01T00:00:00Z,-30.1913,120.6541,22.589048385620117
1982-10-01T00:00:00Z,-30.1913,120.6541,26.10373878479004
1982-11-01T00:00:00Z,-30.1913,120.6541,32.429840087890625
1982-12-01T00:00:00Z,-30.1913,120.6541,34.644405364990234
1983-01-01T00:00:00Z,-30.1913,120.6541,35.60877227783203
1983-02-01T00:00:00Z,-30.1913,120.6541,35.141666412353516
1983-03-01T00:00:00Z,-30.1913,120.6541,29.318910598754883
1983-04-01T00:00:00Z,-30.1913,120.6541,25.273008346557617
1983-05-01T00:00:00Z,-30.1913,120.6541,23.869831085205078
1983-06-01T00:00:00Z,-30.1913,120.6541,19.418033599853516
1983-07-01T00:00:00Z,-30.1913,120.6541,17.06012725830078
1983-08-01T00:00:00Z,-30.1913,120.6541,20.96710205078125
1983-09-01T00:00:00Z,-30.1913,120.6541,24.42494773864746
1983-10-01T00:00:00Z,-30.1913,120.6541,27.14295196533203
1983-11-01T00:00:00Z,-30.1913,120.6541,27.93065643310547
1983-12-01T00:00:00Z,-30.1913,120.6541,31.89731216430664
1984-01-01T00:00:00Z,-30.1913,120.6541,34.27048873901367
1984-02-01T00:00:00Z,-30.1913,120.6541,33.9507942199707
1984-03-01T00:00:00Z,-30.1913,120.6541,27.518291473388672
1984-04-01T00:00:00Z,-30.1913,120.6541,25.352155685424805
1984-05-01T00:00:00Z,-30.1913,120.6541,19.683542251586914
1984-06-01T00:00:00Z,-30.1913,120.6541,18.690196990966797
1984-07-01T00:00:00Z,-30.1913,120.6541,14.942436218261719
1984-08-01T00:00:00Z,-30.1913,120.6541,17.62192153930664
1984-09-01T00:00:00Z,-30.1913,120.6541,19.647871017456055
1984-10-01T00:00:00Z,-30.1913,120.6541,26.932701110839844
1984-11-01T00:00:00Z,-30.1913,120.6541,28.985136032104492
1984-12-01T00:00:00Z,-30.1913,120.6541,32.73618698120117
1985-01-01T00:00:00Z,-30.1913,120.6541,36.44419479370117
1985-02-01T00:00:00Z,-30.1913,120.6541,34.926517486572266
1985-03-01T00:00:00Z,-30.1913,120.6541,32.08048629760742
1985-04-01T00:00:00Z,-30.1913,120.6541,26.27448081970215
1985-05-01T00:00:00Z,-30.1913,120.6541,20.00236701965332
1985-06-01T00:00:00Z,-30.1913,120.6541,19.797334671020508
1985-07-01T00:00:00Z,-30.1913,120.6541,17.503238677978516
1985-08-01T00:00:00Z,-30.1913,120.6541,17.445528030395508
1985-09-01T00:00:00Z,-30.1913,120.6541,23.575925827026367
1985-10-01T00:00:00Z,-30.1913,120.6541,25.562026977539062
1985-11-01T00:00:00Z,-30.1913,120.6541,29.801616668701172
1985-12-01T00:00:00Z,-30.1913,120.6541,31.33953857421875
1986-01-01T00:00:00Z,-30.1913,120.6541,35.55615234375
1986-02-01T00:00:00Z,-30.1913,120.6541,33.34735107421875
1986-03-01T00:00:00Z,-30.1913,120.6541,32.28916549682617
1986-04-01T00:00:00Z,-30.1913,120.6541,25.596296310424805
1986-05-01T00:00:00Z,-30.1913,120.6541,20.412612915039062
1986-06-01T00:00:00Z,-30.1913,120.6541,16.21421241760254
1986-07-01T00:00:00Z,-30.1913,120.6541,14.222639083862305
1986-08-01T00:00:00Z,-30.1913,120.6541,16.554336547851562
1986-09-01T00:00:00Z,-30.1913,120.6541,22.249177932739258
1986-10-01T00:00:00Z,-30.1913,120.6541,23.56204605102539
1986-11-01T00:00:00Z,-30.1913,120.6541,30.21905517578125
1986-12-01T00:00:00Z,-30.1913,120.6541,32.71123123168945
1987-01-01T00:00:00Z,-30.1913,120.6541,34.20164489746094
1987-02-01T00:00:00Z,-30.1913,120.6541,32.19428634643555
1987-03-01T00:00:00Z,-30.1913,120.6541,30.122697830200195
1987-04-01T00:00:00Z,-30.1913,120.6541,26.830875396728516
1987-05-01T00:00:00Z,-30.1913,120.6541,19.318912506103516
1987-06-01T00:00:00Z,-30.1913,120.6541,17.945491790771484
1987-07-01T00:00:00Z,-30.1913,120.6541,17.437082290649414
1987-08-01T00:00:00Z,-30.1913,120.6541,18.62485694885254
1987-09-01T00:00:00Z,-30.1913,120.6541,24.076017379760742
1987-10-01T00:00:00Z,-30.1913,120.6541,27.35787582397461
1987-11-01T00:00:00Z,-30.1913,120.6541,27.543292999267578
1987-12-01T00:00:00Z,-30.1913,120.6541,33.863826751708984
1988-01-01T00:00:00Z,-30.1913,120.6541,34.473548889160156
1988-02-01T00:00:00Z,-30.1913,120.6541,32.923240661621094
1988-03-01T00:00:00Z,-30.1913,120.6541,30.81485939025879
1988-04-01T00:00:00Z,-30.1913,120.6541,26.53664779663086
1988-05-01T00:00:00Z,-30.1913,120.6541,19.96086883544922
1988-06-01T00:00:00Z,-30.1913,120.6541,18.85972023010254
1988-07-01T00:00:00Z,-30.1913,120.6541,17.26198959350586
1988-08-01T00:00:00Z,-30.1913,120.6541,19.06479835510254
1988-09-01T00:00:00Z,-30.1913,120.6541,24.206851959228516
1988-10-01T00:00:00Z,-30.1913,120.6541,29.151851654052734
1988-11-01T00:00:00Z,-30.1913,120.6541,27.725807189941406
1988-12-01T00:00:00Z,-30.1913,120.6541,28.538558959960938
1989-01-01T00:00:00Z,-30.1913,120.6541,32.42231369018555
1989-02-01T00:00:00Z,-30.1913,120.6541,34.24537658691406
1989-03-01T00:00:00Z,-30.1913,120.6541,29.475385665893555
1989-04-01T00:00:00Z,-30.1913,120.6541,24.77066993713379
1989-05-01T00:00:00Z,-30.1913,120.6541,20.356218338012695
1989-06-01T00:00:00Z,-30.1913,120.6541,15.957427024841309
1989-07-01T00:00:00Z,-30.1913,120.6541,15.675130844116211
1989-08-01T00:00:00Z,-30.1913,120.6541,18.679346084594727
1989-09-01T00:00:00Z,-30.1913,120.6541,23.882522583007812
1989-10-01T00:00:00Z,-30.1913,120.6541,25.352205276489258
1989-11-01T00:00:00Z,-30.1913,120.6541,30.032176971435547
1989-12-01T00:00:00Z,-30.1913,120.6541,34.20532989501953
1990-01-01T00:00:00Z,-30.1913,120.6541,32.75284957885742
1990-02-01T00:00:00Z,-30.1913,120.6541,30.42574691772461
1990-03-01T00:00:00Z,-30.1913,120.6541,31.55657386779785
1990-04-01T00:00:00Z,-30.1913,120.6541,25.40729522705078
1990-05-01T00:00:00Z,-30.1913,120.6541,22.4548282623291
1990-06-01T00:00:00Z,-30.1913,120.6541,16.358745574951172
1990-07-01T00:00:00Z,-30.1913,120.6541,15.316676139831543
1990-08-01T00:00:00Z,-30.1913,120.6541,16.2476806640625
1990-09-01T00:00:00Z,-30.1913,120.6541,23.54667091369629
1990-10-01T00:00:00Z,-30.1913,120.6541,25.299638748168945
1990-11-01T00:00:00Z,-30.1913,120.6541,31.421201705932617
1990-12-01T00:00:00Z,-30.1913,120.6541,33.853736877441406
1991-01-01T00:00:00Z,-30.1913,120.6541,36.01540756225586
1991-02-01T00:00:00Z,-30.1913,120.6541,36.659217834472656
1991-03-01T00:00:00Z,-30.1913,120.6541,31.49264144897461
1991-04-01T00:00:00Z,-30.1913,120.6541,27.5665225982666
1991-05-01T00:00:00Z,-30.1913,120.6541,22.146249771118164
1991-06-01T00:00:00Z,-30.1913,120.6541,17.86487579345703
1991-07-01T00:00:00Z,-30.1913,120.6541,17.29755973815918
1991-08-01T00:00:00Z,-30.1913,120.6541,18.88283920288086
1991-09-01T00:00:00Z,-30.1913,120.6541,23.6975154876709
1991-10-01T00:00:00Z,-30.1913,120.6541,28.951807022094727
1991-11-01T00:00:00Z,-30.1913,120.6541,28.597341537475586
1991-12-01T00:00:00Z,-30.1913,120.6541,33.11399459838867
1992-01-01T00:00:00Z,-30.1913,120.6541,33.30480194091797
1992-02-01T00:00:00Z,-30.1913,120.6541,32.432857513427734
1992-03-01T00:00:00Z,-30.1913,120.6541,29.664291381835938
1992-04-01T00:00:00Z,-30.1913,120.6541,22.9782772064209
1992-05-01T00:00:00Z,-30.1913,120.6541,19.328746795654297
1992-06-01T00:00:00Z,-30.1913,120.6541,16.243648529052734
1992-07-01T00:00:00Z,-30.1913,120.6541,18.183029174804688
1992-08-01T00:00:00Z,-30.1913,120.6541,16.138965606689453
1992-09-01T00:00:00Z,-30.1913,120.6541,17.985591888427734
1992-10-01T00:00:00Z,-30.1913,120.6541,24.81491470336914
1992-11-01T00:00:00Z,-30.1913,120.6541,27.10020637512207
1992-12-01T00:00:00Z,-30.1913,120.6541,31.287155151367188
1993-01-01T00:00:00Z,-30.1913,120.6541,36.7325325012207
1993-02-01T00:00:00Z,-30.1913,120.6541,32.087039947509766
1993-03-01T00:00:00Z,-30.1913,120.6541,29.272781372070312
1993-04-01T00:00:00Z,-30.1913,120.6541,27.28521156311035
1993-05-01T00:00:00Z,-30.1913,120.6541,19.368431091308594
1993-06-01T00:00:00Z,-30.1913,120.6541,15.292489051818848
1993-07-01T00:00:00Z,-30.1913,120.6541,16.168359756469727
1993-08-01T00:00:00Z,-30.1913,120.6541,18.576570510864258
1993-09-01T00:00:00Z,-30.1913,120.6541,21.528181076049805
1993-10-01T00:00:00Z,-30.1913,120.6541,24.98504066467285
1993-11-01T00:00:00Z,-30.1913,120.6541,30.05139923095703
1993-12-01T00:00:00Z,-30.1913,120.6541,31.223539352416992
1994-01-01T00:00:00Z,-30.1913,120.6541,35.65263366699219
1994-02-01T00:00:00Z,-30.1913,120.6541,30.584169387817383
1994-03-01T00:00:00Z,-30.1913,120.6541,33.26551818847656
1994-04-01T00:00:00Z,-30.1913,120.6541,28.81328773498535
1994-05-01T00:00:00Z,-30.1913,120.6541,24.151803970336914
1994-06-01T00:00:00Z,-30.1913,120.6541,18.322967529296875
1994-07-01T00:00:00Z,-30.1913,120.6541,20.080541610717773
1994-08-01T00:00:00Z,-30.1913,120.6541,20.415637969970703
1994-09-01T00:00:00Z,-30.1913,120.6541,24.134532928466797
1994-10-01T00:00:00Z,-30.1913,120.6541,27.200408935546875
1994-11-01T00:00:00Z,-30.1913,120.6541,30.82917594909668
1994-12-01T00:00:00Z,-30.1913,120.6541,33.96603775024414
1995-01-01T00:00:00Z,-30.1913,120.6541,34.991424560546875
1995-02-01T00:00:00Z,-30.1913,120.6541,30.615299224853516
1995-03-01T00:00:00Z,-30.1913,120.6541,27.548721313476562
1995-04-01T00:00:00Z,-30.1913,120.6541,22.352148056030273
1995-05-01T00:00:00Z,-30.1913,120.6541,18.800195693969727
1995-06-01T00:00:00Z,-30.1913,120.6541,16.373212814331055
1995-07-01T00:00:00Z,-30.1913,120.6541,16.797996520996094
1995-08-01T00:00:00Z,-30.1913,120.6541,20.556304931640625
1995-09-01T00:00:00Z,-30.1913,120.6541,23.477907180786133
1995-10-01T00:00:00Z,-30.1913,120.6541,26.669767379760742
1995-11-01T00:00:00Z,-30.1913,120.6541,28.94072723388672
1995-12-01T00:00:00Z,-30.1913,120.6541,30.839155197143555
1996-01-01T00:00:00Z,-30.1913,120.6541,34.70667266845703
1996-02-01T00:00:00Z,-30.1913,120.6541,35.699642181396484
1996-03-01T00:00:00Z,-30.1913,120.6541,30.18799591064453
1996-04-01T00:00:00Z,-30.1913,120.6541,25.376144409179688
1996-05-01T00:00:00Z,-30.1913,120.6541,22.86395263671875
1996-06-01T00:00:00Z,-30.1913,120.6541,17.913005828857422
1996-07-01T00:00:00Z,-30.1913,120.6541,16.9843807220459
1996-08-01T00:00:00Z,-30.1913,120.6541,17.8322811126709
1996-09-01T00:00:00Z,-30.1913,120.6541,22.29619789123535
1996-10-01T00:00:00Z,-30.1913,120.6541,27.616146087646484
1996-11-01T00:00:00Z,-30.1913,120.6541,30.4587459564209
1996-12-01T00:00:00Z,-30.1913,120.6541,31.652902603149414
1997-01-01T00:00:00Z,-30.1913,120.6541,34.141395568847656
1997-02-01T00:00:00Z,-30.1913,120.6541,35.659122467041016
1997-03-01T00:00:00Z,-30.1913,120.6541,29.46880340576172
1997-04-01T00:00:00Z,-30.1913,120.6541,26.34235954284668
1997-05-01T00:00:00Z,-30.1913,120.6541,18.82801055908203
1997-06-01T00:00:00Z,-30.1913,120.6541,17.9095401763916
1997-07-01T00:00:00Z,-30.1913,120.6541,16.702735900878906
1997-08-01T00:00:00Z,-30.1913,120.6541,17.784873962402344
1997-09-01T00:00:00Z,-30.1913,120.6541,22.741178512573242
1997-10-01T00:00:00Z,-30.1913,120.6541,26.277599334716797
1997-11-01T00:00:00Z,-30.1913,120.6541,29.38347816467285
1997-12-01T00:00:00Z,-30.1913,120.6541,34.72779083251953
1998-01-01T00:00:00Z,-30.1913,120.6541,36.765968322753906
1998-02-01T00:00:00Z,-30.1913,120.6541,36.7790412902832
1998-03-01T00:00:00Z,-30.1913,120.6541,32.27537536621094
1998-04-01T00:00:00Z,-30.1913,120.6541,25.230072021484375
1998-05-01T00:00:00Z,-30.1913,120.6541,23.436616897583008
1998-06-01T00:00:00Z,-30.1913,120.6541,16.930191040039062
1998-07-01T00:00:00Z,-30.1913,120.6541,14.40748119354248
1998-08-01T00:00:00Z,-30.1913,120.6541,20.044639587402344
1998-09-01T00:00:00Z,-30.1913,120.6541,21.344377517700195
1998-10-01T00:00:00Z,-30.1913,120.6541,25.344358444213867
1998-11-01T00:00:00Z,-30.1913,120.6541,30.669923782348633
1998-12-01T00:00:00Z,-30.1913,120.6541,32.066688537597656
1999-01-01T00:00:00Z,-30.1913,120.6541,35.95548629760742
1999-02-01T00:00:00Z,-30.1913,120.6541,33.36320495605469
1999-03-01T00:00:00Z,-30.1913,120.6541,28.605024337768555
1999-04-01T00:00:00Z,-30.1913,120.6541,25.73801040649414
1999-05-01T00:00:00Z,-30.1913,120.6541,21.20741081237793
1999-06-01T00:00:00Z,-30.1913,120.6541,18.150096893310547
1999-07-01T00:00:00Z,-30.1913,120.6541,17.984603881835938
1999-08-01T00:00:00Z,-30.1913,120.6541,19.877910614013672
1999-09-01T00:00:00Z,-30.1913,120.6541,23.193653106689453
1999-10-01T00:00:00Z,-30.1913,120.6541,26.2589054107666
1999-11-01T00:00:00Z,-30.1913,120.6541,27.491456985473633
1999-12-01T00:00:00Z,-30.1913,120.6541,31.246843338012695
2000-01-01T00:00:00Z,-30.1913,120.6541,30.712200164794922
2000-02-01T00:00:00Z,-30.1913,120.6541,30.61326789855957
2000-03-01T00:00:00Z,-30.1913,120.6541,25.324186325073242
2000-04-01T00:00:00Z,-30.1913,120.6541,23.734474182128906
2000-05-01T00:00:00Z,-30.1913,120.6541,19.91322135925293
2000-06-01T00:00:00Z,-30.1913,120.6541,18.529539108276367
2000-07-01T00:00:00Z,-30.1913,120.6541,17.434818267822266
2000-08-01T00:00:00Z,-30.1913,120.6541,18.156007766723633
2000-09-01T00:00:00Z,-30.1913,120.6541,25.213647842407227
2000-10-01T00:00:00Z,-30.1913,120.6541,26.51230812072754
2000-11-01T00:00:00Z,-30.1913,120.6541,30.400440216064453
2000-12-01T00:00:00Z,-30.1913,120.6541,34.842926025390625
2001-01-01T00:00:00Z,-30.1913,120.6541,36.39784622192383
2001-02-01T00:00:00Z,-30.1913,120.6541,28.066713333129883
2001-03-01T00:00:00Z,-30.1913,120.6541,28.26308822631836
2001-04-01T00:00:00Z,-30.1913,120.6541,27.562299728393555
2001-05-01T00:00:00Z,-30.1913,120.6541,21.78433609008789
2001-06-01T00:00:00Z,-30.1913,120.6541,19.653684616088867
2001-07-01T00:00:00Z,-30.1913,120.6541,18.289138793945312
2001-08-01T00:00:00Z,-30.1913,120.6541,19.969528198242188
2001-09-01T00:00:00Z,-30.1913,120.6541,23.534008026123047
2001-10-01T00:00:00Z,-30.1913,120.6541,23.5272159576416
2001-11-01T00:00:00Z,-30.1913,120.6541,28.221599578857422
2001-12-01T00:00:00Z,-30.1913,120.6541,29.730140686035156
2002-01-01T00:00:00Z,-30.1913,120.6541,33.5627326965332
2002-02-01T00:00:00Z,-30.1913,120.6541,31.13294792175293
2002-03-01T00:00:00Z,-30.1913,120.6541,31.791872024536133
2002-04-01T00:00:00Z,-30.1913,120.6541,26.781818389892578
2002-05-01T00:00:00Z,-30.1913,120.6541,24.379377365112305
2002-06-01T00:00:00Z,-30.1913,120.6541,19.43701171875
2002-07-01T00:00:00Z,-30.1913,120.6541,19.43854331970215
2002-08-01T00:00:00Z,-30.1913,120.6541,20.483545303344727
2002-09-01T00:00:00Z,-30.1913,120.6541,23.729585647583008
2002-10-01T00:00:00Z,-30.1913,120.6541,28.73844337463379
2002-11-01T00:00:00Z,-30.1913,120.6541,31.853607177734375
2002-12-01T00:00:00Z,-30.1913,120.6541,33.30234146118164
2003-01-01T00:00:00Z,-30.1913,120.6541,34.04594802856445
2003-02-01T00:00:00Z,-30.1913,120.6541,34.156219482421875
2003-03-01T00:00:00Z,-30.1913,120.6541,31.251686096191406
2003-04-01T00:00:00Z,-30.1913,120.6541,27.1268253326416
2003-05-01T00:00:00Z,-30.1913,120.6541,22.09122657775879
2003-06-01T00:00:00Z,-30.1913,120.6541,17.877178192138672
2003-07-01T00:00:00Z,-30.1913,120.6541,17.55131721496582
2003-08-01T00:00:00Z,-30.1913,120.6541,18.02080535888672
2003-09-01T00:00:00Z,-30.1913,120.6541,22.239744186401367
2003-10-01T00:00:00Z,-30.1913,120.6541,26.23012924194336
2003-11-01T00:00:00Z,-30.1913,120.6541,29.9561824798584
2003-12-01T00:00:00Z,-30.1913,120.6541,34.67737579345703
2004-01-01T00:00:00Z,-30.1913,120.6541,35.705230712890625
2004-02-01T00:00:00Z,-30.1913,120.6541,34.55982208251953
2004-03-01T00:00:00Z,-30.1913,120.6541,28.274702072143555
2004-04-01T00:00:00Z,-30.1913,120.6541,25.99382972717285
2004-05-01T00:00:00Z,-30.1913,120.6541,20.242889404296875
2004-06-01T00:00:00Z,-30.1913,120.6541,19.124996185302734
2004-07-01T00:00:00Z,-30.1913,120.6541,15.97189998626709
2004-08-01T00:00:00Z,-30.1913,120.6541,17.726850509643555
2004-09-01T00:00:00Z,-30.1913,120.6541,23.10431480407715
2004-10-01T00:00:00Z,-30.1913,120.6541,28.78034782409668
2004-11-01T00:00:00Z,-30.1913,120.6541,29.18800926208496
2004-12-01T00:00:00Z,-30.1913,120.6541,34.419036865234375
2005-01-01T00:00:00Z,-30.1913,120.6541,35.42849349975586
2005-02-01T00:00:00Z,-30.1913,120.6541,36.19154357910156
2005-03-01T00:00:00Z,-30.1913,120.6541,32.849647521972656
2005-04-01T00:00:00Z,-30.1913,120.6541,28.185178756713867
2005-05-01T00:00:00Z,-30.1913,120.6541,22.83055305480957
2005-06-01T00:00:00Z,-30.1913,120.6541,17.22355079650879
2005-07-01T00:00:00Z,-30.1913,120.6541,17.715415954589844
2005-08-01T00:00:00Z,-30.1913,120.6541,18.641361236572266
2005-09-01T00:00:00Z,-30.1913,120.6541,21.96898078918457
2005-10-01T00:00:00Z,-30.1913,120.6541,25.628156661987305
2005-11-01T00:00:00Z,-30.1913,120.6541,30.392719268798828
2005-12-01T00:00:00Z,-30.1913,120.6541,33.14419937133789
2006-01-01T00:00:00Z,-30.1913,120.6541,32.636619567871094
2006-02-01T00:00:00Z,-30.1913,120.6541,31.713027954101562
2006-03-01T00:00:00Z,-30.1913,120.6541,29.7757625579834
2006-04-01T00:00:00Z,-30.1913,120.6541,23.282129287719727
2006-05-01T00:00:00Z,-30.1913,120.6541,21.58637809753418
2006-06-01T00:00:00Z,-30.1913,120.6541,18.348482131958008
2006-07-01T00:00:00Z,-30.1913,120.6541,17.761932373046875
2006-08-01T00:00:00Z,-30.1913,120.6541,23.776336669921875
2006-09-01T00:00:00Z,-30.1913,120.6541,23.927745819091797
2006-10-01T00:00:00Z,-30.1913,120.6541,28.708345413208008
2006-11-01T00:00:00Z,-30.1913,120.6541,33.056339263916016
2006-12-01T00:00:00Z,-30.1913,120.6541,33.04580307006836
2007-01-01T00:00:00Z,-30.1913,120.6541,33.23041915893555
2007-02-01T00:00:00Z,-30.1913,120.6541,37.58943176269531
2007-03-01T00:00:00Z,-30.1913,120.6541,29.664939880371094
2007-04-01T00:00:00Z,-30.1913,120.6541,27.477554321289062
2007-05-01T00:00:00Z,-30.1913,120.6541,21.126768112182617
2007-06-01T00:00:00Z,-30.1913,120.6541,17.851041793823242
2007-07-01T00:00:00Z,-30.1913,120.6541,19.468809127807617
2007-08-01T00:00:00Z,-30.1913,120.6541,21.20571517944336
2007-09-01T00:00:00Z,-30.1913,120.6541,24.302980422973633
2007-10-01T00:00:00Z,-30.1913,120.6541,27.612476348876953
2007-11-01T00:00:00Z,-30.1913,120.6541,32.768218994140625
2007-12-01T00:00:00Z,-30.1913,120.6541,30.743160247802734
2008-01-01T00:00:00Z,-30.1913,120.6541,36.85403060913086
2008-02-01T00:00:00Z,-30.1913,120.6541,30.522253036499023
2008-03-01T00:00:00Z,-30.1913,120.6541,32.3464469909668
2008-04-01T00:00:00Z,-30.1913,120.6541,25.876216888427734
2008-05-01T00:00:00Z,-30.1913,120.6541,24.79690933227539
2008-06-01T00:00:00Z,-30.1913,120.6541,19.080711364746094
2008-07-01T00:00:00Z,-30.1913,120.6541,17.677230834960938
2008-08-01T00:00:00Z,-30.1913,120.6541,17.84744644165039
2008-09-01T00:00:00Z,-30.1913,120.6541,23.256572723388672
2008-10-01T00:00:00Z,-30.1913,120.6541,27.436979293823242
2008-11-01T00:00:00Z,-30.1913,120.6541,25.833654403686523
2008-12-01T00:00:00Z,-30.1913,120.6541,32.82035827636719
2009-01-01T00:00:00Z,-30.1913,120.6541,36.77520751953125
2009-02-01T00:00:00Z,-30.1913,120.6541,34.32846450805664
2009-03-01T00:00:00Z,-30.1913,120.6541,30.75776481628418
2009-04-01T00:00:00Z,-30.1913,120.6541,26.306161880493164
2009-05-01T00:00:00Z,-30.1913,120.6541,21.311031341552734
2009-06-01T00:00:00Z,-30.1913,120.6541,17.470130920410156
2009-07-01T00:00:00Z,-30.1913,120.6541,16.11072540283203
2009-08-01T00:00:00Z,-30.1913,120.6541,20.67505645751953
2009-09-01T00:00:00Z,-30.1913,120.6541,21.252473831176758
2009-10-01T00:00:00Z,-30.1913,120.6541,29.228322982788086
2009-11-01T00:00:00Z,-30.1913,120.6541,31.370479583740234
2009-12-01T00:00:00Z,-30.1913,120.6541,34.61406326293945
2010-01-01T00:00:00Z,-30.1913,120.6541,37.70166778564453
2010-02-01T00:00:00Z,-30.1913,120.6541,36.66290283203125
2010-03-01T00:00:00Z,-30.1913,120.6541,31.87348747253418
2010-04-01T00:00:00Z,-30.1913,120.6541,27.691463470458984
2010-05-01T00:00:00Z,-30.1913,120.6541,21.609054565429688
2010-06-01T00:00:00Z,-30.1913,120.6541,17.49690055847168
2010-07-01T00:00:00Z,-30.1913,120.6541,16.917268753051758
2010-08-01T00:00:00Z,-30.1913,120.6541,19.017227172851562
2010-09-01T00:00:00Z,-30.1913,120.6541,20.98978614807129
2010-10-01T00:00:00Z,-30.1913,120.6541,26.455610275268555
2010-11-01T00:00:00Z,-30.1913,120.6541,31.340805053710938
2010-12-01T00:00:00Z,-30.1913,120.6541,32.264442443847656
2011-01-01T00:00:00Z,-30.1913,120.6541,35.46829605102539
2011-02-01T00:00:00Z,-30.1913,120.6541,29.965835571289062
2011-03-01T00:00:00Z,-30.1913,120.6541,28.92734718322754
2011-04-01T00:00:00Z,-30.1913,120.6541,27.27834129333496
2011-05-01T00:00:00Z,-30.1913,120.6541,20.493328094482422
2011-06-01T00:00:00Z,-30.1913,120.6541,17.783662796020508
2011-07-01T00:00:00Z,-30.1913,120.6541,16.897891998291016
2011-08-01T00:00:00Z,-30.1913,120.6541,20.679941177368164
2011-09-01T00:00:00Z,-30.1913,120.6541,22.748193740844727
2011-10-01T00:00:00Z,-30.1913,120.6541,25.62966537475586
2011-11-01T00:00:00Z,-30.1913,120.6541,29.454504013061523
2011-12-01T00:00:00Z,-30.1913,120.6541,31.369888305664062
2012-01-01T00:00:00Z,-30.1913,120.6541,32.096431732177734
2012-02-01T00:00:00Z,-30.1913,120.6541,33.75261688232422
2012-03-01T00:00:00Z,-30.1913,120.6541,28.447935104370117
2012-04-01T00:00:00Z,-30.1913,120.6541,27.188507080078125
2012-05-01T00:00:00Z,-30.1913,120.6541,22.375967025756836
2012-06-01T00:00:00Z,-30.1913,120.6541,18.17879867553711
2012-07-01T00:00:00Z,-30.1913,120.6541,17.208560943603516
2012-08-01T00:00:00Z,-30.1913,120.6541,21.1960391998291
2012-09-01T00:00:00Z,-30.1913,120.6541,23.955915451049805
2012-10-01T00:00:00Z,-30.1913,120.6541,28.999248504638672
2012-11-01T00:00:00Z,-30.1913,120.6541,29.74913787841797
2012-12-01T00:00:00Z,-30.1913,120.6541,34.47932434082031
