time,latitude[unit="degrees_north"],longitude[unit="degrees_east"],air_temperature[unit="C"]
1970-01-01T00:00:00Z,-14.1591,131.388,36.239501953125
1970-02-01T00:00:00Z,-14.1591,131.388,35.04769515991211
1970-03-01T00:00:00Z,-14.1591,131.388,35.943695068359375
1970-04-01T00:00:00Z,-14.1591,131.388,35.4842414855957
1970-05-01T00:00:00Z,-14.1591,131.388,33.471134185791016
1970-06-01T00:00:00Z,-14.1591,131.388,33.56319808959961
1970-07-01T00:00:00Z,-14.1591,131.388,31.067228317260742
1970-08-01T00:00:00Z,-14.1591,131.388,33.32788848876953
1970-09-01T00:00:00Z,-14.1591,131.388,37.24741744995117
1970-10-01T00:00:00Z,-14.1591,131.388,38.49928665161133
1970-11-01T00:00:00Z,-14.1591,131.388,36.85832977294922
1970-12-01T00:00:00Z,-14.1591,131.388,36.027889251708984
1971-01-01T00:00:00Z,-14.1591,131.388,35.863521575927734
1971-02-01T00:00:00Z,-14.1591,131.388,33.77942657470703
1971-03-01T00:00:00Z,-14.1591,131.388,33.371665954589844
1971-04-01T00:00:00Z,-14.1591,131.388,33.044925689697266
1971-05-01T00:00:00Z,-14.1591,131.388,32.54834747314453
1971-06-01T00:00:00Z,-14.1591,131.388,29.497364044189453
1971-07-01T00:00:00Z,-14.1591,131.388,30.883615493774414
1971-08-01T00:00:00Z,-14.1591,131.388,35.058311462402344
1971-09-01T00:00:00Z,-14.1591,131.388,37.895503997802734
1971-10-01T00:00:00Z,-14.1591,131.388,38.2747688293457
1971-11-01T00:00:00Z,-14.1591,131.388,36.739871978759766
1971-12-01T00:00:00Z,-14.1591,131.388,35.09095764160156
1972-01-01T00:00:00Z,-14.1591,131.388,36.13301086425781
1972-02-01T00:00:00Z,-14.1591,131.388,34.18148422241211
1972-03-01T00:00:00Z,-14.1591,131.388,33.113525390625
1972-04-01T00:00:00Z,-14.1591,131.388,34.282474517822266
1972-05-01T00:00:00Z,-14.1591,131.388,31.851682662963867
1972-06-01T00:00:00Z,-14.1591,131.388,31.231220245361328
1972-07-01T00:00:00Z,-14.1591,131.388,31.06688117980957
1972-08-01T00:00:00Z,-14.1591,131.388,34.42050552368164
1972-09-01T00:00:00Z,-14.1591,131.388,35.57773971557617
1972-10-01T00:00:00Z,-14.1591,131.388,38.19984817504883
1972-11-01T00:00:00Z,-14.1591,131.388,38.07695007324219
1972-12-01T00:00:00Z,-14.1591,131.388,37.51836395263672
1973-01-01T00:00:00Z,-14.1591,131.388,34.41188049316406
1973-02-01T00:00:00Z,-14.1591,131.388,34.78757095336914
1973-03-01T00:00:00Z,-14.1591,131.388,33.64997100830078
1973-04-01T00:00:00Z,-14.1591,131.388,34.725303649902344
1973-05-01T00:00:00Z,-14.1591,131.388,34.001708984375
1973-06-01T00:00:00Z,-14.1591,131.388,32.16389465332031
1973-07-01T00:00:00Z,-14.1591,131.388,31.83354949951172
1973-08-01T00:00:00Z,-14.1591,131.388,34.43266296386719
1973-09-01T00:00:00Z,-14.1591,131.388,36.347721099853516
1973-10-01T00:00:00Z,-14.1591,131.388,37.73558044433594
1973-11-01T00:00:00Z,-14.1591,131.388,35.56999588012695
1973-12-01T00:00:00Z,-14.1591,131.388,35.35862350463867
1974-01-01T00:00:00Z,-14.1591,131.388,31.307106018066406
1974-02-01T00:00:00Z,-14.1591,131.388,32.835060119628906
1974-03-01T00:00:00Z,-14.1591,131.388,31.909061431884766
1974-04-01T00:00:00Z,-14.1591,131.388,33.84861755371094
1974-05-01T00:00:00Z,-14.1591,131.388,32.10209274291992
1974-06-01T00:00:00Z,-14.1591,131.388,29.39359474182129
1974-07-01T00:00:00Z,-14.1591,131.388,31.06476593017578
1974-08-01T00:00:00Z,-14.1591,131.388,33.261260986328125
1974-09-01T00:00:00Z,-14.1591,131.388,35.675392150878906
1974-10-01T00:00:00Z,-14.1591,131.388,36.517887115478516
1974-11-01T00:00:00Z,-14.1591,131.388,36.067344665527344
1974-12-01T00:00:00Z,-14.1591,131.388,35.08065414428711
1975-01-01T00:00:00Z,-14.1591,131.388,34.92409896850586
1975-02-01T00:00:00Z,-14.1591,131.388,32.847042083740234
1975-03-01T00:00:00Z,-14.1591,131.388,33.80306625366211
1975-04-01T00:00:00Z,-14.1591,131.388,33.367820739746094
1975-05-01T00:00:00Z,-14.1591,131.388,32.607017517089844
1975-06-01T00:00:00Z,-14.1591,131.388,30.75419807434082
1975-07-01T00:00:00Z,-14.1591,131.388,33.00396728515625
1975-08-01T00:00:00Z,-14.1591,131.388,33.787109375
1975-09-01T00:00:00Z,-14.1591,131.388,36.554019927978516
1975-10-01T00:00:00Z,-14.1591,131.388,35.912593841552734
1975-11-01T00:00:00Z,-14.1591,131.388,36.28565979003906
1975-12-01T00:00:00Z,-14.1591,131.388,34.35770797729492
1976-01-01T00:00:00Z,-14.1591,131.388,32.90054702758789
1976-02-01T00:00:00Z,-14.1591,131.388,32.00784683227539
1976-03-01T00:00:00Z,-14.1591,131.388,32.91402816772461
1976-04-01T00:00:00Z,-14.1591,131.388,34.39357376098633
1976-05-01T00:00:00Z,-14.1591,131.388,31.61207389831543
1976-06-01T00:00:00Z,-14.1591,131.388,30.41694450378418
1976-07-01T00:00:00Z,-14.1591,131.388,30.943906784057617
1976-08-01T00:00:00Z,-14.1591,131.388,32.20521926879883
1976-09-01T00:00:00Z,-14.1591,131.388,35.684913635253906
1976-10-01T00:00:00Z,-14.1591,131.388,38.04499816894531
1976-11-01T00:00:00Z,-14.1591,131.388,38.50080490112305
1976-12-01T00:00:00Z,-14.1591,131.388,36.432151794433594
1977-01-01T00:00:00Z,-14.1591,131.388,34.26162338256836
1977-02-01T00:00:00Z,-14.1591,131.388,33.74685287475586
1977-03-01T00:00:00Z,-14.1591,131.388,32.2300910949707
1977-04-01T00:00:00Z,-14.1591,131.388,33.758480072021484
1977-05-01T00:00:00Z,-14.1591,131.388,32.151981353759766
1977-06-01T00:00:00Z,-14.1591,131.388,28.903379440307617
1977-07-01T00:00:00Z,-14.1591,131.388,29.42170524597168
1977-08-01T00:00:00Z,-14.1591,131.388,32.60901641845703
1977-09-01T00:00:00Z,-14.1591,131.388,34.91580581665039
1977-10-01T00:00:00Z,-14.1591,131.388,37.68328094482422
1977-11-01T00:00:00Z,-14.1591,131.388,36.94843292236328
1977-12-01T00:00:00Z,-14.1591,131.388,35.351871490478516
1978-01-01T00:00:00Z,-14.1591,131.388,33.718605041503906
1978-02-01T00:00:00Z,-14.1591,131.388,34.04979705810547
1978-03-01T00:00:00Z,-14.1591,131.388,35.60017395019531
1978-04-01T00:00:00Z,-14.1591,131.388,35.04275131225586
1978-05-01T00:00:00Z,-14.1591,131.388,34.33417892456055
1978-06-01T00:00:00Z,-14.1591,131.388,31.764554977416992
1978-07-01T00:00:00Z,-14.1591,131.388,30.803791046142578
1978-08-01T00:00:00Z,-14.1591,131.388,33.370914459228516
1978-09-01T00:00:00Z,-14.1591,131.388,35.09736633300781
1978-10-01T00:00:00Z,-14.1591,131.388,36.829246520996094
1978-11-01T00:00:00Z,-14.1591,131.388,36.435264587402344
1978-12-01T00:00:00Z,-14.1591,131.388,35.659366607666016
1979-01-01T00:00:00Z,-14.1591,131.388,34.185791015625
1979-02-01T00:00:00Z,-14.1591,131.388,33.74660110473633
1979-03-01T00:00:00Z,-14.1591,131.388,34.390586853027344
1979-04-01T00:00:00Z,-14.1591,131.388,35.4824104309082
1979-05-01T00:00:00Z,-14.1591,131.388,32.748592376708984
1979-06-01T00:00:00Z,-14.1591,131.388,31.917999267578125
1979-07-01T00:00:00Z,-14.1591,131.388,31.169086456298828
1979-08-01T00:00:00Z,-14.1591,131.388,33.617130279541016
1979-09-01T00:00:00Z,-14.1591,131.388,36.146018981933594
1979-10-01T00:00:00Z,-14.1591,131.388,37.43431854248047
1979-11-01T00:00:00Z,-14.1591,131.388,38.17063903808594
1979-12-01T00:00:00Z,-14.1591,131.388,36.38133239746094
1980-01-01T00:00:00Z,-14.1591,131.388,34.11733627319336
1980-02-01T00:00:00Z,-14.1591,131.388,32.60917282104492
1980-03-01T00:00:00Z,-14.1591,131.388,34.638309478759766
1980-04-01T00:00:00Z,-14.1591,131.388,34.48926544189453
1980-05-01T00:00:00Z,-14.1591,131.388,33.66092300415039
1980-06-01T00:00:00Z,-14.1591,131.388,31.96648406982422
1980-07-01T00:00:00Z,-14.1591,131.388,31.262678146362305
1980-08-01T00:00:00Z,-14.1591,131.388,33.26542282104492
1980-09-01T00:00:00Z,-14.1591,131.388,36.37678146362305
1980-10-01T00:00:00Z,-14.1591,131.388,37.55024719238281
1980-11-01T00:00:00Z,-14.1591,131.388,37.68680953979492
1980-12-01T00:00:00Z,-14.1591,131.388,35.56355285644531
1981-01-01T00:00:00Z,-14.1591,131.388,33.34114456176758
1981-02-01T00:00:00Z,-14.1591,131.388,31.9742374420166
1981-03-01T00:00:00Z,-14.1591,131.388,34.49751281738281
1981-04-01T00:00:00Z,-14.1591,131.388,35.9052848815918
1981-05-01T00:00:00Z,-14.1591,131.388,33.00733184814453
1981-06-01T00:00:00Z,-14.1591,131.388,32.344940185546875
1981-07-01T00:00:00Z,-14.1591,131.388,32.448448181152344
1981-08-01T00:00:00Z,-14.1591,131.388,34.906063079833984
1981-09-01T00:00:00Z,-14.1591,131.388,35.901676177978516
1981-10-01T00:00:00Z,-14.1591,131.388,37.04843521118164
1981-11-01T00:00:00Z,-14.1591,131.388,35.484405517578125
1981-12-01T00:00:00Z,-14.1591,131.388,35.53447341918945
1982-01-01T00:00:00Z,-14.1591,131.388,33.86848449707031
1982-02-01T00:00:00Z,-14.1591,131.388,32.721092224121094
1982-03-01T00:00:00Z,-14.1591,131.388,33.47708511352539
1982-04-01T00:00:00Z,-14.1591,131.388,34.611534118652344
1982-05-01T00:00:00Z,-14.1591,131.388,32.70315933227539
1982-06-01T00:00:00Z,-14.1591,131.388,30.7017765045166
1982-07-01T00:00:00Z,-14.1591,131.388,30.191904067993164
1982-08-01T00:00:00Z,-14.1591,131.388,32.13554000854492
1982-09-01T00:00:00Z,-14.1591,131.388,34.72959899902344
1982-10-01T00:00:00Z,-14.1591,131.388,36.984256744384766
1982-11-01T00:00:00Z,-14.1591,131.388,37.022705078125
1982-12-01T00:00:00Z,-14.1591,131.388,35.94828796386719
1983-01-01T00:00:00Z,-14.1591,131.388,36.318260192871094
1983-02-01T00:00:00Z,-14.1591,131.388,35.389461517333984
1983-03-01T00:00:00Z,-14.1591,131.388,33.98786926269531
1983-04-01T00:00:00Z,-14.1591,131.388,33.333290100097656
1983-05-01T00:00:00Z,-14.1591,131.388,32.158145904541016
1983-06-01T00:00:00Z,-14.1591,131.388,30.808496475219727
1983-07-01T00:00:00Z,-14.1591,131.388,30.020517349243164
1983-08-01T00:00:00Z,-14.1591,131.388,33.746639251708984
1983-09-01T00:00:00Z,-14.1591,131.388,37.216365814208984
1983-10-01T00:00:00Z,-14.1591,131.388,37.333335876464844
1983-11-01T00:00:00Z,-14.1591,131.388,37.207733154296875
1983-12-01T00:00:00Z,-14.1591,131.388,36.58688735961914
1984-01-01T00:00:00Z,-14.1591,131.388,33.16665267944336
1984-02-01T00:00:00Z,-14.1591,131.388,32.48440170288086
1984-03-01T00:00:00Z,-14.1591,131.388,33.09366226196289
1984-04-01T00:00:00Z,-14.1591,131.388,33.97551727294922
1984-05-01T00:00:00Z,-14.1591,131.388,33.416507720947266
1984-06-01T00:00:00Z,-14.1591,131.388,30.14797592163086
1984-07-01T00:00:00Z,-14.1591,131.388,29.907609939575195
1984-08-01T00:00:00Z,-14.1591,131.388,33.825660705566406
1984-09-01T00:00:00Z,-14.1591,131.388,35.34680938720703
1984-10-01T00:00:00Z,-14.1591,131.388,37.45054626464844
1984-11-01T00:00:00Z,-14.1591,131.388,37.67760467529297
1984-12-01T00:00:00Z,-14.1591,131.388,35.94047164916992
1985-01-01T00:00:00Z,-14.1591,131.388,36.38974380493164
1985-02-01T00:00:00Z,-14.1591,131.388,33.8902702331543
1985-03-01T00:00:00Z,-14.1591,131.388,34.143985748291016
1985-04-01T00:00:00Z,-14.1591,131.388,33.03480911254883
1985-05-01T00:00:00Z,-14.1591,131.388,32.64007568359375
1985-06-01T00:00:00Z,-14.1591,131.388,28.463626861572266
1985-07-01T00:00:00Z,-14.1591,131.388,29.521316528320312
1985-08-01T00:00:00Z,-14.1591,131.388,34.42750930786133
1985-09-01T00:00:00Z,-14.1591,131.388,35.75884246826172
1985-10-01T00:00:00Z,-14.1591,131.388,37.387359619140625
1985-11-01T00:00:00Z,-14.1591,131.388,36.86870193481445
1985-12-01T00:00:00Z,-14.1591,131.388,36.66884231567383
1986-01-01T00:00:00Z,-14.1591,131.388,33.97399139404297
1986-02-01T00:00:00Z,-14.1591,131.388,35.218345642089844
1986-03-01T00:00:00Z,-14.1591,131.388,35.73223876953125
1986-04-01T00:00:00Z,-14.1591,131.388,34.46653747558594
1986-05-01T00:00:00Z,-14.1591,131.388,34.28738784790039
1986-06-01T00:00:00Z,-14.1591,131.388,31.87387466430664
1986-07-01T00:00:00Z,-14.1591,131.388,30.545551300048828
1986-08-01T00:00:00Z,-14.1591,131.388,32.322689056396484
1986-09-01T00:00:00Z,-14.1591,131.388,36.345035552978516
1986-10-01T00:00:00Z,-14.1591,131.388,37.42648696899414
1986-11-01T00:00:00Z,-14.1591,131.388,37.36273193359375
1986-12-01T00:00:00Z,-14.1591,131.388,37.83969497680664
1987-01-01T00:00:00Z,-14.1591,131.388,33.948612213134766
1987-02-01T00:00:00Z,-14.1591,131.388,31.93536949157715
1987-03-01T00:00:00Z,-14.1591,131.388,35.379398345947266
1987-04-01T00:00:00Z,-14.1591,131.388,35.38478469848633
1987-05-01T00:00:00Z,-14.1591,131.388,33.54684066772461
1987-06-01T00:00:00Z,-14.1591,131.388,31.936248779296875
1987-07-01T00:00:00Z,-14.1591,131.388,31.020444869995117
1987-08-01T00:00:00Z,-14.1591,131.388,32.753326416015625
1987-09-01T00:00:00Z,-14.1591,131.388,35.49015426635742
1987-10-01T00:00:00Z,-14.1591,131.388,39.22982406616211
1987-11-01T00:00:00Z,-14.1591,131.388,37.09358215332031
1987-12-01T00:00:00Z,-14.1591,131.388,34.82880401611328
1988-01-01T00:00:00Z,-14.1591,131.388,35.74909973144531
1988-02-01T00:00:00Z,-14.1591,131.388,34.9012565612793
1988-03-01T00:00:00Z,-14.1591,131.388,35.70586395263672
1988-04-01T00:00:00Z,-14.1591,131.388,35.04494094848633
1988-05-01T00:00:00Z,-14.1591,131.388,35.18043518066406
1988-06-01T00:00:00Z,-14.1591,131.388,31.86680030822754
1988-07-01T00:00:00Z,-14.1591,131.388,32.436798095703125
1988-08-01T00:00:00Z,-14.1591,131.388,34.087772369384766
1988-09-01T00:00:00Z,-14.1591,131.388,37.18559265136719
1988-10-01T00:00:00Z,-14.1591,131.388,38.830379486083984
1988-11-01T00:00:00Z,-14.1591,131.388,36.37649154663086
1988-12-01T00:00:00Z,-14.1591,131.388,32.95527648925781
1989-01-01T00:00:00Z,-14.1591,131.388,35.036991119384766
1989-02-01T00:00:00Z,-14.1591,131.388,35.11970520019531
1989-03-01T00:00:00Z,-14.1591,131.388,32.352298736572266
1989-04-01T00:00:00Z,-14.1591,131.388,33.888946533203125
1989-05-01T00:00:00Z,-14.1591,131.388,32.92255783081055
1989-06-01T00:00:00Z,-14.1591,131.388,30.169973373413086
1989-07-01T00:00:00Z,-14.1591,131.388,31.322946548461914
1989-08-01T00:00:00Z,-14.1591,131.388,32.019248962402344
1989-09-01T00:00:00Z,-14.1591,131.388,36.77741241455078
1989-10-01T00:00:00Z,-14.1591,131.388,37.80125427246094
1989-11-01T00:00:00Z,-14.1591,131.388,37.53401565551758
1989-12-01T00:00:00Z,-14.1591,131.388,36.561336517333984
1990-01-01T00:00:00Z,-14.1591,131.388,34.961151123046875
1990-02-01T00:00:00Z,-14.1591,131.388,35.36608123779297
1990-03-01T00:00:00Z,-14.1591,131.388,35.545597076416016
1990-04-01T00:00:00Z,-14.1591,131.388,35.31778335571289
1990-05-01T00:00:00Z,-14.1591,131.388,32.75662612915039
1990-06-01T00:00:00Z,-14.1591,131.388,30.58202362060547
1990-07-01T00:00:00Z,-14.1591,131.388,32.684539794921875
1990-08-01T00:00:00Z,-14.1591,131.388,33.389949798583984
1990-09-01T00:00:00Z,-14.1591,131.388,35.50423049926758
1990-10-01T00:00:00Z,-14.1591,131.388,38.59519577026367
1990-11-01T00:00:00Z,-14.1591,131.388,38.35721969604492
1990-12-01T00:00:00Z,-14.1591,131.388,35.171531677246094
1991-01-01T00:00:00Z,-14.1591,131.388,32.809268951416016
1991-02-01T00:00:00Z,-14.1591,131.388,31.33380699157715
1991-03-01T00:00:00Z,-14.1591,131.388,35.42428207397461
1991-04-01T00:00:00Z,-14.1591,131.388,34.22214126586914
1991-05-01T00:00:00Z,-14.1591,131.388,32.2210578918457
1991-06-01T00:00:00Z,-14.1591,131.388,32.31340408325195
1991-07-01T00:00:00Z,-14.1591,131.388,31.44365882873535
1991-08-01T00:00:00Z,-14.1591,131.388,32.589786529541016
1991-09-01T00:00:00Z,-14.1591,131.388,36.20396041870117
1991-10-01T00:00:00Z,-14.1591,131.388,38.66520690917969
1991-11-01T00:00:00Z,-14.1591,131.388,36.484764099121094
1991-12-01T00:00:00Z,-14.1591,131.388,36.869300842285156
1992-01-01T00:00:00Z,-14.1591,131.388,35.94125747680664
1992-02-01T00:00:00Z,-14.1591,131.388,33.64846420288086
1992-03-01T00:00:00Z,-14.1591,131.388,35.78432083129883
1992-04-01T00:00:00Z,-14.1591,131.388,34.40678787231445
1992-05-01T00:00:00Z,-14.1591,131.388,34.354434967041016
1992-06-01T00:00:00Z,-14.1591,131.388,31.680660247802734
1992-07-01T00:00:00Z,-14.1591,131.388,31.411231994628906
1992-08-01T00:00:00Z,-14.1591,131.388,34.53922653198242
1992-09-01T00:00:00Z,-14.1591,131.388,37.51034927368164
1992-10-01T00:00:00Z,-14.1591,131.388,37.28744125366211
1992-11-01T00:00:00Z,-14.1591,131.388,36.787174224853516
1992-12-01T00:00:00Z,-14.1591,131.388,36.61281967163086
1993-01-01T00:00:00Z,-14.1591,131.388,33.91035079956055
1993-02-01T00:00:00Z,-14.1591,131.388,31.693462371826172
1993-03-01T00:00:00Z,-14.1591,131.388,35.266639709472656
1993-04-01T00:00:00Z,-14.1591,131.388,35.22322082519531
1993-05-01T00:00:00Z,-14.1591,131.388,33.33877182006836
1993-06-01T00:00:00Z,-14.1591,131.388,31.504026412963867
1993-07-01T00:00:00Z,-14.1591,131.388,31.582237243652344
1993-08-01T00:00:00Z,-14.1591,131.388,33.40998840332031
1993-09-01T00:00:00Z,-14.1591,131.388,36.246551513671875
1993-10-01T00:00:00Z,-14.1591,131.388,37.752540588378906
1993-11-01T00:00:00Z,-14.1591,131.388,37.201995849609375
1993-12-01T00:00:00Z,-14.1591,131.388,34.6710205078125
1994-01-01T00:00:00Z,-14.1591,131.388,35.1453971862793
1994-02-01T00:00:00Z,-14.1591,131.388,33.283382415771484
1994-03-01T00:00:00Z,-14.1591,131.388,33.488014221191406
1994-04-01T00:00:00Z,-14.1591,131.388,34.0177116394043
1994-05-01T00:00:00Z,-14.1591,131.388,33.00630569458008
1994-06-01T00:00:00Z,-14.1591,131.388,31.07083511352539
1994-07-01T00:00:00Z,-14.1591,131.388,30.6171875
1994-08-01T00:00:00Z,-14.1591,131.388,31.9946231842041
1994-09-01T00:00:00Z,-14.1591,131.388,35.774993896484375
1994-10-01T00:00:00Z,-14.1591,131.388,38.132049560546875
1994-11-01T00:00:00Z,-14.1591,131.388,37.62554168701172
1994-12-01T00:00:00Z,-14.1591,131.388,34.95428466796875
1995-01-01T00:00:00Z,-14.1591,131.388,33.25751495361328
1995-02-01T00:00:00Z,-14.1591,131.388,33.44362258911133
1995-03-01T00:00:00Z,-14.1591,131.388,33.20352554321289
1995-04-01T00:00:00Z,-14.1591,131.388,34.37068176269531
1995-05-01T00:00:00Z,-14.1591,131.388,32.66250991821289
1995-06-01T00:00:00Z,-14.1591,131.388,31.013214111328125
1995-07-01T00:00:00Z,-14.1591,131.388,32.404266357421875
1995-08-01T00:00:00Z,-14.1591,131.388,32.687625885009766
1995-09-01T00:00:00Z,-14.1591,131.388,37.25614547729492
1995-10-01T00:00:00Z,-14.1591,131.388,36.11757278442383
1995-11-01T00:00:00Z,-14.1591,131.388,36.99092102050781
1995-12-01T00:00:00Z,-14.1591,131.388,34.895748138427734
1996-01-01T00:00:00Z,-14.1591,131.388,35.00330352783203
1996-02-01T00:00:00Z,-14.1591,131.388,35.116363525390625
1996-03-01T00:00:00Z,-14.1591,131.388,34.311466217041016
1996-04-01T00:00:00Z,-14.1591,131.388,33.84471893310547
1996-05-01T00:00:00Z,-14.1591,131.388,32.65964889526367
1996-06-01T00:00:00Z,-14.1591,131.388,33.22178649902344
1996-07-01T00:00:00Z,-14.1591,131.388,32.05287170410156
1996-08-01T00:00:00Z,-14.1591,131.388,33.93387222290039
1996-09-01T00:00:00Z,-14.1591,131.388,36.62630081176758
1996-10-01T00:00:00Z,-14.1591,131.388,37.742435455322266
1996-11-01T00:00:00Z,-14.1591,131.388,37.20474624633789
1996-12-01T00:00:00Z,-14.1591,131.388,34.94243240356445
1997-01-01T00:00:00Z,-14.1591,131.388,32.24772644042969
1997-02-01T00:00:00Z,-14.1591,131.388,33.07221221923828
1997-03-01T00:00:00Z,-14.1591,131.388,34.6852912902832
1997-04-01T00:00:00Z,-14.1591,131.388,35.03523254394531
1997-05-01T00:00:00Z,-14.1591,131.388,33.36591720581055
1997-06-01T00:00:00Z,-14.1591,131.388,30.78236961364746
1997-07-01T00:00:00Z,-14.1591,131.388,30.675121307373047
1997-08-01T00:00:00Z,-14.1591,131.388,33.12601089477539
1997-09-01T00:00:00Z,-14.1591,131.388,37.41157531738281
1997-10-01T00:00:00Z,-14.1591,131.388,37.13743591308594
1997-11-01T00:00:00Z,-14.1591,131.388,37.070770263671875
1997-12-01T00:00:00Z,-14.1591,131.388,34.472774505615234
1998-01-01T00:00:00Z,-14.1591,131.388,33.77648162841797
1998-02-01T00:00:00Z,-14.1591,131.388,34.93540573120117
1998-03-01T00:00:00Z,-14.1591,131.388,35.115013122558594
1998-04-01T00:00:00Z,-14.1591,131.388,35.81678771972656
1998-05-01T00:00:00Z,-14.1591,131.388,34.21931838989258
1998-06-01T00:00:00Z,-14.1591,131.388,32.95197296142578
1998-07-01T00:00:00Z,-14.1591,131.388,33.083534240722656
1998-08-01T00:00:00Z,-14.1591,131.388,34.45588684082031
1998-09-01T00:00:00Z,-14.1591,131.388,36.9597282409668
1998-10-01T00:00:00Z,-14.1591,131.388,38.06553649902344
1998-11-01T00:00:00Z,-14.1591,131.388,36.28709411621094
1998-12-01T00:00:00Z,-14.1591,131.388,34.337799072265625
1999-01-01T00:00:00Z,-14.1591,131.388,34.42770004272461
1999-02-01T00:00:00Z,-14.1591,131.388,33.3233642578125
1999-03-01T00:00:00Z,-14.1591,131.388,33.769508361816406
1999-04-01T00:00:00Z,-14.1591,131.388,33.39897918701172
1999-05-01T00:00:00Z,-14.1591,131.388,32.54912185668945
1999-06-01T00:00:00Z,-14.1591,131.388,31.557504653930664
1999-07-01T00:00:00Z,-14.1591,131.388,30.76483917236328
1999-08-01T00:00:00Z,-14.1591,131.388,33.37690353393555
1999-09-01T00:00:00Z,-14.1591,131.388,36.58743667602539
1999-10-01T00:00:00Z,-14.1591,131.388,36.53232192993164
1999-11-01T00:00:00Z,-14.1591,131.388,35.50675582885742
1999-12-01T00:00:00Z,-14.1591,131.388,35.48886489868164
2000-01-01T00:00:00Z,-14.1591,131.388,34.23378372192383
2000-02-01T00:00:00Z,-14.1591,131.388,32.861907958984375
2000-03-01T00:00:00Z,-14.1591,131.388,33.1241455078125
2000-04-01T00:00:00Z,-14.1591,131.388,33.23976135253906
2000-05-01T00:00:00Z,-14.1591,131.388,30.818130493164062
2000-06-01T00:00:00Z,-14.1591,131.388,28.811561584472656
2000-07-01T00:00:00Z,-14.1591,131.388,31.527542114257812
2000-08-01T00:00:00Z,-14.1591,131.388,33.858360290527344
2000-09-01T00:00:00Z,-14.1591,131.388,36.85187911987305
2000-10-01T00:00:00Z,-14.1591,131.388,36.04625701904297
2000-11-01T00:00:00Z,-14.1591,131.388,37.555206298828125
2000-12-01T00:00:00Z,-14.1591,131.388,33.75042724609375
2001-01-01T00:00:00Z,-14.1591,131.388,33.96159362792969
2001-02-01T00:00:00Z,-14.1591,131.388,32.97584915161133
2001-03-01T00:00:00Z,-14.1591,131.388,33.720848083496094
2001-04-01T00:00:00Z,-14.1591,131.388,34.05609130859375
2001-05-01T00:00:00Z,-14.1591,131.388,32.28188705444336
2001-06-01T00:00:00Z,-14.1591,131.388,31.641630172729492
2001-07-01T00:00:00Z,-14.1591,131.388,31.392160415649414
2001-08-01T00:00:00Z,-14.1591,131.388,32.791473388671875
2001-09-01T00:00:00Z,-14.1591,131.388,36.91313934326172
2001-10-01T00:00:00Z,-14.1591,131.388,37.239681243896484
2001-11-01T00:00:00Z,-14.1591,131.388,36.66630554199219
2001-12-01T00:00:00Z,-14.1591,131.388,35.26433563232422
2002-01-01T00:00:00Z,-14.1591,131.388,35.36913299560547
2002-02-01T00:00:00Z,-14.1591,131.388,32.77096176147461
2002-03-01T00:00:00Z,-14.1591,131.388,35.87872314453125
2002-04-01T00:00:00Z,-14.1591,131.388,36.699684143066406
2002-05-01T00:00:00Z,-14.1591,131.388,34.302921295166016
2002-06-01T00:00:00Z,-14.1591,131.388,31.077558517456055
2002-07-01T00:00:00Z,-14.1591,131.388,31.144502639770508
2002-08-01T00:00:00Z,-14.1591,131.388,32.569549560546875
2002-09-01T00:00:00Z,-14.1591,131.388,36.44894027709961
2002-10-01T00:00:00Z,-14.1591,131.388,39.66271209716797
2002-11-01T00:00:00Z,-14.1591,131.388,37.72623062133789
2002-12-01T00:00:00Z,-14.1591,131.388,37.809146881103516
2003-01-01T00:00:00Z,-14.1591,131.388,33.53854751586914
2003-02-01T00:00:00Z,-14.1591,131.388,33.460697174072266
2003-03-01T00:00:00Z,-14.1591,131.388,34.313575744628906
2003-04-01T00:00:00Z,-14.1591,131.388,35.904029846191406
2003-05-01T00:00:00Z,-14.1591,131.388,34.058876037597656
2003-06-01T00:00:00Z,-14.1591,131.388,32.205833435058594
2003-07-01T00:00:00Z,-14.1591,131.388,32.06560516357422
2003-08-01T00:00:00Z,-14.1591,131.388,33.50051498413086
2003-09-01T00:00:00Z,-14.1591,131.388,37.04466247558594
2003-10-01T00:00:00Z,-14.1591,131.388,38.81161880493164
2003-11-01T00:00:00Z,-14.1591,131.388,38.068382263183594
2003-12-01T00:00:00Z,-14.1591,131.388,34.50531005859375
2004-01-01T00:00:00Z,-14.1591,131.388,33.681209564208984
2004-02-01T00:00:00Z,-14.1591,131.388,31.948511123657227
2004-03-01T00:00:00Z,-14.1591,131.388,33.973731994628906
2004-04-01T00:00:00Z,-14.1591,131.388,35.095577239990234
2004-05-01T00:00:00Z,-14.1591,131.388,32.93925857543945
2004-06-01T00:00:00Z,-14.1591,131.388,30.276121139526367
2004-07-01T00:00:00Z,-14.1591,131.388,30.9693546295166
2004-08-01T00:00:00Z,-14.1591,131.388,33.27214431762695
2004-09-01T00:00:00Z,-14.1591,131.388,35.303035736083984
2004-10-01T00:00:00Z,-14.1591,131.388,39.173301696777344
2004-11-01T00:00:00Z,-14.1591,131.388,37.28654861450195
2004-12-01T00:00:00Z,-14.1591,131.388,36.744144439697266
2005-01-01T00:00:00Z,-14.1591,131.388,34.427364349365234
2005-02-01T00:00:00Z,-14.1591,131.388,35.34723663330078
2005-03-01T00:00:00Z,-14.1591,131.388,35.13301467895508
2005-04-01T00:00:00Z,-14.1591,131.388,35.96883773803711
2005-05-01T00:00:00Z,-14.1591,131.388,33.62128829956055
2005-06-01T00:00:00Z,-14.1591,131.388,32.272071838378906
2005-07-01T00:00:00Z,-14.1591,131.388,32.59560012817383
2005-08-01T00:00:00Z,-14.1591,131.388,33.154911041259766
2005-09-01T00:00:00Z,-14.1591,131.388,37.31149673461914
2005-10-01T00:00:00Z,-14.1591,131.388,38.485862731933594
2005-11-01T00:00:00Z,-14.1591,131.388,36.53910446166992
2005-12-01T00:00:00Z,-14.1591,131.388,35.463035583496094
2006-01-01T00:00:00Z,-14.1591,131.388,32.464393615722656
2006-02-01T00:00:00Z,-14.1591,131.388,35.07779312133789
2006-03-01T00:00:00Z,-14.1591,131.388,32.97734451293945
2006-04-01T00:00:00Z,-14.1591,131.388,32.261024475097656
2006-05-01T00:00:00Z,-14.1591,131.388,30.381439208984375
2006-06-01T00:00:00Z,-14.1591,131.388,29.434343338012695
2006-07-01T00:00:00Z,-14.1591,131.388,30.02191734313965
2006-08-01T00:00:00Z,-14.1591,131.388,32.40229415893555
2006-09-01T00:00:00Z,-14.1591,131.388,35.86259078979492
2006-10-01T00:00:00Z,-14.1591,131.388,37.98224639892578
2006-11-01T00:00:00Z,-14.1591,131.388,38.71841812133789
2006-12-01T00:00:00Z,-14.1591,131.388,36.56413269042969
2007-01-01T00:00:00Z,-14.1591,131.388,34.477840423583984
2007-02-01T00:00:00Z,-14.1591,131.388,35.574527740478516
2007-03-01T00:00:00Z,-14.1591,131.388,32.959537506103516
2007-04-01T00:00:00Z,-14.1591,131.388,34.72993087768555
2007-05-01T00:00:00Z,-14.1591,131.388,34.90443420410156
2007-06-01T00:00:00Z,-14.1591,131.388,28.07761001586914
2007-07-01T00:00:00Z,-14.1591,131.388,30.34930419921875
2007-08-01T00:00:00Z,-14.1591,131.388,32.45375442504883
2007-09-01T00:00:00Z,-14.1591,131.388,36.885414123535156
2007-10-01T00:00:00Z,-14.1591,131.388,38.33469772338867
2007-11-01T00:00:00Z,-14.1591,131.388,37.299766540527344
2007-12-01T00:00:00Z,-14.1591,131.388,35.5208854675293
2008-01-01T00:00:00Z,-14.1591,131.388,34.44176483154297
2008-02-01T00:00:00Z,-14.1591,131.388,32.21279525756836
2008-03-01T00:00:00Z,-14.1591,131.388,34.14806365966797
2008-04-01T00:00:00Z,-14.1591,131.388,34.567230224609375
2008-05-01T00:00:00Z,-14.1591,131.388,32.677188873291016
2008-06-01T00:00:00Z,-14.1591,131.388,31.434234619140625
2008-07-01T00:00:00Z,-14.1591,131.388,31.50816535949707
2008-08-01T00:00:00Z,-14.1591,131.388,33.03504180908203
2008-09-01T00:00:00Z,-14.1591,131.388,37.38024139404297
2008-10-01T00:00:00Z,-14.1591,131.388,39.2122802734375
2008-11-01T00:00:00Z,-14.1591,131.388,37.846702575683594
2008-12-01T00:00:00Z,-14.1591,131.388,34.234779357910156
2009-01-01T00:00:00Z,-14.1591,131.388,33.21802520751953
2009-02-01T00:00:00Z,-14.1591,131.388,32.73333740234375
2009-03-01T00:00:00Z,-14.1591,131.388,35.73760986328125
2009-04-01T00:00:00Z,-14.1591,131.388,36.41447830200195
2009-05-01T00:00:00Z,-14.1591,131.388,33.34646987915039
2009-06-01T00:00:00Z,-14.1591,131.388,32.28193664550781
2009-07-01T00:00:00Z,-14.1591,131.388,31.936471939086914
2009-08-01T00:00:00Z,-14.1591,131.388,34.66328430175781
2009-09-01T00:00:00Z,-14.1591,131.388,37.951927185058594
2009-10-01T00:00:00Z,-14.1591,131.388,38.707401275634766
2009-11-01T00:00:00Z,-14.1591,131.388,38.86141586303711
2009-12-01T00:00:00Z,-14.1591,131.388,36.234500885009766
2010-01-01T00:00:00Z,-14.1591,131.388,33.68944549560547
2010-02-01T00:00:00Z,-14.1591,131.388,34.59211730957031
2010-03-01T00:00:00Z,-14.1591,131.388,35.33742904663086
2010-04-01T00:00:00Z,-14.1591,131.388,34.7860107421875
2010-05-01T00:00:00Z,-14.1591,131.388,33.12901306152344
2010-06-01T00:00:00Z,-14.1591,131.388,30.598501205444336
2010-07-01T00:00:00Z,-14.1591,131.388,32.58417510986328
2010-08-01T00:00:00Z,-14.1591,131.388,33.897796630859375
2010-09-01T00:00:00Z,-14.1591,131.388,37.31636428833008
2010-10-01T00:00:00Z,-14.1591,131.388,36.06338119506836
2010-11-01T00:00:00Z,-14.1591,131.388,36.18185043334961
2010-12-01T00:00:00Z,-14.1591,131.388,34.64023971557617
2011-01-01T00:00:00Z,-14.1591,131.388,32.695960998535156
2011-02-01T00:00:00Z,-14.1591,131.388,32.37966537475586
2011-03-01T00:00:00Z,-14.1591,131.388,32.12152099609375
2011-04-01T00:00:00Z,-14.1591,131.388,32.438079833984375
2011-05-01T00:00:00Z,-14.1591,131.388,30.808263778686523
2011-06-01T00:00:00Z,-14.1591,131.388,28.870393753051758
2011-07-01T00:00:00Z,-14.1591,131.388,31.448829650878906
2011-08-01T00:00:00Z,-14.1591,131.388,32.914100646972656
2011-09-01T00:00:00Z,-14.1591,131.388,36.01332473754883
2011-10-01T00:00:00Z,-14.1591,131.388,38.05202865600586
2011-11-01T00:00:00Z,-14.1591,131.388,35.489418029785156
2011-12-01T00:00:00Z,-14.1591,131.388,35.414608001708984
2012-01-01T00:00:00Z,-14.1591,131.388,35.28373718261719
2012-02-01T00:00:00Z,-14.1591,131.388,35.40998458862305
2012-03-01T00:00:00Z,-14.1591,131.388,33.2327880859375
2012-04-01T00:00:00Z,-14.1591,131.388,33.78246307373047
2012-05-01T00:00:00Z,-14.1591,131.388,31.23587417602539
2012-06-01T00:00:00Z,-14.1591,131.388,29.897537231445312
2012-07-01T00:00:00Z,-14.1591,131.388,30.818273544311523
2012-08-01T00:00:00Z,-14.1591,131.388,33.52305221557617
2012-09-01T00:00:00Z,-14.1591,131.388,37.726829528808594
2012-10-01T00:00:00Z,-14.1591,131.388,38.34819412231445
2012-11-01T00:00:00Z,-14.1591,131.388,37.193458557128906
2012-12-01T00:00:00Z,-14.1591,131.388,36.55940628051758
