time,latitude[unit="degrees_north"],longitude[unit="degrees_east"],air_temperature[unit="C"]
1970-01-01T00:00:00Z,-28.41,153.02,28.507946014404297
1970-02-01T00:00:00Z,-28.41,153.02,26.892189025878906
1970-03-01T00:00:00Z,-28.41,153.02,26.444400787353516
1970-04-01T00:00:00Z,-28.41,153.02,23.806934356689453
1970-05-01T00:00:00Z,-28.41,153.02,20.03038787841797
1970-06-01T00:00:00Z,-28.41,153.02,19.457826614379883
1970-07-01T00:00:00Z,-28.41,153.02,18.731714248657227
1970-08-01T00:00:00Z,-28.41,153.02,20.03076934814453
1970-09-01T00:00:00Z,-28.41,153.02,21.53512191772461
1970-10-01T00:00:00Z,-28.41,153.02,24.8580379486084
1970-11-01T00:00:00Z,-28.41,153.02,24.78458595275879
1970-12-01T00:00:00Z,-28.41,153.02,26.381078720092773
1971-01-01T00:00:00Z,-28.41,153.02,27.490690231323242
1971-02-01T00:00:00Z,-28.41,153.02,25.851036071777344
1971-03-01T00:00:00Z,-28.41,153.02,24.209728240966797
1971-04-01T00:00:00Z,-28.41,153.02,22.85870933532715
1971-05-01T00:00:00Z,-28.41,153.02,20.729055404663086
1971-06-01T00:00:00Z,-28.41,153.02,18.4167537689209
1971-07-01T00:00:00Z,-28.41,153.02,17.591203689575195
1971-08-01T00:00:00Z,-28.41,153.02,19.535451889038086
1971-09-01T00:00:00Z,-28.41,153.02,21.793352127075195
1971-10-01T00:00:00Z,-28.41,153.02,25.667301177978516
1971-11-01T00:00:00Z,-28.41,153.02,25.904430389404297
1971-12-01T00:00:00Z,-28.41,153.02,26.657123565673828
1972-01-01T00:00:00Z,-28.41,153.02,26.092735290527344
1972-02-01T00:00:00Z,-28.41,153.02,23.9447021484375
1972-03-01T00:00:00Z,-28.41,153.02,25.01184844970703
1972-04-01T00:00:00Z,-28.41,153.02,22.88040542602539
1972-05-01T00:00:00Z,-28.41,153.02,19.177810668945312
1972-06-01T00:00:00Z,-28.41,153.02,18.10679817199707
1972-07-01T00:00:00Z,-28.41,153.02,18.32328224182129
1972-08-01T00:00:00Z,-28.41,153.02,20.35628318786621
1972-09-01T00:00:00Z,-28.41,153.02,22.7917537689209
1972-10-01T00:00:00Z,-28.41,153.02,24.429170608520508
1972-11-01T00:00:00Z,-28.41,153.02,25.157190322875977
1972-12-01T00:00:00Z,-28.41,153.02,28.987323760986328
1973-01-01T00:00:00Z,-28.41,153.02,28.154314041137695
1973-02-01T00:00:00Z,-28.41,153.02,26.665802001953125
1973-03-01T00:00:00Z,-28.41,153.02,27.157501220703125
1973-04-01T00:00:00Z,-28.41,153.02,24.86742401123047
1973-05-01T00:00:00Z,-28.41,153.02,22.937532424926758
1973-06-01T00:00:00Z,-28.41,153.02,19.197166442871094
1973-07-01T00:00:00Z,-28.41,153.02,18.022851943969727
1973-08-01T00:00:00Z,-28.41,153.02,20.1518611907959
1973-09-01T00:00:00Z,-28.41,153.02,22.5915584564209
1973-10-01T00:00:00Z,-28.41,153.02,24.43077850341797
1973-11-01T00:00:00Z,-28.41,153.02,26.815303802490234
1973-12-01T00:00:00Z,-28.41,153.02,27.158445358276367
1974-01-01T00:00:00Z,-28.41,153.02,25.350975036621094
1974-02-01T00:00:00Z,-28.41,153.02,26.00792694091797
1974-03-01T00:00:00Z,-28.41,153.02,24.59105682373047
1974-04-01T00:00:00Z,-28.41,153.02,23.85541534423828
1974-05-01T00:00:00Z,-28.41,153.02,19.811981201171875
1974-06-01T00:00:00Z,-28.41,153.02,18.419456481933594
1974-07-01T00:00:00Z,-28.41,153.02,18.577116012573242
1974-08-01T00:00:00Z,-28.41,153.02,18.451221466064453
1974-09-01T00:00:00Z,-28.41,153.02,20.333576202392578
1974-10-01T00:00:00Z,-28.41,153.02,22.516239166259766
1974-11-01T00:00:00Z,-28.41,153.02,24.457334518432617
1974-12-01T00:00:00Z,-28.41,153.02,27.82891082763672
1975-01-01T00:00:00Z,-28.41,153.02,27.60042381286621
1975-02-01T00:00:00Z,-28.41,153.02,26.54906463623047
1975-03-01T00:00:00Z,-28.41,153.02,25.554689407348633
1975-04-01T00:00:00Z,-28.41,153.02,22.765226364135742
1975-05-01T00:00:00Z,-28.41,153.02,21.506916046142578
1975-06-01T00:00:00Z,-28.41,153.02,17.913677215576172
1975-07-01T00:00:00Z,-28.41,153.02,19.00499725341797
1975-08-01T00:00:00Z,-28.41,153.02,19.077529907226562
1975-09-01T00:00:00Z,-28.41,153.02,21.095903396606445
1975-10-01T00:00:00Z,-28.41,153.02,22.431596755981445
1975-11-01T00:00:00Z,-28.41,153.02,25.243549346923828
1975-12-01T00:00:00Z,-28.41,153.02,25.58319854736328
1976-01-01T00:00:00Z,-28.41,153.02,25.90937614440918
1976-02-01T00:00:00Z,-28.41,153.02,24.508209228515625
1976-03-01T00:00:00Z,-28.41,153.02,25.32562255859375
1976-04-01T00:00:00Z,-28.41,153.02,22.302692413330078
1976-05-01T00:00:00Z,-28.41,153.02,19.931943893432617
1976-06-01T00:00:00Z,-28.41,153.02,18.351289749145508
1976-07-01T00:00:00Z,-28.41,153.02,17.66446876525879
1976-08-01T00:00:00Z,-28.41,153.02,18.96009635925293
1976-09-01T00:00:00Z,-28.41,153.02,20.673507690429688
1976-10-01T00:00:00Z,-28.41,153.02,22.8675537109375
1976-11-01T00:00:00Z,-28.41,153.02,26.95111846923828
1976-12-01T00:00:00Z,-28.41,153.02,29.186613082885742
1977-01-01T00:00:00Z,-28.41,153.02,28.049530029296875
1977-02-01T00:00:00Z,-28.41,153.02,26.953088760375977
1977-03-01T00:00:00Z,-28.41,153.02,25.61996078491211
1977-04-01T00:00:00Z,-28.41,153.02,23.58012580871582
1977-05-01T00:00:00Z,-28.41,153.02,20.377275466918945
1977-06-01T00:00:00Z,-28.41,153.02,17.647098541259766
1977-07-01T00:00:00Z,-28.41,153.02,17.584745407104492
1977-08-01T00:00:00Z,-28.41,153.02,20.71975326538086
1977-09-01T00:00:00Z,-28.41,153.02,22.250186920166016
1977-10-01T00:00:00Z,-28.41,153.02,25.862770080566406
1977-11-01T00:00:00Z,-28.41,153.02,26.68365478515625
1977-12-01T00:00:00Z,-28.41,153.02,28.407838821411133
1978-01-01T00:00:00Z,-28.41,153.02,28.017784118652344
1978-02-01T00:00:00Z,-28.41,153.02,28.481420516967773
1978-03-01T00:00:00Z,-28.41,153.02,25.93424415588379
1978-04-01T00:00:00Z,-28.41,153.02,23.903942108154297
1978-05-01T00:00:00Z,-28.41,153.02,20.0709171295166
1978-06-01T00:00:00Z,-28.41,153.02,17.3797550201416
1978-07-01T00:00:00Z,-28.41,153.02,17.471586227416992
1978-08-01T00:00:00Z,-28.41,153.02,17.5784969329834
1978-09-01T00:00:00Z,-28.41,153.02,20.612625122070312
1978-10-01T00:00:00Z,-28.41,153.02,22.084678649902344
1978-11-01T00:00:00Z,-28.41,153.02,24.640878677368164
1978-12-01T00:00:00Z,-28.41,153.02,26.543935775756836
1979-01-01T00:00:00Z,-28.41,153.02,27.158903121948242
1979-02-01T00:00:00Z,-28.41,153.02,25.905736923217773
1979-03-01T00:00:00Z,-28.41,153.02,25.403169631958008
1979-04-01T00:00:00Z,-28.41,153.02,24.469585418701172
1979-05-01T00:00:00Z,-28.41,153.02,19.771656036376953
1979-06-01T00:00:00Z,-28.41,153.02,18.904098510742188
1979-07-01T00:00:00Z,-28.41,153.02,17.909687042236328
1979-08-01T00:00:00Z,-28.41,153.02,19.56511878967285
1979-09-01T00:00:00Z,-28.41,153.02,21.944244384765625
1979-10-01T00:00:00Z,-28.41,153.02,23.959766387939453
1979-11-01T00:00:00Z,-28.41,153.02,26.694826126098633
1979-12-01T00:00:00Z,-28.41,153.02,30.384201049804688
1980-01-01T00:00:00Z,-28.41,153.02,29.626689910888672
1980-02-01T00:00:00Z,-28.41,153.02,26.236896514892578
1980-03-01T00:00:00Z,-28.41,153.02,27.292661666870117
1980-04-01T00:00:00Z,-28.41,153.02,24.444618225097656
1980-05-01T00:00:00Z,-28.41,153.02,20.679414749145508
1980-06-01T00:00:00Z,-28.41,153.02,18.453184127807617
1980-07-01T00:00:00Z,-28.41,153.02,17.218605041503906
1980-08-01T00:00:00Z,-28.41,153.02,20.107152938842773
1980-09-01T00:00:00Z,-28.41,153.02,25.022323608398438
1980-10-01T00:00:00Z,-28.41,153.02,25.292264938354492
1980-11-01T00:00:00Z,-28.41,153.02,27.419477462768555
1980-12-01T00:00:00Z,-28.41,153.02,26.358562469482422
1981-01-01T00:00:00Z,-28.41,153.02,27.33618927001953
1981-02-01T00:00:00Z,-28.41,153.02,27.01723289489746
1981-03-01T00:00:00Z,-28.41,153.02,26.349912643432617
1981-04-01T00:00:00Z,-28.41,153.02,24.116701126098633
1981-05-01T00:00:00Z,-28.41,153.02,19.920059204101562
1981-06-01T00:00:00Z,-28.41,153.02,17.579835891723633
1981-07-01T00:00:00Z,-28.41,153.02,17.737516403198242
1981-08-01T00:00:00Z,-28.41,153.02,19.212574005126953
1981-09-01T00:00:00Z,-28.41,153.02,23.49915313720703
1981-10-01T00:00:00Z,-28.41,153.02,23.539875030517578
1981-11-01T00:00:00Z,-28.41,153.02,23.83442497253418
1981-12-01T00:00:00Z,-28.41,153.02,27.88919448852539
1982-01-01T00:00:00Z,-28.41,153.02,27.130857467651367
1982-02-01T00:00:00Z,-28.41,153.02,26.910846710205078
1982-03-01T00:00:00Z,-28.41,153.02,25.445615768432617
1982-04-01T00:00:00Z,-28.41,153.02,23.213134765625
1982-05-01T00:00:00Z,-28.41,153.02,21.08974266052246
1982-06-01T00:00:00Z,-28.41,153.02,17.34516143798828
1982-07-01T00:00:00Z,-28.41,153.02,17.332530975341797
1982-08-01T00:00:00Z,-28.41,153.02,19.713706970214844
1982-09-01T00:00:00Z,-28.41,153.02,21.449237823486328
1982-10-01T00:00:00Z,-28.41,153.02,23.869430541992188
1982-11-01T00:00:00Z,-28.41,153.02,26.027929306030273
1982-12-01T00:00:00Z,-28.41,153.02,27.67327880859375
1983-01-01T00:00:00Z,-28.41,153.02,27.3814640045166
1983-02-01T00:00:00Z,-28.41,153.02,28.709447860717773
1983-03-01T00:00:00Z,-28.41,153.02,26.478578567504883
1983-04-01T00:00:00Z,-28.41,153.02,22.66602897644043
1983-05-01T00:00:00Z,-28.41,153.02,20.182077407836914
1983-06-01T00:00:00Z,-28.41,153.02,17.239456176757812
1983-07-01T00:00:00Z,-28.41,153.02,16.760454177856445
1983-08-01T00:00:00Z,-28.41,153.02,18.23157501220703
1983-09-01T00:00:00Z,-28.41,153.02,23.271080017089844
1983-10-01T00:00:00Z,-28.41,153.02,23.57402992248535
1983-11-01T00:00:00Z,-28.41,153.02,24.187149047851562
1983-12-01T00:00:00Z,-28.41,153.02,25.085201263427734
1984-01-01T00:00:00Z,-28.41,153.02,25.61724853515625
1984-02-01T00:00:00Z,-28.41,153.02,25.976417541503906
1984-03-01T00:00:00Z,-28.41,153.02,25.416919708251953
1984-04-01T00:00:00Z,-28.41,153.02,22.25428581237793
1984-05-01T00:00:00Z,-28.41,153.02,19.917238235473633
1984-06-01T00:00:00Z,-28.41,153.02,18.172697067260742
1984-07-01T00:00:00Z,-28.41,153.02,16.24832534790039
1984-08-01T00:00:00Z,-28.41,153.02,19.32577133178711
1984-09-01T00:00:00Z,-28.41,153.02,21.202552795410156
1984-10-01T00:00:00Z,-28.41,153.02,22.6411075592041
1984-11-01T00:00:00Z,-28.41,153.02,25.633745193481445
1984-12-01T00:00:00Z,-28.41,153.02,27.362760543823242
1985-01-01T00:00:00Z,-28.41,153.02,29.096288681030273
1985-02-01T00:00:00Z,-28.41,153.02,26.623456954956055
1985-03-01T00:00:00Z,-28.41,153.02,24.43682098388672
1985-04-01T00:00:00Z,-28.41,153.02,22.91840362548828
1985-05-01T00:00:00Z,-28.41,153.02,19.895421981811523
1985-06-01T00:00:00Z,-28.41,153.02,17.379188537597656
1985-07-01T00:00:00Z,-28.41,153.02,17.805618286132812
1985-08-01T00:00:00Z,-28.41,153.02,18.79502296447754
1985-09-01T00:00:00Z,-28.41,153.02,21.348520278930664
1985-10-01T00:00:00Z,-28.41,153.02,23.483505249023438
1985-11-01T00:00:00Z,-28.41,153.02,24.784029006958008
1985-12-01T00:00:00Z,-28.41,153.02,28.20572280883789
1986-01-01T00:00:00Z,-28.41,153.02,27.674596786499023
1986-02-01T00:00:00Z,-28.41,153.02,27.98000144958496
1986-03-01T00:00:00Z,-28.41,153.02,26.124542236328125
1986-04-01T00:00:00Z,-28.41,153.02,25.469562530517578
1986-05-01T00:00:00Z,-28.41,153.02,21.067060470581055
1986-06-01T00:00:00Z,-28.41,153.02,18.36779022216797
1986-07-01T00:00:00Z,-28.41,153.02,18.322669982910156
1986-08-01T00:00:00Z,-28.41,153.02,18.613550186157227
1986-09-01T00:00:00Z,-28.41,153.02,23.4578857421875
1986-10-01T00:00:00Z,-28.41,153.02,24.984554290771484
1986-11-01T00:00:00Z,-28.41,153.02,24.566564559936523
1986-12-01T00:00:00Z,-28.41,153.02,27.03351593017578
1987-01-01T00:00:00Z,-28.41,153.02,29.791967391967773
1987-02-01T00:00:00Z,-28.41,153.02,27.291711807250977
1987-03-01T00:00:00Z,-28.41,153.02,25.349943161010742
1987-04-01T00:00:00Z,-28.41,153.02,22.860736846923828
1987-05-01T00:00:00Z,-28.41,153.02,19.948486328125
1987-06-01T00:00:00Z,-28.41,153.02,18.08268928527832
1987-07-01T00:00:00Z,-28.41,153.02,17.965221405029297
1987-08-01T00:00:00Z,-28.41,153.02,19.324462890625
1987-09-01T00:00:00Z,-28.41,153.02,22.472579956054688
1987-10-01T00:00:00Z,-28.41,153.02,23.654279708862305
1987-11-01T00:00:00Z,-28.41,153.02,25.282276153564453
1987-12-01T00:00:00Z,-28.41,153.02,27.261714935302734
1988-01-01T00:00:00Z,-28.41,153.02,26.94635009765625
1988-02-01T00:00:00Z,-28.41,153.02,25.335603713989258
1988-03-01T00:00:00Z,-28.41,153.02,23.76569938659668
1988-04-01T00:00:00Z,-28.41,153.02,22.0335636138916
1988-05-01T00:00:00Z,-28.41,153.02,20.862163543701172
1988-06-01T00:00:00Z,-28.41,153.02,18.821002960205078
1988-07-01T00:00:00Z,-28.41,153.02,18.458173751831055
1988-08-01T00:00:00Z,-28.41,153.02,19.180849075317383
1988-09-01T00:00:00Z,-28.41,153.02,22.174734115600586
1988-10-01T00:00:00Z,-28.41,153.02,28.44812774658203
1988-11-01T00:00:00Z,-28.41,153.02,27.061002731323242
1988-12-01T00:00:00Z,-28.41,153.02,26.35527801513672
1989-01-01T00:00:00Z,-28.41,153.02,26.3621883392334
1989-02-01T00:00:00Z,-28.41,153.02,24.81548500061035
1989-03-01T00:00:00Z,-28.41,153.02,24.868858337402344
1989-04-01T00:00:00Z,-28.41,153.02,22.87680435180664
1989-05-01T00:00:00Z,-28.41,153.02,20.389787673950195
1989-06-01T00:00:00Z,-28.41,153.02,17.486438751220703
1989-07-01T00:00:00Z,-28.41,153.02,16.932275772094727
1989-08-01T00:00:00Z,-28.41,153.02,18.377939224243164
1989-09-01T00:00:00Z,-28.41,153.02,22.541152954101562
1989-10-01T00:00:00Z,-28.41,153.02,26.235267639160156
1989-11-01T00:00:00Z,-28.41,153.02,24.334957122802734
1989-12-01T00:00:00Z,-28.41,153.02,25.94585609436035
1990-01-01T00:00:00Z,-28.41,153.02,27.431554794311523
1990-02-01T00:00:00Z,-28.41,153.02,26.825103759765625
1990-03-01T00:00:00Z,-28.41,153.02,24.66213607788086
1990-04-01T00:00:00Z,-28.41,153.02,22.599184036254883
1990-05-01T00:00:00Z,-28.41,153.02,20.730649948120117
1990-06-01T00:00:00Z,-28.41,153.02,17.20054817199707
1990-07-01T00:00:00Z,-28.41,153.02,18.476520538330078
1990-08-01T00:00:00Z,-28.41,153.02,18.310468673706055
1990-09-01T00:00:00Z,-28.41,153.02,21.12242889404297
1990-10-01T00:00:00Z,-28.41,153.02,25.077102661132812
1990-11-01T00:00:00Z,-28.41,153.02,27.501155853271484
1990-12-01T00:00:00Z,-28.41,153.02,30.22747230529785
1991-01-01T00:00:00Z,-28.41,153.02,28.700965881347656
1991-02-01T00:00:00Z,-28.41,153.02,27.57331657409668
1991-03-01T00:00:00Z,-28.41,153.02,26.402320861816406
1991-04-01T00:00:00Z,-28.41,153.02,24.662565231323242
1991-05-01T00:00:00Z,-28.41,153.02,20.990821838378906
1991-06-01T00:00:00Z,-28.41,153.02,20.495086669921875
1991-07-01T00:00:00Z,-28.41,153.02,18.01458168029785
1991-08-01T00:00:00Z,-28.41,153.02,20.94668197631836
1991-09-01T00:00:00Z,-28.41,153.02,24.409088134765625
1991-10-01T00:00:00Z,-28.41,153.02,25.51262092590332
1991-11-01T00:00:00Z,-28.41,153.02,27.010475158691406
1991-12-01T00:00:00Z,-28.41,153.02,27.247827529907227
1992-01-01T00:00:00Z,-28.41,153.02,28.10915184020996
1992-02-01T00:00:00Z,-28.41,153.02,26.414602279663086
1992-03-01T00:00:00Z,-28.41,153.02,24.939144134521484
1992-04-01T00:00:00Z,-28.41,153.02,22.083641052246094
1992-05-01T00:00:00Z,-28.41,153.02,19.658981323242188
1992-06-01T00:00:00Z,-28.41,153.02,17.90642738342285
1992-07-01T00:00:00Z,-28.41,153.02,18.608448028564453
1992-08-01T00:00:00Z,-28.41,153.02,20.035547256469727
1992-09-01T00:00:00Z,-28.41,153.02,22.381450653076172
1992-10-01T00:00:00Z,-28.41,153.02,23.790603637695312
1992-11-01T00:00:00Z,-28.41,153.02,26.22330093383789
1992-12-01T00:00:00Z,-28.41,153.02,26.57806968688965
1993-01-01T00:00:00Z,-28.41,153.02,28.61064910888672
1993-02-01T00:00:00Z,-28.41,153.02,27.948484420776367
1993-03-01T00:00:00Z,-28.41,153.02,25.46976089477539
1993-04-01T00:00:00Z,-28.41,153.02,23.81956672668457
1993-05-01T00:00:00Z,-28.41,153.02,21.272409439086914
1993-06-01T00:00:00Z,-28.41,153.02,18.8667049407959
1993-07-01T00:00:00Z,-28.41,153.02,19.511632919311523
1993-08-01T00:00:00Z,-28.41,153.02,20.519744873046875
1993-09-01T00:00:00Z,-28.41,153.02,21.64006233215332
1993-10-01T00:00:00Z,-28.41,153.02,24.436752319335938
1993-11-01T00:00:00Z,-28.41,153.02,25.54631805419922
1993-12-01T00:00:00Z,-28.41,153.02,27.262208938598633
1994-01-01T00:00:00Z,-28.41,153.02,29.35378646850586
1994-02-01T00:00:00Z,-28.41,153.02,25.80441665649414
1994-03-01T00:00:00Z,-28.41,153.02,23.336259841918945
1994-04-01T00:00:00Z,-28.41,153.02,22.73210906982422
1994-05-01T00:00:00Z,-28.41,153.02,21.052255630493164
1994-06-01T00:00:00Z,-28.41,153.02,18.813587188720703
1994-07-01T00:00:00Z,-28.41,153.02,18.445459365844727
1994-08-01T00:00:00Z,-28.41,153.02,19.531917572021484
1994-09-01T00:00:00Z,-28.41,153.02,23.347675323486328
1994-10-01T00:00:00Z,-28.41,153.02,24.809720993041992
1994-11-01T00:00:00Z,-28.41,153.02,27.821632385253906
1994-12-01T00:00:00Z,-28.41,153.02,27.186378479003906
1995-01-01T00:00:00Z,-28.41,153.02,27.16542625427246
1995-02-01T00:00:00Z,-28.41,153.02,25.666259765625
1995-03-01T00:00:00Z,-28.41,153.02,26.37174415588379
1995-04-01T00:00:00Z,-28.41,153.02,23.397436141967773
1995-05-01T00:00:00Z,-28.41,153.02,20.427635192871094
1995-06-01T00:00:00Z,-28.41,153.02,17.9446964263916
1995-07-01T00:00:00Z,-28.41,153.02,18.440587997436523
1995-08-01T00:00:00Z,-28.41,153.02,20.800168991088867
1995-09-01T00:00:00Z,-28.41,153.02,22.932172775268555
1995-10-01T00:00:00Z,-28.41,153.02,24.460620880126953
1995-11-01T00:00:00Z,-28.41,153.02,27.403711318969727
1995-12-01T00:00:00Z,-28.41,153.02,26.694089889526367
1996-01-01T00:00:00Z,-28.41,153.02,27.452499389648438
1996-02-01T00:00:00Z,-28.41,153.02,26.629091262817383
1996-03-01T00:00:00Z,-28.41,153.02,24.895803451538086
1996-04-01T00:00:00Z,-28.41,153.02,24.092927932739258
1996-05-01T00:00:00Z,-28.41,153.02,20.28059959411621
1996-06-01T00:00:00Z,-28.41,153.02,18.81231117248535
1996-07-01T00:00:00Z,-28.41,153.02,17.793371200561523
1996-08-01T00:00:00Z,-28.41,153.02,20.098308563232422
1996-09-01T00:00:00Z,-28.41,153.02,23.468204498291016
1996-10-01T00:00:00Z,-28.41,153.02,24.040069580078125
1996-11-01T00:00:00Z,-28.41,153.02,26.983552932739258
1996-12-01T00:00:00Z,-28.41,153.02,26.637569427490234
1997-01-01T00:00:00Z,-28.41,153.02,25.43433380126953
1997-02-01T00:00:00Z,-28.41,153.02,28.13460922241211
1997-03-01T00:00:00Z,-28.41,153.02,26.08214569091797
1997-04-01T00:00:00Z,-28.41,153.02,24.4315128326416
1997-05-01T00:00:00Z,-28.41,153.02,20.273122787475586
1997-06-01T00:00:00Z,-28.41,153.02,18.365543365478516
1997-07-01T00:00:00Z,-28.41,153.02,17.475744247436523
1997-08-01T00:00:00Z,-28.41,153.02,19.82929801940918
1997-09-01T00:00:00Z,-28.41,153.02,22.540016174316406
1997-10-01T00:00:00Z,-28.41,153.02,24.11310386657715
1997-11-01T00:00:00Z,-28.41,153.02,26.809833526611328
1997-12-01T00:00:00Z,-28.41,153.02,28.983644485473633
1998-01-01T00:00:00Z,-28.41,153.02,27.99915885925293
1998-02-01T00:00:00Z,-28.41,153.02,28.83218765258789
1998-03-01T00:00:00Z,-28.41,153.02,28.784717559814453
1998-04-01T00:00:00Z,-28.41,153.02,24.075876235961914
1998-05-01T00:00:00Z,-28.41,153.02,21.31317710876465
1998-06-01T00:00:00Z,-28.41,153.02,18.698596954345703
1998-07-01T00:00:00Z,-28.41,153.02,18.088916778564453
1998-08-01T00:00:00Z,-28.41,153.02,19.48021125793457
1998-09-01T00:00:00Z,-28.41,153.02,22.22811508178711
1998-10-01T00:00:00Z,-28.41,153.02,24.92142677307129
1998-11-01T00:00:00Z,-28.41,153.02,24.12294578552246
1998-12-01T00:00:00Z,-28.41,153.02,27.469863891601562
1999-01-01T00:00:00Z,-28.41,153.02,27.158370971679688
1999-02-01T00:00:00Z,-28.41,153.02,25.453100204467773
1999-03-01T00:00:00Z,-28.41,153.02,25.759653091430664
1999-04-01T00:00:00Z,-28.41,153.02,22.130615234375
1999-05-01T00:00:00Z,-28.41,153.02,20.649063110351562
1999-06-01T00:00:00Z,-28.41,153.02,17.581764221191406
1999-07-01T00:00:00Z,-28.41,153.02,17.739439010620117
1999-08-01T00:00:00Z,-28.41,153.02,18.870071411132812
1999-09-01T00:00:00Z,-28.41,153.02,21.7646541595459
1999-10-01T00:00:00Z,-28.41,153.02,24.20745849609375
1999-11-01T00:00:00Z,-28.41,153.02,23.241046905517578
1999-12-01T00:00:00Z,-28.41,153.02,24.708948135375977
2000-01-01T00:00:00Z,-28.41,153.02,26.32929229736328
2000-02-01T00:00:00Z,-28.41,153.02,25.350692749023438
2000-03-01T00:00:00Z,-28.41,153.02,25.8387508392334
2000-04-01T00:00:00Z,-28.41,153.02,23.204469680786133
2000-05-01T00:00:00Z,-28.41,153.02,20.04839324951172
2000-06-01T00:00:00Z,-28.41,153.02,17.554622650146484
2000-07-01T00:00:00Z,-28.41,153.02,18.57572364807129
2000-08-01T00:00:00Z,-28.41,153.02,20.01983070373535
2000-09-01T00:00:00Z,-28.41,153.02,25.67266845703125
2000-10-01T00:00:00Z,-28.41,153.02,24.525815963745117
2000-11-01T00:00:00Z,-28.41,153.02,24.777935028076172
2000-12-01T00:00:00Z,-28.41,153.02,27.75693702697754
2001-01-01T00:00:00Z,-28.41,153.02,28.498977661132812
2001-02-01T00:00:00Z,-28.41,153.02,26.59969139099121
2001-03-01T00:00:00Z,-28.41,153.02,26.071548461914062
2001-04-01T00:00:00Z,-28.41,153.02,23.370328903198242
2001-05-01T00:00:00Z,-28.41,153.02,20.45176887512207
2001-06-01T00:00:00Z,-28.41,153.02,19.666473388671875
2001-07-01T00:00:00Z,-28.41,153.02,18.800289154052734
2001-08-01T00:00:00Z,-28.41,153.02,19.94512939453125
2001-09-01T00:00:00Z,-28.41,153.02,22.249059677124023
2001-10-01T00:00:00Z,-28.41,153.02,25.356340408325195
2001-11-01T00:00:00Z,-28.41,153.02,25.322072982788086
2001-12-01T00:00:00Z,-28.41,153.02,29.225067138671875
2002-01-01T00:00:00Z,-28.41,153.02,29.435195922851562
2002-02-01T00:00:00Z,-28.41,153.02,28.179166793823242
2002-03-01T00:00:00Z,-28.41,153.02,26.895357131958008
2002-04-01T00:00:00Z,-28.41,153.02,24.13883399963379
2002-05-01T00:00:00Z,-28.41,153.02,20.832921981811523
2002-06-01T00:00:00Z,-28.41,153.02,19.146129608154297
2002-07-01T00:00:00Z,-28.41,153.02,19.18021583557129
2002-08-01T00:00:00Z,-28.41,153.02,19.79168701171875
2002-09-01T00:00:00Z,-28.41,153.02,24.49846839904785
2002-10-01T00:00:00Z,-28.41,153.02,26.338645935058594
2002-11-01T00:00:00Z,-28.41,153.02,27.912290573120117
2002-12-01T00:00:00Z,-28.41,153.02,28.768037796020508
2003-01-01T00:00:00Z,-28.41,153.02,28.91254997253418
2003-02-01T00:00:00Z,-28.41,153.02,25.797670364379883
2003-03-01T00:00:00Z,-28.41,153.02,24.65459442138672
2003-04-01T00:00:00Z,-28.41,153.02,22.291749954223633
2003-05-01T00:00:00Z,-28.41,153.02,20.70956039428711
2003-06-01T00:00:00Z,-28.41,153.02,18.93045425415039
2003-07-01T00:00:00Z,-28.41,153.02,17.719778060913086
2003-08-01T00:00:00Z,-28.41,153.02,19.797651290893555
2003-09-01T00:00:00Z,-28.41,153.02,25.50422477722168
2003-10-01T00:00:00Z,-28.41,153.02,23.549816131591797
2003-11-01T00:00:00Z,-28.41,153.02,25.38825035095215
2003-12-01T00:00:00Z,-28.41,153.02,27.626440048217773
2004-01-01T00:00:00Z,-28.41,153.02,29.327482223510742
2004-02-01T00:00:00Z,-28.41,153.02,29.425195693969727
2004-03-01T00:00:00Z,-28.41,153.02,25.549463272094727
2004-04-01T00:00:00Z,-28.41,153.02,24.21381378173828
2004-05-01T00:00:00Z,-28.41,153.02,20.952823638916016
2004-06-01T00:00:00Z,-28.41,153.02,19.364057540893555
2004-07-01T00:00:00Z,-28.41,153.02,19.088417053222656
2004-08-01T00:00:00Z,-28.41,153.02,20.825504302978516
2004-09-01T00:00:00Z,-28.41,153.02,23.12106704711914
2004-10-01T00:00:00Z,-28.41,153.02,26.213485717773438
2004-11-01T00:00:00Z,-28.41,153.02,26.262969970703125
2004-12-01T00:00:00Z,-28.41,153.02,26.930295944213867
2005-01-01T00:00:00Z,-28.41,153.02,28.028886795043945
2005-02-01T00:00:00Z,-28.41,153.02,28.603404998779297
2005-03-01T00:00:00Z,-28.41,153.02,26.28839874267578
2005-04-01T00:00:00Z,-28.41,153.02,24.575407028198242
2005-05-01T00:00:00Z,-28.41,153.02,20.914016723632812
2005-06-01T00:00:00Z,-28.41,153.02,18.80609703063965
2005-07-01T00:00:00Z,-28.41,153.02,19.12615203857422
2005-08-01T00:00:00Z,-28.41,153.02,19.60137939453125
2005-09-01T00:00:00Z,-28.41,153.02,23.18682861328125
2005-10-01T00:00:00Z,-28.41,153.02,26.453617095947266
2005-11-01T00:00:00Z,-28.41,153.02,26.121057510375977
2005-12-01T00:00:00Z,-28.41,153.02,30.629657745361328
2006-01-01T00:00:00Z,-28.41,153.02,28.357999801635742
2006-02-01T00:00:00Z,-28.41,153.02,28.217609405517578
2006-03-01T00:00:00Z,-28.41,153.02,25.444284439086914
2006-04-01T00:00:00Z,-28.41,153.02,24.45255470275879
2006-05-01T00:00:00Z,-28.41,153.02,21.072288513183594
2006-06-01T00:00:00Z,-28.41,153.02,18.029016494750977
2006-07-01T00:00:00Z,-28.41,153.02,18.870546340942383
2006-08-01T00:00:00Z,-28.41,153.02,20.70047950744629
2006-09-01T00:00:00Z,-28.41,153.02,22.20298194885254
2006-10-01T00:00:00Z,-28.41,153.02,24.427621841430664
2006-11-01T00:00:00Z,-28.41,153.02,26.18889045715332
2006-12-01T00:00:00Z,-28.41,153.02,25.734209060668945
2007-01-01T00:00:00Z,-28.41,153.02,28.151243209838867
2007-02-01T00:00:00Z,-28.41,153.02,27.278202056884766
2007-03-01T00:00:00Z,-28.41,153.02,27.047441482543945
2007-04-01T00:00:00Z,-28.41,153.02,24.322559356689453
2007-05-01T00:00:00Z,-28.41,153.02,23.008373260498047
2007-06-01T00:00:00Z,-28.41,153.02,17.40620994567871
2007-07-01T00:00:00Z,-28.41,153.02,18.18842315673828
2007-08-01T00:00:00Z,-28.41,153.02,20.656179428100586
2007-09-01T00:00:00Z,-28.41,153.02,23.206748962402344
2007-10-01T00:00:00Z,-28.41,153.02,26.688154220581055
2007-11-01T00:00:00Z,-28.41,153.02,24.44446563720703
2007-12-01T00:00:00Z,-28.41,153.02,25.460865020751953
2008-01-01T00:00:00Z,-28.41,153.02,25.731685638427734
2008-02-01T00:00:00Z,-28.41,153.02,25.506275177001953
2008-03-01T00:00:00Z,-28.41,153.02,24.472248077392578
2008-04-01T00:00:00Z,-28.41,153.02,21.800025939941406
2008-05-01T00:00:00Z,-28.41,153.02,20.91953468322754
2008-06-01T00:00:00Z,-28.41,153.02,19.809524536132812
2008-07-01T00:00:00Z,-28.41,153.02,17.516216278076172
2008-08-01T00:00:00Z,-28.41,153.02,19.085880279541016
2008-09-01T00:00:00Z,-28.41,153.02,22.88531494140625
2008-10-01T00:00:00Z,-28.41,153.02,24.616212844848633
2008-11-01T00:00:00Z,-28.41,153.02,25.40416145324707
2008-12-01T00:00:00Z,-28.41,153.02,27.886302947998047
2009-01-01T00:00:00Z,-28.41,153.02,27.30019187927246
2009-02-01T00:00:00Z,-28.41,153.02,27.11093521118164
2009-03-01T00:00:00Z,-28.41,153.02,26.01797103881836
2009-04-01T00:00:00Z,-28.41,153.02,23.281354904174805
2009-05-01T00:00:00Z,-28.41,153.02,19.957326889038086
2009-06-01T00:00:00Z,-28.41,153.02,18.14194107055664
2009-07-01T00:00:00Z,-28.41,153.02,18.30418586730957
2009-08-01T00:00:00Z,-28.41,153.02,23.113187789916992
2009-09-01T00:00:00Z,-28.41,153.02,24.614774703979492
2009-10-01T00:00:00Z,-28.41,153.02,25.852920532226562
2009-11-01T00:00:00Z,-28.41,153.02,28.858373641967773
2009-12-01T00:00:00Z,-28.41,153.02,28.954851150512695
2010-01-01T00:00:00Z,-28.41,153.02,29.54953384399414
2010-02-01T00:00:00Z,-28.41,153.02,26.751117706298828
2010-03-01T00:00:00Z,-28.41,153.02,25.07788848876953
2010-04-01T00:00:00Z,-28.41,153.02,24.112863540649414
2010-05-01T00:00:00Z,-28.41,153.02,20.283611297607422
2010-06-01T00:00:00Z,-28.41,153.02,18.09438705444336
2010-07-01T00:00:00Z,-28.41,153.02,18.040283203125
2010-08-01T00:00:00Z,-28.41,153.02,18.908998489379883
2010-09-01T00:00:00Z,-28.41,153.02,21.859590530395508
2010-10-01T00:00:00Z,-28.41,153.02,21.9419002532959
2010-11-01T00:00:00Z,-28.41,153.02,24.079811096191406
2010-12-01T00:00:00Z,-28.41,153.02,25.01284408569336
2011-01-01T00:00:00Z,-28.41,153.02,26.958890914916992
2011-02-01T00:00:00Z,-28.41,153.02,27.693330764770508
2011-03-01T00:00:00Z,-28.41,153.02,25.543317794799805
2011-04-01T00:00:00Z,-28.41,153.02,22.484512329101562
2011-05-01T00:00:00Z,-28.41,153.02,19.4501953125
2011-06-01T00:00:00Z,-28.41,153.02,17.479934692382812
2011-07-01T00:00:00Z,-28.41,153.02,17.899276733398438
2011-08-01T00:00:00Z,-28.41,153.02,19.437301635742188
2011-09-01T00:00:00Z,-28.41,153.02,22.50202178955078
2011-10-01T00:00:00Z,-28.41,153.02,22.98674774169922
2011-11-01T00:00:00Z,-28.41,153.02,27.61105728149414
2011-12-01T00:00:00Z,-28.41,153.02,24.364425659179688
2012-01-01T00:00:00Z,-28.41,153.02,26.378761291503906
2012-02-01T00:00:00Z,-28.41,153.02,26.770343780517578
2012-03-01T00:00:00Z,-28.41,153.02,24.876327514648438
2012-04-01T00:00:00Z,-28.41,153.02,22.995830535888672
2012-05-01T00:00:00Z,-28.41,153.02,20.59248924255371
2012-06-01T00:00:00Z,-28.41,153.02,17.380786895751953
2012-07-01T00:00:00Z,-28.41,153.02,17.588655471801758
2012-08-01T00:00:00Z,-28.41,153.02,20.377151489257812
2012-09-01T00:00:00Z,-28.41,153.02,23.58458137512207
2012-10-01T00:00:00Z,-28.41,153.02,25.687610626220703
2012-11-01T00:00:00Z,-28.41,153.02,27.17630958557129
2012-12-01T00:00:00Z,-28.41,153.02,28.409151077270508
