"Curve","Vcmax","Jmax","Rd","TPU","Vcmax_SE","Jmax_SE","Rd_SE","TPU_SE","rmse","R2","resp","lowAs","highAs","elevated","Ci_t","Ac","Aj","Ap","Ts","JVr","A_ratio","TsK","Tsq","maxCi","minCi","lim","lim_step","Species","Date","Season","Leaf","TreeNum","Photo","Cond","Ci","VPD","BLCond","Tair","Tleaf","CO2S","PARin","Patm","GrowthTair","GrowthCa","Treatment","Location"
"1",25.2232724543022,45.1551811050481,0.506277666262608,NA,0.71220686145592,NA,0.100322979877528,NA,0.289062530991115,0.999021284669742,-0.505003025262796,4.21886426018756,8.73880886649309,7.95121181651123,549.198619468308,4.72629461215017,6.66209371001087,1000,28.0725,1.79021898077885,2.07136526030458,301.2225,788.06525625,1510,66.4,4.72629461215017,"C_lim","Pinus taeda","Aug-99","summer",1,"Ring1_99 fol",-0.246,0.0505,66.4,1.51,NA,27.44,28.06,60,1801,100.1,"ambient","ambient","ambient CO2","Chapel Hill North Carolina USA"
"10",9.56499372335337,24.0381790340514,1.03459682812576,1.64153227604192,0.329512947996048,NA,0.0986559003828477,NA,0.31303678798335,0.991806295403384,0.161842533814813,3.82499275170021,3.88999611152134,3.88999461119454,223.784040271088,5.18667852712962,4.86680951528358,1000,10.0614285714286,2.51314111951386,1.0169943746409,283.211428571429,101.232344897959,1420,51.2,4.86680951528358,"R_lim","Pinus taeda","Dec-98","winter",1,"Ring5_SE",3.74,0.0437,217,0.807,2.34,10.12,10.37,360.1,1899,99.46,"ambient","ambient","ambient CO83","Chapel Hill North Carolina USA"
"11",43.046056512477,66.9232355669344,1.21868534854392,NA,1.69571744729455,NA,0.213926846316492,NA,0.651402506638481,0.996783779559218,-1.2104354565635,6.8776892555226,12.3670829528828,11.3213508126173,401.18250218954,8.10023216290502,9.79566901469807,1000,28.0177777777778,1.55468911647079,1.79814505910577,301.167777777778,784.995871604938,1480,70,8.10023216290502,"C_lim","Pinus taeda","Dec-98","winter",2,"Ring1_edge",4.31,0.0442,194,1.53,2.68,27,27.81,359.4,1850,100.7,"ambient","ambient","ambient CO90","Chapel Hill North Carolina USA"
"12",11.477760646168,30.2132346006562,1.21045560536974,NA,0.578544308290483,NA,0.210080534564619,NA,0.351074451244908,0.992884702750635,0.220192311079004,4.863662155008,5.74526290982644,5.52688468931513,258.375466163553,6.21539210892705,6.10023354639676,1000,10.0957142857143,2.63232833756149,1.18126274538018,283.245714285714,101.923446938775,362,48.5,6.10023354639676,"R_lim","Pinus taeda","Dec-98","winter",2,"Ring1_edge",4.3,0.049,214,0.657,2.68,9.29,10.39,359.7,1850,100.6,"ambient","ambient","ambient CO99","Chapel Hill North Carolina USA"
"13",39.7567717292591,50.6878265887135,0.73218906251241,3.23406302083747,2.85220506672629,NA,0.311590527155628,NA,0.694617484688276,0.992488764979197,-0.728901777870883,6.65405172867025,8.96998567557455,8.8305276183786,275.495548675552,7.45679281161855,7.46356891401785,1000,28.06,1.27494825117829,1.34804868392075,301.21,787.3636,1580,63.4,7.45679281161855,"C_lim","Pinus taeda","Jun-99","summer",1,"23",5.66,0.0719,224,1.53,2.77,27.06,28.34,360.4,1799,99.95,"ambient","ambient","ambient CO106","Chapel Hill North Carolina USA"
"14",64.7648065987562,67.8481708176326,0.869560234603133,NA,1.30486184443364,NA,0.0805172826335206,NA,0.206648924598724,0.999655853843022,-1.62181249644738,5.91857621008313,11.9494974777278,10.6089956570183,386.587130117907,6.79151634651035,8.15145404353914,1000,34.98,1.04760863778964,2.018981770881,308.13,1223.6004,1270,81.9,6.79151634651035,"C_lim","Pinus taeda","Jun-99","summer",1,"74",3.29,0.033,188,2.28,2.77,36.04,35.03,359.7,1799,99.87,"ambient","ambient","ambient CO114","Chapel Hill North Carolina USA"
"15",13.5625614175515,27.5607183079644,0.605382624977477,2.06846087499249,0.618769620631997,NA,0.141440283399903,NA,0.196551790658312,0.998168702563377,0.353364096592634,4.62696625617754,5.59955989226644,5.35550972767447,202.983519105068,5.88382153065746,5.23655127934242,1000,15.0185714285714,2.03211749310847,1.2102011517353,288.168571428571,225.557487755102,1730,50.7,5.23655127934242,"R_lim","Pinus taeda","Jun-99","summer",1,"9",0.3,0.0614,50.7,0.702,2.77,11.9,15.04,59.3,1800,99.74,"ambient","ambient","ambient CO121","Chapel Hill North Carolina USA"
"16",11.8163975940134,26.8318750203696,0.582940157680807,NA,0.868794845533251,NA,0.260534184124083,NA,0.492496538707015,0.98468576697473,0.246393966571702,4.46958709564421,5.46592792174869,5.21875034022368,272.613230851778,5.11191911641198,5.09550962551999,1000,15.0742857142857,2.27073224363773,1.2229156306352,288.224285714286,227.234089795918,407,48.1,5.09550962551999,"R_lim","Pinus taeda","Jun-99","summer",2,"21",4.31,0.0588,236,0.81,2.11,12.98,15.56,359.9,1798,99.81,"ambient","ambient","ambient CO128","Chapel Hill North Carolina USA"
"17",25.9115660549704,34.8843175323059,0.115891332999455,1.99696377766648,0.773136352964534,NA,0.0853445754107249,NA,1.78650220338168,0.916602896391788,-0.0101953812801639,5.20334289379021,5.87499718150361,5.87499521663932,267.837055817053,5.41824862039936,5.34781012543222,1000,26.6344444444444,1.34628364253632,1.12908130435051,299.784444444444,709.393630864197,1740,54.6,5.34781012543222,"R_lim","Pinus taeda","Jun-99","summer",2,"57",4.62,0.0556,1740,0.719,2.11,12.2,15.06,1901.9,1800,99.81,"ambient","ambient","ambient CO135","Chapel Hill North Carolina USA"
"18",41.6485140124678,46.5033243131374,0.245306797216839,NA,2.25879968439127,NA,0.184701562947621,NA,0.600721683830733,0.994843573931757,-0.73173139840043,4.0946299576342,8.61407735605137,7.68287110138449,444.468306719158,4.34140118073505,5.62610980339708,1000,35.04625,1.11656623089161,2.10374989808076,308.19625,1228.2396390625,1550,68.5,4.34140118073505,"C_lim","Pinus taeda","Jun-99","summer",2,"150",3.72,0.0642,238,2.04,2.11,35.95,35.15,343.1,1800,99.62,"ambient","ambient","ambient CO144","Chapel Hill North Carolina USA"
"2",52.0731076921911,55.7794077424241,0.346869593723134,NA,1.96382248761439,NA,0.144198704010509,NA,0.499220196458877,0.998007871134832,-0.954286011219492,5.08632379547944,10.2408528996341,9.13056666726607,408.647521516627,5.43547756120476,6.72554748409315,1000,35.0311111111111,1.07117493490385,2.01340954910024,308.181111111111,1227.17874567901,1440,74.9,5.43547756120476,"C_lim","Pinus taeda","Aug-99","summer",1,"Ring1_99 fol",3.91,0.0487,220,1.81,NA,34.98,35.01,359,1799,100,"ambient","ambient","ambient CO11","Chapel Hill North Carolina USA"
"20",25.4572520534732,48.6167864523887,0.794482557759868,NA,2.45760417987902,NA,0.348285938935655,NA,0.94069034505714,0.9872984282315,-0.788926128286787,3.99881490669811,9.1477122892959,7.84931713757734,624.952245472312,4.79426254861912,7.17399145031229,1000,28.0075,1.90974211789508,2.28760582891028,301.1575,784.42005625,1410,64.7,4.79426254861912,"C_lim","Pinus taeda","Jun-99","summer",3,"20",3.27,0.0625,267,1.37,2.9,25.56,27.79,359.1,1800,99.87,"ambient","ambient","ambient CO152","Chapel Hill North Carolina USA"
"21",50.9868632656366,73.2735085655581,0.830477287440335,NA,2.09667347099083,NA,0.146510132017293,NA,0.443485215620382,0.998699103861917,-1.42529134788755,4.49012736243384,12.95803186254,10.0970989979884,688.224621456003,5.32142609874633,8.76681229588945,1000,35.0325,1.43710563608925,2.88589405524484,308.1825,1227.27605625,1270,82.8,5.32142609874633,"C_lim","Pinus taeda","Jun-99","summer",3,"72",3.36,0.0413,217,2.42,2.9,36.12,35.07,360,1801,99.87,"ambient","ambient","ambient CO160","Chapel Hill North Carolina USA"
"22",11.3687841054924,24.4256299900542,0.555555578610451,NA,0.668856040441121,NA,0.152132848542453,NA,0.633825348587537,0.979400315135709,0.251353607785032,4.08568785169747,4.95857467456224,4.73447542679291,233.969036990196,4.93981047564578,4.64845827230598,1000,14.9875,2.14848217394276,1.21364501022811,288.1375,224.62515625,1680,51.1,4.64845827230598,"R_lim","Pinus taeda","Jun-99","summer",3,"125",4.05,0.0529,233,0.586,2.9,11.64,14.91,360.3,1800,99.76,"ambient","ambient","ambient CO168","Chapel Hill North Carolina USA"
"3",6.67686548750872,19.2416188391936,0.538296520835684,NA,0.107217975518163,NA,0.0358793279394233,NA,0.223121813593189,0.99652029160789,-0.0771084855194921,2.33121167742615,3.80472721174869,3.53815181746704,589.303439440799,2.87055220493825,3.65820787671189,1000,15.1975,2.88183412938173,1.63208139723692,288.3475,230.96400625,1620,57.9,2.87055220493825,"C_lim","Pinus taeda","Aug-99","summer",1,"Ring1_99 fol",0.0116,0.0313,57.9,0.911,NA,11.08,15.48,59.4,1800,99.88,"ambient","ambient","ambient CO21","Chapel Hill North Carolina USA"
"4",30.0874087945414,41.7409546016392,0.360579589576242,NA,1.21239620901357,NA,0.130906196564762,NA,0.401952365616079,0.997836050151901,-0.354294166594174,5.2978907498423,8.20502516592518,7.54737007888078,326.365552830804,5.66465482600313,6.17618973526801,1000,28.0111111111111,1.38732301231644,1.54873430830362,301.161111111111,784.622345679012,1520,60,5.66465482600313,"C_lim","Pinus taeda","Aug-99","summer",2,"Ring5_99 fol",-0.0434,0.0473,60,1.51,NA,23.91,27.76,60,1802,99.73,"ambient","ambient","ambient CO33","Chapel Hill North Carolina USA"
"5",42.6628686492033,50.7254891379382,0.485166917313694,3.59505563910457,1.55387655991319,NA,0.131276973341426,NA,0.351995791463636,0.998734894894308,-0.982512552219466,3.96983078163085,9.16356202578338,8.14372782647641,495.366426512297,4.4561821031633,6.13069288673685,1000,35.02375,1.1889844903546,2.3083004112379,308.17375,1226.6630640625,1480,74.9,4.4561821031633,"C_lim","Pinus taeda","Aug-99","summer",2,"Ring5_99 fol",3.19,0.0476,243,1.81,NA,34.63,34.97,361.7,1800,99.67,"ambient","ambient","ambient CO43","Chapel Hill North Carolina USA"
"6",6.94884686091802,19.9403084618667,0.424750337303694,NA,0.841108499252385,NA,0.265668456646277,NA,0.62334946431359,0.967855946814907,0.0544419546383845,2.55973350652995,4.07484001119856,3.81271012901708,579.959664193756,2.98559045572542,3.78938607562075,1000,15.21,2.86958525075805,1.59190009460107,288.36,231.3441,1550,64.6,2.98559045572542,"C_lim","Pinus taeda","Aug-99","summer",2,"Ring5_99 fol",2.26,0.024,203,0.997,NA,11.73,15.58,359.5,1799,99.65,"ambient","ambient","ambient CO52","Chapel Hill North Carolina USA"
"7",25.8684432856229,55.1435708873956,0.813229387415498,NA,0.519323002738904,NA,0.0699056452994274,NA,0.176227758787665,0.999657483757959,-0.809661510637353,4.04601530819746,10.3316110993235,7.96322661527664,798.76940907398,4.85997135037573,8.10869136847094,1000,28.0385714285714,2.13169266811054,2.55352743683175,301.188571428571,786.161487755102,1370,67.2,4.85997135037573,"C_lim","Pinus taeda","Aug-99","summer",3,"Ring6_99 fol",-0.239,0.0411,67.2,1.59,NA,25.66,28,59.4,1849,98.04,"ambient","ambient","ambient CO60","Chapel Hill North Carolina USA"
"8",40.5422122759353,55.5888448641256,0.829154864305577,NA,1.41562061281626,NA,0.104277463366852,NA,0.308011674745401,0.998892379799126,-1.30084639291095,3.41388097977402,9.72137604752316,7.87673631634776,638.207092853103,4.24376564552956,6.70991956636178,1000,35,1.37113496633536,2.84760251019842,308.15,1225,1240,83.3,4.24376564552956,"C_lim","Pinus taeda","Aug-99","summer",3,"Ring6_99 fol",2.74,0.0364,227,2.43,NA,35.26,34.96,361.5,1799,98.13,"ambient","ambient","ambient CO67","Chapel Hill North Carolina USA"
"9",32.9495935038589,61.5263589246009,0.840443867667995,NA,0.352859891014234,NA,0.0485714382681284,NA,0.141080861823597,0.999830029993764,-0.833038711577178,5.36466148632553,11.6755991191267,10.3346944636948,588.100176381025,6.20646840406901,9.02989757157596,1000,28.005,1.86728734354174,2.17639065370438,301.155,784.280025,1530,67.9,6.20646840406901,"C_lim","Pinus taeda","Dec-98","winter",1,"Ring5_SE",3.92,0.0465,215,1.54,2.34,28.63,28.04,359.4,1901,99.29,"ambient","ambient","ambient CO75","Chapel Hill North Carolina USA"
