"Curve","Vcmax","Jmax","Rd","TPU","Vcmax_SE","Jmax_SE","Rd_SE","TPU_SE","rmse","R2","resp","lowAs","highAs","elevated","Ci_t","Ac","Aj","Ap","Ts","JVr","A_ratio","TsK","Tsq","maxCi","minCi","lim","lim_step","X","Obs","Time","Photo","Cond","Ci","Trmmol","VpdL","Area","StmRat","BLCond","Tair","Tleaf","TBlk","CO2R","CO2S","H2OR","H2OS","RH_R","RH_S","Flow","PARi","PARo","Press","CsMch","HsMch","Status","Date","Year","Month"
"1",14.7680098603399,40.9178342229422,2.28369025467529,NA,0.159360082274383,NA,0.0602336022776619,NA,0.33719477262495,0.997511836458891,-1.33541762509319,3.88559189284252,6.72648033310184,6.32623744236415,497.858905530486,6.17204447212518,7.54710871120096,1000,15.7488888888889,2.77070740132892,1.73113402503552,288.898888888889,248.027501234568,835,97.6,6.17204447212518,"C_lim",6,6,1036.5,5.38,0.118,408,0.793,0.692,6,1,2.84,14.66,16.01,12.86,500.5,489,9.72,11.287,58.28,67.67,300.2,999,149,100.4,-2.15,0.0273,111115,"1/06/2001",2001,"June"
"10",26.7164664074871,49.3055187111205,2.49471710311015,NA,4.18252514126678,NA,0.894468535891246,NA,1.14052637801404,0.974965389521625,-1.54561684997006,5.98287848371207,8.05610683149943,7.51315798476426,242.097642463869,8.97465215998115,8.49205463048334,1000,19.6388888888889,1.84551047878484,1.34652690229821,292.788888888889,385.685956790123,959,105,8.49205463048334,"R_lim",184,5,885.2,5.51,0.0454,286,0.472,1.04,6,1,2.84,19.01,19.46,20.01,501.3,489.8,11.282,12.214,51.36,55.6,300.2,998,47,100.4,1.67,0.0796,111115,"1/06/2001",2001,"June"
"100",51.1857157586749,145.77017875781,1.0325771056046,NA,1.78811800793434,NA,0.483829576809541,NA,1.37694636604928,0.996424243324441,0.0503040448895682,13.5432527390845,26.2444420238718,22.586852863627,691.895453046466,14.5789724147967,21.3363732337628,1000,22.25,2.84786832805214,1.93782413497556,295.4,495.0625,906,74.2,14.5789724147967,"C_lim",2167,3,498.4,7.55,0.0927,164,0.575,0.625,6,1,2.84,22.64,22.35,22.97,309.8,300.5,20.198,20.874,73.15,75.6,499.9,999,110,99.9,3.61,0.122,111115,"1/07/2002",2002,"August"
"101",62.9819270326446,159.888578228822,1.36819877028092,NA,3.08041916422937,NA,0.668203546039687,NA,1.65319477358873,0.993998493457415,-0.717417488940847,13.7049428483533,27.3642877009257,24.2199265126431,614.802713750845,15.0765547924423,21.7296909487546,1000,24.78375,2.53864220677067,1.99667287953803,297.93375,614.2342640625,758,79.5,15.0765547924423,"C_lim",2178,1,1823.4,2.38,0.224,79.5,1.7,0.797,6,1,2.84,26.28,24.21,27.46,101.8,98.8,20.382,22.379,59.35,65.16,500.3,999,123,99.89,2.65,0.0693,111115,"1/07/2002",2002,"August"
"102",51.0173096836053,109.290336887061,0.854041572224532,NA,1.82634736091173,NA,0.319511856456499,NA,1.13208184051502,0.996621754296182,-0.413257303749158,10.9546588444725,20.2367183901748,18.7650570221948,514.374493077447,11.8121575044702,15.8423094737638,1000,25.24875,2.14222070048085,1.84731616725662,298.39875,637.4993765625,684,80.6,11.8121575044702,"C_lim",2195,5,4028.4,9.62,0.0642,249,0.627,0.97,6,1,2.84,26.55,25.23,27.45,511.3,499.4,21.829,22.564,62.53,64.64,500,999,129,99.85,3.29,0.146,111115,"1/07/2002",2002,"August"
"103",92.2664800885139,74.9751021328031,0.372724768898367,NA,NA,NA,NA,NA,1.41309418693971,0.979405656700057,-0.694847786003568,9.81879158196331,14.1273568056245,12.9335722384744,116.176653222572,15.343557022981,10.1935323870722,1000,29.5814285714286,0.812593068044618,1.4388080944274,302.731428571429,875.060916326531,678,79.7,10.1935323870722,"R_lim",2204,1,6219.4,1.96,0.186,79.7,2.62,1.45,6,1,2.84,33.16,29,35.41,102.4,99.7,22.66,25.726,44.36,50.36,500.2,999,32,99.82,1.9,0.0489,111115,"1/07/2002",2002,"August"
"104",52.3395808337416,NA,1.08133696468714,10.3604456548957,7.17786575961067,NA,1.89656520864984,NA,9.4189867195905,0.940346973927053,-1.24517439158842,7.7401333555546,20.1576909503934,15.2676452588538,1999.99991561528,8.82176952250024,34.8300770071983,1000,29.414,NA,2.60430796530495,302.564,865.183396,1170,82.5,8.82176952250024,"C_lim",2218,2,7845.4,3.45,0.0907,134,1.53,1.68,6,1,2.84,33.65,29.59,35.88,206.1,201.6,23.038,24.831,43.89,47.3,500.1,999,115,99.81,1.87,0.116,111115,"1/07/2002",2002,"August"
"105",20.8197096024478,75.8457053449819,1.7560032622405,NA,1.16395614407542,NA,0.525031720580505,NA,1.56783462771178,0.98783484005753,-0.269617270217902,7.30898159220092,12.912377218458,11.1122386788617,1432.92319920474,9.06675676004063,13.7025880342229,1000,14.9425,3.64297614103439,1.76664519612914,288.0925,223.27830625,1100,74.4,9.06675676004063,"C_lim",2246,4,1060.7,7.48,0.149,282,1.06,0.736,6,1,2.84,16.26,14.99,15.12,379.39,369.95,8.487,9.747,45.68,52.45,500.5,999,66,99.87,-2.31,-0.175,111115,"1/07/2002",2002,"August"
"106",25.3109341441047,73.6362465212321,1.88362262639439,NA,1.43292425512529,NA,0.553763921331112,NA,1.22936105645677,0.988389092745637,-0.0896411293996233,9.10285952516245,13.9136676603332,13.2386842604083,494.437890224226,10.9916472840831,13.3233590748918,1000,14.9985714285714,2.90926625236324,1.52849416404511,288.148571428571,224.957144897959,1100,86.6,10.9916472840831,"C_lim",2261,6,4367.1,13.3,0.0828,726,0.554,0.678,6,1,2.84,17.08,14.99,15.14,1015.84,999.18,9.684,10.342,49.47,52.83,500.3,999,149,99.81,-6.59,-0.212,111115,"1/07/2002",2002,"August"
"107",19.7736769404953,61.2230697408502,1.77851119285809,4.49283706428603,0.645943600480791,NA,0.277449265685956,NA,0.403544424904823,0.998300747272475,-0.461705337249621,6.60035618007856,11.4602339984823,10.2140486899579,685.608000892088,8.38141272403767,11.1370494730502,1000,15.4757142857143,3.09619045183595,1.73630538804436,288.625714285714,239.497732653061,1160,88.1,8.38141272403767,"C_lim",2269,2,5744.5,3.5,0.15,158,0.986,0.682,6,1,2.84,17.94,15.85,15.95,203.66,199.23,10.112,11.282,48.91,54.56,500.3,1000,98,99.79,-2.39,-0.264,111115,"1/07/2002",2002,"August"
"108",51.3156673398761,116.026344660547,2.48465617248472,NA,3.69623092123313,NA,0.931102437121755,NA,2.98520097126373,0.981050969167517,-0.783110742474337,14.3336337683835,20.5518873694225,19.3404097339144,341.902211493173,16.8354790133721,18.4638404874192,1000,20.0275,2.26103158499483,1.43382255340965,293.1775,401.10075625,1050,85.1,16.8354790133721,"C_lim",2303,12,2666,22.3,0.0837,1050,0.57,0.684,6,1,2.84,21.41,20.01,19.98,1525.27,1497.49,16.009,16.681,62.35,64.97,500,998,593,99.71,-11.7,0.478,111115,"1/07/2002",2002,"August"
"109",42.3940471046601,NA,2.33124515614165,6.41041505204722,2.19429326268838,NA,0.635032184356692,NA,1.24799906342979,0.99264415526671,-0.926708158338041,11.572325730809,16.8999943230188,16.8999846337784,1999.99991561528,13.9042447314866,42.5910904971748,1000,20.0325,NA,1.46038010993987,293.1825,401.30105625,1100,90.4,13.9042447314866,"C_lim",2311,4,4069.6,12.8,0.293,290,1.44,0.531,6,1,2.84,21.36,20.06,19.98,385.66,369.6,16.59,18.29,64.84,71.48,500,998,238,99.7,-4.72,0.376,111115,"1/07/2002",2002,"August"
"11",30.3501500237047,62.6971025620259,3.7906215861233,NA,2.63137999882127,NA,0.652340611543798,NA,0.990279234983696,0.987249021625476,-2.78552462661748,6.14731205496929,9.43072534095299,8.73577234105414,318.360117061693,9.95294605086422,10.5958062049064,1000,20.0344444444444,2.06579217938155,1.53412178471231,293.184444444444,401.378964197531,931,125,9.95294605086422,"C_lim",204,5,804.5,5.73,0.0435,268,0.473,1.09,6,1,2.84,19.05,19.95,20.01,500.3,488.4,11.517,12.451,52.29,56.53,300.2,999,57,100.4,1.42,0.066,111115,"1/06/2001",2001,"June"
"110",45.7614613576101,97.1507917986902,2.16402896619097,NA,1.79900304089626,NA,0.434855061861102,NA,1.98191791338507,0.982205764056719,-0.645291715273527,12.8270961385552,17.5878068543745,16.550430041598,311.038752147631,15.0178696133466,15.8314240807473,1000,20.0225,2.12298272206585,1.37114485339435,293.1725,400.90050625,1040,85.2,15.0178696133466,"C_lim",2320,1,5382.7,2.38,0.274,85.2,1.52,0.595,6,1,2.84,20.98,20.04,19.96,104.19,101.15,15.834,17.626,63.32,70.48,499.9,999,329,99.7,-2.94,0.387,111115,"1/07/2002",2002,"August"
"111",64.5479493800549,63.7800437161928,1.48425709468712,NA,NA,NA,NA,NA,1.90214020391823,0.954180786942115,-0.894684302010415,8.26673213663598,11.480259214356,10.6117442022541,107.982074324442,15.0949938716069,9.75276845490897,1000,25.11,0.988103329830964,1.38873003559393,298.26,630.5121,892,84,9.75276845490897,"R_lim",2334,3,7685.8,6.84,0.105,188,1.42,1.36,6,1,2.84,25.32,25.08,25.03,309.58,300.85,16.719,18.395,51.4,56.56,499.7,999,97,99.67,-3.29,0.534,111115,"1/07/2002",2002,"August"
"112",32.1279451754307,58.3644760936308,-1.29675305732298,NA,3.97778652692749,NA,0.688384852749089,NA,1.79181026606156,0.966669639246091,1.1190147253185,6.2121161274637,12.6420630244569,10.6017392951256,684.475846255141,4.9161868279628,7.84836030107152,1000,30.6028571428571,1.81662648435618,2.03506546964995,303.752857142857,936.534865306122,897,82.4,4.9161868279628,"C_lim",2350,4,7591.4,6.08,0.0497,291,0.875,1.72,6,1,2.84,32.18,30.57,33.09,508.8,501,25.846,26.867,53.41,55.52,500.1,1000,118,99.68,4.37,0.103,111115,"1/07/2002",2002,"August"
"113",42.3200131277434,113.598689084035,4.6504341840644,NA,3.58652307599694,NA,1.1519153428113,NA,2.28035041914493,0.980633719656175,-2.02022953488921,12.7993828504372,18.5082886087537,17.5118326268451,364.247240175604,17.4658615804501,19.3476339968213,1000,15.99,2.68427820996028,1.4460297676088,289.14,255.6801,1090,86.2,17.4658615804501,"C_lim",2362,3,4648.5,11.2,0.385,233,1.67,0.485,6,1,2.84,17.99,15.83,15.96,300.68,286.74,11.207,13.179,54.26,63.81,500.3,999,15,100.2,-1.35,-0.0819,111115,"1/07/2002",2002,"August"
"114",42.3816348721378,NA,3.75342199605685,8.08447399868562,4.140638461205,NA,1.53237719873014,NA,2.13481116470581,0.985786164921066,-1.05056814782734,13.911179881915,20.4999881819237,20.4999512871658,1999.99991561528,17.6657206855346,45.5548459092286,1000,15.8,NA,1.47363403794199,288.95,249.64,1160,84.5,17.6657206855346,"C_lim",2372,1,6110.8,2.75,0.403,84.5,1.69,0.472,6,1,2.84,19.12,16.49,16.52,100.91,97.41,12.085,14.081,54.5,63.5,500.4,999,33,100.2,-1.13,-0.174,111115,"1/07/2002",2002,"August"
"115",29.1556079306726,100.764745990687,1.4692751380413,NA,0.538765450558002,NA,0.242471261709485,NA,0.571583076075406,0.998773796488745,0.556104460797851,11.0901659603596,18.9117900799121,16.4201228886784,903.862634085866,12.5625387265381,17.6517102061919,1000,15.15375,3.45610169509377,1.70527566021193,288.30375,229.6361390625,1160,74.5,12.5625387265381,"C_lim",2381,2,356.8,5.63,0.15,137,0.901,0.627,6,1,2.84,14.45,15.03,13.74,207.93,200.95,9.74,10.808,59.37,65.88,500.4,999,1287,100.7,2.35,-0.138,111115,"1/09/2002",2002,"September"
"116",35.3787286857583,113.766936681392,3.28700243564318,NA,0.928608095711274,NA,0.367073755600245,NA,0.853102085036724,0.997834336181972,-0.911240782360814,11.7525003068919,19.9413502357093,18.1948141322521,627.034688617849,15.0445352913648,19.5339776179489,1000,15.4125,3.21568753054681,1.69677512997088,288.5625,237.54515625,1200,78.3,15.0445352913648,"C_lim",2393,2,2138.2,5.3,0.15,138,0.845,0.587,6,1,2.84,14.63,15.43,13.77,205.61,199.05,10.646,11.647,64.15,70.18,500.5,999,64,100.7,2.34,-0.176,111115,"1/09/2002",2002,"September"
"117",25.2297866648611,NA,1.30778085079831,5.51926028359944,0.665528351196298,NA,0.251191437765701,NA,1.51317439125248,0.990643962366871,0.516333166598447,9.73321588781341,15.24997853114,14.3430613324995,1999.99991561528,11.0413436375561,46.1819537690146,1000,14.8444444444444,NA,1.56679752169413,287.994444444444,220.357530864198,1250,43.4,11.0413436375561,"C_lim",2404,1,3672.5,0.489,0.192,43.4,1.15,0.634,6,1,2.84,14.23,14.84,12.92,48.86,48.21,9.169,10.531,56.68,65.1,500.4,1000,1336,100.7,1.55,-0.165,111115,"1/09/2002",2002,"September"
"118",38.932049056728,112.30924787128,-0.19333236887286,NA,2.2864432656789,NA,0.579537809854878,NA,2.84046190881527,0.98507151582697,1.40460914143591,12.692587577615,22.5109622120057,19.7511249658808,693.353663005543,12.5021746685706,17.8506349144407,1000,20.375,2.88475049714526,1.77355185255579,293.525,415.140625,870,37.8,12.5021746685706,"C_lim",2417,1,6130,-0.0841,0.0715,50.5,0.409,0.578,6,1,2.84,19.39,20.12,19.41,49,49.08,17.258,17.74,76.86,79.01,499.5,999,69,100.7,1.06,-0.323,111115,"1/09/2002",2002,"September"
"119",31.8288065123188,96.9683124023378,-0.240863744067753,NA,1.36381836940267,NA,0.417971847641423,NA,1.57713024712392,0.992993280437739,1.27287786921036,10.6022638778158,19.4245163030473,16.3948752189824,868.075709467839,10.36338515094,15.7698476355514,1000,20.1511111111111,3.04655822909376,1.83211024804724,293.301111111111,406.067279012346,942,43.7,10.36338515094,"C_lim",2432,1,8236.4,0.288,0.11,43.7,0.685,0.636,6,1,2.84,19.62,20.38,19.61,48.89,48.51,16.738,17.546,73.53,77.07,500.1,999,76,100.7,0.971,-0.317,111115,"1/09/2002",2002,"September"
"12",29.4423357560433,61.7262638661301,3.32678712652427,NA,2.03650993945123,NA,0.478610188940253,NA,0.779143611605045,0.993060712924522,-2.29074195128098,6.51636816292401,9.72946708519529,9.05462652275835,319.474623739429,9.85783500364726,10.5031661366546,1000,19.6933333333333,2.09651382205504,1.49308124432759,292.843333333333,387.827377777778,969,117,9.85783500364726,"C_lim",221,2,349.5,2.94,0.0554,154,0.523,0.949,6,1,2.84,18.99,19.54,20,249.5,243.3,12.225,13.257,55.71,60.41,300.2,999,51,100.4,1.62,0.0399,111115,"1/06/2001",2001,"June"
"120",21.7592456917161,67.7517123129047,0.504957104597366,NA,1.39242187661489,NA,0.404474270482529,NA,1.66442994852802,0.984970909587139,0.142583817288189,6.37954757377137,12.4367735952854,10.3223722950335,1110.34951612307,6.88558328733178,11.2787204034697,1000,20.6111111111111,3.11369765628862,1.94947579769096,293.761111111111,424.817901234568,919,61.2,6.88558328733178,"C_lim",2451,7,11366.9,8.58,0.0477,403,0.297,0.624,6,1,2.84,19.44,20.67,18.82,710.82,700.28,17.748,18.098,78.84,80.39,500.1,999,25,100.7,0.24,-0.37,111115,"1/09/2002",2002,"September"
"124",33.0214627301542,107.95849586538,1.59645289871436,NA,1.18712218439267,NA,0.421507005051515,NA,1.34678255578953,0.995632969766802,-0.407342226033084,9.54629326719215,18.7477550013864,15.5894707984582,1021.75461470162,11.1446990025228,17.5007174924384,1000,19.56125,3.26934323738468,1.96387796568297,292.71125,382.6425015625,1110,48.9,11.1446990025228,"C_lim",2502,2,12774.7,1.57,0.123,77.4,0.791,0.664,6,1,2.84,18.96,19.39,18.02,101.42,99.44,14.839,15.775,68.21,72.51,499,999,1002,101.1,1.76,-0.251,111115,"1/09/2002",2002,"September"
"125",33.3226518817854,103.68642133565,0.930387390627952,NA,0.925036164585896,NA,0.263237401696351,NA,1.58344187616314,0.996863840734778,0.127969916088809,9.84238740136228,19.102799546477,15.901116421122,920.046842766151,10.7747347058132,16.6940900743308,1000,20.26375,3.11158972891728,1.94087051926375,293.41375,410.6195640625,1030,45.2,10.7747347058132,"C_lim",2513,1,14788.2,0.206,0.111,45.2,0.928,0.862,6,1,2.84,20.04,20.35,19.61,49.22,48.92,14.098,15.194,60.58,65.29,500,999,814,101.1,1.77,-0.196,111115,"1/09/2002",2002,"September"
"126",24.7629663565256,83.1644984175706,2.45291767270092,NA,0.821883796381812,NA,0.373198181631357,NA,0.852651550454963,0.996111793489272,-0.822994458672089,7.993377995271,14.6756115023697,12.5337527820304,900.561570136445,10.4488145100287,14.7786472295729,1000,15.56375,3.35842229966342,1.83597116401252,288.71375,242.2303140625,1240,81.9,10.4488145100287,"C_lim",2538,3,2045.4,6.06,0.122,215,1.02,0.872,6,1,2.84,12.22,15.49,10.49,308.2,300.6,7.628,8.844,54.06,62.67,500.5,999,63,101.2,2.18,0.149,111115,"1/09/2002",2002,"September"
"127",33.7838495383296,105.513700855127,2.20258649035838,NA,0.835250348498464,NA,0.350107987664969,NA,1.06385741624375,0.997197927916847,-1.17798664012174,8.55302256474656,17.9428589254675,14.6799177722103,946.71667726904,10.7574995460677,16.8748198010582,1000,20.51125,3.12319946652072,2.09783837113017,293.66125,420.7113765625,1100,86.3,10.7574995460677,"C_lim",2548,4,4965.4,10.5,0.102,325,0.948,0.955,6,1,2.84,19.66,20.6,19.46,513.8,500.6,13.505,14.625,59.45,64.38,500.2,999,187,101.2,1.73,0.104,111115,"1/09/2002",2002,"September"
"128",32.6785433511367,100.321689961033,1.10867844230996,NA,0.701655198612471,NA,0.263483059055633,NA,0.580384161337282,0.998790693666454,-0.0806992189879574,9.42195589337929,18.4922366152332,15.359920987655,893.51816741115,10.5325890286397,16.2038660055317,1000,20.3157142857143,3.06995599170558,1.96267492912246,293.465714285714,412.728246938775,1130,84,10.5325890286397,"C_lim",2559,6,6760.4,17.7,0.109,722,0.85,0.803,6,1,2.84,18.55,19.93,17.91,1022.5,1000.3,14.149,15.153,66.75,71.49,500.1,998,184,101.1,1.41,0.189,111115,"1/09/2002",2002,"September"
"129",41.6894849018855,107.017008482008,1.62212166890412,NA,0.96786833138625,NA,0.218072271557931,NA,1.45558133993538,0.997766976580378,-1.26062839940521,8.03485718729785,18.8755917909974,14.9341566822746,803.973985479453,9.65855864176681,15.5601370255241,1000,25.24,2.56700241640953,2.34921310372977,298.39,637.0576,988,89.6,9.65855864176681,"C_lim",2566,5,7989.4,13,0.092,455,1.32,1.46,6,1,2.84,25.85,24.94,26.48,718.1,701.3,15.299,16.857,46.27,50.98,500.2,999,281,101.1,1.13,0.0975,111115,"1/09/2002",2002,"September"
"13",75.7967419440423,94.9640969717973,4.03460449760986,5.74486816586995,8.59706545095109,NA,0.874766370184543,NA,1.4463100316234,0.982879536728644,-3.31135061714374,10.0454098299738,13.1999796515928,13.1998610786158,167.726863472755,17.8689069973813,14.0852466426884,1000,24.9977777777778,1.25287834986239,1.31403097285352,298.147777777778,624.88889382716,716,99.5,14.0852466426884,"R_lim",246,7,1264.7,9.27,0.0405,246,0.731,1.8,6,1,2.84,24.41,25.03,26.63,648.9,629.5,12.391,13.833,40.54,45.26,300.2,999,69,100.4,2.3,0.0697,111115,"1/06/2001",2001,"June"
"130",43.8956349311931,120.242396143583,1.51353400757018,NA,1.07668461514785,NA,0.305016447502207,NA,0.951299057570599,0.998085672167095,-1.10017971699073,8.80750465076196,20.415538442691,16.1147984768994,897.906675154506,10.32257349154,17.2614565773391,1000,25.0325,2.73927911811878,2.31797078198815,298.1825,626.62605625,981,87.9,10.32257349154,"C_lim",2571,2,8761.4,3.72,0.118,145,1.56,1.36,6,1,2.84,26.41,25.01,27.46,206,201.2,16.154,17.991,47.25,52.63,500.5,999,379,101.1,2.04,-0.0339,111115,"1/09/2002",2002,"September"
"14",67.6894681197305,96.0786416845309,3.56558492469475,5.21352830823158,4.46904056502045,NA,0.51676242034059,NA,1.41440994759849,0.987215473136344,-3.06168898291794,10.4662568596924,12.0749922526813,12.0749869087363,231.28459794426,15.287369615467,14.0475238408887,1000,25.5918181818182,1.41940311178964,1.15370685189128,298.741818181818,654.94115785124,468,101,14.0475238408887,"R_lim",270,10,1375.8,11.9,0.018,386,0.349,1.92,6,1,2.84,24.88,25.82,27.03,1501.5,1476.7,13.478,14.166,42.86,45.05,300.2,998,91,100.4,1.72,0.117,111115,"1/06/2001",2001,"June"
"16",7.7320521727062,25.9883299099392,2.97508396542718,NA,0.644509025323004,NA,0.34957379180573,NA,0.371954778374287,0.982753980941459,-2.00999736025014,1.21238407936795,2.9447812188608,2.50711105282248,713.988027577078,4.18917731858578,5.2133357976456,1000,10.0828571428571,3.36111672935638,2.42891775714838,283.232857142857,101.664008163265,849,147,4.18917731858578,"C_lim",310,5,795,2.22,0.041,452,0.338,0.831,6,1,2.84,9.08,10.12,8.12,551.2,546.4,3.431,4.104,29.7,35.53,300,999,56,100.3,-0.839,0.0564,111115,"1/06/2001",2001,"June"
"17",31.9501592846165,72.9521576520258,3.66956588746215,NA,1.50686143971443,NA,0.377365265699922,NA,0.830537328890359,0.995830595123535,-3.82664063743961,1.35021661798736,8.70396478597347,5.78181100711845,1064.97839587984,5.02031440483348,9.75718532284405,1000,30.28,2.2833112349193,6.44634695649624,303.43,916.8784,1190,167,5.02031440483348,"C_lim",327,2,364.5,0.211,0.103,235,2.61,2.55,6,1,2.84,29.93,30.66,30.91,249.7,248,13.584,18.724,32.04,44.16,299.4,999,15,100.1,-0.14,0.09,111115,"1/06/2001",2001,"June"
"18",31.7086901135316,72.8062293421483,3.28817645579439,NA,1.10972781840316,NA,0.264707075000264,NA,0.551932197242471,0.997407274709617,-3.41034686501292,1.91185153727171,9.34150709657876,6.40787144457227,1027.23641849598,5.20060621546806,9.87647965546407,1000,29.7528571428571,2.29609703464472,4.88610486455944,302.902857142857,885.232508163265,1110,161,5.20060621546806,"C_lim",348,3,484.7,1.95,0.0504,289,1.19,2.34,6,1,2.84,28.87,29.74,29.56,369.8,365,16.238,18.577,40.72,46.59,300.3,999,16,100.1,-0.589,0.138,111115,"1/06/2001",2001,"June"
"19",44.41437489975,86.1494564047641,3.5492309011505,NA,2.5334255241874,NA,0.460029411360373,NA,1.24594511386897,0.992016622462945,-3.73516189482395,3.63944130322107,12.8411827617807,9.88832428679481,692.321709033089,7.18987812652457,11.473941194059,1000,29.9142857142857,1.939675084907,3.52833902017203,303.064285714286,894.864489795918,1020,155,7.18987812652457,"C_lim",367,2,323.5,1.37,0.0548,198,1.25,2.26,6,1,2.84,28.86,29.87,29.55,250.4,247,17.22,19.676,43.2,49.36,300.2,999,14,100.1,-0.908,0.125,111115,"1/06/2001",2001,"June"
"2",16.0135590041201,41.8463846819289,2.98596272323415,NA,0.556455980269012,NA,0.207346254831932,NA,0.346389102398907,0.997227316146563,-1.96415368116957,3.68613059759831,6.22188280336655,5.82727147750959,413.18759016112,6.6763933187869,7.70736891290537,1000,15.7955555555556,2.61318453138133,1.68791708232486,288.945555555556,249.499575308642,770,105,6.6763933187869,"C_lim",25,6,956.5,5.03,0.0912,394,0.605,0.678,6,1,2.84,14.66,15.91,12.89,500.5,489.9,10.131,11.327,60.74,67.91,300.3,998,112,100.4,-2.12,0.0205,111115,"1/06/2001",2001,"June"
"20",26.1623297594332,66.0982717759943,3.83874537066616,NA,0.507577940311041,NA,0.155121059486759,NA,0.519382635168182,0.997561514092978,-3.57444323780229,2.39537871685449,9.30684489318521,6.77130592218123,838.408857889435,6.23511846032094,10.1425478826226,1000,24.8457142857143,2.5264673438405,3.88533338285921,297.995714285714,617.309518367347,1320,154,6.23511846032094,"C_lim",388,3,493.2,3.25,0.13,315,1.37,1.08,6,1,2.84,23.84,24.88,23.49,369.6,362.1,18.084,20.776,61.03,70.11,300.1,999,13,100.1,-0.733,0.083,111115,"1/06/2001",2001,"June"
"21",23.0565117589011,61.0132225832577,3.28605250526231,NA,0.430493691691584,NA,0.152814470725349,NA,0.341473798983745,0.998982698000496,-3.0623083420594,2.16587167488794,8.28219085104599,6.01268095828032,979.77900685768,5.45267974962367,9.3858413527922,1000,24.95375,2.64624689203922,3.82395270554267,298.10375,622.6896390625,1360,153,5.45267974962367,"C_lim",407,3,480.7,3.15,0.148,322,1.48,1.02,6,1,2.84,24.31,24.99,24.09,370.9,363.6,18.616,21.513,61.07,70.58,300.3,999,17,100.1,-0.247,0.0822,111115,"1/06/2001",2001,"June"
"22",42.1185920700135,NA,3.74100254170819,7.20533418056939,2.31396805450887,NA,0.684428244849287,NA,1.44488638780829,0.994618926416493,-2.36140760520151,10.0190268668178,17.874988044377,17.698654252087,1999.99991561528,13.760687647891,42.5243998445066,1000,20.0954545454545,NA,1.78410421311251,293.245454545455,403.82729338843,915,91.3,13.760687647891,"C_lim",423,8,1286.2,18,0.0898,636,0.772,0.869,6,1,2.84,19.17,20.17,18.04,999.3,976.8,14.109,15.02,63.27,67.36,500.2,998,43,99.97,-2.72,0.0263,111115,"1/08/2001",2001,"August"
"23",81.7008781073427,118.178180477711,2.56231835374343,6.65410611791447,5.87941391466613,NA,0.626792336914838,NA,0.648374809364026,0.998459203460149,-1.96302250615091,14.2141501308077,17.3999841924688,17.399959214238,227.889830119395,18.4089048373003,16.7937095790869,1000,25.62375,1.44647381050719,1.22413116734683,298.77375,656.5765640625,500,87.6,16.7937095790869,"R_lim",446,7,1170.5,15.7,0.0742,322,0.957,1.29,6,1,2.84,24.42,25.18,24.27,697.8,678.1,18.119,19.245,58.99,62.66,499.9,999,165,99.98,-1.58,0.0386,111115,"1/08/2001",2001,"August"
"24",65.9440152785044,91.3642243891072,1.82289337008033,NA,2.07516073939729,NA,0.328476675049575,NA,1.89778649273459,0.981381298302646,-1.17761667813501,11.794677774823,16.2461371103777,15.0452707469161,207.375441680808,15.6201484657527,13.6268311241289,1000,24.9314285714286,1.38548166961391,1.37741254322833,298.081428571429,621.576130612245,671,83.2,13.6268311241289,"R_lim",471,6,1040.2,14.6,0.0432,518,0.571,1.31,6,1,2.84,24.32,25.15,24.08,1100,1081.8,18.337,19.009,60.05,62.26,500.2,999,438,99.97,-3.23,0.0562,111115,"1/08/2001",2001,"August"
"27",42.165062970663,NA,4.17738582423954,8.04246194141318,3.06490624243741,NA,1.20313669016267,NA,2.51249291926922,0.980395079476951,-1.21346982781913,14.0729236556326,19.9499894419917,19.9499683723572,1999.99991561528,18.2515088211431,46.0217040094041,1000,15.063,NA,1.41761512605143,288.213,226.893969,947,85.4,18.2515088211431,"C_lim",535,3,513.5,11.6,0.373,228,1.85,0.556,6,1,2.84,14.9,14.18,14.11,299.9,285.4,8.455,10.656,49.78,62.75,499.7,999,14,100.2,2.12,-0.00888,111115,"1/08/2001",2001,"August"
"28",41.1195696403005,112.113262293803,3.53090096570529,7.16268127428271,1.05059589419977,NA,0.360014477907455,NA,1.64365926982936,0.994592947507809,-0.678859431677629,14.1574017004991,17.9571122739953,17.9570606730691,353.888083707494,17.7070230812995,19.3596120341972,1000,15.1655,2.72651837736946,1.26839039068604,288.3155,229.99239025,1180,88,17.7070230812995,"C_lim",578,22,3279.2,14.3,0.336,273,2,0.655,6,1,2.84,15.36,15.19,13.38,369.3,351.2,8.382,10.749,47.94,61.47,500.5,999,62,100.2,2.66,0.000139,111115,"1/08/2001",2001,"August"
"3",12.2425792468757,NA,2.51779980406843,2.22593326802281,0.683518302176508,NA,0.279540449774213,NA,0.737112083915146,0.977441986979547,-1.63509500497277,2.83409891108639,4.15999773869571,4.15999510784878,25.0000546567045,5.35196890790438,46.1578509479254,1000,14.866,NA,1.46783788047153,288.016,220.997956,1000,108,5.35196890790438,"C_lim",42,4,644.5,3.43,0.119,312,0.694,0.601,6,1,2.84,13.75,14.66,11.99,370.4,363,9.312,10.684,59.2,67.92,300.2,999,38,100.4,-2.07,-0.00501,111115,"1/06/2001",2001,"June"
"30",136.870633330456,140.847130414873,1.70261701655835,7.06753900551945,NA,NA,NA,NA,0.948408853325138,0.995655881002139,-2.33183562225405,15.6605630163019,19.4999879433869,19.4999723458108,174.310132151707,21.792820096346,17.3699860039218,1000,30.118,1.02905296035867,1.24516519125707,303.268,907.093924,585,83.4,17.3699860039218,"R_lim",625,1,189.5,1.66,0.125,83.4,2.69,2.18,6,1,2.84,29.35,29.9,31.5,111.2,108.9,17.389,20.547,42.43,50.14,499.9,1000,45,100.1,1.88,0.0403,111135,"1/08/2001",2001,"August"
"31",145.349686044158,168.72238911568,-0.150838921881023,NA,NA,NA,NA,NA,2.60962358330051,0.974549396394457,-0.452197114442368,20.1384010405003,28.7474343723174,26.3588688460367,198.455693886761,23.5643932696006,19.9987312966594,1000,29.896,1.16080325804364,1.42749339009107,303.046,893.770816,371,74.6,19.9987312966594,"R_lim",644,1,170.5,2.76,0.156,74.6,3.09,2.03,6,1,2.84,29.48,29.69,31.5,111,107.3,17.908,21.538,43.35,52.14,500,999,73,100.1,2.08,0.0306,111135,"1/08/2001",2001,"August"
"33",161.856928531511,133.756185869962,0.787246368100001,6.79574878936667,0.240106342874065,NA,0.0181358285868656,NA,4.19917300940833,0.950237534402244,-1.66816125045325,15.6836043793824,19.5999879043112,19.5999700400216,115.162617940184,24.86499953418,16.4740826287754,1000,30.555,0.826385296468301,1.2497119558867,303.705,933.608025,486,75.7,16.4740826287754,"R_lim",684,3,485.2,16.1,0.071,196,1.65,2.3,6,1,2.84,29.66,30.51,31.51,600.9,580.5,18.917,20.851,45.33,49.96,499.8,999,130,100.1,3.1,0.107,111115,"1/08/2001",2001,"August"
"34",75.2177583469112,128.934329160999,0.888960723519217,NA,6.0589645357896,NA,0.840944806629518,NA,3.20374234468034,0.985904537341664,-0.0117859963429759,17.4143204079258,23.5036196619315,21.9190771668165,276.994864970481,18.4570901655819,18.5210902491323,1000,24.4341666666667,1.7141474565932,1.34967194305408,297.584166666667,597.028500694444,675,46.9,18.4570901655819,"C_lim",702,1,214.7,0.203,0.152,46.9,2.17,1.47,6,1,2.84,24.99,24.62,25.11,50.7,50.3,13.808,16.368,43.44,51.5,500,999,186,100,0.46,-0.193,111115,"1/08/2001",2001,"August"
"35",65.019264563943,106.824855777289,0.94744805694419,5.3158160189814,12.6943042766642,NA,1.57115209017311,NA,5.21930215915701,0.915662534818236,-0.43840840695048,13.8247794662296,14.9999945891653,14.9999922715989,300.40380833018,14.8042042606214,15.454657074824,1000,25.48,1.64297237893598,1.08500787486748,298.63,649.2304,603,50.2,14.8042042606214,"C_lim",727,2,332.7,1.43,0.108,75.5,1.31,1.23,6,1,2.84,26.58,26.22,27.06,101.2,99.3,20.346,21.887,58.27,62.69,499.8,998,70,99.99,1.79,-0.291,111115,"1/08/2001",2001,"August"
"36",39.662585642748,73.4814426844823,0.168039882137671,NA,1.31345828361709,NA,0.205303932937707,NA,0.816583008648104,0.997713064996772,0.136666849653021,8.83088685671591,14.5747272240481,13.561827588587,419.977333641154,9.00291431419978,11.0297518749466,1000,25.5225,1.85266395253073,1.65042622111776,298.6725,651.39800625,765,54,9.00291431419978,"C_lim",754,6,942.4,6.12,0.0639,200,0.733,1.14,6,1,2.84,26.09,25.66,26.48,368.7,361,20.799,21.66,61.3,63.84,499.9,998,58,100,0.524,-0.273,111115,"1/08/2001",2001,"August"
"37",68.2223121604913,NA,1.35955944595953,6.23096425976429,2.5286718372647,NA,0.386589498281418,NA,1.45582884735536,0.994592931883136,-0.700207412412829,14.7608581356453,17.3333310874635,17.333329368411,1999.99987864789,16.1215695364258,38.6792765136729,1000,24.9645454545455,NA,1.17427665303591,298.114545454545,623.228529752066,735,52.5,16.1215695364258,"C_lim",778,4,645.4,8.69,0.131,175,1.29,1.01,6,1,2.84,26,24.96,26.68,299.7,288.8,20.153,21.671,59.72,64.22,500.2,999,93,99.98,1.77,-0.262,111115,"1/08/2001",2001,"August"
"38",46.8990816381084,83.0430172518551,1.44404780855166,4.06801593618389,2.72142758825658,NA,0.532543802732089,NA,2.21091433698334,0.976648085789218,0.0513803674874356,12.2419048041877,10.7599969790912,10.7599962969783,217.992625425331,15.1849836983347,13.6984477037831,1000,20.242,1.77067469876377,0.878947937530964,293.392,409.738564,848,49.2,13.6984477037831,"R_lim",798,1,183.4,-0.0369,0.127,49.2,1.43,1.16,6,1,2.84,18.45,20.64,17.11,49.7,49.6,11.165,12.856,52.41,60.34,500.1,999,139,99.98,2.01,-0.0547,111115,"1/08/2001",2001,"August"
"4",15.8940192658429,45.4299909269338,2.82808086366119,NA,0.311690780901437,NA,0.122180415271789,NA,0.314768769805263,0.998253521134,-1.69577032849437,4.08477850213998,7.17776437197201,6.74404850493971,507.540180140089,6.91598376657602,8.44235663759251,1000,14.9588888888889,2.85830727691171,1.75719794065006,288.108888888889,223.768356790123,814,102,6.91598376657602,"C_lim",63,5,812.2,4.5,0.118,295,0.773,0.674,6,1,2.84,13.66,14.75,11.99,371,361.4,8.537,10.065,54.59,64.36,300.3,999,107,100.4,-2.22,0.0171,111115,"1/06/2001",2001,"June"
"40",36.6740847310261,NA,1.1805131478002,3.71572660482229,2.71124427785396,NA,0.405918437251927,NA,1.29437770566199,0.988684616757736,-0.781443183946313,7.68962684768721,9.96666501621498,9.96666347749247,1999.99991561528,8.87040149646635,38.9577457305259,1000,24.638,NA,1.29611816199022,297.788,607.031044,759,58.2,8.87040149646635,"C_lim",843,1,170.4,-0.347,0.0633,58.2,0.587,0.922,6,1,2.84,25.01,24.96,25.1,49.7,50.1,21.825,22.513,68.54,70.7,500.2,999,329,99.93,2.1,-0.505,111115,"1/08/2001",2001,"August"
"41",33.5007381542395,82.2790452446868,1.36664206208047,5.45554735402682,0.306044681833927,NA,0.0860366581732847,NA,0.316287419610378,0.99961498195698,0.911376373902682,12.9004462922963,14.9999757803088,14.9999299701576,294.835389485258,14.3155816829335,14.6868364231727,1000,15.317,2.45603678539467,1.16274859337745,288.467,234.610489,732,44.1,14.3155816829335,"C_lim",868,1,183.4,0.471,0.136,44.1,1.11,0.844,6,1,2.84,13.15,15.29,12.07,51.1,50.5,7.663,8.98,50.57,59.26,500.2,999,47,100.2,1.07,-0.0647,111115,"1/08/2001",2001,"August"
"42",34.5444769285258,84.2499745029024,1.81573056042158,5.97191018680719,1.01745567830428,NA,0.288432484463703,NA,0.662100566897165,0.998603116141679,0.541026530881047,12.8933039116087,16.0393465273847,15.3011505107073,286.80955166197,14.780540176605,15.0116057093689,1000,15.2918181818182,2.43888407044691,1.24400593031421,288.441818181818,233.839703305785,871,44.9,14.780540176605,"C_lim",904,8,1271.4,15.1,0.14,493,1.24,0.917,6,1,2.84,12.6,15.36,11.09,700.8,681.7,6.856,8.331,46.88,56.97,500.1,998,95,100.2,1.75,-0.0108,111115,"1/08/2001",2001,"August"
"43",31.1945883336721,75.1934703813421,1.31900291960743,5.42300097320248,0.930677524046627,NA,0.278660446363699,NA,0.702529058556097,0.998117844745293,0.857964595287836,12.0519630781056,14.7848585302328,14.125145150138,280.319010341719,13.46529053324,13.5605060052129,1000,15.1181818181818,2.41046522483442,1.2267593614763,288.268181818182,228.559421487603,1020,44.2,13.46529053324,"C_lim",922,2,339.4,2.5,0.198,73.7,1.54,0.823,6,1,2.84,12.2,15.05,10.53,99.5,96.3,7.086,8.917,49.75,62.6,500.2,999,39,100.2,1.34,-0.043,111115,"1/08/2001",2001,"August"
"44",52.6167091890321,106.294756969199,0.916598508676691,6.44719950289223,1.75515276639156,NA,0.362309565967359,NA,1.21370500407643,0.996699022640181,0.678964391403621,15.7497086108312,18.4249809677945,18.4249543809343,283.682710758403,16.7538497462757,16.9835991671159,1000,20.5116666666667,2.0201711320889,1.16986170494123,293.661666666667,420.728469444444,591,46.8,16.7538497462757,"C_lim",950,1,169.4,0.152,0.198,46.8,2.71,1.44,6,1,2.84,21.65,20.77,21.99,49.6,49.2,6.961,10.182,26.85,39.27,500.2,999,96,100.1,1.15,0.0159,111115,"1/08/2001",2001,"August"
"45",46.7137241017831,98.7839629862785,0.931316368202553,6.43266101162307,0.61671919131546,NA,0.131404604372642,NA,0.544127767475755,0.999308771651449,0.490322844478548,13.9396959847828,18.3666125209127,17.9798449708821,321.544572397182,14.891809229011,15.9343788323056,1000,20.4927272727273,2.11466683262163,1.3175762614165,293.642727272727,419.95187107438,852,48,14.891809229011,"C_lim",979,4,633.4,9.51,0.15,179,1.37,0.942,6,1,2.84,20.2,20.45,20.05,299.9,288,13.074,14.691,55.08,61.89,500.2,999,100,100.1,1.3,-0.153,111115,"1/08/2001",2001,"August"
"46",22.4397646520984,NA,-0.163164917766826,3.63894502741106,1.25915434948654,NA,0.516867050488259,NA,3.42409606354531,0.957410195792729,0.396384478165701,5.54081897283273,11.0799733620888,9.30571390160974,42.2443332439466,5.37774045246621,38.849914832518,1000,24.7677272727273,NA,1.99969957806151,297.917727272727,613.440314256198,805,74.6,5.37774045246621,"C_lim",1012,1,187.7,0.72,0.0535,74.6,0.85,1.58,6,1,2.84,28.43,26.29,29.99,99.6,98.7,17.54,18.54,45.13,47.7,500,999,122,100.1,0.598,-0.253,111115,"1/08/2001",2001,"August"
"47",48.2811921892684,122.676036100467,1.36984139203707,NA,1.04076801888111,NA,0.255793978624432,NA,1.08022515536358,0.997963491367382,0.166623375247276,14.2453657890358,22.7301381767856,21.4321969280921,458.412179582663,15.6218765281419,19.2712576577613,1000,20.253,2.54086592600203,1.59561632276794,293.403,410.184009,941,44.9,15.6218765281419,"C_lim",1048,1,236.4,0.226,0.109,44.9,1.32,1.23,6,1,2.84,17.59,20.21,16.15,49.6,49.3,9.87,11.437,48.89,56.64,500.9,999,118,99.97,1.18,-0.0749,111115,"1/08/2001",2001,"August"
"48",82.4805338746637,183.084964281543,4.13255461522776,NA,7.7640524368101,NA,1.19311805553148,NA,4.07845006137108,0.98196451555763,-3.62431465880899,13.9736637710494,27.183886247449,24.975170457024,463.489810300988,18.1125534891974,23.2811168588153,1000,25.975,2.21973544157408,1.94536570314283,299.125,674.700625,927,77.5,18.1125534891974,"C_lim",1079,8,1250.4,19,0.103,365,1.11,1.08,6,1,2.84,25.49,26.27,25.1,700.8,677.1,22.179,23.482,67.68,71.66,500.1,999,441,99.9,0.275,-0.269,111115,"1/08/2001",2001,"August"
"49",74.4618949968809,176.313994649549,2.41539223504442,NA,1.19005209445434,NA,0.213060878105488,NA,0.986164103060204,0.999022676988184,-1.57622136160644,15.719109030532,28.4609512711929,26.4164953435289,476.858620330919,18.140725422289,23.4181107783144,1000,24.536,2.36784189627372,1.81059570335137,297.686,602.015296,999,57.9,18.140725422289,"C_lim",1105,8,1255.4,21.6,0.128,382,1.73,1.37,6,1,2.84,22.02,24.4,20.62,701,673.7,14.96,16.996,56.27,63.92,500.2,999,52,99.9,0.414,-0.127,111115,"1/08/2001",2001,"August"
"5",16.5886682492505,46.4627445097417,2.63548166841167,NA,1.01217947344442,NA,0.396740004368196,NA,0.714171785891353,0.990786247099978,-1.44725055331066,4.59433406505261,7.59242349356949,7.16528332367501,469.461180740738,7.23354418315065,8.63174521988951,1000,14.9166666666667,2.8008724878708,1.65256234876829,288.066666666667,222.506944444444,758,97.4,7.23354418315065,"C_lim",80,3,492.5,3.36,0.132,197,0.886,0.694,6,1,2.84,13.48,14.69,12,249,241.8,8.05,9.803,52.08,63.42,300.3,998,122,100.3,-1.79,-0.00404,111115,"1/06/2001",2001,"June"
"51",97.751428292908,140.555046178219,1.6690389626354,NA,4.37682500323118,NA,0.406820578938296,NA,1.28075098230475,0.997143160800286,-2.03361444744546,14.4218690474019,23.3203276654273,21.2496914929047,324.338339704856,16.1088174476064,17.53661125777,1000,29.694,1.43788227581751,1.61701146978786,302.844,881.733636,701,60.6,16.1088174476064,"C_lim",1125,4,645.4,7.1,0.101,170,1.58,1.57,6,1,2.84,29.82,29.55,29.96,300.5,291.4,24.031,25.882,56.94,61.33,500.1,999,207,99.9,0.871,-0.322,111115,"1/08/2001",2001,"August"
"52",53.1363826553771,70.3452374706555,0.457982112901208,NA,3.59598297122081,NA,0.361477155867281,NA,1.43189823487015,0.986807719158627,-0.630889090318774,8.42488160152138,12.5000582107116,11.4375664142208,287.899774039048,8.91519118351182,9.12694489365489,1000,29.471,1.32386199352125,1.48370728538836,302.621,868.539841,752,57.8,8.91519118351182,"C_lim",1152,6,990.7,5.58,0.0606,204,1.26,2.06,6,1,2.84,32.27,29.54,33.49,370.6,363.3,19.483,20.964,40.13,43.19,500,599,64,99.87,0.12,-0.212,111115,"1/08/2001",2001,"August"
"53",39.274073104926,88.8383474285731,0.77908619164705,NA,2.29608980001321,NA,0.503348016346327,NA,1.45493995008302,0.990370887769423,-0.455864355031353,8.23610786653828,16.7649645474736,14.6963479769157,625.031811616118,9.01715354152901,13.1629059623842,1000,25.365,2.26201003372452,2.03554455807778,298.515,643.383225,869,89.8,9.01715354152901,"C_lim",1162,1,226.2,0.633,0.0627,89.8,1.1,1.75,6,1,2.84,24.75,25.5,26.05,109.9,109,13.897,15.199,44.44,48.6,499.7,999,67,100.2,1.4,0.0153,111135,"1/09/2001",2001,"September"
"54",42.3173782711477,111.716585678471,1.29345559589891,NA,1.44049626825208,NA,0.376057905336351,NA,1.06913169373756,0.997465796023889,-0.933017498000525,8.47845854844211,19.5911160948152,15.4747099327914,856.615406710737,9.77341560414149,16.1317451577759,1000,25.2833333333333,2.63996944618473,2.31069315051556,298.433333333333,639.246944444445,1070,91.4,9.77341560414149,"C_lim",1187,3,477.7,5.52,0.105,199,1.67,1.62,6,1,2.84,24.43,25.32,25.66,300,292.8,14.209,16.189,46.29,52.74,499.1,999,88,100.1,1.35,0.0043,111115,"1/09/2001",2001,"September"
"55",43.4500751897193,113.401615027976,2.84972032342435,NA,1.60487573943092,NA,0.422960676705999,NA,1.13814739711334,0.996026625448385,-2.43026343666402,7.41406471942779,18.756080199627,14.6573600614496,801.179328800641,10.2654875273707,16.4515231549685,1000,24.9675,2.60992908603316,2.52979720428911,298.1175,623.37605625,1050,98.7,10.2654875273707,"C_lim",1215,6,950.7,12.3,0.0882,441,1.37,1.56,6,1,2.84,24.27,24.99,25.65,700.2,684.3,14.541,16.155,47.82,53.13,499.2,999,53,100.1,1.01,0.0416,111115,"1/09/2001",2001,"September"
"56",27.3266593975688,NA,3.04700903303315,5.98233634434438,0.545391746217003,NA,0.197406010828104,NA,0.470976310960323,0.999002920015312,-2.0799005320062,6.12005502802626,13.7570683118724,11.1222617449403,1999.99991561528,9.16731365524549,42.8357423353946,1000,19.6611111111111,NA,2.24786676735309,292.811111111111,386.559290123457,1090,97.6,9.16731365524549,"C_lim",1236,3,527.2,4.65,0.0888,205,0.802,0.916,6,1,2.84,17.79,18.72,17.67,300.3,294.4,11.551,12.501,56.54,61.19,500.2,999,23,100.1,1.62,0.0104,111115,"1/09/2001",2001,"September"
"57",19.8542937838749,64.6867282272623,2.15500437646468,NA,0.646395955455495,NA,0.278023848851945,NA,0.492407204511679,0.998205426425932,-0.726535746622256,6.51508536898199,11.7272044663412,10.1336294894244,799.312426399959,8.67247065792302,11.8273018202735,1000,14.8822222222222,3.25807248202397,1.8000077976221,288.032222222222,221.480538271605,1290,92.4,8.67247065792302,"C_lim",1264,8,1275.2,12.3,0.114,1290,0.748,0.675,6,1,2.84,14.34,14.83,13.56,1500.4,1484.3,9.296,10.184,56.71,62.13,499.7,999,13,100,-0.529,0.0324,111115,"1/09/2001",2001,"September"
"58",31.6526879387671,97.3703871034764,1.57875753511663,NA,1.11096282392234,NA,0.40396856848835,NA,1.00750342412876,0.996897645792969,-0.609688688061598,8.52981111456968,17.3232008187647,14.2730339483092,924.346874271347,10.1103825138626,15.7420202323689,1000,20.4611111111111,3.07621227277259,2.03090087061543,293.611111111111,418.657067901235,1150,88.2,10.1103825138626,"C_lim",1280,1,250.2,1.34,0.147,88.2,1.13,0.791,6,1,2.84,19.98,20.84,19.03,106.4,104.6,15.399,16.727,65.98,71.67,500.8,998,166,100.4,-1.85,0.163,111135,"1/09/2001",2001,"September"
"59",32.944572549282,NA,2.851447083573,7.19492680563545,1.18254747668451,NA,0.441571664080001,NA,1.18998768182253,0.996541274201837,-1.71144258625427,8.1148477570405,17.320951474359,14.1388510806782,1999.99991561528,10.9666728878179,42.7770372933559,1000,19.789,NA,2.13447645512896,292.939,391.604521,1120,89.9,10.9666728878179,"C_lim",1306,2,321.5,3.54,0.14,151,1.32,0.97,6,1,2.84,19.09,19.82,18.03,200,195.4,11.893,13.451,53.85,60.9,500.3,1000,23,100.4,-1.9,0.157,111115,"1/09/2001",2001,"September"
"6",26.2804055684735,NA,1.12417810645799,2.96305936881933,2.41664668093887,NA,0.42443420237869,NA,1.18343954525057,0.97740342583644,-0.891045090399746,4.98893472595291,7.76499811030867,7.76499501424367,1999.99991561528,6.11322826159867,38.4880686137322,1000,25.184,NA,1.55644411820311,298.334,634.233856,573,113,6.11322826159867,"C_lim",99,2,328,0.306,0.0143,113,0.204,1.4,6,1,2.84,24.35,25.47,24.47,151.3,150.6,18.23,18.63,59.79,61.11,300.3,999,138,100.3,-0.303,0.0599,111115,"1/06/2001",2001,"June"
"60",27.9705187159608,NA,0.912823729608909,NA,NA,NA,NA,NA,1.1018810914005,0.989760736467277,-1.0366224624318,3.57174713684053,10.0724257122103,7.49386058451489,55.0746849115608,4.48463843043641,34.2509845377907,1000,30.0325,NA,2.82002765770259,303.1825,901.95105625,252,99.6,4.48463843043641,"C_lim",1330,2,324.7,1.37,0.0687,159,1.63,2.37,6,1,2.84,29.79,30.17,31.11,201.1,199.1,17.353,19.273,41.39,45.97,500.3,999,26,100.4,-1.81,0.249,111115,"1/09/2001",2001,"September"
"61",31.9022982070944,31.1108957817733,1.53698467597783,NA,NA,NA,NA,NA,0.00264929606994072,0.99999981491617,-1.62745423253805,2.8939126600603,4.73721468291894,4.22753975642849,182.698623820049,5.43510290539803,4.43285239900546,1000,29.28,0.975192933744657,1.63695841560755,302.43,857.3184,218,108,4.43285239900546,"R_lim",1342,1,188.7,-0.196,0.0548,108,1.33,2.4,6,1,2.84,29.75,30.37,31.11,106.5,106.6,17.857,19.421,42.69,46.43,499.7,998,22,100.4,-1.89,0.261,111135,"1/09/2001",2001,"September"
"62",36.9765402741263,NA,2.30785538581389,6.46928512860463,1.34683965777611,NA,0.312808530805257,NA,1.59851996954198,0.994091524486911,-1.96505767822442,6.36221875256549,16.171801710238,12.5162976740133,1999.99991561528,8.67032535536165,38.5924881744062,1000,25.0728571428571,NA,2.54184936720651,298.222857142857,628.648165306122,1020,90.3,8.67032535536165,"C_lim",1354,1,193.2,0.567,0.0682,90.3,0.866,1.27,6,1,2.84,24.54,25.03,25.06,106.7,105.9,18.039,19.059,58.53,61.84,499.9,999,13,100.4,-1.78,0.207,111135,"1/09/2001",2001,"September"
"63",32.4603141207434,98.3495624656449,2.36252103575718,NA,0.36666559653154,NA,0.136890396481513,NA,0.336106458642277,0.999591501426423,-1.25755183935015,8.38032308667825,17.3255463157666,14.3014959336706,825.140236936877,10.7450208509823,16.0447776136299,1000,19.88125,3.02984013339525,2.067407919309,293.03125,395.2641015625,1160,93.2,10.7450208509823,"C_lim",1383,1,170.5,0.804,0.134,93.2,1.01,0.773,6,1,2.84,19.64,20.53,18,105.5,104.4,15.278,16.469,66.8,72,499.9,999,198,100.3,-1.53,0.191,111135,"1/09/2001",2001,"September"
"64",82.2410529680728,131.621513817918,1.85458008226618,NA,3.69906319862194,NA,0.420520726262026,NA,1.78734830164508,0.992188508920571,-2.25186532289344,11.1093459297003,21.7324217593988,19.7226296673527,432.681104559712,12.9688120378777,16.4036003136602,1000,30.23625,1.60043565917153,1.9562287372201,303.38625,914.2308140625,788,88.6,12.9688120378777,"C_lim",1409,2,328.2,2.75,0.0806,131,1.81,2.24,6,1,2.84,29.58,30.22,31.07,200.5,193.1,16.413,20.668,39.6,49.87,249.6,999,41,100.3,-1.76,0.266,111115,"1/09/2001",2001,"September"
"65",53.7096334985627,82.8405839068751,1.56025686828292,NA,3.34197563751848,NA,0.42031805456825,NA,1.4282791556683,0.988533312326147,-1.73890657314298,7.4232795852245,14.3375484292083,13.027420645971,421.57877003249,8.9871895287747,11.1927416109846,1000,29.5044444444444,1.54237849917728,1.93143047686715,302.654444444444,870.512241975309,785,102,8.9871895287747,"C_lim",1433,3,487.5,4.03,0.0581,167,1.38,2.36,6,1,2.84,29.01,29.66,30.74,299.3,288.7,14.921,18.163,37.2,45.27,250.6,999,344,100.3,-2.24,0.266,111115,"1/09/2001",2001,"September"
"66",73.5155780641939,63.2464819335086,1.85215230165803,NA,NA,NA,NA,NA,0.514544057872475,0.988690113543773,-2.15986614080433,6.76961442718011,10.483572711817,9.45259114044021,141.855771018665,11.9011086146978,8.62403349040536,1000,29.914,0.86031401233466,1.54862183431383,303.064,894.847396,252,92,8.62403349040536,"R_lim",1449,1,166,0.408,0.067,92,1.66,2.46,6,1,2.84,29.13,30.1,31.13,107.3,105.9,14.233,18.143,35.24,44.93,249.8,1000,291,100.3,-0.91,0.243,111135,"1/09/2001",2001,"September"
"67",16.1904921248826,NA,3.57947495186959,4.64315831728986,1.23950109120348,NA,0.624188991269522,NA,1.87915831297594,0.970140770595229,-1.69054710100102,4.96560276323456,8.94562385934359,7.73758534180237,25.0000546567045,8.54525978405163,48.6498589897448,1000,10.729,NA,1.80151822163005,283.879,115.111441,1330,93.8,8.54525978405163,"C_lim",1467,5,971.2,4.2,0.127,237,0.776,0.638,6,1,2.84,9.77,10.7,7.94,299.9,294.6,5.567,6.491,46.18,53.84,500.5,999,118,100.7,-2.19,0.134,111115,"1/09/2001",2001,"September"
"68",18.7525954809566,NA,2.28225123106854,5.20519485480062,0.60980838834059,NA,0.316231693387854,NA,1.16986526753792,0.991082580747669,-0.147068097497564,7.52169293584396,12.1611793979649,10.7486624232205,25.0000546567045,9.80419241805658,48.5217199028983,1000,10.9577777777778,NA,1.61681412704471,284.107777777778,120.07289382716,1360,92,9.80419241805658,"C_lim",1491,4,641.7,7.88,0.21,292,1.15,0.589,6,1,2.84,10.36,10.86,8.52,369.3,359.3,5.74,7.114,45.79,56.75,500.1,999,45,100.7,-2.82,0.137,111115,"1/09/2001",2001,"September"
"69",17.47232960034,56.8000624218227,3.5747475993088,NA,1.10149855973089,NA,0.579611419782866,NA,0.907716968609004,0.989065194213406,-1.49582314595564,5.71303354248245,9.05494378973329,8.55955308525091,543.526125210259,9.29267188076684,11.0515816424583,1000,10.5422222222222,3.25085799782058,1.58496247613465,283.692222222222,111.138449382716,1350,98.6,9.29267188076684,"C_lim",1513,2,323.5,2.76,0.148,165,0.826,0.584,6,1,2.84,9.63,10.41,8.11,201.7,198.1,5.793,6.781,48.51,56.78,498.4,999,40,100.7,-1.3,0.145,111115,"1/09/2001",2001,"September"
"7",20.3402627791762,NA,3.04692737630645,2.81230912543548,2.87308249520883,NA,0.585177817466539,NA,0.865724647202324,0.98365904786079,-2.8296771312636,1.85421656897688,5.3899962496584,5.27358962199007,42.0786910049301,4.90121457774279,38.9098874575803,1000,24.6911111111111,NA,2.90688603469468,297.841111111111,609.650967901235,893,158,4.90121457774279,"C_lim",122,3,602,0.832,0.0286,196,0.424,1.47,6,1,2.84,23.76,24.52,24.47,250.7,248.8,15.323,16.156,52.09,54.92,300.2,999,82,100.4,0.48,0.0506,111115,"1/06/2001",2001,"June"
"70",15.5501850079238,NA,3.31984112854583,4.20994704284861,0.959233405456614,NA,0.551356363587971,NA,1.01870615257653,0.986044562700776,-1.44517753916413,4.99232447960679,8.78078854421139,7.63563581765547,25.0000546567045,8.31233627119706,48.7966754932201,1000,10.4177777777778,NA,1.75885773853045,283.567777777778,108.53009382716,1350,104,8.31233627119706,"C_lim",1541,1,164.5,0.795,0.13,104,0.781,0.627,6,1,2.84,9.56,10.43,8.09,116.2,115.1,5.441,6.375,45.76,53.61,499.2,999,23,100.7,-1.13,0.145,111135,"1/09/2001",2001,"September"
"71",17.4777672828228,NA,2.39469793308703,4.5537881999179,0.769192332955439,NA,0.358824747886189,NA,1.13144350806754,0.990839730577259,-1.20549779621731,5.07530288310753,9.81483604053611,8.28087763145777,25.6071765326131,7.470146205446,45.850356749088,1000,15.313,NA,1.9338424260754,288.463,234.487969,1280,98.4,7.470146205446,"C_lim",1571,3,744.5,0.831,0.0828,98.4,0.697,0.86,6,1,2.84,14.31,15.03,14.15,117.5,116.4,7.661,8.49,47.1,52.19,500.2,999,35,100.6,-1.26,0.16,111135,"1/09/2001",2001,"September"
"72",21.3655697221441,77.5889050198919,2.96642108394895,NA,1.25418525158381,NA,0.663363740992116,NA,1.78501013825292,0.983169040209727,-1.43292893855351,6.35550954381083,12.1012921176254,10.256904653944,1378.00277233744,9.32378802663764,14.0004297732341,1000,14.9011111111111,3.63149244456963,1.90406324374258,288.051111111111,222.043112345679,1270,94.1,9.32378802663764,"C_lim",1605,7,1110.2,11.6,0.124,821,0.753,0.626,6,1,2.84,14.05,14.91,12.58,999.7,984.9,9.807,10.7,61.22,66.8,500.3,998,373,100.5,7.11,0.182,111115,"1/09/2001",2001,"September"
"73",20.2232027451909,NA,1.09071342856126,5.16357114285375,2.44973583283758,NA,1.14616509094461,NA,2.16358669500253,0.972911876907131,0.285827680189607,7.5539757425979,13.0377154044643,11.2629743431739,25.6029758128587,8.64488997485216,45.8604643139934,1000,15.31,NA,1.72594086196794,288.46,234.3961,1180,71.6,8.64488997485216,"C_lim",1633,3,515.4,4.97,0.0992,209,0.985,1.02,6,1,2.84,13.12,15.25,12.06,301.5,295.2,6.037,7.211,39.92,47.68,500.1,999,68,100.2,12.4,0.0112,111115,"1/09/2001",2001,"September"
"74",22.1910457387981,70.9282324834231,1.69474536454788,4.96491512151596,2.91899579127269,NA,1.03026242155308,NA,2.32794053578717,0.971925582062643,-0.177498911064121,7.8052756506942,13.1999222263774,11.8598416213842,739.681345623019,9.50274095116413,12.8181285691027,1000,15.2755555555556,3.19625462081828,1.69115388323325,288.425555555556,233.342597530864,1260,79.8,9.50274095116413,"C_lim",1664,3,483.4,6.79,0.116,193,0.87,0.768,6,1,2.84,12.74,15.03,11.47,300.5,292,8.417,9.452,57.05,64.06,499.9,999,55,100.1,12.1,-0.0623,111115,"1/09/2001",2001,"September"
"75",28.72514631064,NA,3.21720350098627,5.78351227810653,0.535567825005546,NA,0.215425640108212,NA,0.805854463896799,0.996570888087381,-1.18732516251956,9.24182380050323,14.1333228241956,14.1332508488866,1999.99991561528,12.459489312131,46.0572493705021,1000,15.0222222222222,NA,1.52927854169066,288.172222222222,225.667160493827,1200,85,12.459489312131,"C_lim",1694,8,1257.4,14.6,0.0916,1200,0.754,0.839,6,1,2.84,12.35,14.91,11.08,1498.1,1479.2,7.716,8.613,53.63,59.86,500.3,999,10,100.1,0.242,0.0134,111115,"1/09/2001",2001,"September"
"76",22.4228961265413,NA,2.4859748641008,5.17310273247805,0.998539600613624,NA,0.407531934897818,NA,1.70398748856001,0.982241453120346,-0.882494640022474,7.2848109046815,13.0332524090199,11.3848934077544,1999.99991561528,9.77104854565878,46.1013243687119,1000,14.93,NA,1.78909961830914,288.08,222.9049,1220,85.4,9.77104854565878,"C_lim",1712,2,332.7,3.34,0.12,147,0.994,0.855,6,1,2.84,12.34,15.15,11.08,200.3,196,7.547,8.728,52.48,60.69,500.2,999,30,100.1,12.4,-0.0342,111115,"1/09/2001",2001,"September"
"77",32.2366538667823,103.063135045278,3.13041134057037,7.11013711352346,1.53901193250529,NA,0.469455777782647,NA,2.26185902453726,0.99108777949694,-1.95436394669938,7.79674333625694,16.7684933312579,13.6987422487104,950.734391717137,10.9291766382085,16.8324459667462,1000,19.486,3.19707918418537,2.15070480174458,292.636,379.704196,1010,86.6,10.9291766382085,"C_lim",1741,7,1105.4,15,0.0824,671,0.792,0.973,6,1,2.84,19.76,19.38,20.06,1000.1,981.2,11.919,12.858,51.56,55.62,500,999,48,100,7.31,-0.0952,111115,"1/09/2001",2001,"September"
"78",26.1946256583531,67.7383199565924,0.560515401088203,NA,3.19537028637353,NA,0.845225503141187,NA,2.40924043672915,0.969205072204065,-0.357036542398556,5.39520100866584,12.269189264046,9.70108275923471,947.521769069482,5.9565459250971,10.2317745019987,1000,25.4977777777778,2.58596251155021,2.27409307722532,298.647777777778,650.136671604938,1080,85.5,5.9565459250971,"C_lim",1761,3,708.4,3.68,0.0857,217,1.24,1.46,6,1,2.84,27.24,25.94,28.03,298.4,293.5,17.529,18.985,48.49,52.52,500.3,999,264,100.4,11.8,-0.206,111115,"1/09/2001",2001,"September"
"79",49.6066558938506,119.164806744583,0.271324464021803,NA,0.556451663408049,NA,0.132217981217228,NA,0.481715100066446,0.999551459681415,0.0920840781570558,10.9015330418886,22.337998552208,19.0140977668969,677.068699297425,11.1750337092662,16.9091203654914,1000,25.6266666666667,2.40219391122785,2.04906947182339,298.776666666667,656.726044444444,926,70,11.1750337092662,"C_lim",1788,3,473.4,6.83,0.106,181,1.28,1.23,6,1,2.84,26.5,25.53,27.06,301.4,292.8,18.896,20.405,54.59,58.95,500.6,998,19,100.4,12.5,-0.241,111115,"1/09/2001",2001,"September"
"8",30.0831041432109,49.1448424864368,3.39469102040281,NA,6.78031410392232,NA,1.29940081443325,NA,1.17407185572869,0.957624582766948,-3.08722085515427,3.78067217535892,6.75101954831787,6.07961341050291,314.512583301266,7.18589218572264,7.66435442077163,1000,24.81375,1.63363601882579,1.78566647283481,297.96375,615.7221890625,736,184,7.18589218572264,"C_lim",141,2,342.3,2.51,0.029,218,0.502,1.71,6,1,2.84,24.1,25.19,25.05,371.2,365.8,13.969,14.956,46.53,49.81,300.5,1000,52,100.4,0.63,0.0459,111115,"1/06/2001",2001,"June"
"80",28.6986106491729,76.7567892043844,-1.81082559496016,NA,2.33567040486449,NA,0.695538471968862,NA,2.7453933779303,0.971383471681505,2.03089617284421,8.3222278681035,15.8550923826713,13.0363678256649,1019.62803459562,6.51225531367819,11.4816654471185,1000,25.5266666666667,2.674582060529,1.90514999516403,298.676666666667,651.610711111111,961,37.8,6.51225531367819,"C_lim",1813,2,339.4,4.41,0.0848,108,0.979,1.16,6,1,2.84,26.52,25.52,27.06,201.6,196.1,19.944,21.093,57.56,60.87,500.4,999,21,100.4,4.51,-0.221,111115,"1/09/2001",2001,"September"
"81",34.0791010180852,101.95532032071,3.79815098366492,7.03271699455497,1.70141952964094,NA,0.577256364407062,NA,1.37344941718832,0.994205699125123,-2.7558864904411,7.08136053331475,16.4582068791816,13.262061944889,822.054305925965,10.8816592225583,16.3906845579714,1000,20.4666666666667,2.99172564049163,2.32415886774199,293.616666666667,418.884444444445,1060,104,10.8816592225583,"C_lim",1841,4,630.7,6.3,0.0823,233,0.809,0.996,6,1,2.84,17.19,20.34,15.55,371,363.1,12.996,13.952,66.29,71.17,500.3,999,38,100.4,2.05,-0.102,111115,"1/09/2001",2001,"September"
"82",30.7343028406344,NA,1.27927326166184,5.74864664277617,0.353943649408174,NA,0.0942210009516486,NA,0.509178247185583,0.999436733306053,-1.04984483419206,5.66472147933058,13.7369353400759,10.7079767992891,1999.99991561528,6.94414920017931,38.1619908568689,1000,25.586,NA,2.4249974849071,298.736,654.643396,1050,88.5,6.94414920017931,"C_lim",1866,3,478.4,4.14,0.0885,213,0.954,1.08,6,1,2.84,24.85,25.33,24.52,300,294.7,20.383,21.502,64.9,68.47,500.2,999,335,100.3,1.79,-0.232,111115,"1/09/2001",2001,"September"
"83",38.6598044384385,NA,1.88426033248207,7.09475344416069,1.65195689573526,NA,0.379665440959639,NA,1.93371293542316,0.993081116224109,-1.44355024421641,7.55635772438545,17.9170394185757,14.0861246891412,1999.99991561528,9.44091880674912,39.0749669791152,1000,24.5023076923077,NA,2.37112112370684,297.652307692308,600.363082248521,1030,77.8,9.44091880674912,"C_lim",1902,12,2680.4,19.6,0.0776,1020,0.792,1.03,6,1,2.84,24.51,24.71,24.52,1501.8,1452.2,19.065,20.923,61.95,67.98,250.5,999,24,100.3,-0.502,-0.179,111115,"1/09/2001",2001,"September"
"84",47.8226059800478,105.399314903287,1.38622992924714,NA,2.09663723104079,NA,0.403093565431398,NA,1.2342222712288,0.996497252288813,-0.922864706252722,9.91709208568824,19.0984908581107,17.6202880141244,539.64750002098,11.3064030442346,15.4501533549314,1000,24.9577777777778,2.20396427052221,1.92581562146353,298.107777777778,622.890671604938,985,74.2,11.3064030442346,"C_lim",1925,5,792.4,9.64,0.0843,282,0.948,1.13,6,1,2.84,25,24.96,25.1,500.5,476.3,18.106,20.328,57.14,64.16,250.7,999,331,100.4,1.87,-0.213,111115,"1/09/2001",2001,"September"
"85",16.8203768573569,57.5556528223017,1.00440811861665,NA,0.518425232855793,NA,0.244319088079973,NA,0.559121024850358,0.996799543027753,0.287065561218128,6.53000241215358,11.0014620502083,9.58380817666293,1017.67152927014,7.53622151945825,10.6690155352859,1000,14.36875,3.42178140896576,1.68475620004863,287.51875,206.4609765625,1240,76.4,7.53622151945825,"C_lim",1944,1,171.4,1.22,0.0929,76.4,0.606,0.666,6,1,2.84,12.34,14.72,11.07,100.4,98.9,9.39,10.109,65.43,70.44,500.5,1000,88,100.3,4.51,0.0826,111115,"1/09/2001",2001,"September"
"86",25.2315247215752,76.8641471335417,2.61240626772969,5.65413542257656,1.03214167379211,NA,0.402029321001153,NA,0.803353766545644,0.996654546847505,-0.804050927455314,8.38812832074809,13.8228695251853,12.9141087585651,573.252389178346,11.004740133085,13.877968370191,1000,14.9122222222222,3.04635363822528,1.64790868673221,288.062222222222,222.374371604938,1220,75.3,11.004740133085,"C_lim",1968,2,334.7,3.59,0.0997,134,0.696,0.715,6,1,2.84,13.15,14.33,12.46,199.7,195.2,8.391,9.217,55.43,60.89,500.3,999,187,100.3,4.09,0.0954,111115,"1/09/2001",2001,"September"
"87",22.7335106955673,NA,2.13722468136487,5.75907489378829,0.505766779731974,NA,0.22648420662868,NA,0.613365507102044,0.998693769947373,-0.513796127084733,7.7635283389839,13.8943572977495,11.9207870122264,1999.99991561528,9.90102376905327,46.1058793032181,1000,14.9408333333333,NA,1.78969621685802,288.090833333333,223.228500694444,1170,76.1,9.90102376905327,"C_lim",1991,2,321.4,3.73,0.101,131,0.74,0.752,6,1,2.84,12.92,14.48,12.06,199,194.4,8.127,9.007,54.48,60.37,500.3,999,117,100.3,3.73,0.0986,111115,"1/09/2001",2001,"September"
"88",23.955127578988,NA,1.30206546061368,4.478466264649,1.37965547703298,NA,0.55308610096949,NA,3.23538399442896,0.95596645989256,0.326356398922592,8.93261342490948,12.1333278563651,12.1333182025836,1999.99991561528,10.2349731166897,45.8354798164655,1000,15.32,NA,1.35831780456659,288.47,234.7024,903,74.5,10.2349731166897,"C_lim",2016,4,732.4,8.26,0.124,251,0.791,0.658,6,1,2.84,13.95,14.9,12.97,375.59,365.34,9.479,10.418,59.29,65.16,500.3,998,83,100.1,-1.02,-0.023,111115,"1/06/2002",2002,"June"
"9",85.9808851098512,118.461352751657,10.8608271899208,7.02027572997359,37.9195213557798,NA,6.1649913639754,NA,0.835141672068066,0.991622865686584,-9.81698245141323,6.44160163994729,10.1999739197044,10.1998089676612,178.587674188995,21.2814517835831,17.30995263777,1000,24.31125,1.37776382041553,1.58345307422455,297.46125,591.0368765625,618,169,17.30995263777,"R_lim",159,1,172,1.81,0.0411,169,0.688,1.67,6,1,2.84,23.93,24.5,25.06,249.8,245.9,12.794,14.15,43.06,47.62,300.3,999,60,100.4,0.671,0.0408,111115,"1/06/2001",2001,"June"
"90",47.4366120418522,69.9273017976674,3.55592601597587,4.12864200532529,0.00344306962135709,NA,0.000489930445800522,NA,0.490458059263254,0.996256120550132,-2.20893072741515,8.00557400204667,8.82999297101766,8.82998894049613,160.043846729178,14.7842270188034,11.5656476942804,1000,20.85375,1.47412091183856,1.1029806193485,294.00375,434.8788890625,756,84.5,11.5656476942804,"R_lim",2048,4,10031.4,6.19,0.0573,192,0.47,0.819,6,1,2.84,18.74,20.74,18.04,378.97,371.33,15.815,16.369,72.91,75.47,500.1,999,502,100,-2.04,-0.121,111115,"1/06/2002",2002,"June"
"92",63.6553174972272,61.5706772454552,1.30314240282386,3.69438080094129,19.959131724813,NA,1.50495816004491,NA,1.26667971579353,0.974908233069997,-0.778288601404968,8.07852334120316,9.77999143180026,9.779979009537,106.42779164348,14.620268937283,9.38334587991221,1000,25.36,0.967251121607196,1.21061622511122,298.51,643.1296,573,76,9.38334587991221,"R_lim",2068,2,343.9,2.97,0.0512,99,0.909,1.77,6,1,2.84,25.15,25.72,27.02,201.28,197.5,14.362,15.436,44.92,48.28,499.9,999,369,100.3,-0.923,-0.0381,111115,"1/06/2002",2002,"June"
"93",51.1863248500265,55.9713946924305,1.27836753283366,2.90612251094455,5.06711946160157,NA,0.480470492721399,NA,1.55577160910992,0.945040066609854,-0.815626588512101,7.33557218481261,7.43999722514087,7.43999614289165,138.55376735069,11.947715510016,8.61616542093529,1000,25.13625,1.09348336409039,1.01423543217862,298.28625,631.8310640625,668,76.5,8.61616542093529,"R_lim",2078,1,2352.1,0.655,0.0524,76.5,0.897,1.71,6,1,2.84,24.56,25.18,26.05,100.11,99.22,13.96,15.021,45.22,48.66,499.9,999,198,100.3,-0.902,-0.0552,111115,"1/06/2002",2002,"June"
"95",50.7308466192721,88.0209536052616,2.86308504660617,NA,0.841272875151063,NA,0.131347566503356,NA,0.785230935936987,0.995537846295296,-1.09997248488271,11.6879023831914,15.2522807725747,14.3147676591388,195.793666524439,16.9133105438296,14.5599502695516,1000,19.76375,1.73505784884385,1.30496305260979,292.91375,390.6058140625,312,69.5,14.5599502695516,"R_lim",2103,1,6979.4,0.58,0.0317,69.5,0.29,0.909,6,1,2.84,18.15,20.03,18.05,101.01,100.28,14.035,14.378,67.35,68.99,499.6,999,10,100.3,-0.687,-0.124,111115,"1/06/2002",2002,"June"
"98",15.282340038395,48.772371024228,1.65452023812825,3.45484007937608,0.687784733048662,NA,0.320670830862069,NA,0.366729961089903,0.996889560393011,0.115465731877288,6.38251402941681,8.70955739820604,8.3875688322952,424.825695023194,8.0433021406814,9.06758990280967,1000,10.7971428571429,3.19142035196792,1.36459667116499,283.947142857143,116.578293877551,865,78.6,8.0433021406814,"C_lim",2143,5,1289,7.74,0.138,403,0.784,0.591,6,1,2.84,10.46,10.62,8.84,510.05,500.3,5.964,6.898,47.17,54.56,500.1,499,314,100.5,1.15,0.115,111115,"1/06/2002",2002,"June"
"99",22.7243259585963,58.3483490283641,1.6840582654974,NA,0.50355494445519,NA,0.171467821609086,NA,0.449706605521801,0.995528573420272,0.539557712040006,8.69929265301554,10.3742766022311,9.94806766117595,221.357080886809,11.1979252396065,10.3965865402978,1000,12.3314285714286,2.56766027448624,1.19254254524188,285.481428571429,152.064130612245,757,80.7,10.3965865402978,"R_lim",2157,7,5190.1,10.3,0.0742,757,0.576,0.791,6,1,2.84,12.72,12.73,10.84,1007.08,994.09,6.135,6.821,41.75,46.42,500.1,498,577,100.5,-0.765,0.106,111115,"1/06/2002",2002,"June"
