"Curve","Vcmax","Jmax","Rd","TPU","Vcmax_SE","Jmax_SE","Rd_SE","TPU_SE","rmse","R2","resp","lowAs","highAs","elevated","Ci_t","Ac","Aj","Ap","Ts","JVr","A_ratio","TsK","Tsq","maxCi","minCi","lim","lim_step","Species","Leaf","TreeNum","Season","Date","GrowthCa","CO2S","Photo","Trmmol","Ci","Cond","Tair","Tleaf","VpdL","PARin"
"1",61.9203547927518,87.8440621964364,2.36783688636123,5.44594562878708,4.23955007694653,NA,0.480811223796,NA,0.384784344004086,0.998879390252141,-2.13501695133867,10.4285390029473,13.9699824622953,13.9698836830971,287.293409571175,12.8457870761357,13.1277729805645,1000,26.74,1.41866212637915,1.33959152459871,299.89,715.0276,779.37,77.77,12.8457870761357,"C_lim","Quercus robur",340,"0812x340","summer","12/08/1997",350,78,-0.19,2.84497,77.77,0.128,25.1,26.1,1.12,1511.2
"10",24.6110223509894,NA,0.508315521201759,2.21443850706725,1.46051437683927,NA,0.172706228385613,NA,0.453620392373661,0.993457411965426,-0.406832866743768,4.64350867333031,6.13499908561347,6.13499817875246,46.4252448176733,5.15186703567569,67.1046347091667,1000,26.62,NA,1.32119901505718,299.77,708.6244,933.11,54.04,5.15186703567569,"C_lim","Quercus robur",343,"0814x343","summer","14/08/1997",350,53,-0.2,2.06201,54.04,0.087,25.1,26.4,1.23,1584.4
"11",35.8708844024275,52.6152311935989,0.924318534751588,3.3447728449172,0.934950399287957,NA,0.0977700961349395,NA,0.111854075365987,0.999831913098135,-1.07636611912886,4.86830360785491,9.10998076316772,8.74514004660179,439.198792045649,5.79473678128027,7.37939305070785,1000,29.94,1.46679492491237,1.87128443437031,303.09,896.4036,902.73,59.5,5.79473678128027,"C_lim","Quercus robur",343,"0814y343","summer","14/08/1997",350,53,-0.71,1.97049,59.5,0.093,29.1,29.8,1.15,1599
"12",37.3165714495356,40.3312987403508,0.508497836746472,2.27949927891549,2.07525370699942,NA,0.116826265042554,NA,0.15683417453871,0.999422321341972,-1.00363779227195,2.74030534702256,6.32999314068553,6.14331133839308,513.967218878362,3.24959785788968,4.57698562391319,1000,37,1.0807878959323,2.30995905166674,310.15,1369,1130.76,58.36,3.24959785788968,"C_lim","Quercus robur",343,"0814z343","summer","14/08/1997",350,53,-0.72,4.31779,58.36,0.09,36.4,35.7,2.5,1539.3
"13",35.9211570279692,72.362753818587,1.8810105841005,4.67033686136683,NA,NA,NA,NA,1.17421226843757,0.987128798254005,0.324148969064301,11.39754043334,12.1299897448653,12.1299840372444,211.165447795945,14.7550699630522,13.2904926127479,1000,16.08,2.01448839084563,1.06426380461725,289.23,258.5664,1104.56,49.67,13.2904926127479,"R_lim","Quercus robur",344,"0815v344","summer","15/08/1997",350,53,0.38,2.38398,49.67,0.152,14.1,15.8,0.76,1496.4
"14",51.4806419164051,73.0545290150579,1.80101524118962,3.73367174706321,NA,NA,NA,NA,0.335342536203318,0.99863085506248,-0.36369624640775,10.5817343052862,9.39999716001104,9.39999647711186,157.471603151022,15.9575200763586,12.3870388423915,1000,20.94,1.41906795050623,0.888322924089594,294.09,438.4836,891.5,52.1,12.3870388423915,"R_lim","Quercus robur",344,"0815w344","summer","15/08/1997",350,53,-0.04,2.93687,52.1,0.131,19.1,20.5,1.12,1510.2
"15",29.4207668463682,NA,1.91887818206723,4.89129272735574,0.296917766850704,NA,0.068307104595631,NA,0.449259258181204,0.998396013914571,0.0549480212007594,10.5870540287514,12.7549963017098,12.7549933381368,25.7573593617907,12.5061558615958,82.4356424740185,1000,15.42,NA,1.20477294883647,288.57,237.7764,1169.72,51.26,12.5061558615958,"C_lim","Quercus robur",346,"0816v346","summer","16/08/1997",350,53,0.05,1.07843,51.26,0.064,12.2,15.7,0.93,1418.8
"16",46.1894422683813,91.196583562147,1.26217154014896,5.89739051338299,2.3563031332474,NA,0.316935833712908,NA,0.60076907164419,0.99870824888674,-0.205355595561684,12.1880695314885,16.4299793074166,16.4299228352926,353.817874623418,13.4614677383282,15.0616631425621,1000,21.9,1.97440322037781,1.34803787137651,295.05,479.61,926.56,53.5,13.4614677383282,"C_lim","Quercus robur",346,"0816w346","summer","16/08/1997",350,53,-0.17,2.32267,53.5,0.087,19.4,22.2,1.4,1431
"17",10.0875723643814,22.9477742711063,0.650613485206073,1.72020449506869,NA,NA,NA,NA,0.140188360363362,0.998544808568753,0.271833164631098,3.8357326775079,4.50996415876712,4.39337709147501,222.180779309285,4.84050123602386,4.49202935163559,1000,12.92,2.27485597547071,1.17577645210074,286.07,166.9264,1416.16,49.46,4.49202935163559,"R_lim","Quercus robur",348,"0820v348","summer","20/08/1997",350,53,0.29,1.04611,49.46,0.096,10.3,12.6,0.51,1484.3
"18",19.2867240937289,NA,0.665883368750302,2.57196112291677,0.56699375697479,NA,0.11823904803758,NA,0.440137406825213,0.995092790309942,-0.131549663603864,5.29729382340123,7.04999835483782,7.04999655760286,34.7016243575566,5.9632284408495,75.3492955330048,1000,20.98,NA,1.33086790913766,294.13,440.1604,1243.98,52.46,5.9632284408495,"C_lim","Quercus robur",348,"0820w348","summer","20/08/1997",350,53,-0.05,1.96696,52.46,0.09,19.1,20.5,1.08,1425.7
"19",32.7175996555856,53.6876917006786,0.728587015366278,3.31286233845543,0.414657895982153,NA,0.0528196008940652,NA,0.0590000209815484,0.999953612317298,-0.630752710398361,5.92414870615744,9.20999118234195,9.20996786426824,408.948988477923,6.65579729360189,8.09836206806364,1000,27,1.64094225327783,1.55465226130622,300.15,729,1172.1,55.68,6.65579729360189,"C_lim","Quercus robur",348,"0820x348","summer","20/08/1997",350,53,-0.34,1.97156,55.68,0.087,25.1,26.5,1.07,1585.8
"2",86.7258519513808,100.449089429331,2.37038674194493,NA,0.571836030836506,NA,0.0511776918214071,NA,0.212829786246585,0.999780204772177,-2.81354207548587,11.0538901255968,17.2659172374556,15.5889337083283,279.147246922636,13.5160421239864,13.6206596995619,1000,30.38,1.15823698665588,1.56197655678466,303.53,922.9444,659.26,75.33,13.5160421239864,"C_lim","Quercus robur",340,"0812y340","summer","12/08/1997",350,68,-0.95,2.41214,75.33,0.106,29.1,30.2,1.09,1450.1
"20",42.4004811608179,62.0219746608951,0.660989294180503,4.00032976472683,0.723236327909774,NA,0.0719797169988604,NA,0.0860800088979006,0.999932574789173,-0.869440366925739,5.99907603324279,11.3399592529282,10.6373079541266,448.514255717397,6.66236886167938,8.58564859359461,1000,30.28,1.46276582158717,1.89028430213084,303.43,916.8784,1203.53,58.29,6.66236886167938,"C_lim","Quercus robur",348,"0820y348","summer","20/08/1997",350,53,-0.52,1.84348,58.29,0.079,29.1,30.2,1.13,1541.9
"21",53.7951995571318,58.0343029184614,0.678053229008935,3.39268440966964,2.8471248277853,NA,0.174425156532656,NA,0.228894341313845,0.999375029261915,-1.32606367356215,4.73086489166944,9.49998660895725,9.10393572844164,431.054699302646,5.4108838716278,6.89722442137458,1000,35.44,1.07880077397664,2.00808664514722,308.59,1255.9936,1019.18,60.77,5.4108838716278,"C_lim","Quercus robur",348,"0820z348","summer","20/08/1997",350,53,-0.86,3.63414,60.77,0.085,36.1,34.9,2.18,1549.7
"22",17.9979737940721,NA,1.14864960275693,2.91954986758564,0.310798479933344,NA,0.0886913007676898,NA,1.10578187824973,0.971906997345395,0.024077731157867,6.41576476703103,7.60999793128332,7.60999637115831,26.0686587755978,7.56449106076065,82.1760182554019,1000,15.64,NA,1.18614042247764,288.79,244.6096,1264.18,50.21,7.56449106076065,"C_lim","Quercus robur",349,"0821v349","summer","21/08/1997",350,53,0.22,1.4164,50.21,0.105,12.3,14.7,0.61,1495
"23",27.5779559730331,NA,1.03603644648119,3.6303454821604,0.0173375795620703,NA,0.00339110068907847,NA,0.275802511277184,0.99901112364153,-0.337078463959706,7.25480528531784,9.85499765642647,9.85499495090602,35.5128221211355,8.29094517197137,74.7428352555725,1000,21.42,NA,1.35840967039748,294.57,458.8164,1112.72,52.78,8.29094517197137,"C_lim","Quercus robur",349,"0821w349","summer","21/08/1997",350,53,-0.11,2.50837,52.78,0.112,19.1,20.8,1.11,1588.3
"24",40.1685239944589,68.3625681532569,1.01845140363576,4.48615046787859,1.45675891046262,NA,0.186602326114823,NA,0.349249448383732,0.999239679278088,-0.893639248562056,7.17458410620976,12.4399663367904,11.9492857065387,433.48999459491,8.19628919628397,10.256105573148,1000,26.96,1.70189395464686,1.73389372159194,300.11,726.8416,986.21,55.57,8.19628919628397,"C_lim","Quercus robur",349,"0821x349","summer","21/08/1997",350,53,-0.49,2.89007,55.57,0.128,25.1,26.5,1.07,1523.3
"25",53.1044690352589,76.5935571041323,0.835313456099248,4.79510448536642,0.889142141326904,NA,0.0854136344238424,NA,0.129707350735709,0.999906622447871,-1.09638793532462,7.50579542093529,13.5499732265181,13.0289332354227,430.959638017368,8.34428174469567,10.5338917072424,1000,30.28,1.44231848082838,1.80526812504432,303.43,916.8784,1010.89,57.65,8.34428174469567,"C_lim","Quercus robur",349,"0821y349","summer","21/08/1997",350,53,-0.68,2.51404,57.65,0.115,29.1,30.1,0.98,1557
"26",79.6901115185481,68.5532993744721,0.644802165479181,4.22160072182639,3.99526514226233,NA,0.185821923115322,NA,0.231446710303747,0.999512647409319,-1.68444544234859,6.49743474915966,12.01921231157,10.6155268790498,322.136214596463,7.15030618210192,7.77440765849218,1000,36.68,0.860248505970734,1.84983963296046,309.83,1345.4224,857.93,60.88,7.15030618210192,"C_lim","Quercus robur",349,"0821z349","summer","21/08/1997",350,53,-1.07,4.78367,60.88,0.101,36.2,35.9,2.38,1564.3
"27",22.2798097178493,NA,1.35863934540234,3.84787978180078,0.143753811811558,NA,0.0412804950140071,NA,1.2238395584868,0.980579916555318,0.191940491303482,8.24781691294711,10.1849967415643,10.1849937843757,25.365930171626,9.60658240330508,82.7635645878014,1000,15.14,NA,1.2348718271833,288.29,229.2196,1361.18,49.53,9.60658240330508,"C_lim","Quercus robur",350,"0822v350","summer","22/08/1997",350,53,0.3,1.53308,49.53,0.111,12.3,14.4,0.69,1506.2
"28",36.0181247552895,NA,1.21345494340397,4.53115164780132,0.747887339991669,NA,0.138978880949274,NA,1.25219679100157,0.98747705219895,-0.258530864055019,9.76821876292402,12.3799975055218,12.3799952280081,35.1051849140392,10.9818619476032,75.0468779226198,1000,21.2,NA,1.26737512805415,294.35,449.44,1195.65,53.35,10.9818619476032,"C_lim","Quercus robur",350,"0822w350","summer","22/08/1997",350,53,-0.16,2.35661,53.35,0.096,19.9,21.4,1.27,1486.2
"29",44.9235287059235,71.2965514922903,1.19609101506073,NA,1.65150612025427,NA,0.260706620899912,NA,0.424543338219798,0.998518689152141,-1.03524849188434,8.07573234966477,13.4028505688035,12.341514374818,368.442184196167,9.27775078508007,10.7221458214499,1000,26.8,1.58706480871102,1.6596452171127,299.95,718.24,712.54,59.35,9.27775078508007,"C_lim","Quercus robur",350,"0822x350","summer","22/08/1997",350,53,-0.57,1.82052,59.35,0.074,25.1,26.5,1.32,1434
"3",93.7844358938322,84.9019506045398,1.36873579413837,5.27291193137946,3.36730123683573,NA,0.185881793284718,NA,0.197496287265936,0.999753214792504,-2.52471089385194,7.78102745988368,14.4007894240859,12.69796259058,316.192496985207,9.1615047897117,9.86277192526792,1000,35.76,0.905288279396938,1.85075679250992,308.91,1278.7776,916.27,80.09,9.1615047897117,"C_lim","Quercus robur",340,"0812z340","summer","12/08/1997",350,76,-0.94,5.49957,80.09,0.126,36.1,35,2.27,1548.2
"30",27.4553159423502,49.692135111081,0.589614943499195,NA,1.29953799163234,NA,0.237611691345546,NA,0.711581259153252,0.993686001710968,-0.176705144125597,6.54504989208811,9.9440171517685,9.28506015701731,359.602276160169,7.14000857033295,8.08724659233529,1000,23.6,1.80992763716225,1.51931877002025,296.75,556.96,562.87,46.32,7.14000857033295,"C_lim","Fagus sylvatica",301,"0818b301","Summer","18/08/1995",350,45,-0.23,2.34462,46.32,0.093645,21.1,23.2,0.99,1107.7
"31",34.7376538278005,59.6259988812311,0.648742155070606,NA,0.36858182319876,NA,0.0697434163118174,NA,0.152647335667216,0.999818707021339,-0.558272378803088,6.3444881316369,11.5874418697387,10.6790451604918,452.52217792733,6.99573818948916,8.94327676381555,1000,27.1333333333333,1.71646591841826,1.82637931213989,300.283333333333,736.217777777778,595.35,42.94,6.99573818948916,"C_lim","Fagus sylvatica",301,"0818c301","Summer","18/08/1995",350,34,-0.85,2.35938,42.94,0.084426,25.2,27.6,1.003,1122.8
"32",46.1929094393283,63.4005644891308,1.17697466132827,NA,0.799175833354924,NA,0.0942000807050152,NA,0.387993935971278,0.998698789152411,-1.38613704406859,6.19499850784098,11.4694563504588,10.4015402297989,388.24369941593,7.37573299062186,8.81741383947684,1000,30.0833333333333,1.37251723822254,1.85140582938672,303.233333333333,905.006944444444,534.18,62.97,7.37573299062186,"C_lim","Fagus sylvatica",301,"0818d301","Summer","18/08/1995",350,49,-0.94,1.57952,62.97,0.060588,29.1,30.4,1.132,1113.5
"33",22.7905469926003,39.2220443206354,0.884643217409074,NA,1.1614960738732,NA,0.168215386041106,NA,0.214612377277099,0.998958526777525,-0.172306065476613,5.92528168834164,7.65480169896477,7.19968177608698,233.576412877872,7.33002879607493,6.81884140841194,1000,20.35,1.72097862913822,1.29188823444902,293.5,414.1225,573.82,49.17,6.81884140841194,"R_lim","Fagus sylvatica",302,"0819a302","Summer","19/08/1995",350,51,0.05,1.75218,49.17,0.075767,17.2,19.1,1.02,1116.5
"34",24.9282431828154,47.8941527747423,1.13505558536881,NA,1.05400391083407,NA,0.206443795161517,NA,0.42260946507958,0.9976342272172,-0.707937735229256,5.56149495163432,9.06044639950001,8.43616597862657,392.169514070889,6.70035037936946,7.87669920559287,1000,23.1166666666667,1.92128071053795,1.62913865395805,296.266666666667,534.380277777778,613.68,56.82,6.70035037936946,"C_lim","Fagus sylvatica",302,"0819b302","Summer","19/08/1995",350,49,-0.6,1.58355,56.82,0.066253,20.9,22.7,0.981,1105.8
"35",31.4346850844661,55.5416637741637,0.925701436828136,NA,1.05485550512692,NA,0.205377964596947,NA,0.452885900467339,0.997781336137913,-0.813152431307033,5.56409753165101,10.5243649457489,9.68523199722354,466.96771514421,6.49199167167594,8.41060114147187,1000,26.8,1.76689105123596,1.89147743832342,299.95,718.24,621.08,66.98,6.49199167167594,"C_lim","Fagus sylvatica",302,"0819c302","Summer","19/08/1995",350,63,-0.43,1.92235,66.98,0.077713,25.1,26.7,0.972,1105.8
"36",50.8148282123862,58.9680596768984,0.570426794105207,NA,2.6868647501491,NA,0.23194225556206,NA,0.474483300114053,0.997410487636375,-0.885239653115485,6.96304677846061,11.1133021058057,10.0887361295385,309.468793731049,7.54508105759046,8.02241001269958,1000,30.9666666666667,1.16044984803323,1.5960401329176,304.116666666667,958.934444444444,496.61,57.03,7.54508105759046,"C_lim","Fagus sylvatica",302,"0820d302","Summer","20/08/1995",350,49,-0.51,1.47478,57.03,0.053749,29.2,30.9,1.049,1121.3
"37",48.7847625463006,47.0950660949518,0.791161663810871,2.41372055460362,1.7642254479832,NA,0.109586447880513,NA,0.234305550389329,0.998886865984068,-1.37779067390226,4.12280228785559,6.44999689778979,6.44999290781155,354.12480272112,4.91734910270142,5.62728638451985,1000,35.4166666666667,0.965364257953594,1.56446912741592,308.566666666667,1254.34027777778,683.26,69.57,4.91734910270142,"C_lim","Fagus sylvatica",305,"0821-305","Summer","21/08/1995",350,49,-0.99,2.09995,69.57,0.042231,35.1,35.5,2.675,1120.9
"38",26.8081751767549,42.2978352143202,0.724313011469379,NA,0.0137258548489118,NA,0.00155023358862326,NA,0.285945319405545,0.998153553663879,-0.359000012029217,6.03738848445411,8.24718972411444,7.67789522485816,279.025572567413,6.80974828451881,6.85686000382104,1000,23.94,1.57779613626952,1.36601938824219,297.09,573.1236,393.02,50.77,6.80974828451881,"C_lim","Fagus sylvatica",303,"0821b303","Summer","21/08/1995",350,47,-0.4,2.26191,50.77,0.076628,21.8,24.6,1.133,1136.5
"39",35.7317920253905,52.5703601547154,1.0375812710917,NA,1.51321918232956,NA,0.200769220727739,NA,0.348229503732347,0.998437863261999,-0.956415472230444,6.08818893210079,9.77384069960744,8.97206726651659,336.347616817577,7.13244073337104,7.88697807767435,1000,27.25,1.47124891237919,1.6053773640423,300.4,742.5625,527.7,58.08,7.13244073337104,"C_lim","Fagus sylvatica",303,"0821c303","Summer","21/08/1995",350,51,-0.54,1.73081,58.08,0.063317,25.1,27.1,1.112,1115.5
"4",36.1438984392774,55.6503954607215,1.59719781982262,3.40573260660754,NA,NA,NA,NA,0.695709527208654,0.991918629390453,-0.671102957701622,7.8311292463849,8.61999399261446,8.61999022740822,200.236430687641,10.9034262413119,9.43435332890005,1000,21.3666666666667,1.53968990241093,1.10073448175992,294.516666666667,456.534444444444,766.9,58.23,9.43435332890005,"R_lim","Quercus robur",341,"0813w341","summer","13/08/1997",350,60,0.06,3.0913,58.23,0.139,19.1,20.4,1.15,1484.3
"40",47.5576165531463,59.2342352573913,1.31341853480754,NA,2.83438528566825,NA,0.282318230663657,NA,0.571085552507613,0.996134245210891,-1.56129148612912,6.05920918024539,10.4836684895476,9.4730698003198,335.094660731077,7.37939493748249,8.17584705637894,1000,30.4333333333333,1.24552573384741,1.73020408731342,303.583333333333,926.187777777778,442.69,68.05,7.37939493748249,"C_lim","Fagus sylvatica",303,"0821d303","Summer","21/08/1995",350,51,-0.97,1.3786,68.05,0.051805,29,30.4,1.161,1119.9
"41",45.5453521537753,43.322635433883,0.43915487989521,NA,0.858247592853049,NA,0.0545500006604639,NA,0.296909738831469,0.998245237274179,-1.00526601617719,3.95726437489759,7.74328916013079,6.85456855501285,363.142829703335,4.39915043367374,5.10411739931074,1000,35.8833333333333,0.951197726775989,1.95672778630849,309.033333333333,1287.61361111111,556.88,59.71,4.39915043367374,"C_lim","Fagus sylvatica",306,"0822-306","Summer","22/08/1995",350,47,-0.85,2.81823,59.71,0.054709,35.1,36.2,2.437,1038.3
"42",16.5030624196492,35.9368433554376,0.201984927558935,NA,1.09262017759613,NA,0.253775512811929,NA,0.421682057989583,0.994780416081027,0.436517256047036,5.50500007902219,7.69050611728082,7.29285682788781,361.437900400368,5.71176848808298,6.3878631045247,1000,19.14,2.17758634377156,1.39700381596485,292.29,366.3396,423.15,36.06,5.71176848808298,"C_lim","Fagus sylvatica",304,"0822a304","Summer","08/22/1995",350,34,-0.19,1.52632,36.06,0.064871,17.1,19.3,0.994,1025.2
"43",23.2286301982446,43.23211926537,0.485250101102558,NA,0.301678501398836,NA,0.0551684369125445,NA,0.198173314123555,0.99937338489026,-0.112719045956941,5.64901490967152,8.71891652914353,8.14909106042105,375.91029138551,6.13821048850596,7.08799507287433,1000,23.3666666666667,1.86115663715018,1.54344016940301,296.516666666667,546.001111111111,623.4,49,6.13821048850596,"C_lim","Fagus sylvatica",304,"0822b304","Summer","22/08/1995",350,49,-0.08,1.53609,49,0.062975,21.2,23,1.02,1031.5
"44",29.1211509675828,43.7918778563214,0.218435233878411,NA,0.292881587707024,NA,0.0397417749034424,NA,0.31325881697561,0.998375491978683,-0.0980686064012856,5.87289083468303,8.86916943905418,8.21470941195824,331.925903431363,6.09750126842233,6.69218521659633,1000,26.6166666666667,1.50378252236904,1.51018802983299,299.766666666667,708.446944444445,556.45,47.51,6.09750126842233,"C_lim","Fagus sylvatica",304,"0823c304","Summer","23/08/1995",350,47,-0.11,1.60328,47.51,0.066819,25.1,26.1,1.125,1021.8
"45",25.1895373209678,30.2267825553669,0.723249664750969,NA,NA,NA,NA,NA,0.332635922708249,0.995791581419575,-0.611417321245165,3.92833209964203,5.58906849558997,5.13722816936901,210.221176542769,5.31386270884248,4.65484883905251,1000,26.5166666666667,1.19997371012472,1.42275865528255,299.666666666667,703.133611111111,529.69,55.94,4.65484883905251,"R_lim","Fagus sylvatica",305,"0823c305","Summer","23/08/1995",350,49,-0.41,1.19672,55.94,0.049642,25,26.2,1.055,1004.6
"46",36.921434954671,51.4524425676909,0.550354978172132,NA,2.27268598327024,NA,0.280753401961143,NA,0.309791437055128,0.998427634574887,-0.753033586481603,5.10775041898294,9.71512313827221,8.827428022179,424.647130285425,5.66033025514424,7.09703573972465,1000,30.58,1.39356562470716,1.90203560106735,303.73,935.1364,623.27,58.2,5.66033025514424,"C_lim","Fagus sylvatica",304,"0823d304","Summer","23/08/1995",350,49,-0.58,1.41429,58.2,0.054414,29.1,30.4,1.116,1014.8
"47",36.907501905935,40.4172652602088,0.703974124666976,2.15132470822233,0.837099394777467,NA,0.0644045543720146,NA,0.18999057803429,0.999142746491203,-0.978425952733663,4.44043925977039,5.74999732355821,5.74999498601296,303.811927135488,5.15372687843186,5.42857085622617,1000,31.7,1.09509620464747,1.29491633308718,304.85,1004.89,450.69,58.14,5.15372687843186,"C_lim","Fagus sylvatica",305,"0823d305","Summer","23/08/1995",350,47,-0.71,1.62976,58.14,0.056435,29.2,31.3,0.997,1020.8
"48",18.1440657605944,26.4311867282959,0.661673238857185,NA,0.74789921465319,NA,0.0872836223060182,NA,0.19575827629471,0.998187358351956,-0.384964291246655,3.67963283041574,4.99611836555529,4.64391674174489,229.498771296374,4.73477579059889,4.3460960028728,1000,23.55,1.45674002051401,1.3577763314474,296.7,554.6025,568.96,51.63,4.3460960028728,"R_lim","Fagus sylvatica",305,"0824b305","Summer","24/08/1995",350,47,-0.39,1.68913,51.63,0.065573,20.8,23.5,0.889,1006.6
"49",15.7686067203273,31.7277270574375,0.440340002112718,2.27678000070424,0.283278826347787,NA,0.0488646539904793,NA,0.134008339610043,0.999495334783371,0.160234989159198,4.9740652259374,6.3899680231656,6.18360419829268,301.370956472301,5.42739233331575,5.64013516073248,1000,19.2333333333333,2.01208182943249,1.28465706276728,292.383333333333,369.921111111111,713.31,46.49,5.42739233331575,"C_lim","Fagus sylvatica",306,"0825a306","Summer","25/08/1995",350,49,0.09,1.25171,46.49,0.057847,17.1,18.5,0.963,999.3
"5",50.0241973491759,68.871327127873,1.68232990271646,3.47744330090549,1.70169747514629,NA,0.169625895742485,NA,1.13763310321378,0.982854039786452,-1.55873837353761,8.31987509369642,8.74999701072361,8.74999581620871,288.219003224332,10.0386356958939,10.2768198300994,1000,27.18,1.37676026358087,1.05169812192891,300.33,738.7524,733.02,67.3,10.0386356958939,"C_lim","Quercus robur",341,"0813x341","summer","13/08/1997",350,64,-0.45,2.28248,67.3,0.092,25.1,26.6,1.31,1496.4
"50",19.2851686997266,36.8318365211999,0.600726762003013,2.540242254001,0.306673858359676,NA,0.0613794534583425,NA,0.102602372299151,0.999784320769022,-0.263129441805776,4.60910471746391,7.0199776533714,6.79936927830283,387.633873918559,5.21289894361893,6.09467781179022,1000,23.0333333333333,1.90985295978883,1.52306751173882,296.183333333333,530.534444444444,740.97,52.35,5.21289894361893,"C_lim","Fagus sylvatica",306,"0825b306","Summer","25/08/1995",350,49,-0.25,1.34536,52.35,0.054827,20.9,22.9,0.971,1005.6
"51",35.4916644706106,49.8654734748863,0.696377220860059,NA,0.866758031010865,NA,0.103738484706913,NA,0.413494682176334,0.997845452922171,-0.843918057279734,5.05311463819371,9.32537468769601,8.48552252431766,403.195610200384,5.75211602816732,7.00919179479983,1000,29.9,1.40499112168093,1.84547063650815,303.05,894.01,646.63,56.33,5.75211602816732,"C_lim","Fagus sylvatica",306,"0825d306","Summer","25/08/1995",350,47,-0.67,1.5125,56.33,0.063139,29.1,30,1.044,1014.9
"52",19.3026327880423,40.946935468826,1.10068408889298,NA,0.725992213493329,NA,0.158322857349312,NA,0.283717562415408,0.998584200182372,-0.668662583638868,4.48587286228115,7.70883789248783,7.19444053106588,446.196676811812,5.5889301724231,6.9016310759363,1000,22,2.12131349741015,1.71846998993363,295.15,484,665.35,55.02,5.5889301724231,"C_lim","Fagus sylvatica",307,"0826b307","Summer","26/08/1995",350,49,-0.55,1.74944,55.02,0.07609,21.1,22.1,1.08,1022.3
"53",24.2567271114948,42.9723888725017,0.298598175492201,NA,0.475501201854082,NA,0.0796372874150752,NA,0.17207915510862,0.999550142463892,-0.11036406840099,5.21390497257074,8.70290724618815,8.08523060157603,417.396784597582,5.51498571084971,6.73654836131879,1000,25.5,1.77156582893403,1.66917258599309,298.65,650.25,700.86,47.62,5.51498571084971,"C_lim","Fagus sylvatica",306,"0826c306","Summer","26/08/1995",350,47,-0.11,1.42666,47.62,0.06632,25.1,25.3,1.099,992.5
"54",27.5814205289415,40.5965935384376,1.16658761765588,2.65886253921863,0.964240449283055,NA,0.107462292037708,NA,0.326889757107778,0.997966302917662,-0.972952370185706,4.98586797066568,6.8099878063797,6.74527856612975,290.44243518953,6.1726637552766,6.33976950873011,1000,25.7166666666667,1.47188189585229,1.36585803042644,298.866666666667,661.346944444444,629.81,56.3,6.1726637552766,"C_lim","Fagus sylvatica",307,"0826c307","Summer","26/08/1995",350,47,-0.83,1.82734,56.3,0.078929,25.1,25.7,1.147,1028.6
"55",40.3652216972206,51.6986423077092,1.60830399931024,2.96276799977008,1.49713293952054,NA,0.166222940468187,NA,0.277088119960311,0.998809905812308,-1.7095322199818,5.33909102383231,7.27999496884826,7.27998911001363,310.821861292725,6.95788579094464,7.40747857963799,1000,29.1333333333333,1.28077191537558,1.36352703790819,302.283333333333,848.751111111111,567.86,67.64,6.95788579094464,"C_lim","Fagus sylvatica",307,"0826d307","Summer","26/08/1995",350,49,-1.24,1.39117,67.64,0.062339,29.1,29.2,1.233,1029
"56",13.5891860308963,32.7832784319395,0.287026339977096,2.3223421133257,0.990019130274387,NA,0.278257851502336,NA,0.450814825405507,0.994755123159882,0.304569173534727,4.61720637923389,6.67998214051005,6.59633834419522,443.921410641374,4.90663652758821,5.90479078332504,1000,18.4166666666667,2.4124534285868,1.44675840580867,291.566666666667,339.173611111111,788.67,45.77,4.90663652758821,"C_lim","Fagus sylvatica",307,"0827a307","Summer","27/08/1995",350,49,0.2,1.8888,45.77,0.090566,17.1,18.1,0.961,1049.1
"6",65.5498780892018,104.979276355262,1.01350404375802,6.70783468125267,9.11238700686453,NA,0.844192766818915,NA,1.20070572746386,0.995845849021379,-1.35598787379041,9.14956751823688,19.1098785877374,17.6380876142205,522.893506968387,10.1656432785626,14.1793782138192,1000,30.44,1.60151749195328,2.08861004081862,303.59,926.5936,1173.84,61.66,10.1656432785626,"C_lim","Quercus robur",341,"0813y341","summer","13/08/1997",350,60,-0.27,2.11005,61.66,0.082,29.1,30.4,1.37,1562.4
"7",87.9983814154519,79.2831735669769,0.947085054013163,4.39569501800439,NA,NA,NA,NA,1.85965824105497,0.980413484865078,-2.10260636366994,6.85527772115295,12.2399874793587,11.9836230212713,352.24120841306,7.80785941936952,8.90989061620192,1000,36.8,0.900961725564822,1.78548382388512,309.95,1354.24,890.63,66.37,7.80785941936952,"C_lim","Quercus robur",341,"0813z341","summer","13/08/1997",350,58,-1.24,5.23012,66.37,0.109,36.1,35.7,2.52,1520.8
"8",11.9387095249987,NA,0.635626756735286,1.78520891891176,0.156993267879345,NA,0.0421038901703878,NA,0.948221314583427,0.945605501076731,0.0853873933248412,4.23736792592836,4.71999897256016,4.71999833058663,26.8758288742564,4.87302566887113,81.5073397923459,1000,16.2,NA,1.11389878223191,289.35,262.44,1252.17,50.63,4.87302566887113,"C_lim","Quercus robur",343,"0814v343","summer","14/08/1997",350,53,0.18,1.79309,50.63,0.117,14.2,15.6,0.74,1536.5
"9",16.0076886161756,NA,0.779190394699193,1.58639679823306,0.574198914933921,NA,0.107207631351424,NA,0.699946419161321,0.964997157244171,-0.370108641173866,4.04564353412511,3.9799994982244,3.97999922965316,35.4384015099548,4.82486719721152,74.7982362868717,1000,21.38,NA,0.983774142396135,294.53,457.1044,1129.02,53.23,4.82486719721152,"C_lim","Quercus robur",343,"0814w343","summer","14/08/1997",350,53,-0.18,2.78247,53.23,0.124,19.2,20.7,1.12,1545.8
