"Curve","Vcmax","Jmax","Rd","TPU","Vcmax_SE","Jmax_SE","Rd_SE","TPU_SE","rmse","R2","resp","lowAs","highAs","elevated","Ci_t","Ac","Aj","Ap","Ts","JVr","A_ratio","TsK","Tsq","maxCi","minCi","lim","lim_step","Tleaf","Ci","Photo","Species","Season","Leaf","Treatment"
"1",88.3979810379185,NA,1.24674799435875,6.1711382203418,3.21135490951771,NA,0.217960435787126,NA,0.683101831656277,0.998992222445772,-2.10824536539813,9.5047588497381,17.2666633452516,17.2666548096682,1999.99991561528,10.751761289673,56.1816145934427,1000,33.30875,NA,1.81663350098854,306.45875,1109.4728265625,1790,58.3,10.751761289673,"C_lim",33.63,58.3,-1.26,"Peltogine excelsa","wet",1,"None"
"100",76.7709874607762,107.755611654295,0.469739377453218,6.78991312581774,1.82230219285423,NA,0.158416421013589,NA,0.487924377356178,0.99953812459912,-0.636196634905839,12.9109274029338,19.8999536966975,19.0887280368979,347.810438193598,13.3910870226058,15.098882535154,1000,28.9842857142857,1.40359809373755,1.54132643424015,302.134285714286,840.088818367347,1370,28.5,13.3910870226058,"C_lim",28.52,28.5,-2.51,"Micropholis guyanensis ssp duckeana","wet",1,"None"
"101",132.525936515631,146.241938997374,1.00731080074004,NA,2.35145276527883,NA,0.145530529992014,NA,0.57588766429252,0.999492741306561,-2.75919504474672,10.6091285085828,24.9025491665411,21.9440246903809,482.617125252949,11.6196689954507,15.7946057590882,1000,36.9271428571429,1.10349674065593,2.34727566419758,310.077142857143,1363.61387959184,830,47.3,11.6196689954507,"C_lim",37.19,47.3,-2.63,"Micropholis guyanensis ssp duckeana","wet",1,"None"
"107",179.322718732099,57.8904936503601,1.06809003204894,2.80603001068298,NA,NA,NA,NA,1.0277221844086,0.990188490420192,-0.978317456585414,7.50153089838651,7.34999792487084,7.34999718825621,49.060360963972,34.5450017165593,8.56990365353967,1000,27.7142857142857,0.322828552119189,0.979799726806663,300.864285714286,768.081632653061,1450,43,8.56990365353967,"R_lim",27.6,43,-2.18,"Eschweilera coriacea","dry",1,"None"
"109",68.9833817704415,94.5004400514896,0.208951767441675,6.10298392248056,0.954319973069368,NA,0.0709547108115072,NA,0.226894163458079,0.999873167649213,-0.5490506055074,10.6183441139476,18.0998570576837,16.7543931732992,384.122273472181,10.832995635161,12.8840572924489,1000,30.2871428571429,1.3699015273847,1.70458377157968,303.437142857143,917.31102244898,1290,26.3,10.832995635161,"C_lim",30.93,26.3,-1.83,"Bellucia dichotoma","wet",1,"None"
"11",65.0695370244562,67.5794215654407,-0.00581642797512444,4.33139452400829,3.42061075815937,NA,0.164655402711983,NA,0.553827418586928,0.998476691263064,-0.683548602758973,7.43937373727829,12.9191906018142,11.6247428604414,343.787724760359,7.43942830333238,8.3747569425458,1000,34.0128571428571,1.03857234361513,1.7365965278874,307.162857142857,1156.87445102041,1230,28.3,7.43942830333238,"C_lim",33.99,28.3,-1.26,"Ocotea sp.","wet",1,"None"
"110",88.0141130185266,113.129204158727,-0.182612037130114,NA,1.82982598380038,NA,0.155053865145652,NA,0.625820079507334,0.999210594873903,-0.85570566154569,9.25302800454446,21.0416413262784,18.6799208958342,548.995043135977,9.07240128502647,13.2144604930672,1000,35.17,1.28535299940947,2.27402762813904,308.32,1236.9289,974,29.6,9.07240128502647,"C_lim",34.97,29.6,-1.82,"Bellucia dichotoma","wet",1,"None"
"116",119.686164583689,116.286603301875,1.43597115966196,NA,4.62636658183884,NA,0.213959404989919,NA,1.24207353545653,0.996688084215706,-3.27065743323745,4.50010680290597,17.8574938891897,12.7388830039194,712.824937776845,5.93691680495101,10.1367504951674,1000,42.6855555555556,0.971596037907645,3.96823779330263,315.835555555556,1822.05665308642,1080,67.4,5.93691680495101,"C_lim",42.65,67.4,-3.45,"Pouteria anomola","dry",1,"None"
"117",102.029858679973,99.8137674333733,0.947439105145476,NA,0.850947213570983,NA,0.0345249459190809,NA,0.577914130721457,0.999260074709733,-2.34986307475367,7.31672567500582,16.9975231080168,14.8833891500541,444.261768861486,8.26693525933553,10.729313044109,1000,37.7633333333333,0.978279973379651,2.32310515154079,310.913333333333,1426.06934444444,1140,48.2,8.26693525933553,"C_lim",37.55,48.2,-2.53,"Pouteria anomola","dry",1,"None"
"118",57.9074795108207,72.7214129267704,0.940581784695076,5.08019392823169,2.15089368550787,NA,0.179356864072862,NA,0.800514964828504,0.997790449570914,-1.18064747135195,8.43687865744254,13.5321806584226,12.3222227977231,318.185780971673,9.38926539072628,10.1223748624204,1000,29.8944444444444,1.25582072542428,1.6039321184838,303.044444444444,893.677808641975,1330,46.6,9.38926539072628,"C_lim",30.13,46.6,-2,"Pouteria anomola","dry",1,"None"
"119",87.3633335320249,91.957703200364,1.6341831607637,NA,2.40887424192431,NA,0.130354860149327,NA,0.589083840521177,0.999131347543395,-2.55922880511219,8.35083172933988,15.7403784361813,13.9990895048335,344.926686203372,9.99277897231267,11.2691399118498,1000,34.0077777777778,1.05258922115941,1.88488751136954,307.157777777778,1156.52894938272,1190,53.7,9.99277897231267,"C_lim",34.41,53.7,-2.82,"Pouteria anomola","dry",1,"None"
"12",47.8468926277995,55.473811957251,0.189808083561296,3.5632693611871,2.78781139310607,NA,0.203922565766123,NA,0.650804621755944,0.997093552905794,-0.412674478821282,7.37453641650773,10.4999719472069,9.96931557064403,284.119202790229,7.59931239226551,7.72797834849852,1000,30.1485714285714,1.15940260507158,1.42381450903177,303.298571428571,908.936359183674,1380,23.6,7.59931239226551,"C_lim",30.28,23.6,-1.26,"Ocotea sp.","wet",1,"None"
"123",34.5360766814918,64.4279175455119,0.690013285496749,NA,1.88214724906897,NA,0.222996415457458,NA,1.14897411387787,0.992671772068286,-0.836011987334846,4.89069652598658,12.1560894378894,9.74635691109745,705.976380928553,5.58162286913998,8.99170163361635,1000,29.9344444444444,1.86552508959535,2.48555382107607,303.084444444444,896.070964197531,1110,56.4,5.58162286913998,"C_lim",30.15,68.6,-1.23,"Zygia racemosa","wet",1,"None"
"124",119.686164583689,116.286603301875,1.43597115966196,NA,4.62636658183884,NA,0.213959404989919,NA,1.24207353545653,0.996688084215706,-3.27065743323745,4.50010680290597,17.8574938891897,12.7388830039194,712.824937776845,5.93691680495101,10.1367504951674,1000,42.6855555555556,0.971596037907645,3.96823779330263,315.835555555556,1822.05665308642,1080,67.4,5.93691680495101,"C_lim",42.65,67.4,-3.45,"Pouteria williamii","dry",1,"None"
"125",102.029858679973,99.8137674333733,0.947439105145476,NA,0.850947213570983,NA,0.0345249459190809,NA,0.577914130721457,0.999260074709733,-2.34986307475367,7.31672567500582,16.9975231080168,14.8833891500541,444.261768861486,8.26693525933553,10.729313044109,1000,37.7633333333333,0.978279973379651,2.32310515154079,310.913333333333,1426.06934444444,1140,48.2,8.26693525933553,"C_lim",37.55,48.2,-2.53,"Pouteria williamii","dry",1,"None"
"126",57.9074795108207,72.7214129267704,0.940581784695076,5.08019392823169,2.15089368550787,NA,0.179356864072862,NA,0.800514964828504,0.997790449570914,-1.18064747135195,8.43687865744254,13.5321806584226,12.3222227977231,318.185780971673,9.38926539072628,10.1223748624204,1000,29.8944444444444,1.25582072542428,1.6039321184838,303.044444444444,893.677808641975,1330,46.6,9.38926539072628,"C_lim",30.13,46.6,-2,"Pouteria williamii","dry",1,"None"
"127",87.3633335320249,91.957703200364,1.6341831607637,NA,2.40887424192431,NA,0.130354860149327,NA,0.589083840521177,0.999131347543395,-2.55922880511219,8.35083172933988,15.7403784361813,13.9990895048335,344.926686203372,9.99277897231267,11.2691399118498,1000,34.0077777777778,1.05258922115941,1.88488751136954,307.157777777778,1156.52894938272,1190,53.7,9.99277897231267,"C_lim",34.41,53.7,-2.82,"Pouteria williamii","dry",1,"None"
"128",59.1382341124705,92.0698888860698,0.503275432948472,6.30109181098282,0.7310147258097,NA,0.0902169931680189,NA,0.41590317981224,0.999672559398185,-0.30714942221543,11.6192499891625,18.1530693610001,16.7918980349717,350.510614609204,12.1319379705841,13.6837988968872,1000,26.8888888888889,1.55685894697108,1.56232711904226,300.038888888889,723.012345679012,1430,20.1,12.1319379705841,"C_lim",26.95,20.1,-2.62,"Licania octandra","wet",1,"None"
"129",98.8982464534631,118.003522355104,0.777937119111915,7.92597903970397,1.44898695520952,NA,0.0980849992148574,NA,0.471736348137965,0.999693435531032,-1.68680225750772,11.6947382804742,21.4973609432333,19.3695222361017,377.793119666587,12.4794532027294,14.7679269484473,1000,32.8855555555556,1.19318113906732,1.83820795537816,306.035555555556,1081.45976419753,1250,34.2,12.4794532027294,"C_lim",32.87,34.2,-3.15,"Licania octandra","wet",1,"None"
"13",23.9646165247663,NA,0.381012088489968,2.89033736282999,1.50002182557521,NA,0.229133748261507,NA,0.803401212557505,0.993394793569251,-0.166147886660946,5.20412327792624,8.28999769506849,8.28999158733157,43.0958233845408,5.58518429617909,69.3372061321805,1000,25.1575,NA,1.59296720164783,298.3075,632.89980625,1470,11.3,5.58518429617909,"C_lim",25.23,11.3,-1.11,"Diospyrus cf. praetermissa","wet",1,"None"
"130",147.505601445499,123.48244390163,2.02562649328236,NA,9.5340822469566,NA,0.358213467286035,NA,1.79222280045663,0.994386116994375,-4.02740830958924,10.2478064841284,19.9874445447149,17.4330103723107,317.256612632546,12.2888445437083,13.2508622285499,1000,37.47,0.837137320152918,1.95041198091232,310.62,1404.0009,915,78.7,12.2888445437083,"C_lim",37.91,82.3,-3.07,"Licania octandra","wet",1,"None"
"132",50.7950138533371,NA,0.260225880819835,5.23674196027328,0.71837663126467,NA,0.0780688134737231,NA,0.987320236233245,0.997324406195371,-0.0875824070699592,10.1817819884455,15.4499967928189,15.449991021566,1999.99991561528,10.4422015772323,66.7306211082156,1000,26.8611111111111,NA,1.51741579326211,300.011111111111,721.519290123457,1390,22.3,10.4422015772323,"C_lim",26.76,22.3,-1.62,"Micropholis guyanensis ssp duckeana","wet",1,"None"
"134",96.5160553225554,109.285241889205,0.0411966597040782,NA,2.32289413510783,NA,0.114662284805644,NA,0.661403790520645,0.999248175751011,-1.14593250622668,10.2331161721608,20.2394613789345,18.131703456059,422.045889535942,10.2782691383714,12.9424959969684,1000,34.8088888888889,1.13230116506497,1.97783950054198,307.958888888889,1211.65874567901,1150,37.9,10.2782691383714,"C_lim",34.66,37.9,-2.24,"Micropholis guyanensis ssp duckeana","wet",1,"None"
"14",35.8979383211155,46.0282672304394,0.275281789415499,NA,2.01722898978709,NA,0.163788711628457,NA,0.636688563366682,0.996423822656117,-0.451864707670293,5.36060745272435,8.95632865031123,8.17059291139404,352.505138195017,5.63996798454564,6.41464024893325,1000,30.2814285714286,1.2821980699478,1.67076748844191,303.431428571429,916.964916326531,1260,19.9,5.63996798454564,"C_lim",30.47,19.9,-1.13,"Diospyrus cf. praetermissa","wet",1,"None"
"18",95.7312766569004,100.916521732471,0.532647039634303,6.27754901321143,1.47418279799559,NA,0.0781253819969023,NA,0.251767396027191,0.999849465373128,-1.34071245991621,12.0661411810038,18.2999287542926,16.9959872572916,287.594387713082,12.6448293999916,12.943543647969,1000,32.3542857142857,1.05416458713023,1.51663472851643,305.504285714286,1046.79980408163,1170,34.6,12.6448293999916,"C_lim",32.53,34.6,-2.3,"Tachigali mimercophyla Ducke","wet",1,"None"
"19",137.050335533379,125.000382793446,0.186384181097867,NA,7.18314525851805,NA,0.381610918631803,NA,1.59810648020459,0.995165365164358,-2.02105837390267,11.542131789887,22.1616893304281,19.5985312619454,359.578627094931,11.7360940766455,13.5437201003982,1000,37.1785714285714,0.91207644481105,1.92006899018825,310.328571428571,1382.24617346939,862,40.2,11.7360940766455,"C_lim",37.41,40.2,-1.67,"Tachigali mimercophyla Ducke","wet",1,"None"
"2",66.6018193144745,85.2458446517473,1.41740452933677,5.48913484311226,1.23760361231912,NA,0.107151771170173,NA,0.526481786050533,0.999365828550572,-1.68819371123969,9.4038262003314,15.049933202888,14.0475658838584,325.097498632159,10.8330843301216,11.8091080835981,1000,29.8555555555556,1.27993267344907,1.60040529059944,303.005555555556,891.354197530864,1830,27.6,10.8330843301216,"C_lim",29.8,27.6,-3.05,"Peltogine excelsa","wet",1,"None"
"25",69.8985972518801,58.541620990235,-0.16317775538745,3.47894074820418,3.54270805078729,NA,0.124200296112448,NA,0.42456865494255,0.998644978311364,-0.644010833481366,7.22505859614096,10.5999839560119,10.1217579410335,253.964606178703,7.37532030804607,7.07779146025523,1000,34.9114285714286,0.837522114775492,1.46711390848422,308.061428571429,1218.80784489796,1170,42.2,7.07779146025523,"R_lim",34.51,42.2,-1.15,"Ocotea sp.","wet",1,"None"
"26",44.789033239652,NA,0.443682746237407,2.7178942487458,1.3412940446857,NA,0.0873751452182152,NA,0.330654246618015,0.998691136909942,-0.640535167784584,6.7464244656852,7.70999929659041,7.70999875055217,55.0328308716432,7.19020206920171,61.6905548373442,1000,30.0171428571429,NA,1.14282748377401,303.167142857143,901.028865306122,1360,36.7,7.19020206920171,"C_lim",30.16,36.7,-1.04,"Ocotea sp.","wet",1,"None"
"29",32.6902935470859,57.5926670869734,0.460417889319657,4.08680596310655,3.41254854336402,NA,0.300546897651597,NA,1.03393509481202,0.993307044218288,-0.193245072928904,7.03257189795468,11.5418947775575,10.7236806520732,402.333105758213,7.49672268494501,8.9970464452739,1000,25.38125,1.76176659301083,1.64120537195138,298.53125,644.2078515625,954,47.2,7.49672268494501,"C_lim",25.34,48.1,-1.06,"Jacaranda copaia","dry",1,"None"
"3",52.8604737243309,75.3706250786475,0.992951578696626,5.13098385956554,0.834689857093712,NA,0.0583092223479089,NA,0.729411994369868,0.998575521059112,-0.813998556292798,9.84463393090314,14.396785303521,13.2831256393374,297.510976263967,10.8631710674528,11.296646282682,1000,26.8655555555556,1.42584089336217,1.46239925268611,300.015555555556,721.758075308642,1860,19.2,10.8631710674528,"C_lim",26.85,19.2,-2.65,"Peltogine excelsa","wet",1,"None"
"33",31.8530950588621,40.521606903664,0.482451723248198,2.79415057441607,0.74564108249261,NA,0.056915012950729,NA,0.237541203297644,0.999397874360154,-0.635388409523066,4.54278606837217,7.66774033570239,6.97599330549992,346.543540503891,5.02916052058381,5.66899919083191,1000,30.22125,1.27214033138014,1.68789377714412,303.37125,913.3239515625,1320,26,5.02916052058381,"C_lim",30.21,26,-1.23,"Licania micheli carobe","wet",1,"None"
"39",27.5300579649386,46.9962994244211,0.994667919840465,NA,1.62439794778678,NA,0.202183623980134,NA,0.690757038530561,0.994247119943116,-1.06296770487908,3.75415402093109,8.52889171897794,7.67678261917934,550.570330454037,4.74994943783819,6.74894331513031,1000,29.1214285714286,1.70709046396757,2.27185450341823,302.271428571429,848.057602040816,1040,68.8,4.74994943783819,"C_lim",29.43,68.8,-0.825,"Quaruba branca","wet",1,"None"
"4",87.2724315747718,105.513155162613,0.910469945421317,NA,5.70939078666008,NA,0.375395467699357,NA,2.01246079341243,0.993576082015628,-2.12575254303529,5.94483482469362,17.9124854158718,13.9988557842054,662.554409864895,6.85639263143599,11.1752674879385,1000,38.0866666666667,1.20900899927618,3.01311742783282,311.236666666667,1450.59417777778,1380,44.9,6.85639263143599,"C_lim",38,44.9,-2.47,"Peltogine excelsa","wet",1,"None"
"41",71.781931992331,102.194508276514,2.69024442480391,7.06341480826797,3.43807224036096,NA,0.25220606820991,NA,0.683876499424268,0.998916565709496,-3.05506461243066,8.50520767182261,17.2701914842009,15.561483600663,413.941809726783,11.2001728670048,13.8504879828159,1000,30.3657142857143,1.42368010222171,2.03054318607837,303.515714285714,922.076604081633,1190,51.2,11.2001728670048,"C_lim",30.25,51.2,-2.96,"Miratinga perebea molis","wet",1,"None"
"42",112.332011155788,123.800635928274,2.17553429908244,NA,3.52288773857131,NA,0.234668648360419,NA,0.852064266949712,0.998353643531387,-3.50720521624896,9.33460032679193,20.5090706352733,18.109429866865,413.852702731993,11.5148006827191,14.3494313493335,1000,35.2314285714286,1.10209578422468,2.19710217012813,308.381428571429,1241.25355918367,758,54,11.5148006827191,"C_lim",35.35,54,-2.63,"Miratinga perebea molis","wet",1,"None"
"47",42.1241513560493,64.9413838443288,0.480347031639047,NA,2.31470272172294,NA,0.182067691749985,NA,0.820170826446048,0.996722094089592,-0.585125565615207,6.78331678747934,12.5820153467225,11.5221776358143,441.666257149951,7.2663142859534,9.25428718328805,1000,29.1242857142857,1.54166628296959,1.85484708158498,302.274285714286,848.224018367347,1170,25.6,7.2663142859534,"C_lim",29.35,25.6,-1.19,"Bertholletia excelsa","wet",1,"None"
"49",74.6504943913911,90.8219681567271,-0.13428990870158,NA,2.26744571443718,NA,0.199282333887066,NA,0.804927073575613,0.998147788407589,-0.730391416793397,7.98360979578221,17.1161955140911,15.326790641815,495.962052541477,7.85140274870913,10.8073571300067,1000,34.9471428571429,1.21662915828192,2.14391684362301,308.097142857143,1221.30279387755,1010,29.1,7.85140274870913,"C_lim",34.58,29.1,-1.39,"Tetragastris panamensis","wet",1,"None"
"50",59.2693260040595,83.5818475371376,-0.0699147570258511,5.47669508099138,5.09561575019029,NA,0.368262889231812,NA,1.20285594793418,0.995596667074039,-0.311056129578678,8.77127568542566,16.4239940604312,14.9748682495135,445.413402705475,8.7043855347829,11.2046182920523,1000,31.0985714285714,1.41020411690548,1.87247495683225,304.248571428571,967.121144897959,1380,16.6,8.7043855347829,"C_lim",31.05,16.6,-1.22,"Tetragastris panamensis","wet",1,"None"
"51",45.8215468702247,66.446374993945,0.226634579070841,4.84221152635695,2.44175026803349,NA,0.257191695494582,NA,0.805897290041576,0.997373314441993,-0.222508685654541,8.36304040772626,13.2611737814152,12.2229019203214,350.661211374172,8.59621084336757,9.71856322942083,1000,28.0571428571429,1.45011200041181,1.58568811519358,301.207142857143,787.203265306122,1450,13.7,8.59621084336757,"C_lim",28.46,13.7,-1.58,"Tetragastris panamensis","wet",1,"None"
"52",39.7362878006922,76.7989281659541,0.0570874430426689,NA,2.49707628686582,NA,0.390170919865916,NA,1.49814511350874,0.992058326763022,0.040928186835546,7.91430712655957,15.5718801463963,14.0669234166791,576.233580780727,7.97323806538608,11.4182769515034,1000,27.1814285714286,1.93271521867265,1.96756076020082,300.331428571429,738.830059183673,1200,12.2,7.97323806538608,"C_lim",27.27,12.2,-0.828,"Crysophillum sp.","wet",1,"None"
"53",64.261005683276,93.6706924183873,0.676954079106464,NA,1.09841957575432,NA,0.08913692341333,NA,0.529689126934151,0.999281038486382,-1.12088283107686,8.53936152829218,17.5098165717711,15.8699352309996,483.579659833725,9.21898444015395,12.3989981193001,1000,31.3788888888889,1.45765992023317,2.05048310857415,304.528888888889,984.634667901234,902,43.7,9.21898444015395,"C_lim",31.71,43.7,-1.44,"Crysophillum sp.","wet",1,"None"
"56",91.0736384851596,122.327109578622,0.812133730160415,NA,6.29819272218332,NA,0.464952946981392,NA,1.8299073504423,0.996779118905047,-1.42086094372581,12.3926139640218,22.6237469271746,20.5391156151912,396.966423029962,13.2109555524371,16.0135322138375,1000,31.2466666666667,1.34316704167425,1.82558312498524,304.396666666667,976.354177777778,1760,19.5,13.2109555524371,"C_lim",30.92,19.5,-2.47,"Abuta cf. panurensis","wet",1,"None"
"57",59.2200901939869,84.9907791274236,0.467725067548124,5.93924168918271,1.83194668965793,NA,0.13407265249799,NA,1.15220403794578,0.997302968118573,-0.0204183234054293,12.5511733042296,17.0044203051844,15.8078483142215,260.790948927818,13.4056133639627,13.0627269582665,1000,25.56,1.43516801222389,1.35480722742105,298.71,653.3136,1860,18.1,13.0627269582665,"R_lim",26.17,18.1,-2.54,"Abuta cf. panurensis","wet",1,"None"
"58",113.403521760623,147.482863926429,0.393321228611615,NA,3.00507358916564,NA,0.259672623725736,NA,1.28196533415535,0.998787946605164,-1.8455673547649,10.0914791533936,25.896596872231,21.6584427189785,609.515867030466,10.4867112458384,16.2377502858461,1000,36.3555555555556,1.30051396673326,2.5661844491372,309.505555555556,1321.72641975309,1630,28.8,10.4867112458384,"C_lim",36.58,28.8,-3.06,"Abuta cf. panurensis","wet",1,"None"
"59",139.965159276157,165.733877290584,0.766989449310883,NA,2.18229958670864,NA,0.141053709320809,NA,1.24550263220463,0.998991349867191,-2.80749753431216,8.80137636379352,27.2395344923024,20.6342061915271,693.457105327785,9.56977745441135,16.0539810953378,1000,39.5188888888889,1.18410808909654,3.09491758634007,312.668888888889,1561.74257901235,1510,40,9.56977745441135,"C_lim",39.81,40,-3.58,"Abuta cf. panurensis","wet",1,"None"
"6",66.5857573154945,79.4198988188457,1.04558677431426,5.08186225810475,2.96645851909529,NA,0.177265370199751,NA,0.559902087196134,0.998558321580387,-1.4693801330581,8.75181972651281,14.1999300027611,13.1598797586548,323.741009033145,9.80830560986203,10.6781131148691,1000,31.0625,1.19274604691422,1.62251171144942,304.2125,964.87890625,895,59.5,9.80830560986203,"C_lim",31.12,59.5,-0.927,"Protium sp","wet",1,"None"
"60",82.7216072972656,104.448323986916,1.51866387961601,NA,3.43155848887891,NA,0.277067271152559,NA,1.03470261182491,0.9971469069162,-2.47007662169275,7.24467895656452,17.8973533093817,15.8380201102037,519.700251236958,8.76546727558484,12.3782342521682,1000,34.8642857142857,1.26264862832723,2.47041358446458,308.014285714286,1215.51841836735,981,62.1,8.76546727558484,"C_lim",34.8,62.1,-2.07,"Macherium sp.","dry",1,"None"
"64",83.8687526453316,110.019400134343,0.938176702652136,NA,5.05024036139979,NA,0.409224627745112,NA,1.51854578434273,0.994166859599115,-1.89680090676149,8.00417090402238,19.4705588201497,17.1827975934194,550.251631153819,8.94430329102397,13.0312273249856,1000,34.7928571428571,1.31180441659361,2.43255161010681,307.942857142857,1210.54290816327,892,70.4,8.94430329102397,"C_lim",34.62,80.5,-1.44,"Tetracera amazonica","wet",1,"None"
"65",64.8409127175165,91.0316616586502,0.345913670914117,NA,1.09732574183884,NA,0.0792506917988109,NA,0.665815421271664,0.998878770176034,-0.730373113666296,9.39697978435626,17.452758836334,15.8971217122225,426.388400641206,9.74667331505142,12.254202825971,1000,30.8185714285714,1.40392319977412,1.85727321297303,303.968571428571,949.784344897959,1210,33.7,9.74667331505142,"C_lim",30.84,33.7,-1.72,"Tetracera amazonica","wet",1,"None"
"66",88.3979810379185,NA,1.24674799435875,6.1711382203418,3.21135490951771,NA,0.217960435787126,NA,0.683101831656277,0.998992222445772,-2.10824536539813,9.5047588497381,17.2666633452516,17.2666548096682,1999.99991561528,10.751761289673,56.1816145934427,1000,33.30875,NA,1.81663350098854,306.45875,1109.4728265625,1790,58.3,10.751761289673,"C_lim",33.63,58.3,-1.26,"Peltogine excelsa","wet",1,"None"
"67",66.6018193144745,85.2458446517473,1.41740452933677,5.48913484311226,1.23760361231912,NA,0.107151771170173,NA,0.526481786050533,0.999365828550572,-1.68819371123969,9.4038262003314,15.049933202888,14.0475658838584,325.097498632159,10.8330843301216,11.8091080835981,1000,29.8555555555556,1.27993267344907,1.60040529059944,303.005555555556,891.354197530864,1830,27.6,10.8330843301216,"C_lim",29.8,27.6,-3.05,"Peltogine excelsa","wet",1,"None"
"68",52.8604737243309,75.3706250786475,0.992951578696626,5.13098385956554,0.834689857093712,NA,0.0583092223479089,NA,0.729411994369868,0.998575521059112,-0.813998556292798,9.84463393090314,14.396785303521,13.2831256393374,297.510976263967,10.8631710674528,11.296646282682,1000,26.8655555555556,1.42584089336217,1.46239925268611,300.015555555556,721.758075308642,1860,19.2,10.8631710674528,"C_lim",26.85,19.2,-2.65,"Peltogine excelsa","wet",1,"None"
"69",87.2724315747718,105.513155162613,0.910469945421317,NA,5.70939078666008,NA,0.375395467699357,NA,2.01246079341243,0.993576082015628,-2.12575254303529,5.94483482469362,17.9124854158718,13.9988557842054,662.554409864895,6.85639263143599,11.1752674879385,1000,38.0866666666667,1.20900899927618,3.01311742783282,311.236666666667,1450.59417777778,1380,44.9,6.85639263143599,"C_lim",38,44.9,-2.47,"Peltogine excelsa","wet",1,"None"
"7",41.5761972150482,64.7278415849628,0.402187656472408,4.23406255215747,2.96900462797547,NA,0.219689821756843,NA,0.731333379603543,0.997075723618066,-0.411653027394876,7.31910857194503,12.2999625989404,11.7124315487935,409.781811206755,7.72475389571391,9.4455342864832,1000,28.1814285714286,1.55684853162894,1.68052741369182,301.331428571429,794.192916326531,1030,28.1,7.72475389571391,"C_lim",28.07,28.1,-1.05,"Protium sp","wet",1,"None"
"73",71.7210757031587,95.4275949405253,0.763286773727474,6.45442892457583,5.26563085165399,NA,0.467683117906718,NA,1.77925893015736,0.993310694346755,-0.960502017735606,11.4801804290278,18.1421107616564,16.6071918742544,325.702423518174,12.2568127426192,13.3667075562558,1000,29.24125,1.3305376976704,1.58029839982165,302.39125,855.0507015625,1420,17,12.2568127426192,"C_lim",27.79,17,-2.02,"Brosimum parinarioides ssp. Parinariodes","wet",1,"None"
"74",48.4959478109153,72.9181320793148,1.31994601453085,4.62331533817695,1.52866886369986,NA,0.118610105539255,NA,0.842814480855889,0.997128723878345,-0.856453515077101,9.98936141068333,12.5499848771922,12.549926636561,273.712492023507,11.436106905254,11.410175689341,1000,24.99375,1.50359226638112,1.25633505098438,298.14375,624.6875390625,1490,25,11.410175689341,"R_lim",25.19,25,-2.64,"Brosimum parinarioides ssp. Parinariodes","wet",1,"None"
"75",87.1880991457217,129.719678026719,0.489436996278474,NA,3.19345526367856,NA,0.301512732824013,NA,1.78687735708464,0.996137543588832,-1.48125335202997,8.85257054925554,23.3198687048023,18.5922547583722,676.442712326558,9.34349007623003,15.228773007843,1000,34.7388888888889,1.48781403996332,2.63424827569021,307.888888888889,1206.79040123457,1250,27,9.34349007623003,"C_lim",33.31,27,-2.98,"Brosimum parinarioides ssp. Parinariodes","wet",1,"None"
"76",129.07581710738,142.562359163804,0.870973230690753,NA,3.76533388746459,NA,0.209530320257674,NA,1.03713532625397,0.998398125815865,-2.7557598499721,7.89882090447165,23.5529719958893,18.7598016863862,634.279705817983,8.77127260419975,13.9717488078809,1000,39.58125,1.10448542847654,2.9818339066981,312.73125,1566.6753515625,978,45,8.77127260419975,"C_lim",39.59,45,-3.11,"Brosimum parinarioides ssp. Parinariodes","wet",1,"None"
"77",74.6107280851248,117.02995694087,1.74306294046264,NA,2.67668384512858,NA,0.293643308359684,NA,1.05718103654359,0.997738196081116,-2.06775595250532,10.2517593848353,21.0192596222263,19.0912434047378,474.339271821772,11.9985105312317,15.8957911214756,1000,29.9957142857143,1.56854060996896,2.05030754558273,303.145714285714,899.742875510204,965,51.6,11.9985105312317,"C_lim",30.28,51.6,-2.26,"Jacaranda copaia","dry",1,"None"
"82",32.6902935470859,57.5926670869734,0.460417889319657,4.08680596310655,3.41254854336402,NA,0.300546897651597,NA,1.03393509481202,0.993307044218288,-0.193245072928904,7.03257189795468,11.5418947775575,10.7236806520732,402.333105758213,7.49672268494501,8.9970464452739,1000,25.38125,1.76176659301083,1.64120537195138,298.53125,644.2078515625,954,47.2,7.49672268494501,"C_lim",25.34,48.1,-1.06,"Guarea sp.","wet",1,"None"
"86",31.1789539354366,58.0045149981755,0.613464092588709,4.27115469752957,0.833273411611351,NA,0.117479697926313,NA,0.353690565279302,0.999342829288942,-0.308843167208678,6.76654589729937,11.5144682585517,10.7027124150822,432.920316199026,7.38309089069902,9.14782241855583,1000,24.9357142857143,1.86037399196547,1.70167592643498,298.085714285714,621.789846938776,1440,13.9,7.38309089069902,"C_lim",24.87,13.9,-2.11,"Pouteria cf. erythrochrysa","dry",1,"None"
"87",50.9526183820477,78.7082360579385,0.385257153678569,5.29508571789286,1.75691690325703,NA,0.144733905246626,NA,0.457357757585972,0.999285643495639,-0.607876895774914,7.8004970882111,15.2167873341067,13.8937729436963,478.276678875907,8.18822841796102,10.8939920784949,1000,30.0042857142857,1.54473388330657,1.95074585145399,303.154285714286,900.25716122449,1320,24.6,8.18822841796102,"C_lim",30.31,24.6,-2.11,"Pouteria cf. erythrochrysa","dry",1,"None"
"88",74.719742269514,103.839811764151,0.335371870415818,NA,3.9646309598872,NA,0.386403684568664,NA,1.52454345043175,0.994834140240857,-1.19591613645859,7.56957692475014,18.9641592415359,15.8437835987231,620.376093560631,7.90636939823359,12.3036592357067,1000,34.88,1.38972390174474,2.50531296927958,308.03,1216.6144,1220,40.5,7.90636939823359,"C_lim",34.87,40.5,-2.39,"Pouteria cf. erythrochrysa","dry",1,"None"
"89",92.0118081533715,121.088523404687,0.761526894701632,NA,3.6521479859236,NA,0.292199108644689,NA,1.16359357799911,0.997475365735076,-1.99743565305382,7.06484700134891,20.8908300631593,15.9932907222437,698.335547480445,7.82753207875049,13.1150151754689,1000,37.2485714285714,1.31601069291942,2.95701096699908,310.398571428571,1387.45607346939,1150,46.3,7.82753207875049,"C_lim",37.27,46.3,-2.81,"Pouteria cf. erythrochrysa","dry",1,"None"
"90",40.9714279393886,62.9097812453648,0.170448873680388,4.19014962456013,2.08932185242132,NA,0.208317943439038,NA,0.660824835531326,0.99781376186611,-0.296683019824105,6.74534602682877,12.3997494783939,11.4245283220458,450.825353021417,6.91819166399196,8.91132843767346,1000,29.3914285714286,1.5354549355329,1.83826736672595,302.541428571429,863.856073469388,1450,16.4,6.91819166399196,"C_lim",29.02,16.4,-1.65,"Pouteria anomala","wet",1,"None"
"91",28.8098278984073,35.3255833237716,0.393577276456339,2.65119242548545,0.143340386618574,NA,0.0124694007354004,NA,0.643296484755488,0.994558441470252,-0.00687700075196812,5.34096571092934,7.1177658427858,6.64046688333229,166.02799778754,7.29280356164315,5.73665335222565,1000,23.99,1.22616433004532,1.33267394475508,297.14,575.5201,1510,14.9,5.73665335222565,"R_lim",24.26,14.9,-1.49,"Pouteria anomala","wet",1,"None"
"92",68.903802785939,80.9432146390215,0.326251112102471,4.90875037070082,2.51720461937954,NA,0.142807994886086,NA,0.475949559924912,0.999179661598594,-1.11746778622604,6.98501736487571,14.3999565068246,13.309270105891,464.583058908295,7.31349776264996,9.70910592863509,1000,34.8457142857143,1.17472782874532,2.06154913504368,307.995714285714,1214.22380408163,1350,31.5,7.31349776264996,"C_lim",35,31.5,-2.08,"Pouteria anomala","wet",1,"None"
"93",105.443204517942,93.8115775527363,0.884441010225168,NA,3.75983109847807,NA,0.12562720290839,NA,0.900351368081704,0.997752154911909,-2.4187060927958,6.37463341763105,15.6517869347841,13.5632231943004,449.80790050903,7.26143831033917,9.48821068692202,1000,39.4457142857143,0.889688225823729,2.45532345303091,312.595714285714,1555.9643755102,1200,65,7.26143831033917,"C_lim",39.41,65,-2.09,"Pouteria anomala","wet",1,"None"
"94",38.9890421827969,50.8722008990136,1.99112124683616,3.45370708227872,1.09780716460419,NA,0.0880482815237668,NA,0.180422863412109,0.999630211943082,-1.75079444980897,5.86579444722509,8.36995161973472,7.85309210165412,231.346504489814,8.56236255049653,7.86566633539738,1000,25.9742857142857,1.30478201184075,1.42690844267382,299.124285714286,674.663518367347,1160,63.4,7.86566633539738,"R_lim",26,63.4,-1.23,"Couepia longipondula","dry",1,"None"
"98",108.781706662995,139.141180199335,0.879112925874108,8.32637097529137,2.0154055236006,NA,0.130838900838056,NA,0.416864815189803,0.999774738052123,-1.81763688145669,13.3258006170874,24.0999428001127,22.7418968254615,403.663890116026,14.2111973238749,17.4160307277615,1000,32.4828571428571,1.27908620362423,1.80851743866029,305.632857142857,1055.13600816327,1330,35.2,14.2111973238749,"C_lim",33.04,35.2,-3.31,"Micropholis guyanensis ssp duckeana","wet",1,"None"
"99",56.1676044559807,82.1158038542548,0.697272643464203,5.59909088115473,0.429452684695187,NA,0.0296462968500216,NA,0.317335589966366,0.999711893632819,-0.191353628033426,12.0143465707694,16.0998265352222,15.123377939346,260.142477590556,13.1015050383096,12.7530634661324,1000,25.1457142857143,1.46197803252603,1.34005011761461,298.295714285714,632.306946938776,1440,22.3,12.7530634661324,"R_lim",25.14,22.3,-2.23,"Micropholis guyanensis ssp duckeana","wet",1,"None"
