"Curve","Vcmax","Jmax","Rd","TPU","Vcmax_SE","Jmax_SE","Rd_SE","TPU_SE","rmse","R2","resp","lowAs","highAs","elevated","Ci_t","Ac","Aj","Ap","Ts","JVr","A_ratio","TsK","Tsq","maxCi","minCi","lim","lim_step","Tleaf","Ci","Photo","Species","Season","Leaf","Treatment"
"10",92.4577045695962,NA,1.4484868095432,6.16616226984773,1.84754014912637,NA,0.168240727932331,NA,0.902947636996638,0.997962417925215,-2.46175527067723,8.8180368175316,17.049996517269,17.0499853268215,1999.99991561528,10.2667624035271,54.4088611018704,1000,34.3414285714286,NA,1.93353655355249,307.491428571429,1179.33371632653,754,78.5,10.2667624035271,"C_lim",34.4,78.5,-0.597,"C_g",1,3,35
"100",66.8980125130899,159.530472917957,0.585493535639845,NA,4.69514845474629,NA,1.0447294159021,NA,3.16897680053472,0.992693723790519,-0.0483674109470213,14.7073452844216,30.8757261363506,25.7164293581664,715.820629809479,15.295649437428,23.6138191840259,1000,25.4225,2.38468180032615,2.09934053625946,298.5725,646.30350625,1700,61.6,15.295649437428,"C_lim",25.9,61.6,-0.314,"E_i",1,5,25
"102",166.146461661718,222.433533378044,1.91306426194727,NA,2.14739368788641,NA,0.224587517014763,NA,0.875148895927432,0.999480295470771,-4.36772453361311,8.83942429578134,32.7562383340341,22.4105821832231,844.492804970442,10.7537057453125,20.2511074817702,1000,40.07375,1.33877984010835,3.70569815838201,313.22375,1605.9054390625,911,85,10.7537057453125,"C_lim",39.68,85,-2.18,"E_i",1,5,40
"103",206.489119486217,286.065528055258,2.55889109924225,NA,4.49686658544252,NA,0.46739412255877,NA,1.86526328742332,0.998471116920057,-5.62938127904937,10.3996126782781,39.5840083784559,26.937351485527,841.251166550057,12.9599753271442,24.369795481248,1000,40.3825,1.3853782163779,3.8062964076668,313.5325,1630.74630625,990,86.7,12.9599753271442,"C_lim",40.45,86.7,-2.04,"E_i",1,6,40
"104",153.517226427318,249.753387605872,0.912518052753439,NA,2.74298370763529,NA,0.371237463541784,NA,1.23513194155047,0.999380042932196,-2.68983158238516,15.2398623178541,41.1569896803618,32.2070415808326,697.829754278926,16.1548301632422,26.8022365235823,1000,34.94125,1.62687532479697,2.70061427209514,308.09125,1220.8909515625,1190,68.9,16.1548301632422,"C_lim",34.9,68.9,-1.13,"E_i",1,6,35
"105",104.513629443319,195.212988603379,0.293606284867481,NA,4.99048028038645,NA,0.762741078793198,NA,2.01883713461289,0.997897066513641,-0.775269718265758,16.3362342112015,35.8294437336287,30.8884104022341,618.515874328896,16.6330741800011,25.1820552680334,1000,30.12375,1.86782326518714,2.193249880628,303.27375,907.4403140625,1580,62.3,16.6330741800011,"C_lim",30.08,62.3,-0.51,"E_i",1,6,30
"106",91.0714582917728,163.117477853689,1.29714278048788,NA,1.15461312702922,NA,0.151489916938127,NA,3.45180777666672,0.99126043791076,-0.644938509537624,19.1347347004766,30.7947969684007,28.5792129675262,381.663372570713,20.4437207574956,23.9567602809385,1000,25.675,1.79109328996464,1.60936628860779,298.825,659.205625,1700,57.8,20.4437207574956,"C_lim",25.78,57.8,0.151,"E_i",1,6,25
"107",102.54305137927,190.9363177438,1.66083805947136,13.3202793531571,2.82952463104395,NA,0.392800657448869,NA,0.737034370351835,0.999680591305785,-0.662487163171512,22.5891602842569,35.4331989995301,32.9593798486052,370.383075166521,24.2657926614221,27.9732514216435,1000,24.945,1.86201127405108,1.56859301335892,298.095,622.253025,1730,55.7,24.2657926614221,"C_lim",24.72,55.7,0.599,"E_m",1,1,25
"108",72.1084859057821,152.366541849702,1.44150676191752,NA,0.822501025170996,NA,0.149014668195628,NA,1.12850796575288,0.998869487558618,0.565974737661511,20.8686458167723,29.7922921407343,28.0728520517216,349.101954396413,22.3303778360324,24.7711492407051,1000,20.955,2.11301818275295,1.42761022455947,294.105,439.112025,1720,51.8,22.3303778360324,"C_lim",20.98,51.8,0.916,"E_m",1,1,20
"109",118.747904319901,210.646940035261,0.46936753538817,12.3897891784627,2.22395740333637,NA,0.314594814097718,NA,0.97975305780124,0.999373495060813,-0.96574257842274,18.753752581891,36.6999058884259,34.78222068626,533.629879000736,19.2278574048523,27.0235405337823,1000,29.91125,1.77390027421274,1.95693665724608,303.06125,894.6828765625,698,59.4,19.2278574048523,"C_lim",29.43,59.4,-0.112,"E_m",1,1,30
"11",43.7327825563805,105.156355202647,0.782108554759658,NA,3.67014269707237,NA,0.611138901389292,NA,1.61744471923566,0.9928021742125,-1.01627931957137,5.96149863500298,15.9510215242415,11.9689795572095,1280.29028000715,6.74421907206141,14.1757943964842,1000,30.5083333333333,2.40452011181953,2.67567309846973,303.658333333333,930.758402777778,1280,61.9,6.74421907206141,"C_lim",30.71,61.9,-0.187,"C_g",1,3,30
"110",121.174062714137,NA,0.57774262376635,6.88424754125545,8.16311634867999,NA,0.130426512704993,NA,1.38778630189183,0.996951405227124,-1.98249459266042,12.1549145336146,20.0749971701221,20.0749922118799,1999.99991561528,12.7330563654021,53.3432034574215,1000,34.9571428571429,NA,1.65159509057875,308.107142857143,1222.00183673469,1030,70.6,12.7330563654021,"C_lim",34.24,70.6,-0.294,"E_m",1,1,35
"111",168.329898052306,133.33787070068,1.62803751610374,NA,10.5878285385273,NA,0.407152177876559,NA,1.95603243766027,0.993098222073665,-4.03811689124535,10.6036481430782,21.5713951300348,18.7160341618185,330.902272550318,12.2434958562477,13.4985073153572,1000,38.886,0.792122327901887,2.03433712991656,312.036,1512.120996,525,96.7,12.2434958562477,"C_lim",38.62,96.7,-0.748,"E_m",1,1,40
"112",198.777286412511,207.614638801744,0.362182803872876,NA,5.23177793730538,NA,0.274535234907482,NA,1.58951065655568,0.998749656710016,-2.51124893580396,21.93872930697,36.1359476542583,32.4484233460481,304.684556279585,22.3398555406889,23.5779713810276,1000,34.20625,1.04445856238772,1.6471303852032,307.35625,1170.0675390625,1540,64.3,22.3398555406889,"C_lim",34.19,64.3,-0.925,"E_m",1,2,35
"113",267.127578039033,240.883050534378,0.245510041213286,14.6818366804044,2.49596961693169,NA,0.0754061953809886,NA,1.32590291913508,0.999291540778588,-4.01915038393066,19.9506122487661,38.8951870403265,34.1570977826773,350.806254942382,20.2106535414069,23.0030612352401,1000,38.47875,0.901752833992976,1.94957360482669,311.62875,1480.6142015625,1390,71.3,20.2106535414069,"C_lim",38.6,71.3,-1.55,"E_m",1,2,40
"114",133.184823164789,185.243479680223,1.05227329963364,NA,1.55737084364249,NA,0.130551708488877,NA,1.02972036864187,0.99937392084559,-1.61477429338085,20.4587671340314,33.5470153076981,30.6482302329874,344.480926387665,21.5283513747028,24.1840601125517,1000,29.9325,1.39087529103088,1.63973787315344,303.0825,895.95455625,1640,61.5,21.5283513747028,"C_lim",30.23,61.5,-0.285,"E_m",1,2,30
"115",87.0454888863554,157.948756782828,1.32882807108183,NA,0.898592745170942,NA,0.123694878592971,NA,1.19802271982616,0.998850297421951,-0.731861434623808,18.0731927592749,29.8234370873286,27.6619277141838,398.534109570814,19.4118645640102,23.2261634327073,1000,25.765,1.81455419233778,1.65014767919318,298.915,663.835225,1780,58.2,19.4118645640102,"C_lim",25.81,58.2,0.214,"E_m",1,2,25
"116",61.6728532578162,127.623514705197,1.78408407925871,NA,0.0854034850606654,NA,0.01671675100975,NA,0.538810866091041,0.999628891488508,-0.0288439340172801,17.4310003572085,24.7758742873342,23.3222634045008,339.960217653495,19.2347601353394,21.0916097497435,1000,20.8425,2.06936290383196,1.42136846879751,293.9925,434.40980625,1790,55.5,19.2347601353394,"C_lim",21,55.5,0.518,"E_m",1,2,20
"117",186.672525481082,192.438063707859,0.292572166720659,NA,2.36780371906145,NA,0.116613110275049,NA,1.43075404158255,0.998853896003773,-2.4905923960573,18.9737334868404,33.53530061142,29.9758757649028,335.634417412099,19.2834200955805,21.4351787790352,1000,35.14625,1.03088584253049,1.7674592422561,308.29625,1235.2588890625,1590,65.3,19.2834200955805,"C_lim",34.84,65.3,-0.912,"E_m",1,3,35
"118",115.703309230855,152.022315474545,0.657184056630711,NA,2.19859508186584,NA,0.186269559035324,NA,1.03925383980711,0.999103714159685,-1.24004412197851,17.4139783501569,28.2354188157536,25.7703246427284,335.6355434208,18.0876241415103,20.0549564372077,1000,30.3425,1.31389773105992,1.62142264380954,303.4925,920.66730625,1700,61.4,18.0876241415103,"C_lim",30.65,61.4,-0.348,"E_m",1,3,30
"119",70.8694209706545,126.6476259243,1.08257658710582,NA,1.00663189731703,NA,0.154475140998065,NA,2.31187149610801,0.993505585495198,-0.48438783521251,15.2500520654469,24.4523151988271,22.7194937250529,383.076221765148,16.3420597764026,19.1610800964065,1000,25.305,1.78705602768705,1.60342503054336,298.455,640.343025,1800,57.7,16.3420597764026,"C_lim",25.41,57.7,0.206,"E_m",1,3,25
"12",40.9874747027469,89.1129341599404,1.18996201705111,6.3966540056837,2.265887312233,NA,0.253464361127409,NA,0.437403246579187,0.999652502646002,-0.912901512202907,7.92904676844673,17.0411705455893,14.5959925963068,650.466537230296,9.12086518464737,13.59845067982,1000,25.7944444444444,2.17415039121618,2.14920797458325,298.944444444444,665.353364197531,1490,64.8,9.12086518464737,"C_lim",25.77,64.8,-0.183,"C_g",1,3,25
"121",171.642282826185,191.220369800044,0.596200556640127,NA,1.40061276207418,NA,0.0899875967846238,NA,1.71925367604328,0.998180160870698,-3.12924543009219,10.5666488000766,30.9622664761031,24.6131348270509,637.836592115325,11.1647133768247,17.84782046992,1000,40.02375,1.11406331034227,2.93018790175734,313.17375,1601.9005640625,1320,73.3,11.1647133768247,"C_lim",39.86,73.3,-1.71,"E_m",1,3,40
"122",132.890637609785,192.571169507612,0.730683740877652,NA,1.84226678970814,NA,0.198863241686662,NA,0.984896862942261,0.999461882104181,-2.29260077091233,13.0225483427751,33.1088081968386,27.5466294246026,622.398816586989,13.7556852163731,21.4638378402757,1000,35.12375,1.4490950827783,2.54242160023981,308.27375,1233.6778140625,1510,64.4,13.7556852163731,"C_lim",34.95,64.4,-1.41,"E_m",1,4,35
"123",104.980600668963,161.003907292058,1.07611110035731,NA,0.896866449155911,NA,0.0780205759507122,NA,0.849263480976756,0.999469864064792,-1.60165434832268,15.3513795637354,29.3559977975616,26.7496743946604,446.528387498344,16.4332270316282,21.1319041774647,1000,30.32625,1.53365389668283,1.91227099008805,303.47625,919.6814390625,1660,62.3,16.4332270316282,"C_lim",30.49,62.3,-0.557,"E_m",1,4,30
"124",71.2280974023653,129.778809168839,0.912110605750815,NA,1.39168427709775,NA,0.202287321095949,NA,2.01025239223613,0.995436790529301,-0.215369898291054,15.9485782006562,25.2851827240655,23.5381410683364,383.21288032355,16.8704956235526,19.759517476349,1000,24.9325,1.82201706772711,1.5854192396301,298.0825,621.62955625,1760,58.2,16.8704956235526,"C_lim",25.55,58.2,0.134,"E_m",1,4,25
"125",147.003565822878,200.958539655158,0.464913454424211,NA,4.35907019432057,NA,0.467731757835221,NA,2.10679667608317,0.997416988176743,-2.61189530500581,9.51614667604023,31.2981631633268,21.8972173147093,858.819080660873,9.98217024046835,18.9550862158889,1000,39.58875,1.36703173511648,3.28895342083465,312.73875,1567.2691265625,1340,70.6,9.98217024046835,"C_lim",39.3,70.6,-1.88,"E_m",1,4,40
"126",156.381919380723,235.678143365028,0.0316562558768446,NA,6.27910428056203,NA,0.696298195211303,NA,2.40504781197318,0.997797333053047,-1.75660485262142,17.2280511776008,40.4068676465663,34.9482068955881,587.218553153883,17.2631048763517,26.0279932216873,1000,34.4075,1.50706772431442,2.34541140086126,307.5575,1183.87605625,1580,63.5,17.2631048763517,"C_lim",34.09,63.5,-1.1,"E_m",1,5,35
"127",125.087822882201,188.140448838961,0.747369274179748,NA,0.375373231739666,NA,0.0345332547258229,NA,1.32841864990893,0.999004181735789,-1.29849412720363,19.3156774825296,34.2910781688732,31.338675862838,402.853754764449,20.0722113237474,24.4552438292927,1000,30.0225,1.50406685881918,1.77529771864789,303.1725,901.35050625,1690,59.8,20.0722113237474,"C_lim",30.03,59.8,-0.276,"E_m",1,5,30
"128",78.0147215234011,139.354539687415,1.05082002983978,NA,2.32100645258853,NA,0.364854494538869,NA,1.72841772847366,0.996906154176892,-0.254536635082903,17.565766947876,26.9524442031573,25.0968219913907,358.914506899885,18.6302439714512,21.1543146607894,1000,24.8175,1.78625952853802,1.53437332301715,297.9675,615.90830625,1800,58.2,18.6302439714512,"C_lim",25.06,58.2,0.218,"E_m",1,5,25
"13",27.1628753083487,NA,1.97258225614318,5.19086075204772,2.05930701023978,NA,0.408584191885784,NA,0.560197610967226,0.998302106587363,-1.33093596244859,6.01959934775384,13.5482112258201,10.8703175370115,36.1383059963262,7.99227796526557,74.2790844830135,1000,21.7533333333333,NA,2.25068321712732,294.903333333333,473.207511111111,1480,69,7.99227796526557,"C_lim",21.65,69,-0.281,"C_g",1,3,20
"130",172.663798841062,224.505176604196,0.388101194622774,NA,6.53321096575272,NA,0.523527316654024,NA,3.23536781853685,0.995561609763048,-2.88669352532899,11.7370886220024,36.1173671657201,26.5899626185176,738.589810964212,12.1268297215899,21.0903573874803,1000,39.245,1.30024462632642,3.07719983454962,312.395,1540.170025,1550,69.2,12.1268297215899,"C_lim",39.27,69.2,-2.23,"E_m",1,5,40
"131",77.9112401141927,206.769890480147,1.31002699039308,NA,0.883306848733685,NA,0.25574687270733,NA,0.788432058368475,0.999691277002309,-1.6001848607643,11.5307333782043,29.8363756290828,22.6075304178933,1303.09433120884,12.8419452702366,26.7562721198211,1000,29.6914285714286,2.65391604827608,2.58755229615145,302.841428571429,881.580930612245,1560,62.4,12.8419452702366,"C_lim",29.66,62.4,-0.503,"H_a",1,1,30
"132",93.1225640029571,159.550772954829,0.972098662530342,NA,1.04716905547255,NA,0.161511593929572,NA,0.71338171067415,0.999574038178623,-2.02189215050037,9.09619362255767,26.951218124312,19.5634800486899,846.04819382261,10.0694997891274,18.4633374554065,1000,34.63875,1.71334170899507,2.96291165762739,307.78875,1199.8430015625,1320,68.4,10.0694997891274,"C_lim",34.42,68.4,-0.843,"H_a",1,1,35
"133",55.4020095532068,87.6524563304195,0.806025310646413,NA,0.782524091977377,NA,0.118367922152462,NA,0.408803860308357,0.999507688411677,-1.60503592818111,3.1298245382109,11.5807247580917,7.93350791370731,1202.44792584295,3.93615554975394,9.00319319125182,1000,39.1271428571429,1.58211691303797,3.70011948488063,312.277142857143,1530.93330816327,1360,79.9,3.93615554975394,"C_lim",39.15,79.9,-0.974,"H_a",1,1,40
"136",132.744868421381,183.500219505692,0.533732050619013,NA,1.2496134946048,NA,0.111429004350688,NA,0.560365638533466,0.99978005492896,-2.02367409305132,13.8782124539453,32.1240456894747,28.52549223444,547.81517707619,14.4151267307153,20.9389521572785,1000,34.59125,1.38235264148363,2.31471061536765,307.74125,1196.5545765625,975,67.2,14.4151267307153,"C_lim",34.33,67.2,-0.758,"H_a",1,2,35
"137",82.6460529941635,175.081039240246,0.553811123276337,NA,2.56383137718727,NA,0.496865449831694,NA,1.87444160621235,0.997543524510735,-0.98935818168072,12.2365233847167,31.0713037396505,23.6068755704943,858.706090045767,12.7919872268054,22.6887307508765,1000,30.46375,2.11844405022718,2.53922644224732,303.61375,928.0400640625,1160,67.2,12.7919872268054,"C_lim",30.86,67.2,-0.484,"H_a",1,2,30
"138",71.3924009248178,172.970252343177,0.751468616874553,NA,1.62445516127995,NA,0.355955180257202,NA,1.44130426678332,0.998660451223068,-0.313007026306641,14.916333658873,32.8259408170659,26.4826071030392,769.172597935238,15.6704126514374,25.0718137022683,1000,25.98125,2.42281041262822,2.20067085972828,299.13125,675.0253515625,1650,57.9,15.6704126514374,"C_lim",25.88,57.9,0.0499,"H_a",1,2,25
"139",63.6409828977431,71.2861648838843,0.208666209550183,NA,3.4929542020029,NA,0.314852283777983,NA,1.43287177641298,0.991043477592752,-1.13345596397589,4.19468185205274,12.4899719827117,9.61571205769928,679.628237950495,4.40401723587604,7.3008704157475,1000,39.39625,1.12012985403486,2.97757313265594,312.54625,1552.0645140625,1100,79.7,4.40401723587604,"C_lim",39.14,79.7,-0.896,"H_a",1,2,40
"140",43.3458130283947,119.838213797805,1.20645914444221,NA,1.18220405912626,NA,0.335835884297228,NA,1.86999648121041,0.995501112147925,-0.198319207538314,11.4857847793776,23.3266404844395,19.2066548949857,819.155506893936,12.6945992551724,19.5317510551164,1000,21.825,2.76470102704734,2.03091394558618,294.975,476.330625,1700,57.6,12.6945992551724,"C_lim",21.91,57.6,0.257,"H_a",1,2,20
"141",82.7281312598829,114.859668645159,0.779319741403259,NA,0.585334301846399,NA,0.0739273621203264,NA,1.13220173013833,0.997724301736046,-1.70312162381461,8.24692497691066,20.5339504789908,17.5624794879516,592.340260969485,9.02799450057835,13.6824293974842,1000,34.53625,1.38839916840787,2.48989175195369,307.68625,1192.7525640625,885,70.4,9.02799450057835,"C_lim",34.65,70.4,-0.778,"H_a",1,3,35
"142",70.5246145547118,163.402001876556,0.313846672534234,NA,2.48361839593944,NA,0.562471727796806,NA,2.28831616003415,0.996085928233309,-0.535145995270696,11.5682459631234,28.2692272530685,21.7045637498705,970.920548774751,11.8834971961249,21.9339293987935,1000,29.4175,2.31694994589147,2.44369175268087,302.5675,865.38930625,1350,63.6,11.8834971961249,"C_lim",29.66,63.6,-0.313,"H_a",1,3,30
"143",68.3502189896282,171.576411102758,0.696959631624069,NA,2.91993291058903,NA,0.66874215368395,NA,2.93189772862233,0.994389785169308,-0.197885292887261,14.6900996719437,32.4050911560188,25.8785618531017,816.982610833922,15.3895004107112,25.0860024512266,1000,25.63375,2.510254007069,2.20591363433078,298.78375,657.0891390625,1490,60,15.3895004107112,"C_lim",25.98,60,-0.126,"H_a",1,3,25
"144",56.1120184271623,157.558960644346,0.899725847281341,NA,2.43082276748018,NA,0.675295738332636,NA,2.74412094779163,0.994199863099349,0.243904323496566,14.9100712646349,30.2463047005197,24.8089161063801,849.089832084548,15.812563146116,24.8461888074746,1000,22.41125,2.80793607253443,2.02858216863528,295.56125,502.2641265625,1700,57.3,15.812563146116,"C_lim",22.57,57.3,0.159,"H_a",1,3,20
"145",73.827711550753,58.699418252119,0.813260769731176,NA,4.55277432417295,NA,0.154015215453445,NA,1.00091284214293,0.994152581195433,-1.90671135669167,3.9088768454809,9.59256421287917,8.23991305093582,410.142117661263,4.72410303626714,5.85668248026978,1000,40.18875,0.795086519941309,2.45404616008029,313.33875,1615.1356265625,1260,84.6,4.72410303626714,"C_lim",40.21,84.6,-1.16,"H_a",1,3,40
"146",150.21807434803,122.285204255385,0.882448375869533,6.76914945862318,9.07461076168365,NA,0.293391688238817,NA,1.00980989593348,0.998383710344569,-2.53927356781097,13.676219850527,19.4249823610754,19.4237406893632,213.079666512418,16.5839066498156,14.5691338988861,1000,34.4066666666667,0.814051203799026,1.42034733086913,307.556666666667,1183.81871111111,893,73.5,14.5691338988861,"R_lim",34.42,73.5,-0.618,"H_a",1,4,35
"147",81.025465139958,139.07448915213,0.329746348592915,NA,3.48654574821036,NA,0.529905805809657,NA,2.10472741388988,0.994493883987144,-0.749796776053679,12.2551274827752,26.2749355234869,23.3507346268148,577.085475263676,12.587574132163,18.4501111285033,1000,30.41875,1.71642938318098,2.1439952836408,303.56875,925.3003515625,778,65.5,12.587574132163,"C_lim",30.6,65.5,-0.374,"H_a",1,4,30
"148",73.7985788731167,185.510072162175,1.37164975173108,NA,1.31718762859877,NA,0.279762104023829,NA,1.92852459398528,0.99787117184347,-0.807539807455113,15.363269236392,34.3446340180318,27.4766645867112,792.721377451607,16.7376653409559,26.9323528425815,1000,25.53375,2.5137350203061,2.23550297072692,298.68375,651.9723890625,1520,59.7,16.7376653409559,"C_lim",25.6,59.7,-0.143,"H_a",1,4,25
"149",62.8871579818436,177.023728312093,1.89434687284577,NA,1.1112141618009,NA,0.311076635169084,NA,1.80161597995189,0.997925450385488,-0.480564021872988,16.33451835797,33.3073168767857,27.5067807529593,790.201627152015,18.2323374208835,27.7989498496598,1000,21.98,2.81494241420804,2.03907554216523,295.13,483.1204,1710,57.4,18.2323374208835,"C_lim",22,57.4,0.137,"H_a",1,4,20
"15",56.3045222141329,94.1668028652252,0.82460939341339,NA,1.58337519159974,NA,0.128919643651295,NA,0.776390283854923,0.998809755187509,-1.08633228036511,8.11948131381035,17.6764108101061,15.8701438156583,559.438932701868,8.94611802709811,12.8900273889563,1000,30.14375,1.67245541143387,2.17703694693409,303.29375,908.6456640625,994,66.6,8.94611802709811,"C_lim",30.01,66.6,-0.412,"C_g",1,4,30
"150",84.6369983509359,74.7942196050131,1.05059537671937,NA,6.07230302216317,NA,0.174386986308255,NA,0.467147210486274,0.999050761687759,-2.29314725938206,4.57722863375855,12.1865879510678,10.4882692965727,468.488359956084,5.62949170474043,7.52699724652727,1000,39.7985714285714,0.883705956760056,2.66243810964297,312.948571428571,1583.9262877551,896,94.4,5.62949170474043,"C_lim",39.92,94.4,-1.08,"H_a",1,4,40
"151",134.041698253267,191.106113775698,0.510557270258186,NA,3.2847399570602,NA,0.318301018413693,NA,1.85774708930497,0.997890689744067,-2.10687849578743,13.1543540253566,33.0407533822615,27.6681257299227,615.359960522893,13.6673874436904,21.2060516075959,1000,35.29,1.42572137078278,2.51177316032178,308.44,1245.3841,1230,66.7,13.6673874436904,"C_lim",34.8,66.7,-1.12,"H_a",1,5,35
"152",80.373734825704,174.141586435084,0.524068779521579,NA,2.38900502958095,NA,0.497465612394449,NA,1.73835656325939,0.997966294378674,-0.937467844195873,11.982498776589,30.3731130202344,23.0726182579359,898.232139737852,12.5081139528533,22.6213219215995,1000,30.3975,2.16664793309309,2.53478957824526,303.5475,924.00800625,1260,64.1,12.5081139528533,"C_lim",30.58,64.1,-0.413,"H_a",1,5,30
"153",58.0509916881316,142.503346932704,0.904816247004953,NA,1.99925659546642,NA,0.480105626185194,NA,1.68805201326224,0.997415064211063,-0.233887125086562,13.3099965251994,27.6955012971282,23.1077859169179,721.998547631682,14.2174919574848,21.7566914033089,1000,24.46125,2.45479608166347,2.08080454752134,297.61125,598.3527515625,1740,58.8,14.2174919574848,"C_lim",24.6,58.8,0.0418,"H_a",1,5,25
"154",39.5564758334731,113.485355834788,0.184814106063508,NA,2.25580521791358,NA,0.712443333864474,NA,2.16631057106211,0.993301160305592,1.08459513379718,12.6474317329267,23.4711133436476,19.8400762191815,802.352053414174,12.8348670553219,19.1143115839632,1000,20.2075,2.86894505750576,1.85580075380381,293.3575,408.34305625,1820,56.8,12.8348670553219,"C_lim",20.79,56.8,0.36,"H_a",1,5,20
"155",140.38405018135,147.60381956208,0.272344449579863,NA,4.15449422128822,NA,0.258568896415904,NA,1.44044984520738,0.997883117641042,-2.33638452274619,9.00564767763867,24.8448088692903,20.594310318302,596.343611436051,9.27971900568924,14.262774749344,1000,39.86125,1.05142870127627,2.75880311540288,313.01125,1588.9192515625,1140,76.7,9.27971900568924,"C_lim",40.03,76.7,-1.46,"H_a",1,5,40
"156",156.866717191709,230.979249578106,-0.0407763290637824,NA,5.17371248070633,NA,0.512557834595769,NA,2.51485461900214,0.997431560992772,-1.78258778235443,16.4744092144817,39.5523545258149,33.7262460355896,600.18190262641,16.4367383557189,25.1300383774995,1000,34.98875,1.47245543040098,2.40083598816076,308.13875,1224.2126265625,1450,65.3,16.4367383557189,"C_lim",34.68,65.3,-0.939,"H_a",1,6,35
"157",99.429631651853,204.30943452916,0.294495263514067,NA,3.70603923932311,NA,0.598644777006131,NA,2.6435328587528,0.996723122876469,-0.635479983223654,16.2760689367928,37.4402705735782,30.4761415912291,704.655996343789,16.5733070121687,26.5815898101945,1000,29.5525,2.05481435599136,2.30032636989775,302.7025,873.35025625,1590,61.6,16.5733070121687,"C_lim",30,61.6,-0.392,"H_a",1,6,30
"158",73.3592414514304,163.227918796886,1.03046021903801,NA,0.527650045659513,NA,0.0806931118491263,NA,2.40320729826143,0.995937198240475,-0.124968960787624,17.187287828739,31.4277510491219,29.1704141440068,537.255605476105,18.2228577073132,24.7130211981915,1000,24.26,2.22504916309631,1.82854626991067,297.41,588.5476,1770,56.9,18.2228577073132,"C_lim",24.87,56.9,0.294,"H_a",1,6,25
"159",47.4543611841097,137.328992532324,0.834304477309894,NA,2.69944338541663,NA,0.832928830823522,NA,2.99594616134811,0.990932470659811,0.700801192000169,14.601502312632,27.4989024031954,23.2330699657773,787.004790501708,15.439022007083,22.8463212528517,1000,20.16375,2.89391721025442,1.88329267868593,293.31375,406.5768140625,1740,54.8,15.439022007083,"C_lim",20.24,54.8,0.551,"H_a",1,6,20
"16",36.1261333520922,78.7467438148287,0.681128316253091,NA,0.561608230367269,NA,0.0706368001746959,NA,0.325727281336359,0.999772431637945,-0.384699580453077,7.60730927116585,15.5649235791623,13.5513170944631,635.777317376425,8.2901989239764,12.1887823199364,1000,25.372,2.17977227308962,2.04604848105208,298.522,643.738384,1220,57.8,8.2901989239764,"C_lim",25.53,57.8,0.0216,"C_g",1,4,25
"160",128.026453184244,135.497093387785,0.181257850814883,NA,5.35345373155081,NA,0.411043960277974,NA,1.40360388215894,0.996875753039014,-1.9608214437082,9.91937784385082,23.62950041122,20.7669488376976,507.793020338603,10.1031584911296,14.1446734478469,1000,38.04,1.05835231717925,2.38215549232942,311.19,1447.0416,713,77.7,10.1031584911296,"C_lim",38.66,77.7,-1.2,"H_a",1,6,40
"17",18.9206102993207,NA,0.143130722510511,4.79215468528128,0.659379833196751,NA,0.31554723256712,NA,1.24741224621112,0.995343722720005,0.366547131494458,5.6547670481891,10.9204642021391,9.06454605143729,34.9597657618867,5.79794623768749,75.1556607092491,1000,21.121,NA,1.9311961233905,294.271,446.096641,1630,59.2,5.79794623768749,"C_lim",21.34,59.2,-0.047,"C_g",1,4,20
"18",119.586485102904,54.643773466675,1.11617602663973,3.33539200887991,NA,NA,NA,NA,1.18934568479735,0.990453112417292,-2.44055145190406,5.59982741572438,8.88997742343635,8.26759590363942,68.318095600431,13.1524313053989,6.71670421464336,1000,34.449,0.456939372535734,1.58754489441464,307.599,1186.733601,838,76.1,6.71670421464336,"R_lim",34.38,76.1,-0.543,"C_g",1,5,35
"19",68.3344507239926,107.71522134343,0.972056071409074,NA,1.70914709715888,NA,0.154962568099204,NA,0.650389971444844,0.999210398189746,-1.14714762382977,10.7800934987461,20.2497842404065,18.5248532390641,444.737894880843,11.756367009408,15.0269571308055,1000,29.1575,1.57629453668252,1.87844235699458,302.3075,850.15980625,791,65.6,11.756367009408,"C_lim",29.49,65.6,-0.274,"C_g",1,5,30
"2",33.4747413273512,74.8977850404536,1.34190799975131,NA,0.364308071872473,NA,0.0891529255114018,NA,0.946664086975573,0.996916353160048,-1.02440393910225,6.53903403285975,14.1781112932433,12.1039993215286,657.42955806913,7.88256647983363,11.7043501716029,1000,25.01375,2.23744178657049,2.16822717575652,298.16375,625.6876890625,1230,69.4,7.88256647983363,"C_lim",24.99,69.4,-0.283,"C_g",1,1,25
"22",81.348917679053,72.1108494607516,0.640909193469436,NA,2.19680062021478,NA,0.117729538581293,NA,0.8993654814532,0.995131632089544,-1.54663870824161,8.09402968701108,13.033998297618,11.6349102519339,267.816032480471,8.90232045482313,8.78052284487182,1000,34.505,0.886438953561146,1.61032252186255,307.655,1190.595025,530,69.1,8.78052284487182,"R_lim",34.03,69.1,-0.563,"C_g",1,6,35
"24",37.6482884149573,NA,0.71737298129907,5.80579099376636,1.22739055878566,NA,0.169681127731253,NA,1.34923417207254,0.995321799473024,-0.226785904606782,8.74808395564167,16.6999862485609,15.1714588057477,40.7932980795952,9.46560270373664,70.9299862669122,1000,24.0875,NA,1.90898788045936,297.2375,580.20765625,1300,57.7,9.46560270373664,"C_lim",24.16,57.7,-0.0249,"C_g",1,6,25
"26",52.5558793847016,117.613272865707,1.5363125661292,NA,1.20830187647394,NA,0.23774603882321,NA,0.780945544897677,0.999173330222427,-1.03231642995457,10.862218044098,22.337534053272,19.5950051644731,622.826942642151,12.4012718179607,18.0064077301407,1000,24.985,2.23787089556232,2.0564431649767,298.135,624.250225,1460,59.9,12.4012718179607,"C_lim",24.78,59.9,-0.0665,"C_s",1,1,25
"27",80.6678144110036,146.371086397963,1.30806031071304,NA,2.65951529324277,NA,0.434497669508999,NA,1.89644150745409,0.996132549313127,-1.65654650845285,11.6785331616812,26.6876585234926,22.9752607610835,613.254065865234,12.9891578096367,19.563404323251,1000,29.98,1.8144917829582,2.28518925741963,303.13,898.8004,969,62.9,12.9891578096367,"C_lim",29.7,62.9,-0.242,"C_s",1,1,30
"3",42.5074501482312,78.6934464026166,0.696967762529894,NA,1.23010449835551,NA,0.210708514892245,NA,0.693405379739455,0.998339544256661,-0.879415121627258,6.15408769713245,14.8925848177535,12.1214327656649,687.393880760275,6.85221383950304,10.9030045062679,1000,29.96625,1.85128597759212,2.41995004794826,303.11625,897.9761390625,1000,73.2,6.85221383950304,"C_lim",29.85,73.2,-0.4,"C_g",1,1,30
"30",51.5484464940215,98.9588898422524,1.28687499338142,NA,1.53600649269943,NA,0.227007548288688,NA,1.7357595119105,0.994197951696867,-0.32791667124013,12.8652397267601,19.3443278928775,18.1025825964739,359.635924043977,14.1629303374029,16.0039031683838,1000,22.79125,1.919725938855,1.50361192668961,295.94125,519.4410765625,1560,56.6,14.1629303374029,"C_lim",22.68,56.6,0.0956,"C_s",1,1,20
"33",89.8032759759345,126.765064029739,1.07333059576378,NA,1.86203616428813,NA,0.207722738475325,NA,0.646680373743331,0.999213237031112,-2.06365257258757,8.84041690781216,22.3330947201112,19.026093599576,595.693143529318,9.91565484109023,15.0666052871892,1000,34.405,1.41158618827791,2.5262490392705,307.555,1183.704025,764,73.9,9.91565484109023,"C_lim",34.21,73.9,-0.405,"C_s",1,2,35
"34",67.9850332995872,141.855883184438,-0.0595924898085851,NA,2.94508640581461,NA,0.630577965331727,NA,2.42864088014796,0.993516133303393,-0.252371507394085,10.886613526208,26.5453230860325,20.3799232898352,840.484975032227,10.8284654072287,18.9429689734516,1000,30.11375,2.08657518132449,2.43834531483351,303.26375,906.8379390625,1020,66,10.8284654072287,"C_lim",30.15,66,-0.303,"C_s",1,2,30
"35",61.4465143840216,107.767351068641,1.15137392874724,NA,0.209303526395883,NA,0.0226894611699182,NA,2.07422932594236,0.993318358055856,-0.65347747877042,12.9111553330569,20.7803378007647,19.2855413736035,379.736061976219,14.0708640900013,16.4351604014343,1000,25.40125,1.75383993948182,1.60948708808112,298.55125,645.2235015625,1510,59,14.0708640900013,"C_lim",25.62,59,-0.0147,"C_s",1,2,25
"37",41.5150672152128,56.8151000345611,0.813572045303233,NA,0.194456334650387,NA,0.0193072351245249,NA,0.195195645234046,0.999842275174659,-1.42437107947107,1.92262566495127,7.98212639277026,5.35403732983445,1020.76651617817,2.73644677486849,5.74215579873674,1000,39.89,1.36854168487873,4.15167993347918,313.04,1591.2121,963,99,2.73644677486849,"C_lim",39.89,99,-0.6,"C_s",1,2,40
"38",121.505179326803,NA,0.976856264994414,8.6422854216648,6.16553928319569,NA,0.623443079674675,NA,2.78410763015391,0.99181007025975,-2.29314952359546,12.6542685226858,24.9499941850729,24.9499597833295,1999.99991561528,13.6315782332621,54.6079410540052,1000,34.226,NA,1.97166625161654,307.376,1171.419076,538,77.1,13.6315782332621,"C_lim",33.84,77.1,-0.506,"C_s",1,3,35
"39",101.817021019377,159.293976497125,1.08108626540881,NA,2.62355265652043,NA,0.29609285456508,NA,1.19109203387485,0.998739968744168,-1.52634428465514,15.2729568549801,29.153430905356,26.5996024387232,450.43125934433,16.3596674305864,21.1093769656382,1000,30.00625,1.56451224856411,1.90882690118056,303.15625,900.3750390625,999,66.2,16.3596674305864,"C_lim",30.21,66.2,-0.416,"C_s",1,3,30
"40",75.4895030980689,120.790872803327,1.1657247443964,NA,3.85802511858639,NA,0.426456150253823,NA,0.937512162314643,0.998847040752476,-0.67913561454097,15.4976986808444,23.1537620421531,21.4608464389298,324.845534548614,16.6827715826367,18.0985455124141,1000,25.88875,1.60010157500185,1.494012918884,299.03875,670.2273765625,1590,59.2,16.6827715826367,"C_lim",25.92,59.2,-0.0989,"C_s",1,3,25
"41",56.9849508958578,103.282804030472,1.39795355895071,NA,2.45223326915593,NA,0.362184926929085,NA,1.44524201203231,0.996204400487645,-0.370676458463376,14.1049058986408,20.0695461233157,18.7712803391764,319.073531579617,15.5242683764463,16.6254693987688,1000,22.9175,1.8124575419785,1.42287699524813,296.0675,525.21180625,1580,54,15.5242683764463,"C_lim",22.85,54,0.307,"C_s",1,3,20
"42",78.0874892910462,82.8246863255435,0.901607346752757,NA,0.89093005675103,NA,0.0624977558931921,NA,0.197981276601724,0.999787740567231,-2.02684017992888,4.66086280355163,13.8417234069604,11.4210719874787,594.998057011128,5.56351057578353,8.53635677585161,1000,39.0983333333333,1.06066524967708,2.96977705424259,312.248333333333,1528.67966944444,619,97.9,5.56351057578353,"C_lim",39.16,97.9,-0.501,"C_s",1,3,40
"43",119.170353212378,196.361175089364,0.976553574727123,NA,1.21425357895733,NA,0.164484840043418,NA,0.637679080962554,0.999691305995588,-2.36952365156448,11.4328063328328,33.3041202773252,24.5279598751849,780.487004023717,12.410986533579,21.8763308960155,1000,35.05625,1.64773511025365,2.91303108858604,308.20625,1228.9406640625,914,76.7,12.410986533579,"C_lim",35.71,76.7,-0.603,"C_s",1,4,35
"44",89.9962285575861,170.734164298521,0.573474260824564,NA,2.4421133732681,NA,0.407184455716268,NA,1.40886636593225,0.998461568456194,-0.995151243607766,13.7014821519584,31.525004825559,26.2276486465277,663.250624658823,14.2774741406566,22.3685388336365,1000,30.1625,1.897125768879,2.30084632275005,303.3125,909.77640625,1130,63.1,14.2774741406566,"C_lim",29.82,63.1,-0.241,"C_s",1,4,30
"45",66.9377497703059,137.735090140202,0.513397545846838,NA,3.10569783576819,NA,0.561057860805722,NA,2.19798930238544,0.995152721724623,-0.180687067647434,13.7844289648377,26.8414457456682,24.4056884706724,569.30950490106,14.3012708888038,20.2329426870439,1000,26.34625,2.05765940165056,1.94722942924493,299.49625,694.1248890625,1340,58.5,14.3012708888038,"C_lim",26.24,58.5,0.0184,"C_s",1,4,25
"46",87.6200578221527,111.986647260501,0.935017274689951,NA,1.45774407522172,NA,0.139743183037927,NA,0.53735478209809,0.999305959144333,-2.21404447565996,5.02590491981991,18.0060296571624,12.4146061048809,838.959595586515,5.96160453758536,11.1683603124913,1000,39.5685714285714,1.27809373839728,3.58264430872035,312.718571428571,1565.67184489796,795,89.6,5.96160453758536,"C_lim",40.39,89.6,-0.73,"C_s",1,4,40
"47",150.240708661639,227.748171919275,1.32358373858653,NA,1.37365346312504,NA,0.187569191896416,NA,0.815774866901562,0.99968914864433,-3.0128221968275,14.9611021994246,37.9051942193719,31.8351371825723,612.625782641434,16.2876780857782,25.1475836538324,1000,34.61,1.51588856274761,2.53358300171425,307.76,1197.8521,708,74.9,16.2876780857782,"C_lim",34.62,74.9,-0.651,"C_s",1,5,35
"48",106.915546443316,194.308992110381,0.836930078778339,NA,1.07583657040296,NA,0.134138599744092,NA,2.04746353712369,0.997720703646852,-1.33946852226743,16.1107913230704,35.1304375771165,30.934540184737,588.482488358278,16.9512661969837,25.0504537116712,1000,30.17,1.81740634149402,2.18055320019012,303.32,910.2289,1310,63.7,16.9512661969837,"C_lim",30.26,63.7,-0.306,"C_s",1,5,30
"49",70.8261482684215,151.543702758712,0.636754305904737,NA,2.5841682446927,NA,0.49454657991353,NA,1.51336594233964,0.998122659699037,-0.088353440380436,15.456319220257,29.421593199557,26.9401365789178,562.794713934857,16.0971152109565,22.5009709419295,1000,25.505,2.13965754828827,1.90353167402219,298.655,650.505025,1410,58.2,16.0971152109565,"C_lim",25.56,58.2,0.0511,"C_s",1,5,25
"5",95.8157022084548,129.192281298783,1.00079884004015,NA,2.34458857951233,NA,0.293390479786893,NA,1.35839414221218,0.997330584782897,-2.03577576674457,9.77346304010407,22.8823048775843,20.3758285669649,534.992538389108,10.7767523127665,15.4354889305998,1000,34.1975,1.3483414338259,2.34126888122356,307.3475,1169.46900625,709,74.4,10.7767523127665,"C_lim",34.11,74.4,-0.555,"C_g",1,2,35
"50",63.7814511240848,129.901644285126,1.83674365279572,NA,0.964945415895077,NA,0.139810808148997,NA,2.30133132663799,0.993887620040149,-0.523888829700341,16.1762962326747,24.88475299422,23.307193518707,380.070194689691,18.0245260218518,20.8379202032834,1000,22.36875,2.0366680593768,1.53834676592748,295.51875,500.3609765625,1470,55.6,18.0245260218518,"C_lim",21.97,55.6,0.226,"C_s",1,5,20
"51",62.8956004187588,69.5645931813961,0.930255552694693,NA,1.80441352992641,NA,0.13960103959146,NA,0.416200013385009,0.998655268631311,-1.81046998064123,3.94814326696959,11.6774618542881,9.69276105341919,592.113732155718,4.87932100188623,7.45910081948191,1000,38.2183333333333,1.10603273866908,2.95770975485678,311.368333333333,1460.64100277778,618,99.8,4.87932100188623,"C_lim",38.14,99.8,-0.507,"C_s",1,5,40
"52",16.1215231191713,51.8613091971631,1.59824847911466,NA,0.81982929935457,NA,0.349518908209624,NA,1.11876264695071,0.990330713566335,-1.11034768718589,3.53090330953364,8.0243379665471,6.45583473947604,1479.06067834099,5.12984174629074,8.9421681903556,1000,20.5225,3.21689885092129,2.27260201231819,293.6725,421.17300625,1540,61.6,5.12984174629074,"C_lim",20.41,61.6,-0.113,"E_e",1,1,20
"53",32.0522241143623,71.7245985061119,1.94363658101216,NA,0.708701130547545,NA,0.144421259920289,NA,1.18214715509333,0.994831772094275,-1.73570095586934,5.1449541456461,12.8248237776802,10.3517913771665,717.059461797662,7.08987081121434,11.0139656756361,1000,25.87625,2.2377417008629,2.49269933504329,299.02625,669.5803140625,1510,79.9,7.08987081121434,"C_lim",25.62,79.9,-0.42,"E_e",1,1,25
"57",49.5173421606653,88.1175293817495,0.473869082451569,NA,0.999429960834676,NA,0.148264954540276,NA,0.445526808421555,0.999356733978979,-1.04045829644446,4.80068994777179,14.253960272551,10.3184035277414,999.842340413,5.27508662525892,10.5477271020138,1000,34.805,1.77952865676516,2.969148274024,307.955,1211.388025,1100,79,5.27508662525892,"C_lim",34.7,79,-0.527,"E_e",1,2,35
"58",33.4765677131824,66.4672792347643,0.428265756167031,NA,1.5015632993931,NA,0.244491055301007,NA,1.06712625940644,0.994821796010597,-0.622471356133265,4.6325089757994,12.1896926660674,9.18170834078955,871.352162590206,5.06141397202933,9.06731974908721,1000,30.7483333333333,1.98548667845033,2.63133708531325,303.898333333333,945.460002777778,765,73.2,5.06141397202933,"C_lim",30.75,73.2,-0.382,"E_e",1,2,30
"59",20.7549259359241,56.6705732177624,0.388644392908492,NA,0.684840481093807,NA,0.221615397676021,NA,0.795631940037341,0.996151788591357,-0.25089531157254,4.21696212616497,9.6354525067421,7.59719323500208,1265.99160372689,4.60611602337767,8.76879243005879,1000,25.83125,2.73046376521503,2.2849274474051,298.98125,667.2534765625,1370,66.3,4.60611602337767,"C_lim",25.97,66.3,-0.177,"E_e",1,2,25
"6",57.2712251348949,NA,0.942890004248626,6.38096333474954,1.05849500629777,NA,0.0733513063082118,NA,0.717101552399923,0.99856456395284,-1.09445619574118,8.88053387243707,18.1999916047414,17.1898694455101,1999.99991561528,9.82360525062553,63.028231992698,1000,29.195,NA,2.0494253911051,302.345,852.348025,825,66.2,9.82360525062553,"C_lim",29.21,66.2,-0.255,"C_g",1,2,30
"60",13.1847120208885,41.701930125442,0.390206081331892,NA,0.570713733960696,NA,0.240438725542656,NA,0.807291208902386,0.993009871486598,-0.0188687051537502,3.70743546412729,7.37681202317681,6.08897648907488,1440.06220705989,4.09818766143161,7.17220209351841,1000,20.89625,3.16290033937592,1.9897344389549,294.04625,436.6532640625,1590,60.2,4.09818766143161,"C_lim",20.96,60.2,-0.0312,"E_e",1,2,20
"61",45.3620611105639,52.1403138971401,0.886837050819083,NA,1.29441910843586,NA,0.120752161677648,NA,0.37140441914069,0.998539176967947,-1.54922849330936,2.19516953365842,8.44645579223551,6.01604066022906,734.096077603693,3.08242624561286,5.34544338777131,1000,39.5816666666667,1.14942559091517,3.84774645544521,312.731666666667,1566.70833611111,955,97.7,3.08242624561286,"C_lim",39.49,97.7,-0.528,"E_e",1,2,40
"62",52.9226713290898,84.57534738919,1.03891020675978,NA,0.483323561666724,NA,0.0622108027065749,NA,0.186878252030088,0.999863570090516,-1.61090911367565,4.90961145493634,14.9027847570371,10.9955035180764,767.581747541622,5.94932787595298,10.3375422798113,1000,34.2033333333333,1.59809293947529,3.03543058220079,307.353333333333,1169.86801111111,866,81.7,5.94932787595298,"C_lim",34.26,81.7,-0.512,"E_e",1,3,35
"63",36.4645631022107,65.3332758346679,1.20233344204533,NA,1.33310247923738,NA,0.0932466976489742,NA,0.258176352718676,0.999610985606658,-1.36035333002278,4.66495806942732,11.8210165691966,9.77667715958137,651.429623276824,5.86835580855014,9.10183104078027,1000,29.9866666666667,1.79169226987686,2.53400274842079,303.136666666667,899.200177777778,1040,84.6,5.86835580855014,"C_lim",30.3,84.6,-0.382,"E_e",1,3,30
"64",26.1420526595693,48.5054461340823,1.24217326340098,NA,0.645045850627416,NA,0.067866229058074,NA,0.529561520083471,0.99712480395195,-1.06885595867028,4.55667388358668,8.86723028164122,8.15718270135969,474.459522449964,5.80078864080398,7.53084484646379,1000,25.8333333333333,1.8554566760972,1.94598746984754,298.983333333333,667.361111111111,1340,75.9,5.80078864080398,"C_lim",25.82,75.9,-0.275,"E_e",1,3,25
"65",15.0188661840048,37.3832791072346,1.09118740181871,2.85039580060623,0.386003242295412,NA,0.0676415809209625,NA,0.0915970636753248,0.999854552795583,-0.673880023568315,3.55566871972838,7.01374590694892,6.25247008122748,617.212703480651,4.64806535592005,6.43255393970366,1000,20.965,2.48908796770877,1.97255325504135,294.115,439.531225,1590,68.4,4.64806535592005,"C_lim",20.92,68.4,-0.189,"E_e",1,3,20
"66",60.5190978461537,78.8502943406564,0.825906270783232,NA,1.35243252408203,NA,0.114861923145375,NA,1.25912139917483,0.995857353811538,-1.7308339584358,2.86242346408365,11.2971073250105,7.62013712209323,992.620240197462,3.68867377694444,7.64243218944578,1000,40.675,1.30289936808217,3.94669323625986,313.825,1654.455625,852,103,3.68867377694444,"C_lim",40.56,103,-0.808,"E_e",1,3,40
"67",51.9743785384725,NA,1.50021193702633,6.21673731234211,1.34541488707193,NA,0.243999690091066,NA,0.872708752124161,0.998424526951728,-2.02926349402096,4.63047900424649,15.099803331374,10.7836000056115,65.7640439323621,6.13076694466414,55.5829203233868,1000,33.65875,NA,3.26095924795823,306.80875,1132.9114515625,929,90.1,6.13076694466414,"C_lim",33.63,90.1,-0.496,"E_e",1,4,35
"68",40.5796652229181,81.1962325386361,0.758970461963395,NA,0.587147588489523,NA,0.12007737146345,NA,0.396154099292397,0.99945130767619,-0.965991532139069,5.56667230639309,14.8310063436662,11.1705083262189,842.756393351978,6.3264783328017,11.1144722431088,1000,30.3757142857143,2.00090937400782,2.66424993736983,303.525714285714,922.684018367347,963,75.2,6.3264783328017,"C_lim",30.39,75.2,-0.394,"E_e",1,4,30
"69",30.5062862515664,60.6016911680861,1.07922999874871,NA,1.17206886440898,NA,0.189226970568279,NA,1.04000646680817,0.994354979152447,-0.819171934525708,5.96537186753272,11.5411064739194,10.6567192062504,517.148891684833,7.04664331515365,9.4755427597756,1000,25.28125,1.98653125681513,1.93468349169199,298.43125,639.1416015625,1090,74.3,7.04664331515365,"C_lim",25.47,74.3,-0.243,"E_e",1,4,25
"7",33.5438132916162,78.6629813715255,0.58178791883191,NA,1.26014839246258,NA,0.353734013919191,NA,1.20868597498925,0.995732892947081,-0.293440189437929,7.17641263946189,15.6173813510163,12.7229744226336,754.713785585332,7.75955385755507,12.2058255312188,1000,25.2611111111111,2.34508166044396,2.17621005586258,298.411111111111,638.123734567901,1290,63,7.75955385755507,"C_lim",25.43,63,-0.225,"C_g",1,2,25
"71",37.7776301298159,48.6764647110137,0.730431103471432,NA,1.2982032052044,NA,0.152651565428175,NA,0.579020425083016,0.996143653867008,-1.24246863243236,2.42461931701915,8.25091577868698,6.04951440030498,728.75029163449,3.15549015601067,5.41876183358947,1000,37.4425,1.28849968999501,3.40297370427237,310.5925,1401.94080625,896,93.6,3.15549015601067,"C_lim",37.53,93.6,-0.469,"E_e",1,4,40
"72",70.6668107142342,NA,1.47744172234724,5.52581390744908,1.98925611619627,NA,0.295982461455004,NA,1.06916497021449,0.997232128420244,-2.21775066589949,6.67559746131956,15.0999951370747,14.9340761211098,1999.99991561528,8.15318061736115,55.1517746938594,1000,33.91,NA,2.26196909333864,307.06,1149.8881,872,75.3,8.15318061736115,"C_lim",33.54,75.3,-0.57,"E_e",1,5,35
"73",68.1671075800113,76.2389215805838,1.89446019950917,4.93148673316972,5.34250521409145,NA,0.345061466038757,NA,0.507693362895373,0.99885482300229,-2.21583032459889,8.5869546034832,12.8999301663817,11.9349634730877,260.99154623277,10.8014728198946,10.5157398473501,1000,30.1771428571429,1.11841215341429,1.50227068408502,303.327142857143,910.659951020408,741,84.6,10.5157398473501,"R_lim",30.18,84.6,-0.533,"E_e",1,5,30
"74",35.4513587908694,NA,1.3346195756011,3.96709541408926,0.985009358097604,NA,0.106291725747546,NA,0.388878728747163,0.998949312144507,-1.07943205991052,6.62962228492038,10.5666640238027,10.5666590816524,44.2252619070548,7.96434651793315,68.5706981090753,1000,25.6642857142857,NA,1.59385611573037,298.814285714286,658.65556122449,1050,71.3,7.96434651793315,"C_lim",25.67,71.3,-0.237,"E_e",1,5,25
"75",21.3909401386584,49.2773348437125,1.31159865560452,NA,1.74887727658784,NA,0.328523758178731,NA,0.975014855153722,0.993235253080553,-0.609322497068604,5.67956387021803,9.38812247481152,8.8174799004253,452.046298079659,6.99425394151766,8.57219718057898,1000,20.0825,2.3036544688682,1.65296538419791,293.2325,403.30680625,1560,59.2,6.99425394151766,"C_lim",20.26,59.2,-0.023,"E_e",1,5,20
"76",47.1417726021742,NA,1.17048565677828,4.11238410781498,0.87258928343303,NA,0.133178803698477,NA,0.447968848612512,0.999165789304261,-1.68081354725551,4.12160271096239,11.1666597927675,9.54293259906766,67.5656560729871,5.29214514307505,54.6201981902276,1000,34.2188888888889,NA,2.70930038042411,307.368888888889,1170.93235679012,793,84.4,5.29214514307505,"C_lim",34.11,84.4,-0.368,"E_e",1,6,35
"77",31.9834377597215,67.7115109279805,0.709630295188854,NA,0.981351908419162,NA,0.249519667539146,NA,1.35184909549852,0.993358607255796,-0.862013687136372,4.34725651172894,11.72296048372,8.79759050902334,954.151827820914,5.0574798038147,9.36923722759161,1000,30.2025,2.11708045384832,2.69663417654131,303.3525,912.19100625,815,72.1,5.0574798038147,"C_lim",30.24,72.1,-0.233,"E_e",1,6,30
"78",23.2438913466073,54.4742579447549,0.894103955194134,NA,1.29665027066962,NA,0.138472405723402,NA,0.2101971068151,0.999663106614069,-0.718791810210822,4.36546739407256,10.3545892460368,8.17764421869354,797.398642283766,5.26042843419004,8.48715009025233,1000,25.5633333333333,2.34359458717337,2.37193141336853,298.713333333333,653.484011111111,1030,72.3,5.26042843419004,"C_lim",25.44,72.3,-0.208,"E_e",1,6,25
"79",156.458075962364,233.375683049331,0.173596772715996,NA,1.33487249945597,NA,0.138697447717919,NA,1.62759629787387,0.998920948575465,-1.91310781377896,16.9677582633621,39.9061643155786,34.6096585031061,582.89196954424,17.1447668376444,25.7534049095127,1000,34.49,1.49161800446446,2.35188194552174,307.64,1189.5601,1310,62.9,17.1447668376444,"C_lim",34.19,62.9,-0.812,"E_i",1,1,35
"8",26.3679623420513,56.9494951017413,1.30809741004248,NA,0.881673923803667,NA,0.150558870049384,NA,1.18412564856013,0.992051658663482,-0.586625158603747,6.80821333998967,10.9424444604779,10.2619462878123,417.709585788712,8.12045233110003,9.70687481509976,1000,21.0425,2.15979886359739,1.60724171144944,294.1925,442.78680625,1590,58.5,8.12045233110003,"C_lim",20.99,58.5,-0.0479,"C_g",1,2,20
"80",113.305738139604,198.607462499402,0.272297287931283,NA,3.48854093198844,NA,0.501639484468751,NA,1.77161704194693,0.998406422209511,-0.740413263428414,18.1051305613092,36.4856029707807,33.292930242142,528.995802013908,18.3820280471941,25.71906526923,1000,29.8875,1.75284558187775,2.01520794601452,303.0375,893.26265625,1470,59.1,18.3820280471941,"C_lim",29.58,59.1,-0.175,"E_i",1,1,30
"81",84.0426416421482,154.816600624483,1.02151728561848,NA,0.724117854331298,NA,0.0918113675162457,NA,2.21731245690926,0.9960889653554,-0.330603880413212,18.2608375854537,29.6695407089251,27.5792615498635,397.098698492499,19.29232773692,23.0105631418609,1000,25.3675,1.84211963831038,1.62476340803553,298.5175,643.51005625,1690,56.2,19.29232773692,"C_lim",25.44,56.2,0.239,"E_i",1,1,25
"82",55.2486080816089,119.890995491681,1.58447746999327,NA,0.286943661530056,NA,0.0592251176120578,NA,1.93769935480691,0.994637094284294,0.16213557097625,16.2383790895746,23.5608298329067,22.21996752517,364.25553562255,17.8368333001103,20.0955911429779,1000,20.28875,2.17002743878339,1.45093483179201,293.43875,411.6333765625,1780,54.9,17.8368333001103,"C_lim",20.31,54.9,0.594,"E_i",1,1,20
"83",195.230767457171,215.529720548563,0.456114693595715,NA,2.72120248809552,NA,0.206248084681102,NA,0.827272105981926,0.999416132691562,-3.35576396162139,11.8672465835659,34.3458517859507,27.5384946822678,627.927193366402,12.3254696475715,19.5263286710942,1000,40.32375,1.10397414995485,2.89417191629892,313.47375,1626.0048140625,663,77.5,12.3254696475715,"C_lim",40.01,77.5,-1.45,"E_i",1,1,40
"84",169.336814058385,278.527454708728,0.480888799678927,NA,1.61241455992458,NA,0.160779287811475,NA,2.32866605573746,0.998306486201955,-2.43719308600561,17.376034669468,45.2984541852156,36.1133082917803,678.183965266465,17.8597410040574,29.174253188754,1000,34.91625,1.64481336357666,2.60695003474015,308.06625,1219.1445140625,1170,68.5,17.8597410040574,"C_lim",35.42,68.5,-0.958,"E_i",1,2,35
"85",128.272301791769,204.409554101705,0.82763537062484,NA,1.216007448146,NA,0.105928992033356,NA,1.58916055865538,0.998786311117356,-1.3357659415765,20.1140122070836,36.8827505308967,33.7310216009989,431.202536553649,20.949656364073,26.4175409691114,1000,29.805,1.59355957012086,1.83368440623237,302.955,888.338025,1600,60.7,20.949656364073,"C_lim",29.97,60.7,-0.282,"E_i",1,2,30
"86",91.5786999142839,164.727386893899,1.20297826690842,NA,1.49370593487262,NA,0.211753524115843,NA,1.99337205084744,0.997054846012406,-0.378665976640627,20.141012331122,31.3095947230971,29.1211007963721,364.460280092971,21.3586584478169,24.4498714277177,1000,25.1475,1.79875218853381,1.55451941582487,298.2975,632.39675625,1740,58.3,21.3586584478169,"C_lim",25.77,58.3,0.16,"E_i",1,2,25
"87",78.6231121606346,154.463718748872,1.40872111630811,NA,2.18947661309608,NA,0.369257230293789,NA,2.86689724165596,0.992976651937503,-0.10181427897076,19.5441186574806,29.7205917967907,27.806244348366,369.457366363408,20.9671849033947,24.0132617193746,1000,23.2325,1.96460957222461,1.52069235342137,296.3825,539.74905625,1740,56.8,20.9671849033947,"C_lim",23.3,56.8,0.454,"E_i",1,2,20
"88",209.531849609343,221.685159495155,0.910326703191827,NA,0.984899288280179,NA,0.0631184138534726,NA,1.42318379137004,0.998621901446006,-4.04055614403805,11.9226721532375,34.5676509417698,28.3991753620282,597.089120587805,12.835381917786,19.74368368568,1000,40.625,1.05800220781934,2.89932076446329,313.775,1650.390625,812,81.7,12.835381917786,"C_lim",40.55,81.7,-1.65,"E_i",1,2,40
"89",137.604964463308,232.380333915655,1.15398619954595,NA,3.58952619211747,NA,0.423441513040156,NA,2.55059011978249,0.997293952374043,-2.69990648044557,13.7734448509702,38.6617008796311,29.2665291113963,743.373030259064,14.9295242625908,25.5727068189461,1000,34.60125,1.68874963793635,2.80697394863478,307.75125,1197.2465015625,1440,65.3,14.9295242625908,"C_lim",33.78,65.3,-1.59,"E_i",1,3,35
"9",129.498754284854,94.7233819907997,1.94441116262972,NA,18.3627135812335,NA,0.427154336063459,NA,0.999120595456076,0.99541460230232,-3.82263716445713,7.0650859074325,14.7745880735558,12.6795345945565,310.970732235189,9.02277069201673,9.62101845988188,1000,39.3266666666667,0.73146172342662,2.09121138329158,312.476666666667,1546.58671111111,647,101,9.02277069201673,"C_lim",38.95,101,-0.81,"C_g",1,2,40
"90",97.1419984029728,188.384108309998,0.595972465891391,NA,3.22548161797594,NA,0.512927065336173,NA,2.5378850793065,0.996488758814449,-0.958223948832782,15.4097898859489,34.5678131338918,29.1917459981495,647.280155323233,16.0087103328376,24.695927882183,1000,29.69375,1.93926531682545,2.24323714922366,302.84375,881.7187890625,1580,62.6,16.0087103328376,"C_lim",29.96,62.6,-0.563,"E_i",1,3,30
"91",79.8213624195153,158.394133200674,1.47246087326614,NA,0.710134706001195,NA,0.101838969444725,NA,2.15343192354816,0.995705229873171,-0.715946098325597,17.3138456255998,29.9432893273016,27.8286945931745,448.431854630093,18.7935319596799,23.6707743682306,1000,25.0157142857143,1.98435767568343,1.72944185681245,298.165714285714,625.78596122449,1370,58.2,18.7935319596799,"C_lim",24.98,58.2,0.0895,"E_i",1,3,25
"92",163.52213634649,256.614120846433,1.56185396831089,NA,1.0702289179952,NA,0.131209928643199,NA,0.466118803759991,0.999899237660607,-3.97182819777047,9.13665553575626,32.9039933019419,22.5893972178619,1050.22215505606,10.6994533977804,22.8246741353756,1000,39.9642857142857,1.56929285893556,3.60131704354753,313.114285714286,1597.14413265306,1110,84.5,10.6994533977804,"C_lim",39.95,84.5,-2.04,"E_i",1,3,40
"93",168.682173612485,288.604000647182,1.44747428731838,NA,1.5986926616047,NA,0.206792401797193,NA,1.32190119583998,0.999391572363898,-3.31529701808492,17.1042094984729,45.8044899661584,36.2440123915217,685.201219645064,18.5545868497028,30.4069161118361,1000,34.4475,1.71093361240527,2.67796591068695,307.5975,1186.63025625,1060,67.9,18.5545868497028,"C_lim",34.22,67.9,-1.11,"E_i",1,4,35
"94",122.710133612554,225.863726502136,0.523185643154811,NA,3.45548672461059,NA,0.491949910423804,NA,1.49948020498735,0.999072920313935,-1.07861501676293,19.0672651746214,40.3572871143469,36.0854674074465,571.046028850134,19.5947521652553,28.5129051210198,1000,30.0825,1.84062815231935,2.11657449271029,303.2325,904.95680625,1410,59.9,19.5947521652553,"C_lim",30.27,59.9,-0.323,"E_i",1,4,30
"95",94.8119994017124,172.794124245531,1.44160063208045,NA,1.23257720071597,NA,0.149917600190978,NA,2.60534325182082,0.995544155007113,-0.622026687122488,20.4987434400468,32.4595302754215,30.1659985494705,374.3693159,21.9540245119229,25.4590810805307,1000,25.2475,1.82249214588771,1.58348878165907,298.3975,637.43625625,1640,57.1,21.9540245119229,"C_lim",25.37,57.1,0.0378,"E_i",1,4,25
"97",185.554402138152,247.383948013345,0.649836022891027,NA,4.54265224135189,NA,0.461474043449951,NA,1.8260957034713,0.998160050586266,-3.35741999557182,11.9919595711953,38.6046425415251,27.6509473060373,770.090206313639,12.6434099121845,22.5416409850002,1000,39.55375,1.33321519275602,3.2192105312174,312.70375,1564.4991390625,924,79.9,12.6434099121845,"C_lim",39.26,79.9,-1.58,"E_i",1,4,40
"98",139.408511499379,233.329713111311,1.75396080719848,NA,1.59794954381648,NA,0.18802106388356,NA,1.48576881778206,0.999117876122155,-3.28231403773441,13.7191226850861,38.346047041323,29.6268807456998,711.929128765225,15.4753866219194,25.8683434524212,1000,34.345,1.6737121041017,2.79508011711337,307.495,1179.579025,1550,68.9,15.4753866219194,"C_lim",34.32,68.9,-1.84,"E_i",1,5,35
"99",96.4272095095313,194.835542393243,1.34978043509426,NA,1.31170768043951,NA,0.209918682367425,NA,2.18370714109213,0.997478658646292,-1.76708005777532,14.1697502466869,34.7209493099463,27.7008068036482,719.052389759611,15.5220100951163,25.2337573967341,1000,29.98375,2.02054527331297,2.45035718382296,303.13375,899.0252640625,1550,64,15.5220100951163,"C_lim",30.4,64,-0.78,"E_i",1,5,30
