time,latitude[unit="degrees_north"],longitude[unit="degrees_east"],air_temperature[unit="C"]
1970-01-01T00:00:00Z,-38.8,143.59,20.72913360595703
1970-02-01T00:00:00Z,-38.8,143.59,21.733970642089844
1970-03-01T00:00:00Z,-38.8,143.59,19.817991256713867
1970-04-01T00:00:00Z,-38.8,143.59,18.742958068847656
1970-05-01T00:00:00Z,-38.8,143.59,14.399627685546875
1970-06-01T00:00:00Z,-38.8,143.59,13.750092506408691
1970-07-01T00:00:00Z,-38.8,143.59,12.91098690032959
1970-08-01T00:00:00Z,-38.8,143.59,12.801589965820312
1970-09-01T00:00:00Z,-38.8,143.59,12.92905330657959
1970-10-01T00:00:00Z,-38.8,143.59,15.98050308227539
1970-11-01T00:00:00Z,-38.8,143.59,17.96928596496582
1970-12-01T00:00:00Z,-38.8,143.59,19.673839569091797
1971-01-01T00:00:00Z,-38.8,143.59,21.20040512084961
1971-02-01T00:00:00Z,-38.8,143.59,23.09210968017578
1971-03-01T00:00:00Z,-38.8,143.59,22.342430114746094
1971-04-01T00:00:00Z,-38.8,143.59,19.789592742919922
1971-05-01T00:00:00Z,-38.8,143.59,15.390434265136719
1971-06-01T00:00:00Z,-38.8,143.59,13.150846481323242
1971-07-01T00:00:00Z,-38.8,143.59,12.952433586120605
1971-08-01T00:00:00Z,-38.8,143.59,12.960005760192871
1971-09-01T00:00:00Z,-38.8,143.59,14.296384811401367
1971-10-01T00:00:00Z,-38.8,143.59,15.474881172180176
1971-11-01T00:00:00Z,-38.8,143.59,16.964344024658203
1971-12-01T00:00:00Z,-38.8,143.59,19.169517517089844
1972-01-01T00:00:00Z,-38.8,143.59,20.19409942626953
1972-02-01T00:00:00Z,-38.8,143.59,23.440624237060547
1972-03-01T00:00:00Z,-38.8,143.59,20.09829330444336
1972-04-01T00:00:00Z,-38.8,143.59,18.649032592773438
1972-05-01T00:00:00Z,-38.8,143.59,16.120800018310547
1972-06-01T00:00:00Z,-38.8,143.59,13.56078052520752
1972-07-01T00:00:00Z,-38.8,143.59,12.556490898132324
1972-08-01T00:00:00Z,-38.8,143.59,13.936789512634277
1972-09-01T00:00:00Z,-38.8,143.59,16.238216400146484
1972-10-01T00:00:00Z,-38.8,143.59,17.201831817626953
1972-11-01T00:00:00Z,-38.8,143.59,17.793521881103516
1972-12-01T00:00:00Z,-38.8,143.59,21.543935775756836
1973-01-01T00:00:00Z,-38.8,143.59,23.427751541137695
1973-02-01T00:00:00Z,-38.8,143.59,22.379405975341797
1973-03-01T00:00:00Z,-38.8,143.59,19.200679779052734
1973-04-01T00:00:00Z,-38.8,143.59,18.84160614013672
1973-05-01T00:00:00Z,-38.8,143.59,15.352726936340332
1973-06-01T00:00:00Z,-38.8,143.59,12.521215438842773
1973-07-01T00:00:00Z,-38.8,143.59,13.438133239746094
1973-08-01T00:00:00Z,-38.8,143.59,13.68883228302002
1973-09-01T00:00:00Z,-38.8,143.59,15.728404998779297
1973-10-01T00:00:00Z,-38.8,143.59,17.447629928588867
1973-11-01T00:00:00Z,-38.8,143.59,17.402894973754883
1973-12-01T00:00:00Z,-38.8,143.59,21.520387649536133
1974-01-01T00:00:00Z,-38.8,143.59,24.618236541748047
1974-02-01T00:00:00Z,-38.8,143.59,22.0725040435791
1974-03-01T00:00:00Z,-38.8,143.59,23.111799240112305
1974-04-01T00:00:00Z,-38.8,143.59,17.457822799682617
1974-05-01T00:00:00Z,-38.8,143.59,16.525373458862305
1974-06-01T00:00:00Z,-38.8,143.59,13.906625747680664
1974-07-01T00:00:00Z,-38.8,143.59,12.953967094421387
1974-08-01T00:00:00Z,-38.8,143.59,13.289448738098145
1974-09-01T00:00:00Z,-38.8,143.59,13.893248558044434
1974-10-01T00:00:00Z,-38.8,143.59,16.25483512878418
1974-11-01T00:00:00Z,-38.8,143.59,17.41529655456543
1974-12-01T00:00:00Z,-38.8,143.59,19.368755340576172
1975-01-01T00:00:00Z,-38.8,143.59,20.24811363220215
1975-02-01T00:00:00Z,-38.8,143.59,22.65524673461914
1975-03-01T00:00:00Z,-38.8,143.59,19.786357879638672
1975-04-01T00:00:00Z,-38.8,143.59,17.476764678955078
1975-05-01T00:00:00Z,-38.8,143.59,16.298490524291992
1975-06-01T00:00:00Z,-38.8,143.59,13.418277740478516
1975-07-01T00:00:00Z,-38.8,143.59,14.203863143920898
1975-08-01T00:00:00Z,-38.8,143.59,13.131433486938477
1975-09-01T00:00:00Z,-38.8,143.59,15.872790336608887
1975-10-01T00:00:00Z,-38.8,143.59,16.573741912841797
1975-11-01T00:00:00Z,-38.8,143.59,19.120941162109375
1975-12-01T00:00:00Z,-38.8,143.59,21.192882537841797
1976-01-01T00:00:00Z,-38.8,143.59,22.502426147460938
1976-02-01T00:00:00Z,-38.8,143.59,22.867218017578125
1976-03-01T00:00:00Z,-38.8,143.59,20.862586975097656
1976-04-01T00:00:00Z,-38.8,143.59,18.588459014892578
1976-05-01T00:00:00Z,-38.8,143.59,15.527464866638184
1976-06-01T00:00:00Z,-38.8,143.59,13.717529296875
1976-07-01T00:00:00Z,-38.8,143.59,13.064872741699219
1976-08-01T00:00:00Z,-38.8,143.59,13.34989070892334
1976-09-01T00:00:00Z,-38.8,143.59,14.45350170135498
1976-10-01T00:00:00Z,-38.8,143.59,15.182564735412598
1976-11-01T00:00:00Z,-38.8,143.59,17.84480094909668
1976-12-01T00:00:00Z,-38.8,143.59,20.222835540771484
1977-01-01T00:00:00Z,-38.8,143.59,21.477231979370117
1977-02-01T00:00:00Z,-38.8,143.59,22.96761131286621
1977-03-01T00:00:00Z,-38.8,143.59,20.795387268066406
1977-04-01T00:00:00Z,-38.8,143.59,16.815933227539062
1977-05-01T00:00:00Z,-38.8,143.59,15.029714584350586
1977-06-01T00:00:00Z,-38.8,143.59,12.991312026977539
1977-07-01T00:00:00Z,-38.8,143.59,12.25657844543457
1977-08-01T00:00:00Z,-38.8,143.59,15.140300750732422
1977-09-01T00:00:00Z,-38.8,143.59,14.2354097366333
1977-10-01T00:00:00Z,-38.8,143.59,18.62296485900879
1977-11-01T00:00:00Z,-38.8,143.59,18.44651222229004
1977-12-01T00:00:00Z,-38.8,143.59,19.87506675720215
1978-01-01T00:00:00Z,-38.8,143.59,20.777198791503906
1978-02-01T00:00:00Z,-38.8,143.59,20.975955963134766
1978-03-01T00:00:00Z,-38.8,143.59,20.40884780883789
1978-04-01T00:00:00Z,-38.8,143.59,17.382511138916016
1978-05-01T00:00:00Z,-38.8,143.59,16.4501953125
1978-06-01T00:00:00Z,-38.8,143.59,13.48747444152832
1978-07-01T00:00:00Z,-38.8,143.59,12.235066413879395
1978-08-01T00:00:00Z,-38.8,143.59,12.823273658752441
1978-09-01T00:00:00Z,-38.8,143.59,15.204389572143555
1978-10-01T00:00:00Z,-38.8,143.59,18.011383056640625
1978-11-01T00:00:00Z,-38.8,143.59,18.68868064880371
1978-12-01T00:00:00Z,-38.8,143.59,18.55926513671875
1979-01-01T00:00:00Z,-38.8,143.59,23.46884536743164
1979-02-01T00:00:00Z,-38.8,143.59,22.288572311401367
1979-03-01T00:00:00Z,-38.8,143.59,21.388916015625
1979-04-01T00:00:00Z,-38.8,143.59,17.20785903930664
1979-05-01T00:00:00Z,-38.8,143.59,15.018403053283691
1979-06-01T00:00:00Z,-38.8,143.59,14.373438835144043
1979-07-01T00:00:00Z,-38.8,143.59,13.31332015991211
1979-08-01T00:00:00Z,-38.8,143.59,13.192666053771973
1979-09-01T00:00:00Z,-38.8,143.59,14.894363403320312
1979-10-01T00:00:00Z,-38.8,143.59,17.251516342163086
1979-11-01T00:00:00Z,-38.8,143.59,18.70279312133789
1979-12-01T00:00:00Z,-38.8,143.59,20.721872329711914
1980-01-01T00:00:00Z,-38.8,143.59,19.63161277770996
1980-02-01T00:00:00Z,-38.8,143.59,21.378602981567383
1980-03-01T00:00:00Z,-38.8,143.59,19.535690307617188
1980-04-01T00:00:00Z,-38.8,143.59,20.163793563842773
1980-05-01T00:00:00Z,-38.8,143.59,17.413637161254883
1980-06-01T00:00:00Z,-38.8,143.59,13.809511184692383
1980-07-01T00:00:00Z,-38.8,143.59,13.074010848999023
1980-08-01T00:00:00Z,-38.8,143.59,14.896621704101562
1980-09-01T00:00:00Z,-38.8,143.59,16.241939544677734
1980-10-01T00:00:00Z,-38.8,143.59,17.653589248657227
1980-11-01T00:00:00Z,-38.8,143.59,19.709911346435547
1980-12-01T00:00:00Z,-38.8,143.59,22.1108341217041
1981-01-01T00:00:00Z,-38.8,143.59,24.559635162353516
1981-02-01T00:00:00Z,-38.8,143.59,24.278276443481445
1981-03-01T00:00:00Z,-38.8,143.59,19.78241539001465
1981-04-01T00:00:00Z,-38.8,143.59,19.260271072387695
1981-05-01T00:00:00Z,-38.8,143.59,16.08143424987793
1981-06-01T00:00:00Z,-38.8,143.59,13.410663604736328
1981-07-01T00:00:00Z,-38.8,143.59,13.03421401977539
1981-08-01T00:00:00Z,-38.8,143.59,13.358227729797363
1981-09-01T00:00:00Z,-38.8,143.59,16.784019470214844
1981-10-01T00:00:00Z,-38.8,143.59,17.995777130126953
1981-11-01T00:00:00Z,-38.8,143.59,18.67184066772461
1981-12-01T00:00:00Z,-38.8,143.59,20.249202728271484
1982-01-01T00:00:00Z,-38.8,143.59,23.856475830078125
1982-02-01T00:00:00Z,-38.8,143.59,23.40666961669922
1982-03-01T00:00:00Z,-38.8,143.59,22.301244735717773
1982-04-01T00:00:00Z,-38.8,143.59,18.58926010131836
1982-05-01T00:00:00Z,-38.8,143.59,15.648241996765137
1982-06-01T00:00:00Z,-38.8,143.59,12.871042251586914
1982-07-01T00:00:00Z,-38.8,143.59,12.606361389160156
1982-08-01T00:00:00Z,-38.8,143.59,15.945974349975586
1982-09-01T00:00:00Z,-38.8,143.59,15.053106307983398
1982-10-01T00:00:00Z,-38.8,143.59,16.62794303894043
1982-11-01T00:00:00Z,-38.8,143.59,20.323163986206055
1982-12-01T00:00:00Z,-38.8,143.59,19.63473892211914
1983-01-01T00:00:00Z,-38.8,143.59,20.350008010864258
1983-02-01T00:00:00Z,-38.8,143.59,24.98712921142578
1983-03-01T00:00:00Z,-38.8,143.59,20.099985122680664
1983-04-01T00:00:00Z,-38.8,143.59,16.3695068359375
1983-05-01T00:00:00Z,-38.8,143.59,15.479987144470215
1983-06-01T00:00:00Z,-38.8,143.59,12.61120891571045
1983-07-01T00:00:00Z,-38.8,143.59,12.2848539352417
1983-08-01T00:00:00Z,-38.8,143.59,14.213823318481445
1983-09-01T00:00:00Z,-38.8,143.59,14.462911605834961
1983-10-01T00:00:00Z,-38.8,143.59,15.719979286193848
1983-11-01T00:00:00Z,-38.8,143.59,17.552961349487305
1983-12-01T00:00:00Z,-38.8,143.59,20.546337127685547
1984-01-01T00:00:00Z,-38.8,143.59,20.306659698486328
1984-02-01T00:00:00Z,-38.8,143.59,21.870817184448242
1984-03-01T00:00:00Z,-38.8,143.59,19.219905853271484
1984-04-01T00:00:00Z,-38.8,143.59,17.243104934692383
1984-05-01T00:00:00Z,-38.8,143.59,16.323284149169922
1984-06-01T00:00:00Z,-38.8,143.59,14.019495964050293
1984-07-01T00:00:00Z,-38.8,143.59,12.500575065612793
1984-08-01T00:00:00Z,-38.8,143.59,13.646178245544434
1984-09-01T00:00:00Z,-38.8,143.59,13.725170135498047
1984-10-01T00:00:00Z,-38.8,143.59,17.284719467163086
1984-11-01T00:00:00Z,-38.8,143.59,18.857141494750977
1984-12-01T00:00:00Z,-38.8,143.59,17.91141128540039
1985-01-01T00:00:00Z,-38.8,143.59,20.478071212768555
1985-02-01T00:00:00Z,-38.8,143.59,20.6322078704834
1985-03-01T00:00:00Z,-38.8,143.59,21.497961044311523
1985-04-01T00:00:00Z,-38.8,143.59,19.270803451538086
1985-05-01T00:00:00Z,-38.8,143.59,16.23440933227539
1985-06-01T00:00:00Z,-38.8,143.59,13.093213081359863
1985-07-01T00:00:00Z,-38.8,143.59,12.690109252929688
1985-08-01T00:00:00Z,-38.8,143.59,13.64911937713623
1985-09-01T00:00:00Z,-38.8,143.59,14.518489837646484
1985-10-01T00:00:00Z,-38.8,143.59,17.280391693115234
1985-11-01T00:00:00Z,-38.8,143.59,17.75497055053711
1985-12-01T00:00:00Z,-38.8,143.59,19.469392776489258
1986-01-01T00:00:00Z,-38.8,143.59,19.38614273071289
1986-02-01T00:00:00Z,-38.8,143.59,21.358871459960938
1986-03-01T00:00:00Z,-38.8,143.59,21.60694122314453
1986-04-01T00:00:00Z,-38.8,143.59,18.00009536743164
1986-05-01T00:00:00Z,-38.8,143.59,15.376046180725098
1986-06-01T00:00:00Z,-38.8,143.59,12.789775848388672
1986-07-01T00:00:00Z,-38.8,143.59,12.200350761413574
1986-08-01T00:00:00Z,-38.8,143.59,13.72212028503418
1986-09-01T00:00:00Z,-38.8,143.59,14.355923652648926
1986-10-01T00:00:00Z,-38.8,143.59,15.711578369140625
1986-11-01T00:00:00Z,-38.8,143.59,17.889245986938477
1986-12-01T00:00:00Z,-38.8,143.59,18.638580322265625
1987-01-01T00:00:00Z,-38.8,143.59,19.47250747680664
1987-02-01T00:00:00Z,-38.8,143.59,21.801006317138672
1987-03-01T00:00:00Z,-38.8,143.59,18.489770889282227
1987-04-01T00:00:00Z,-38.8,143.59,18.790515899658203
1987-05-01T00:00:00Z,-38.8,143.59,15.661441802978516
1987-06-01T00:00:00Z,-38.8,143.59,13.978160858154297
1987-07-01T00:00:00Z,-38.8,143.59,13.001919746398926
1987-08-01T00:00:00Z,-38.8,143.59,13.571920394897461
1987-09-01T00:00:00Z,-38.8,143.59,16.301729202270508
1987-10-01T00:00:00Z,-38.8,143.59,16.389713287353516
1987-11-01T00:00:00Z,-38.8,143.59,19.741487503051758
1987-12-01T00:00:00Z,-38.8,143.59,19.07740020751953
1988-01-01T00:00:00Z,-38.8,143.59,23.3587589263916
1988-02-01T00:00:00Z,-38.8,143.59,20.90766143798828
1988-03-01T00:00:00Z,-38.8,143.59,21.76839828491211
1988-04-01T00:00:00Z,-38.8,143.59,19.042980194091797
1988-05-01T00:00:00Z,-38.8,143.59,17.266429901123047
1988-06-01T00:00:00Z,-38.8,143.59,14.550430297851562
1988-07-01T00:00:00Z,-38.8,143.59,13.861692428588867
1988-08-01T00:00:00Z,-38.8,143.59,14.20519733428955
1988-09-01T00:00:00Z,-38.8,143.59,16.49553680419922
1988-10-01T00:00:00Z,-38.8,143.59,17.28565788269043
1988-11-01T00:00:00Z,-38.8,143.59,19.002073287963867
1988-12-01T00:00:00Z,-38.8,143.59,20.4364013671875
1989-01-01T00:00:00Z,-38.8,143.59,21.62493324279785
1989-02-01T00:00:00Z,-38.8,143.59,22.981834411621094
1989-03-01T00:00:00Z,-38.8,143.59,21.258617401123047
1989-04-01T00:00:00Z,-38.8,143.59,19.041004180908203
1989-05-01T00:00:00Z,-38.8,143.59,16.104890823364258
1989-06-01T00:00:00Z,-38.8,143.59,13.053074836730957
1989-07-01T00:00:00Z,-38.8,143.59,12.746858596801758
1989-08-01T00:00:00Z,-38.8,143.59,12.742368698120117
1989-09-01T00:00:00Z,-38.8,143.59,15.371991157531738
1989-10-01T00:00:00Z,-38.8,143.59,16.323427200317383
1989-11-01T00:00:00Z,-38.8,143.59,18.872066497802734
1989-12-01T00:00:00Z,-38.8,143.59,20.725845336914062
1990-01-01T00:00:00Z,-38.8,143.59,22.445207595825195
1990-02-01T00:00:00Z,-38.8,143.59,20.820411682128906
1990-03-01T00:00:00Z,-38.8,143.59,21.550683975219727
1990-04-01T00:00:00Z,-38.8,143.59,18.59143829345703
1990-05-01T00:00:00Z,-38.8,143.59,16.094057083129883
1990-06-01T00:00:00Z,-38.8,143.59,13.76460075378418
1990-07-01T00:00:00Z,-38.8,143.59,13.274654388427734
1990-08-01T00:00:00Z,-38.8,143.59,12.85578441619873
1990-09-01T00:00:00Z,-38.8,143.59,15.659624099731445
1990-10-01T00:00:00Z,-38.8,143.59,17.141254425048828
1990-11-01T00:00:00Z,-38.8,143.59,19.02737045288086
1990-12-01T00:00:00Z,-38.8,143.59,20.723520278930664
1991-01-01T00:00:00Z,-38.8,143.59,21.23049545288086
1991-02-01T00:00:00Z,-38.8,143.59,20.68742561340332
1991-03-01T00:00:00Z,-38.8,143.59,19.994291305541992
1991-04-01T00:00:00Z,-38.8,143.59,17.492956161499023
1991-05-01T00:00:00Z,-38.8,143.59,15.853626251220703
1991-06-01T00:00:00Z,-38.8,143.59,14.853477478027344
1991-07-01T00:00:00Z,-38.8,143.59,13.182424545288086
1991-08-01T00:00:00Z,-38.8,143.59,13.133682250976562
1991-09-01T00:00:00Z,-38.8,143.59,14.651260375976562
1991-10-01T00:00:00Z,-38.8,143.59,17.82061004638672
1991-11-01T00:00:00Z,-38.8,143.59,17.65544319152832
1991-12-01T00:00:00Z,-38.8,143.59,18.137041091918945
1992-01-01T00:00:00Z,-38.8,143.59,18.803836822509766
1992-02-01T00:00:00Z,-38.8,143.59,20.76479148864746
1992-03-01T00:00:00Z,-38.8,143.59,20.903404235839844
1992-04-01T00:00:00Z,-38.8,143.59,18.625043869018555
1992-05-01T00:00:00Z,-38.8,143.59,15.593658447265625
1992-06-01T00:00:00Z,-38.8,143.59,12.702152252197266
1992-07-01T00:00:00Z,-38.8,143.59,12.932579040527344
1992-08-01T00:00:00Z,-38.8,143.59,12.78183650970459
1992-09-01T00:00:00Z,-38.8,143.59,13.089981079101562
1992-10-01T00:00:00Z,-38.8,143.59,16.57541847229004
1992-11-01T00:00:00Z,-38.8,143.59,16.971858978271484
1992-12-01T00:00:00Z,-38.8,143.59,19.296720504760742
1993-01-01T00:00:00Z,-38.8,143.59,21.89600944519043
1993-02-01T00:00:00Z,-38.8,143.59,22.347314834594727
1993-03-01T00:00:00Z,-38.8,143.59,19.702863693237305
1993-04-01T00:00:00Z,-38.8,143.59,19.905975341796875
1993-05-01T00:00:00Z,-38.8,143.59,16.08545684814453
1993-06-01T00:00:00Z,-38.8,143.59,13.18239974975586
1993-07-01T00:00:00Z,-38.8,143.59,13.77445125579834
1993-08-01T00:00:00Z,-38.8,143.59,15.226814270019531
1993-09-01T00:00:00Z,-38.8,143.59,15.514022827148438
1993-10-01T00:00:00Z,-38.8,143.59,16.395771026611328
1993-11-01T00:00:00Z,-38.8,143.59,17.540260314941406
1993-12-01T00:00:00Z,-38.8,143.59,18.94549560546875
1994-01-01T00:00:00Z,-38.8,143.59,20.140024185180664
1994-02-01T00:00:00Z,-38.8,143.59,21.058122634887695
1994-03-01T00:00:00Z,-38.8,143.59,20.029155731201172
1994-04-01T00:00:00Z,-38.8,143.59,18.330625534057617
1994-05-01T00:00:00Z,-38.8,143.59,15.359570503234863
1994-06-01T00:00:00Z,-38.8,143.59,13.782158851623535
1994-07-01T00:00:00Z,-38.8,143.59,13.963471412658691
1994-08-01T00:00:00Z,-38.8,143.59,13.050281524658203
1994-09-01T00:00:00Z,-38.8,143.59,13.762508392333984
1994-10-01T00:00:00Z,-38.8,143.59,17.14362144470215
1994-11-01T00:00:00Z,-38.8,143.59,16.526397705078125
1994-12-01T00:00:00Z,-38.8,143.59,22.021432876586914
1995-01-01T00:00:00Z,-38.8,143.59,22.47113037109375
1995-02-01T00:00:00Z,-38.8,143.59,23.08807945251465
1995-03-01T00:00:00Z,-38.8,143.59,18.705488204956055
1995-04-01T00:00:00Z,-38.8,143.59,15.74874496459961
1995-05-01T00:00:00Z,-38.8,143.59,14.427327156066895
1995-06-01T00:00:00Z,-38.8,143.59,13.032670021057129
1995-07-01T00:00:00Z,-38.8,143.59,11.49087905883789
1995-08-01T00:00:00Z,-38.8,143.59,14.53450870513916
1995-09-01T00:00:00Z,-38.8,143.59,14.306221008300781
1995-10-01T00:00:00Z,-38.8,143.59,15.723121643066406
1995-11-01T00:00:00Z,-38.8,143.59,17.740930557250977
1995-12-01T00:00:00Z,-38.8,143.59,16.561328887939453
1996-01-01T00:00:00Z,-38.8,143.59,19.980669021606445
1996-02-01T00:00:00Z,-38.8,143.59,19.483257293701172
1996-03-01T00:00:00Z,-38.8,143.59,20.245277404785156
1996-04-01T00:00:00Z,-38.8,143.59,15.881315231323242
1996-05-01T00:00:00Z,-38.8,143.59,15.56499195098877
1996-06-01T00:00:00Z,-38.8,143.59,13.603180885314941
1996-07-01T00:00:00Z,-38.8,143.59,12.601054191589355
1996-08-01T00:00:00Z,-38.8,143.59,13.088905334472656
1996-09-01T00:00:00Z,-38.8,143.59,14.525910377502441
1996-10-01T00:00:00Z,-38.8,143.59,17.327455520629883
1996-11-01T00:00:00Z,-38.8,143.59,17.360342025756836
1996-12-01T00:00:00Z,-38.8,143.59,17.97728157043457
1997-01-01T00:00:00Z,-38.8,143.59,22.974456787109375
1997-02-01T00:00:00Z,-38.8,143.59,23.6925048828125
1997-03-01T00:00:00Z,-38.8,143.59,18.96958351135254
1997-04-01T00:00:00Z,-38.8,143.59,18.23265838623047
1997-05-01T00:00:00Z,-38.8,143.59,14.742022514343262
1997-06-01T00:00:00Z,-38.8,143.59,13.737991333007812
1997-07-01T00:00:00Z,-38.8,143.59,12.372234344482422
1997-08-01T00:00:00Z,-38.8,143.59,12.993193626403809
1997-09-01T00:00:00Z,-38.8,143.59,14.557023048400879
1997-10-01T00:00:00Z,-38.8,143.59,16.891372680664062
1997-11-01T00:00:00Z,-38.8,143.59,19.031818389892578
1997-12-01T00:00:00Z,-38.8,143.59,18.9089412689209
1998-01-01T00:00:00Z,-38.8,143.59,22.113842010498047
1998-02-01T00:00:00Z,-38.8,143.59,21.567285537719727
1998-03-01T00:00:00Z,-38.8,143.59,20.29852294921875
1998-04-01T00:00:00Z,-38.8,143.59,16.40157699584961
1998-05-01T00:00:00Z,-38.8,143.59,15.369210243225098
1998-06-01T00:00:00Z,-38.8,143.59,12.971532821655273
1998-07-01T00:00:00Z,-38.8,143.59,12.4335355758667
1998-08-01T00:00:00Z,-38.8,143.59,14.073471069335938
1998-09-01T00:00:00Z,-38.8,143.59,15.889547348022461
1998-10-01T00:00:00Z,-38.8,143.59,15.772710800170898
1998-11-01T00:00:00Z,-38.8,143.59,17.566307067871094
1998-12-01T00:00:00Z,-38.8,143.59,20.179882049560547
1999-01-01T00:00:00Z,-38.8,143.59,21.216720581054688
1999-02-01T00:00:00Z,-38.8,143.59,22.58376121520996
1999-03-01T00:00:00Z,-38.8,143.59,19.405263900756836
1999-04-01T00:00:00Z,-38.8,143.59,16.748048782348633
1999-05-01T00:00:00Z,-38.8,143.59,16.426284790039062
1999-06-01T00:00:00Z,-38.8,143.59,13.920339584350586
1999-07-01T00:00:00Z,-38.8,143.59,13.958863258361816
1999-08-01T00:00:00Z,-38.8,143.59,14.689070701599121
1999-09-01T00:00:00Z,-38.8,143.59,16.49151039123535
1999-10-01T00:00:00Z,-38.8,143.59,17.756620407104492
1999-11-01T00:00:00Z,-38.8,143.59,17.6532039642334
1999-12-01T00:00:00Z,-38.8,143.59,19.987287521362305
2000-01-01T00:00:00Z,-38.8,143.59,20.472667694091797
2000-02-01T00:00:00Z,-38.8,143.59,25.35433578491211
2000-03-01T00:00:00Z,-38.8,143.59,21.973745346069336
2000-04-01T00:00:00Z,-38.8,143.59,18.833627700805664
2000-05-01T00:00:00Z,-38.8,143.59,15.289946556091309
2000-06-01T00:00:00Z,-38.8,143.59,13.704937934875488
2000-07-01T00:00:00Z,-38.8,143.59,13.091850280761719
2000-08-01T00:00:00Z,-38.8,143.59,13.95541000366211
2000-09-01T00:00:00Z,-38.8,143.59,14.969904899597168
2000-10-01T00:00:00Z,-38.8,143.59,16.13337516784668
2000-11-01T00:00:00Z,-38.8,143.59,19.50263786315918
2000-12-01T00:00:00Z,-38.8,143.59,20.80405616760254
2001-01-01T00:00:00Z,-38.8,143.59,23.828615188598633
2001-02-01T00:00:00Z,-38.8,143.59,24.89791488647461
2001-03-01T00:00:00Z,-38.8,143.59,20.459529876708984
2001-04-01T00:00:00Z,-38.8,143.59,17.778850555419922
2001-05-01T00:00:00Z,-38.8,143.59,15.48104476928711
2001-06-01T00:00:00Z,-38.8,143.59,14.511101722717285
2001-07-01T00:00:00Z,-38.8,143.59,13.500184059143066
2001-08-01T00:00:00Z,-38.8,143.59,14.0415678024292
2001-09-01T00:00:00Z,-38.8,143.59,16.929357528686523
2001-10-01T00:00:00Z,-38.8,143.59,16.140714645385742
2001-11-01T00:00:00Z,-38.8,143.59,16.634462356567383
2001-12-01T00:00:00Z,-38.8,143.59,16.79726791381836
2002-01-01T00:00:00Z,-38.8,143.59,19.501787185668945
2002-02-01T00:00:00Z,-38.8,143.59,20.54445457458496
2002-03-01T00:00:00Z,-38.8,143.59,20.100820541381836
2002-04-01T00:00:00Z,-38.8,143.59,19.37900161743164
2002-05-01T00:00:00Z,-38.8,143.59,16.499439239501953
2002-06-01T00:00:00Z,-38.8,143.59,13.872150421142578
2002-07-01T00:00:00Z,-38.8,143.59,13.618708610534668
2002-08-01T00:00:00Z,-38.8,143.59,13.850508689880371
2002-09-01T00:00:00Z,-38.8,143.59,15.522202491760254
2002-10-01T00:00:00Z,-38.8,143.59,16.803186416625977
2002-11-01T00:00:00Z,-38.8,143.59,18.643177032470703
2002-12-01T00:00:00Z,-38.8,143.59,19.416908264160156
2003-01-01T00:00:00Z,-38.8,143.59,22.20553970336914
2003-02-01T00:00:00Z,-38.8,143.59,20.619068145751953
2003-03-01T00:00:00Z,-38.8,143.59,19.702972412109375
2003-04-01T00:00:00Z,-38.8,143.59,18.206384658813477
2003-05-01T00:00:00Z,-38.8,143.59,16.574726104736328
2003-06-01T00:00:00Z,-38.8,143.59,13.96484375
2003-07-01T00:00:00Z,-38.8,143.59,13.289311408996582
2003-08-01T00:00:00Z,-38.8,143.59,13.173988342285156
2003-09-01T00:00:00Z,-38.8,143.59,14.161422729492188
2003-10-01T00:00:00Z,-38.8,143.59,14.643631935119629
2003-11-01T00:00:00Z,-38.8,143.59,18.88077163696289
2003-12-01T00:00:00Z,-38.8,143.59,21.578123092651367
2004-01-01T00:00:00Z,-38.8,143.59,19.337045669555664
2004-02-01T00:00:00Z,-38.8,143.59,21.27269744873047
2004-03-01T00:00:00Z,-38.8,143.59,19.874208450317383
2004-04-01T00:00:00Z,-38.8,143.59,17.863243103027344
2004-05-01T00:00:00Z,-38.8,143.59,15.196429252624512
2004-06-01T00:00:00Z,-38.8,143.59,13.301348686218262
2004-07-01T00:00:00Z,-38.8,143.59,12.342605590820312
2004-08-01T00:00:00Z,-38.8,143.59,13.8985013961792
2004-09-01T00:00:00Z,-38.8,143.59,14.674115180969238
2004-10-01T00:00:00Z,-38.8,143.59,17.775466918945312
2004-11-01T00:00:00Z,-38.8,143.59,18.192031860351562
2004-12-01T00:00:00Z,-38.8,143.59,19.83798599243164
2005-01-01T00:00:00Z,-38.8,143.59,21.99520492553711
2005-02-01T00:00:00Z,-38.8,143.59,20.365352630615234
2005-03-01T00:00:00Z,-38.8,143.59,19.021207809448242
2005-04-01T00:00:00Z,-38.8,143.59,20.948131561279297
2005-05-01T00:00:00Z,-38.8,143.59,16.04092025756836
2005-06-01T00:00:00Z,-38.8,143.59,14.727812767028809
2005-07-01T00:00:00Z,-38.8,143.59,13.666202545166016
2005-08-01T00:00:00Z,-38.8,143.59,14.329337120056152
2005-09-01T00:00:00Z,-38.8,143.59,15.340550422668457
2005-10-01T00:00:00Z,-38.8,143.59,17.35576629638672
2005-11-01T00:00:00Z,-38.8,143.59,20.0065975189209
2005-12-01T00:00:00Z,-38.8,143.59,22.39273452758789
2006-01-01T00:00:00Z,-38.8,143.59,22.753549575805664
2006-02-01T00:00:00Z,-38.8,143.59,21.012102127075195
2006-03-01T00:00:00Z,-38.8,143.59,21.98108673095703
2006-04-01T00:00:00Z,-38.8,143.59,16.16713523864746
2006-05-01T00:00:00Z,-38.8,143.59,14.227860450744629
2006-06-01T00:00:00Z,-38.8,143.59,13.090539932250977
2006-07-01T00:00:00Z,-38.8,143.59,12.833503723144531
2006-08-01T00:00:00Z,-38.8,143.59,14.430641174316406
2006-09-01T00:00:00Z,-38.8,143.59,16.062397003173828
2006-10-01T00:00:00Z,-38.8,143.59,18.32541847229004
2006-11-01T00:00:00Z,-38.8,143.59,18.0578670501709
2006-12-01T00:00:00Z,-38.8,143.59,20.012313842773438
2007-01-01T00:00:00Z,-38.8,143.59,22.147233963012695
2007-02-01T00:00:00Z,-38.8,143.59,23.32265853881836
2007-03-01T00:00:00Z,-38.8,143.59,21.511505126953125
2007-04-01T00:00:00Z,-38.8,143.59,19.40230941772461
2007-05-01T00:00:00Z,-38.8,143.59,17.460346221923828
2007-06-01T00:00:00Z,-38.8,143.59,12.677645683288574
2007-07-01T00:00:00Z,-38.8,143.59,12.950663566589355
2007-08-01T00:00:00Z,-38.8,143.59,14.616153717041016
2007-09-01T00:00:00Z,-38.8,143.59,15.844144821166992
2007-10-01T00:00:00Z,-38.8,143.59,17.069120407104492
2007-11-01T00:00:00Z,-38.8,143.59,19.049781799316406
2007-12-01T00:00:00Z,-38.8,143.59,22.079973220825195
2008-01-01T00:00:00Z,-38.8,143.59,22.17188262939453
2008-02-01T00:00:00Z,-38.8,143.59,20.557456970214844
2008-03-01T00:00:00Z,-38.8,143.59,23.25885772705078
2008-04-01T00:00:00Z,-38.8,143.59,18.242033004760742
2008-05-01T00:00:00Z,-38.8,143.59,15.624757766723633
2008-06-01T00:00:00Z,-38.8,143.59,14.441153526306152
2008-07-01T00:00:00Z,-38.8,143.59,12.870981216430664
2008-08-01T00:00:00Z,-38.8,143.59,12.791030883789062
2008-09-01T00:00:00Z,-38.8,143.59,15.715731620788574
2008-10-01T00:00:00Z,-38.8,143.59,18.373804092407227
2008-11-01T00:00:00Z,-38.8,143.59,18.37544059753418
2008-12-01T00:00:00Z,-38.8,143.59,18.233518600463867
2009-01-01T00:00:00Z,-38.8,143.59,22.473552703857422
2009-02-01T00:00:00Z,-38.8,143.59,22.27953338623047
2009-03-01T00:00:00Z,-38.8,143.59,20.148635864257812
2009-04-01T00:00:00Z,-38.8,143.59,17.702571868896484
2009-05-01T00:00:00Z,-38.8,143.59,15.466429710388184
2009-06-01T00:00:00Z,-38.8,143.59,14.02392578125
2009-07-01T00:00:00Z,-38.8,143.59,13.34322738647461
2009-08-01T00:00:00Z,-38.8,143.59,14.454325675964355
2009-09-01T00:00:00Z,-38.8,143.59,15.700000762939453
2009-10-01T00:00:00Z,-38.8,143.59,16.38025665283203
2009-11-01T00:00:00Z,-38.8,143.59,21.85179328918457
2009-12-01T00:00:00Z,-38.8,143.59,21.261873245239258
2010-01-01T00:00:00Z,-38.8,143.59,22.292593002319336
2010-02-01T00:00:00Z,-38.8,143.59,22.81498908996582
2010-03-01T00:00:00Z,-38.8,143.59,21.02676010131836
2010-04-01T00:00:00Z,-38.8,143.59,18.902751922607422
2010-05-01T00:00:00Z,-38.8,143.59,15.865422248840332
2010-06-01T00:00:00Z,-38.8,143.59,13.436802864074707
2010-07-01T00:00:00Z,-38.8,143.59,13.275758743286133
2010-08-01T00:00:00Z,-38.8,143.59,12.864538192749023
2010-09-01T00:00:00Z,-38.8,143.59,13.617573738098145
2010-10-01T00:00:00Z,-38.8,143.59,17.06220245361328
2010-11-01T00:00:00Z,-38.8,143.59,18.31308364868164
2010-12-01T00:00:00Z,-38.8,143.59,19.811874389648438
2011-01-01T00:00:00Z,-38.8,143.59,21.819316864013672
2011-02-01T00:00:00Z,-38.8,143.59,20.43979835510254
2011-03-01T00:00:00Z,-38.8,143.59,19.174585342407227
2011-04-01T00:00:00Z,-38.8,143.59,18.1958065032959
2011-05-01T00:00:00Z,-38.8,143.59,14.601550102233887
2011-06-01T00:00:00Z,-38.8,143.59,14.035703659057617
2011-07-01T00:00:00Z,-38.8,143.59,13.180191040039062
2011-08-01T00:00:00Z,-38.8,143.59,15.318435668945312
2011-09-01T00:00:00Z,-38.8,143.59,16.4873104095459
2011-10-01T00:00:00Z,-38.8,143.59,17.504348754882812
2011-11-01T00:00:00Z,-38.8,143.59,20.388568878173828
2011-12-01T00:00:00Z,-38.8,143.59,20.349084854125977
2012-01-01T00:00:00Z,-38.8,143.59,23.32172966003418
2012-02-01T00:00:00Z,-38.8,143.59,23.414888381958008
2012-03-01T00:00:00Z,-38.8,143.59,20.45159149169922
2012-04-01T00:00:00Z,-38.8,143.59,19.416887283325195
2012-05-01T00:00:00Z,-38.8,143.59,15.590860366821289
2012-06-01T00:00:00Z,-38.8,143.59,13.210990905761719
2012-07-01T00:00:00Z,-38.8,143.59,13.328084945678711
2012-08-01T00:00:00Z,-38.8,143.59,13.692683219909668
2012-09-01T00:00:00Z,-38.8,143.59,15.629247665405273
2012-10-01T00:00:00Z,-38.8,143.59,17.336042404174805
2012-11-01T00:00:00Z,-38.8,143.59,19.79997444152832
2012-12-01T00:00:00Z,-38.8,143.59,21.3721981048584
