time,latitude[unit="degrees_north"],longitude[unit="degrees_east"],air_temperature[unit="C"]
1970-01-01T00:00:00Z,-33.03,138.75,27.915746688842773
1970-02-01T00:00:00Z,-33.03,138.75,31.588027954101562
1970-03-01T00:00:00Z,-33.03,138.75,25.365856170654297
1970-04-01T00:00:00Z,-33.03,138.75,21.973949432373047
1970-05-01T00:00:00Z,-33.03,138.75,16.048419952392578
1970-06-01T00:00:00Z,-33.03,138.75,14.971321105957031
1970-07-01T00:00:00Z,-33.03,138.75,13.43319320678711
1970-08-01T00:00:00Z,-33.03,138.75,12.61240291595459
1970-09-01T00:00:00Z,-33.03,138.75,14.749990463256836
1970-10-01T00:00:00Z,-33.03,138.75,21.463518142700195
1970-11-01T00:00:00Z,-33.03,138.75,24.22026252746582
1970-12-01T00:00:00Z,-33.03,138.75,27.132925033569336
1971-01-01T00:00:00Z,-33.03,138.75,29.966360092163086
1971-02-01T00:00:00Z,-33.03,138.75,30.71205711364746
1971-03-01T00:00:00Z,-33.03,138.75,27.44436264038086
1971-04-01T00:00:00Z,-33.03,138.75,22.81195068359375
1971-05-01T00:00:00Z,-33.03,138.75,15.96945858001709
1971-06-01T00:00:00Z,-33.03,138.75,12.455758094787598
1971-07-01T00:00:00Z,-33.03,138.75,12.538444519042969
1971-08-01T00:00:00Z,-33.03,138.75,13.227649688720703
1971-09-01T00:00:00Z,-33.03,138.75,17.226558685302734
1971-10-01T00:00:00Z,-33.03,138.75,21.144359588623047
1971-11-01T00:00:00Z,-33.03,138.75,22.50273323059082
1971-12-01T00:00:00Z,-33.03,138.75,26.63945770263672
1972-01-01T00:00:00Z,-33.03,138.75,28.291662216186523
1972-02-01T00:00:00Z,-33.03,138.75,28.63587188720703
1972-03-01T00:00:00Z,-33.03,138.75,26.44495964050293
1972-04-01T00:00:00Z,-33.03,138.75,22.910982131958008
1972-05-01T00:00:00Z,-33.03,138.75,18.58624839782715
1972-06-01T00:00:00Z,-33.03,138.75,15.763863563537598
1972-07-01T00:00:00Z,-33.03,138.75,12.853328704833984
1972-08-01T00:00:00Z,-33.03,138.75,14.639042854309082
1972-09-01T00:00:00Z,-33.03,138.75,19.512392044067383
1972-10-01T00:00:00Z,-33.03,138.75,21.747337341308594
1972-11-01T00:00:00Z,-33.03,138.75,25.853574752807617
1972-12-01T00:00:00Z,-33.03,138.75,30.149803161621094
1973-01-01T00:00:00Z,-33.03,138.75,31.871686935424805
1973-02-01T00:00:00Z,-33.03,138.75,27.80278778076172
1973-03-01T00:00:00Z,-33.03,138.75,25.768583297729492
1973-04-01T00:00:00Z,-33.03,138.75,21.995258331298828
1973-05-01T00:00:00Z,-33.03,138.75,18.441431045532227
1973-06-01T00:00:00Z,-33.03,138.75,11.732213973999023
1973-07-01T00:00:00Z,-33.03,138.75,14.253326416015625
1973-08-01T00:00:00Z,-33.03,138.75,14.596636772155762
1973-09-01T00:00:00Z,-33.03,138.75,18.052383422851562
1973-10-01T00:00:00Z,-33.03,138.75,21.247068405151367
1973-11-01T00:00:00Z,-33.03,138.75,24.04515838623047
1973-12-01T00:00:00Z,-33.03,138.75,28.269121170043945
1974-01-01T00:00:00Z,-33.03,138.75,29.203001022338867
1974-02-01T00:00:00Z,-33.03,138.75,26.40819549560547
1974-03-01T00:00:00Z,-33.03,138.75,28.393455505371094
1974-04-01T00:00:00Z,-33.03,138.75,18.739564895629883
1974-05-01T00:00:00Z,-33.03,138.75,15.784575462341309
1974-06-01T00:00:00Z,-33.03,138.75,13.343411445617676
1974-07-01T00:00:00Z,-33.03,138.75,12.87016487121582
1974-08-01T00:00:00Z,-33.03,138.75,14.256322860717773
1974-09-01T00:00:00Z,-33.03,138.75,15.04486083984375
1974-10-01T00:00:00Z,-33.03,138.75,19.251331329345703
1974-11-01T00:00:00Z,-33.03,138.75,23.984617233276367
1974-12-01T00:00:00Z,-33.03,138.75,27.11943817138672
1975-01-01T00:00:00Z,-33.03,138.75,28.1585750579834
1975-02-01T00:00:00Z,-33.03,138.75,30.34262466430664
1975-03-01T00:00:00Z,-33.03,138.75,25.13878059387207
1975-04-01T00:00:00Z,-33.03,138.75,22.505868911743164
1975-05-01T00:00:00Z,-33.03,138.75,18.59695053100586
1975-06-01T00:00:00Z,-33.03,138.75,14.765628814697266
1975-07-01T00:00:00Z,-33.03,138.75,15.696540832519531
1975-08-01T00:00:00Z,-33.03,138.75,13.573531150817871
1975-09-01T00:00:00Z,-33.03,138.75,18.01481056213379
1975-10-01T00:00:00Z,-33.03,138.75,17.57282829284668
1975-11-01T00:00:00Z,-33.03,138.75,26.51727294921875
1975-12-01T00:00:00Z,-33.03,138.75,29.238426208496094
1976-01-01T00:00:00Z,-33.03,138.75,28.115999221801758
1976-02-01T00:00:00Z,-33.03,138.75,30.0496883392334
1976-03-01T00:00:00Z,-33.03,138.75,27.44815444946289
1976-04-01T00:00:00Z,-33.03,138.75,21.464214324951172
1976-05-01T00:00:00Z,-33.03,138.75,16.620702743530273
1976-06-01T00:00:00Z,-33.03,138.75,14.040665626525879
1976-07-01T00:00:00Z,-33.03,138.75,14.651464462280273
1976-08-01T00:00:00Z,-33.03,138.75,15.116678237915039
1976-09-01T00:00:00Z,-33.03,138.75,17.09539031982422
1976-10-01T00:00:00Z,-33.03,138.75,17.839990615844727
1976-11-01T00:00:00Z,-33.03,138.75,23.548036575317383
1976-12-01T00:00:00Z,-33.03,138.75,29.235618591308594
1977-01-01T00:00:00Z,-33.03,138.75,30.807138442993164
1977-02-01T00:00:00Z,-33.03,138.75,31.755443572998047
1977-03-01T00:00:00Z,-33.03,138.75,26.128414154052734
1977-04-01T00:00:00Z,-33.03,138.75,21.298311233520508
1977-05-01T00:00:00Z,-33.03,138.75,16.66330909729004
1977-06-01T00:00:00Z,-33.03,138.75,12.825448036193848
1977-07-01T00:00:00Z,-33.03,138.75,13.63748550415039
1977-08-01T00:00:00Z,-33.03,138.75,18.70895004272461
1977-09-01T00:00:00Z,-33.03,138.75,17.380111694335938
1977-10-01T00:00:00Z,-33.03,138.75,23.864852905273438
1977-11-01T00:00:00Z,-33.03,138.75,25.790817260742188
1977-12-01T00:00:00Z,-33.03,138.75,29.811864852905273
1978-01-01T00:00:00Z,-33.03,138.75,28.936649322509766
1978-02-01T00:00:00Z,-33.03,138.75,30.491682052612305
1978-03-01T00:00:00Z,-33.03,138.75,26.716360092163086
1978-04-01T00:00:00Z,-33.03,138.75,22.713104248046875
1978-05-01T00:00:00Z,-33.03,138.75,17.748865127563477
1978-06-01T00:00:00Z,-33.03,138.75,12.611924171447754
1978-07-01T00:00:00Z,-33.03,138.75,11.941131591796875
1978-08-01T00:00:00Z,-33.03,138.75,12.876301765441895
1978-09-01T00:00:00Z,-33.03,138.75,15.596302032470703
1978-10-01T00:00:00Z,-33.03,138.75,21.69784927368164
1978-11-01T00:00:00Z,-33.03,138.75,24.237794876098633
1978-12-01T00:00:00Z,-33.03,138.75,27.781166076660156
1979-01-01T00:00:00Z,-33.03,138.75,35.54326629638672
1979-02-01T00:00:00Z,-33.03,138.75,30.236936569213867
1979-03-01T00:00:00Z,-33.03,138.75,27.501148223876953
1979-04-01T00:00:00Z,-33.03,138.75,20.337350845336914
1979-05-01T00:00:00Z,-33.03,138.75,14.8788480758667
1979-06-01T00:00:00Z,-33.03,138.75,15.151469230651855
1979-07-01T00:00:00Z,-33.03,138.75,13.635085105895996
1979-08-01T00:00:00Z,-33.03,138.75,13.794968605041504
1979-09-01T00:00:00Z,-33.03,138.75,16.927623748779297
1979-10-01T00:00:00Z,-33.03,138.75,20.85568618774414
1979-11-01T00:00:00Z,-33.03,138.75,26.7781925201416
1979-12-01T00:00:00Z,-33.03,138.75,29.587427139282227
1980-01-01T00:00:00Z,-33.03,138.75,29.196834564208984
1980-02-01T00:00:00Z,-33.03,138.75,30.552867889404297
1980-03-01T00:00:00Z,-33.03,138.75,28.494659423828125
1980-04-01T00:00:00Z,-33.03,138.75,24.075706481933594
1980-05-01T00:00:00Z,-33.03,138.75,18.408151626586914
1980-06-01T00:00:00Z,-33.03,138.75,13.1742525100708
1980-07-01T00:00:00Z,-33.03,138.75,12.412882804870605
1980-08-01T00:00:00Z,-33.03,138.75,16.031951904296875
1980-09-01T00:00:00Z,-33.03,138.75,20.503917694091797
1980-10-01T00:00:00Z,-33.03,138.75,21.690654754638672
1980-11-01T00:00:00Z,-33.03,138.75,27.86494255065918
1980-12-01T00:00:00Z,-33.03,138.75,30.316856384277344
1981-01-01T00:00:00Z,-33.03,138.75,33.57957458496094
1981-02-01T00:00:00Z,-33.03,138.75,31.551515579223633
1981-03-01T00:00:00Z,-33.03,138.75,24.262117385864258
1981-04-01T00:00:00Z,-33.03,138.75,25.36831283569336
1981-05-01T00:00:00Z,-33.03,138.75,16.636308670043945
1981-06-01T00:00:00Z,-33.03,138.75,12.646799087524414
1981-07-01T00:00:00Z,-33.03,138.75,12.513198852539062
1981-08-01T00:00:00Z,-33.03,138.75,13.496484756469727
1981-09-01T00:00:00Z,-33.03,138.75,20.176284790039062
1981-10-01T00:00:00Z,-33.03,138.75,22.350805282592773
1981-11-01T00:00:00Z,-33.03,138.75,24.636701583862305
1981-12-01T00:00:00Z,-33.03,138.75,28.916488647460938
1982-01-01T00:00:00Z,-33.03,138.75,31.839677810668945
1982-02-01T00:00:00Z,-33.03,138.75,30.17767906188965
1982-03-01T00:00:00Z,-33.03,138.75,26.969961166381836
1982-04-01T00:00:00Z,-33.03,138.75,22.192583084106445
1982-05-01T00:00:00Z,-33.03,138.75,17.13443946838379
1982-06-01T00:00:00Z,-33.03,138.75,12.61245059967041
1982-07-01T00:00:00Z,-33.03,138.75,12.539786338806152
1982-08-01T00:00:00Z,-33.03,138.75,19.248266220092773
1982-09-01T00:00:00Z,-33.03,138.75,17.75184440612793
1982-10-01T00:00:00Z,-33.03,138.75,21.973051071166992
1982-11-01T00:00:00Z,-33.03,138.75,29.69357681274414
1982-12-01T00:00:00Z,-33.03,138.75,29.814687728881836
1983-01-01T00:00:00Z,-33.03,138.75,29.6345272064209
1983-02-01T00:00:00Z,-33.03,138.75,33.10810089111328
1983-03-01T00:00:00Z,-33.03,138.75,28.081409454345703
1983-04-01T00:00:00Z,-33.03,138.75,18.441856384277344
1983-05-01T00:00:00Z,-33.03,138.75,16.90545082092285
1983-06-01T00:00:00Z,-33.03,138.75,14.041746139526367
1983-07-01T00:00:00Z,-33.03,138.75,11.826642990112305
1983-08-01T00:00:00Z,-33.03,138.75,14.842256546020508
1983-09-01T00:00:00Z,-33.03,138.75,18.077484130859375
1983-10-01T00:00:00Z,-33.03,138.75,21.716184616088867
1983-11-01T00:00:00Z,-33.03,138.75,24.92612648010254
1983-12-01T00:00:00Z,-33.03,138.75,29.27114486694336
1984-01-01T00:00:00Z,-33.03,138.75,28.069931030273438
1984-02-01T00:00:00Z,-33.03,138.75,30.513689041137695
1984-03-01T00:00:00Z,-33.03,138.75,26.038257598876953
1984-04-01T00:00:00Z,-33.03,138.75,21.007783889770508
1984-05-01T00:00:00Z,-33.03,138.75,17.872159957885742
1984-06-01T00:00:00Z,-33.03,138.75,14.226975440979004
1984-07-01T00:00:00Z,-33.03,138.75,11.070450782775879
1984-08-01T00:00:00Z,-33.03,138.75,13.645988464355469
1984-09-01T00:00:00Z,-33.03,138.75,14.51173210144043
1984-10-01T00:00:00Z,-33.03,138.75,21.527267456054688
1984-11-01T00:00:00Z,-33.03,138.75,24.7520751953125
1984-12-01T00:00:00Z,-33.03,138.75,28.094331741333008
1985-01-01T00:00:00Z,-33.03,138.75,30.878538131713867
1985-02-01T00:00:00Z,-33.03,138.75,30.21422004699707
1985-03-01T00:00:00Z,-33.03,138.75,28.290224075317383
1985-04-01T00:00:00Z,-33.03,138.75,22.350366592407227
1985-05-01T00:00:00Z,-33.03,138.75,17.341930389404297
1985-06-01T00:00:00Z,-33.03,138.75,13.368490219116211
1985-07-01T00:00:00Z,-33.03,138.75,13.460525512695312
1985-08-01T00:00:00Z,-33.03,138.75,13.461371421813965
1985-09-01T00:00:00Z,-33.03,138.75,15.762381553649902
1985-10-01T00:00:00Z,-33.03,138.75,20.862882614135742
1985-11-01T00:00:00Z,-33.03,138.75,24.46050262451172
1985-12-01T00:00:00Z,-33.03,138.75,25.820587158203125
1986-01-01T00:00:00Z,-33.03,138.75,29.64858055114746
1986-02-01T00:00:00Z,-33.03,138.75,29.147157669067383
1986-03-01T00:00:00Z,-33.03,138.75,30.398231506347656
1986-04-01T00:00:00Z,-33.03,138.75,21.60641098022461
1986-05-01T00:00:00Z,-33.03,138.75,17.319866180419922
1986-06-01T00:00:00Z,-33.03,138.75,13.169632911682129
1986-07-01T00:00:00Z,-33.03,138.75,11.296539306640625
1986-08-01T00:00:00Z,-33.03,138.75,13.409222602844238
1986-09-01T00:00:00Z,-33.03,138.75,16.68206024169922
1986-10-01T00:00:00Z,-33.03,138.75,18.016456604003906
1986-11-01T00:00:00Z,-33.03,138.75,25.177642822265625
1986-12-01T00:00:00Z,-33.03,138.75,26.32216453552246
1987-01-01T00:00:00Z,-33.03,138.75,28.672048568725586
1987-02-01T00:00:00Z,-33.03,138.75,29.060771942138672
1987-03-01T00:00:00Z,-33.03,138.75,24.280662536621094
1987-04-01T00:00:00Z,-33.03,138.75,22.879505157470703
1987-05-01T00:00:00Z,-33.03,138.75,15.942344665527344
1987-06-01T00:00:00Z,-33.03,138.75,13.784242630004883
1987-07-01T00:00:00Z,-33.03,138.75,12.936068534851074
1987-08-01T00:00:00Z,-33.03,138.75,13.7548189163208
1987-09-01T00:00:00Z,-33.03,138.75,18.42072105407715
1987-10-01T00:00:00Z,-33.03,138.75,21.594606399536133
1987-11-01T00:00:00Z,-33.03,138.75,26.36665916442871
1987-12-01T00:00:00Z,-33.03,138.75,29.10200309753418
1988-01-01T00:00:00Z,-33.03,138.75,32.01351547241211
1988-02-01T00:00:00Z,-33.03,138.75,28.79920768737793
1988-03-01T00:00:00Z,-33.03,138.75,27.54527473449707
1988-04-01T00:00:00Z,-33.03,138.75,22.459537506103516
1988-05-01T00:00:00Z,-33.03,138.75,17.549360275268555
1988-06-01T00:00:00Z,-33.03,138.75,14.054540634155273
1988-07-01T00:00:00Z,-33.03,138.75,13.319698333740234
1988-08-01T00:00:00Z,-33.03,138.75,15.17824935913086
1988-09-01T00:00:00Z,-33.03,138.75,19.52478790283203
1988-10-01T00:00:00Z,-33.03,138.75,24.255338668823242
1988-11-01T00:00:00Z,-33.03,138.75,23.520442962646484
1988-12-01T00:00:00Z,-33.03,138.75,29.205608367919922
1989-01-01T00:00:00Z,-33.03,138.75,29.50457191467285
1989-02-01T00:00:00Z,-33.03,138.75,31.253131866455078
1989-03-01T00:00:00Z,-33.03,138.75,25.46170997619629
1989-04-01T00:00:00Z,-33.03,138.75,21.044095993041992
1989-05-01T00:00:00Z,-33.03,138.75,15.993708610534668
1989-06-01T00:00:00Z,-33.03,138.75,11.29265308380127
1989-07-01T00:00:00Z,-33.03,138.75,11.423285484313965
1989-08-01T00:00:00Z,-33.03,138.75,12.269304275512695
1989-09-01T00:00:00Z,-33.03,138.75,18.003524780273438
1989-10-01T00:00:00Z,-33.03,138.75,20.77899169921875
1989-11-01T00:00:00Z,-33.03,138.75,25.705005645751953
1989-12-01T00:00:00Z,-33.03,138.75,29.895732879638672
1990-01-01T00:00:00Z,-33.03,138.75,30.823139190673828
1990-02-01T00:00:00Z,-33.03,138.75,27.43384552001953
1990-03-01T00:00:00Z,-33.03,138.75,28.647138595581055
1990-04-01T00:00:00Z,-33.03,138.75,21.777437210083008
1990-05-01T00:00:00Z,-33.03,138.75,18.372562408447266
1990-06-01T00:00:00Z,-33.03,138.75,13.056924819946289
1990-07-01T00:00:00Z,-33.03,138.75,12.837979316711426
1990-08-01T00:00:00Z,-33.03,138.75,12.664633750915527
1990-09-01T00:00:00Z,-33.03,138.75,18.82036590576172
1990-10-01T00:00:00Z,-33.03,138.75,23.06900405883789
1990-11-01T00:00:00Z,-33.03,138.75,28.343835830688477
1990-12-01T00:00:00Z,-33.03,138.75,29.597471237182617
1991-01-01T00:00:00Z,-33.03,138.75,31.813077926635742
1991-02-01T00:00:00Z,-33.03,138.75,32.92104721069336
1991-03-01T00:00:00Z,-33.03,138.75,27.18231201171875
1991-04-01T00:00:00Z,-33.03,138.75,22.81703758239746
1991-05-01T00:00:00Z,-33.03,138.75,17.601734161376953
1991-06-01T00:00:00Z,-33.03,138.75,15.208721160888672
1991-07-01T00:00:00Z,-33.03,138.75,12.9407958984375
1991-08-01T00:00:00Z,-33.03,138.75,13.708146095275879
1991-09-01T00:00:00Z,-33.03,138.75,18.811538696289062
1991-10-01T00:00:00Z,-33.03,138.75,23.80890464782715
1991-11-01T00:00:00Z,-33.03,138.75,25.214820861816406
1991-12-01T00:00:00Z,-33.03,138.75,27.6793270111084
1992-01-01T00:00:00Z,-33.03,138.75,27.397932052612305
1992-02-01T00:00:00Z,-33.03,138.75,29.711830139160156
1992-03-01T00:00:00Z,-33.03,138.75,28.013397216796875
1992-04-01T00:00:00Z,-33.03,138.75,21.888500213623047
1992-05-01T00:00:00Z,-33.03,138.75,15.896995544433594
1992-06-01T00:00:00Z,-33.03,138.75,13.374948501586914
1992-07-01T00:00:00Z,-33.03,138.75,14.30473804473877
1992-08-01T00:00:00Z,-33.03,138.75,13.764528274536133
1992-09-01T00:00:00Z,-33.03,138.75,14.488608360290527
1992-10-01T00:00:00Z,-33.03,138.75,19.91900634765625
1992-11-01T00:00:00Z,-33.03,138.75,21.471515655517578
1992-12-01T00:00:00Z,-33.03,138.75,25.476696014404297
1993-01-01T00:00:00Z,-33.03,138.75,29.292739868164062
1993-02-01T00:00:00Z,-33.03,138.75,28.840194702148438
1993-03-01T00:00:00Z,-33.03,138.75,27.017982482910156
1993-04-01T00:00:00Z,-33.03,138.75,24.745115280151367
1993-05-01T00:00:00Z,-33.03,138.75,18.214635848999023
1993-06-01T00:00:00Z,-33.03,138.75,13.209256172180176
1993-07-01T00:00:00Z,-33.03,138.75,13.491969108581543
1993-08-01T00:00:00Z,-33.03,138.75,16.603710174560547
1993-09-01T00:00:00Z,-33.03,138.75,17.595911026000977
1993-10-01T00:00:00Z,-33.03,138.75,20.166175842285156
1993-11-01T00:00:00Z,-33.03,138.75,27.10781478881836
1993-12-01T00:00:00Z,-33.03,138.75,25.813405990600586
1994-01-01T00:00:00Z,-33.03,138.75,29.045074462890625
1994-02-01T00:00:00Z,-33.03,138.75,29.09781837463379
1994-03-01T00:00:00Z,-33.03,138.75,27.439523696899414
1994-04-01T00:00:00Z,-33.03,138.75,22.785091400146484
1994-05-01T00:00:00Z,-33.03,138.75,18.330848693847656
1994-06-01T00:00:00Z,-33.03,138.75,14.175056457519531
1994-07-01T00:00:00Z,-33.03,138.75,14.85646915435791
1994-08-01T00:00:00Z,-33.03,138.75,14.429168701171875
1994-09-01T00:00:00Z,-33.03,138.75,17.57939910888672
1994-10-01T00:00:00Z,-33.03,138.75,23.2397403717041
1994-11-01T00:00:00Z,-33.03,138.75,24.588520050048828
1994-12-01T00:00:00Z,-33.03,138.75,31.624820709228516
1995-01-01T00:00:00Z,-33.03,138.75,30.200422286987305
1995-02-01T00:00:00Z,-33.03,138.75,30.0419979095459
1995-03-01T00:00:00Z,-33.03,138.75,25.18727684020996
1995-04-01T00:00:00Z,-33.03,138.75,19.42118263244629
1995-05-01T00:00:00Z,-33.03,138.75,15.501072883605957
1995-06-01T00:00:00Z,-33.03,138.75,13.448336601257324
1995-07-01T00:00:00Z,-33.03,138.75,11.363722801208496
1995-08-01T00:00:00Z,-33.03,138.75,16.42416000366211
1995-09-01T00:00:00Z,-33.03,138.75,17.83182716369629
1995-10-01T00:00:00Z,-33.03,138.75,21.065174102783203
1995-11-01T00:00:00Z,-33.03,138.75,25.33733367919922
1995-12-01T00:00:00Z,-33.03,138.75,27.506813049316406
1996-01-01T00:00:00Z,-33.03,138.75,29.563617706298828
1996-02-01T00:00:00Z,-33.03,138.75,29.59846305847168
1996-03-01T00:00:00Z,-33.03,138.75,27.817550659179688
1996-04-01T00:00:00Z,-33.03,138.75,20.152238845825195
1996-05-01T00:00:00Z,-33.03,138.75,18.31407356262207
1996-06-01T00:00:00Z,-33.03,138.75,14.961211204528809
1996-07-01T00:00:00Z,-33.03,138.75,12.845163345336914
1996-08-01T00:00:00Z,-33.03,138.75,13.729458808898926
1996-09-01T00:00:00Z,-33.03,138.75,17.31589698791504
1996-10-01T00:00:00Z,-33.03,138.75,21.69503402709961
1996-11-01T00:00:00Z,-33.03,138.75,24.338674545288086
1996-12-01T00:00:00Z,-33.03,138.75,28.193397521972656
1997-01-01T00:00:00Z,-33.03,138.75,30.676708221435547
1997-02-01T00:00:00Z,-33.03,138.75,33.12164306640625
1997-03-01T00:00:00Z,-33.03,138.75,24.389774322509766
1997-04-01T00:00:00Z,-33.03,138.75,23.37894058227539
1997-05-01T00:00:00Z,-33.03,138.75,16.569921493530273
1997-06-01T00:00:00Z,-33.03,138.75,13.946850776672363
1997-07-01T00:00:00Z,-33.03,138.75,12.666074752807617
1997-08-01T00:00:00Z,-33.03,138.75,13.641246795654297
1997-09-01T00:00:00Z,-33.03,138.75,16.67143440246582
1997-10-01T00:00:00Z,-33.03,138.75,22.052331924438477
1997-11-01T00:00:00Z,-33.03,138.75,27.0045223236084
1997-12-01T00:00:00Z,-33.03,138.75,28.81647491455078
1998-01-01T00:00:00Z,-33.03,138.75,30.274372100830078
1998-02-01T00:00:00Z,-33.03,138.75,30.734363555908203
1998-03-01T00:00:00Z,-33.03,138.75,27.644567489624023
1998-04-01T00:00:00Z,-33.03,138.75,19.861263275146484
1998-05-01T00:00:00Z,-33.03,138.75,18.07708740234375
1998-06-01T00:00:00Z,-33.03,138.75,13.810954093933105
1998-07-01T00:00:00Z,-33.03,138.75,11.425456047058105
1998-08-01T00:00:00Z,-33.03,138.75,14.761775016784668
1998-09-01T00:00:00Z,-33.03,138.75,19.17887306213379
1998-10-01T00:00:00Z,-33.03,138.75,21.245708465576172
1998-11-01T00:00:00Z,-33.03,138.75,25.20818519592285
1998-12-01T00:00:00Z,-33.03,138.75,29.491201400756836
1999-01-01T00:00:00Z,-33.03,138.75,33.558372497558594
1999-02-01T00:00:00Z,-33.03,138.75,30.750490188598633
1999-03-01T00:00:00Z,-33.03,138.75,26.543851852416992
1999-04-01T00:00:00Z,-33.03,138.75,21.132505416870117
1999-05-01T00:00:00Z,-33.03,138.75,18.527387619018555
1999-06-01T00:00:00Z,-33.03,138.75,14.122200965881348
1999-07-01T00:00:00Z,-33.03,138.75,14.06805419921875
1999-08-01T00:00:00Z,-33.03,138.75,15.83098030090332
1999-09-01T00:00:00Z,-33.03,138.75,20.170015335083008
1999-10-01T00:00:00Z,-33.03,138.75,22.765031814575195
1999-11-01T00:00:00Z,-33.03,138.75,22.539207458496094
1999-12-01T00:00:00Z,-33.03,138.75,26.838964462280273
2000-01-01T00:00:00Z,-33.03,138.75,30.048938751220703
2000-02-01T00:00:00Z,-33.03,138.75,32.79149627685547
2000-03-01T00:00:00Z,-33.03,138.75,27.021411895751953
2000-04-01T00:00:00Z,-33.03,138.75,21.58274269104004
2000-05-01T00:00:00Z,-33.03,138.75,15.671049118041992
2000-06-01T00:00:00Z,-33.03,138.75,13.384305000305176
2000-07-01T00:00:00Z,-33.03,138.75,13.409236907958984
2000-08-01T00:00:00Z,-33.03,138.75,14.028002738952637
2000-09-01T00:00:00Z,-33.03,138.75,19.162580490112305
2000-10-01T00:00:00Z,-33.03,138.75,20.87408447265625
2000-11-01T00:00:00Z,-33.03,138.75,27.881895065307617
2000-12-01T00:00:00Z,-33.03,138.75,30.198057174682617
2001-01-01T00:00:00Z,-33.03,138.75,35.881011962890625
2001-02-01T00:00:00Z,-33.03,138.75,32.982879638671875
2001-03-01T00:00:00Z,-33.03,138.75,26.247690200805664
2001-04-01T00:00:00Z,-33.03,138.75,22.27672576904297
2001-05-01T00:00:00Z,-33.03,138.75,17.64448356628418
2001-06-01T00:00:00Z,-33.03,138.75,14.363088607788086
2001-07-01T00:00:00Z,-33.03,138.75,13.048919677734375
2001-08-01T00:00:00Z,-33.03,138.75,14.504914283752441
2001-09-01T00:00:00Z,-33.03,138.75,18.491920471191406
2001-10-01T00:00:00Z,-33.03,138.75,17.87704849243164
2001-11-01T00:00:00Z,-33.03,138.75,22.827289581298828
2001-12-01T00:00:00Z,-33.03,138.75,25.329561233520508
2002-01-01T00:00:00Z,-33.03,138.75,29.220256805419922
2002-02-01T00:00:00Z,-33.03,138.75,27.875595092773438
2002-03-01T00:00:00Z,-33.03,138.75,27.251670837402344
2002-04-01T00:00:00Z,-33.03,138.75,25.240896224975586
2002-05-01T00:00:00Z,-33.03,138.75,18.639089584350586
2002-06-01T00:00:00Z,-33.03,138.75,14.140430450439453
2002-07-01T00:00:00Z,-33.03,138.75,14.768978118896484
2002-08-01T00:00:00Z,-33.03,138.75,14.898676872253418
2002-09-01T00:00:00Z,-33.03,138.75,18.804256439208984
2002-10-01T00:00:00Z,-33.03,138.75,22.213451385498047
2002-11-01T00:00:00Z,-33.03,138.75,28.023792266845703
2002-12-01T00:00:00Z,-33.03,138.75,29.94390869140625
2003-01-01T00:00:00Z,-33.03,138.75,32.905426025390625
2003-02-01T00:00:00Z,-33.03,138.75,30.464698791503906
2003-03-01T00:00:00Z,-33.03,138.75,25.18739891052246
2003-04-01T00:00:00Z,-33.03,138.75,22.705137252807617
2003-05-01T00:00:00Z,-33.03,138.75,17.89529037475586
2003-06-01T00:00:00Z,-33.03,138.75,13.718047142028809
2003-07-01T00:00:00Z,-33.03,138.75,14.044534683227539
2003-08-01T00:00:00Z,-33.03,138.75,13.413161277770996
2003-09-01T00:00:00Z,-33.03,138.75,18.310850143432617
2003-10-01T00:00:00Z,-33.03,138.75,18.733970642089844
2003-11-01T00:00:00Z,-33.03,138.75,28.384611129760742
2003-12-01T00:00:00Z,-33.03,138.75,30.496150970458984
2004-01-01T00:00:00Z,-33.03,138.75,28.56562614440918
2004-02-01T00:00:00Z,-33.03,138.75,33.6753044128418
2004-03-01T00:00:00Z,-33.03,138.75,28.45029067993164
2004-04-01T00:00:00Z,-33.03,138.75,24.083538055419922
2004-05-01T00:00:00Z,-33.03,138.75,16.967041015625
2004-06-01T00:00:00Z,-33.03,138.75,13.713835716247559
2004-07-01T00:00:00Z,-33.03,138.75,12.555816650390625
2004-08-01T00:00:00Z,-33.03,138.75,14.468059539794922
2004-09-01T00:00:00Z,-33.03,138.75,17.43586540222168
2004-10-01T00:00:00Z,-33.03,138.75,24.400020599365234
2004-11-01T00:00:00Z,-33.03,138.75,25.640960693359375
2004-12-01T00:00:00Z,-33.03,138.75,27.968473434448242
2005-01-01T00:00:00Z,-33.03,138.75,30.68731689453125
2005-02-01T00:00:00Z,-33.03,138.75,28.64972686767578
2005-03-01T00:00:00Z,-33.03,138.75,27.650794982910156
2005-04-01T00:00:00Z,-33.03,138.75,26.315250396728516
2005-05-01T00:00:00Z,-33.03,138.75,20.21681022644043
2005-06-01T00:00:00Z,-33.03,138.75,14.779848098754883
2005-07-01T00:00:00Z,-33.03,138.75,13.16736125946045
2005-08-01T00:00:00Z,-33.03,138.75,15.752140045166016
2005-09-01T00:00:00Z,-33.03,138.75,17.391687393188477
2005-10-01T00:00:00Z,-33.03,138.75,22.016313552856445
2005-11-01T00:00:00Z,-33.03,138.75,25.81825828552246
2005-12-01T00:00:00Z,-33.03,138.75,29.97585678100586
2006-01-01T00:00:00Z,-33.03,138.75,34.59597396850586
2006-02-01T00:00:00Z,-33.03,138.75,29.16351318359375
2006-03-01T00:00:00Z,-33.03,138.75,28.333290100097656
2006-04-01T00:00:00Z,-33.03,138.75,19.71419334411621
2006-05-01T00:00:00Z,-33.03,138.75,15.27598762512207
2006-06-01T00:00:00Z,-33.03,138.75,13.232394218444824
2006-07-01T00:00:00Z,-33.03,138.75,12.375575065612793
2006-08-01T00:00:00Z,-33.03,138.75,17.029733657836914
2006-09-01T00:00:00Z,-33.03,138.75,20.79932975769043
2006-10-01T00:00:00Z,-33.03,138.75,24.668842315673828
2006-11-01T00:00:00Z,-33.03,138.75,28.25992774963379
2006-12-01T00:00:00Z,-33.03,138.75,29.091489791870117
2007-01-01T00:00:00Z,-33.03,138.75,29.728059768676758
2007-02-01T00:00:00Z,-33.03,138.75,32.93211364746094
2007-03-01T00:00:00Z,-33.03,138.75,26.470508575439453
2007-04-01T00:00:00Z,-33.03,138.75,23.261859893798828
2007-05-01T00:00:00Z,-33.03,138.75,18.281152725219727
2007-06-01T00:00:00Z,-33.03,138.75,11.86965560913086
2007-07-01T00:00:00Z,-33.03,138.75,13.541234016418457
2007-08-01T00:00:00Z,-33.03,138.75,16.901636123657227
2007-09-01T00:00:00Z,-33.03,138.75,20.371559143066406
2007-10-01T00:00:00Z,-33.03,138.75,23.65081214904785
2007-11-01T00:00:00Z,-33.03,138.75,27.347864151000977
2007-12-01T00:00:00Z,-33.03,138.75,29.37883758544922
2008-01-01T00:00:00Z,-33.03,138.75,32.787967681884766
2008-02-01T00:00:00Z,-33.03,138.75,27.877437591552734
2008-03-01T00:00:00Z,-33.03,138.75,29.220251083374023
2008-04-01T00:00:00Z,-33.03,138.75,21.5333309173584
2008-05-01T00:00:00Z,-33.03,138.75,18.066171646118164
2008-06-01T00:00:00Z,-33.03,138.75,14.076764106750488
2008-07-01T00:00:00Z,-33.03,138.75,12.164609909057617
2008-08-01T00:00:00Z,-33.03,138.75,12.261818885803223
2008-09-01T00:00:00Z,-33.03,138.75,19.649730682373047
2008-10-01T00:00:00Z,-33.03,138.75,24.287921905517578
2008-11-01T00:00:00Z,-33.03,138.75,24.603923797607422
2008-12-01T00:00:00Z,-33.03,138.75,26.275083541870117
2009-01-01T00:00:00Z,-33.03,138.75,33.398521423339844
2009-02-01T00:00:00Z,-33.03,138.75,32.06845474243164
2009-03-01T00:00:00Z,-33.03,138.75,27.082183837890625
2009-04-01T00:00:00Z,-33.03,138.75,21.758289337158203
2009-05-01T00:00:00Z,-33.03,138.75,16.283855438232422
2009-06-01T00:00:00Z,-33.03,138.75,13.575002670288086
2009-07-01T00:00:00Z,-33.03,138.75,13.029438018798828
2009-08-01T00:00:00Z,-33.03,138.75,16.230817794799805
2009-09-01T00:00:00Z,-33.03,138.75,18.708925247192383
2009-10-01T00:00:00Z,-33.03,138.75,20.87016487121582
2009-11-01T00:00:00Z,-33.03,138.75,29.984703063964844
2009-12-01T00:00:00Z,-33.03,138.75,29.27000617980957
2010-01-01T00:00:00Z,-33.03,138.75,32.58647155761719
2010-02-01T00:00:00Z,-33.03,138.75,32.081703186035156
2010-03-01T00:00:00Z,-33.03,138.75,27.727031707763672
2010-04-01T00:00:00Z,-33.03,138.75,23.868139266967773
2010-05-01T00:00:00Z,-33.03,138.75,17.370283126831055
2010-06-01T00:00:00Z,-33.03,138.75,13.139309883117676
2010-07-01T00:00:00Z,-33.03,138.75,12.776288986206055
2010-08-01T00:00:00Z,-33.03,138.75,12.510035514831543
2010-09-01T00:00:00Z,-33.03,138.75,14.97689151763916
2010-10-01T00:00:00Z,-33.03,138.75,20.920774459838867
2010-11-01T00:00:00Z,-33.03,138.75,24.27877426147461
2010-12-01T00:00:00Z,-33.03,138.75,27.423383712768555
2011-01-01T00:00:00Z,-33.03,138.75,33.08651351928711
2011-02-01T00:00:00Z,-33.03,138.75,28.84790802001953
2011-03-01T00:00:00Z,-33.03,138.75,23.35767936706543
2011-04-01T00:00:00Z,-33.03,138.75,21.772624969482422
2011-05-01T00:00:00Z,-33.03,138.75,15.631144523620605
2011-06-01T00:00:00Z,-33.03,138.75,14.112872123718262
2011-07-01T00:00:00Z,-33.03,138.75,13.092731475830078
2011-08-01T00:00:00Z,-33.03,138.75,16.466745376586914
2011-09-01T00:00:00Z,-33.03,138.75,20.192302703857422
2011-10-01T00:00:00Z,-33.03,138.75,22.149539947509766
2011-11-01T00:00:00Z,-33.03,138.75,27.02826499938965
2011-12-01T00:00:00Z,-33.03,138.75,28.178476333618164
2012-01-01T00:00:00Z,-33.03,138.75,30.44263458251953
2012-02-01T00:00:00Z,-33.03,138.75,28.48580551147461
2012-03-01T00:00:00Z,-33.03,138.75,25.30665397644043
2012-04-01T00:00:00Z,-33.03,138.75,23.54826545715332
2012-05-01T00:00:00Z,-33.03,138.75,17.10496711730957
2012-06-01T00:00:00Z,-33.03,138.75,13.108098983764648
2012-07-01T00:00:00Z,-33.03,138.75,12.45147705078125
2012-08-01T00:00:00Z,-33.03,138.75,14.32068920135498
2012-09-01T00:00:00Z,-33.03,138.75,19.748056411743164
2012-10-01T00:00:00Z,-33.03,138.75,24.384729385375977
2012-11-01T00:00:00Z,-33.03,138.75,28.61070442199707
2012-12-01T00:00:00Z,-33.03,138.75,29.781187057495117
