time,latitude[unit="degrees_north"],longitude[unit="degrees_east"],air_temperature[unit="C"]
1970-01-01T00:00:00Z,-28.41,153.02,17.3358211517334
1970-02-01T00:00:00Z,-28.41,153.02,16.77597999572754
1970-03-01T00:00:00Z,-28.41,153.02,15.199657440185547
1970-04-01T00:00:00Z,-28.41,153.02,12.926136016845703
1970-05-01T00:00:00Z,-28.41,153.02,7.025541305541992
1970-06-01T00:00:00Z,-28.41,153.02,5.200455665588379
1970-07-01T00:00:00Z,-28.41,153.02,2.4792356491088867
1970-08-01T00:00:00Z,-28.41,153.02,4.742968559265137
1970-09-01T00:00:00Z,-28.41,153.02,7.879488945007324
1970-10-01T00:00:00Z,-28.41,153.02,11.599645614624023
1970-11-01T00:00:00Z,-28.41,153.02,14.040478706359863
1970-12-01T00:00:00Z,-28.41,153.02,16.95454216003418
1971-01-01T00:00:00Z,-28.41,153.02,17.317903518676758
1971-02-01T00:00:00Z,-28.41,153.02,18.004884719848633
1971-03-01T00:00:00Z,-28.41,153.02,15.493959426879883
1971-04-01T00:00:00Z,-28.41,153.02,11.535238265991211
1971-05-01T00:00:00Z,-28.41,153.02,7.4893269538879395
1971-06-01T00:00:00Z,-28.41,153.02,5.101980686187744
1971-07-01T00:00:00Z,-28.41,153.02,3.7728207111358643
1971-08-01T00:00:00Z,-28.41,153.02,6.066278457641602
1971-09-01T00:00:00Z,-28.41,153.02,8.787296295166016
1971-10-01T00:00:00Z,-28.41,153.02,11.855433464050293
1971-11-01T00:00:00Z,-28.41,153.02,12.429057121276855
1971-12-01T00:00:00Z,-28.41,153.02,15.249293327331543
1972-01-01T00:00:00Z,-28.41,153.02,16.254892349243164
1972-02-01T00:00:00Z,-28.41,153.02,16.288997650146484
1972-03-01T00:00:00Z,-28.41,153.02,14.834734916687012
1972-04-01T00:00:00Z,-28.41,153.02,11.510520935058594
1972-05-01T00:00:00Z,-28.41,153.02,10.346095085144043
1972-06-01T00:00:00Z,-28.41,153.02,7.327371597290039
1972-07-01T00:00:00Z,-28.41,153.02,2.7775723934173584
1972-08-01T00:00:00Z,-28.41,153.02,6.10847282409668
1972-09-01T00:00:00Z,-28.41,153.02,8.578737258911133
1972-10-01T00:00:00Z,-28.41,153.02,12.114361763000488
1972-11-01T00:00:00Z,-28.41,153.02,14.715848922729492
1972-12-01T00:00:00Z,-28.41,153.02,16.258371353149414
1973-01-01T00:00:00Z,-28.41,153.02,18.74085235595703
1973-02-01T00:00:00Z,-28.41,153.02,18.38302230834961
1973-03-01T00:00:00Z,-28.41,153.02,16.40227508544922
1973-04-01T00:00:00Z,-28.41,153.02,13.219916343688965
1973-05-01T00:00:00Z,-28.41,153.02,10.132163047790527
1973-06-01T00:00:00Z,-28.41,153.02,7.760315895080566
1973-07-01T00:00:00Z,-28.41,153.02,9.055051803588867
1973-08-01T00:00:00Z,-28.41,153.02,8.19875717163086
1973-09-01T00:00:00Z,-28.41,153.02,10.41174602508545
1973-10-01T00:00:00Z,-28.41,153.02,13.211355209350586
1973-11-01T00:00:00Z,-28.41,153.02,14.826902389526367
1973-12-01T00:00:00Z,-28.41,153.02,16.549564361572266
1974-01-01T00:00:00Z,-28.41,153.02,18.367473602294922
1974-02-01T00:00:00Z,-28.41,153.02,16.99968719482422
1974-03-01T00:00:00Z,-28.41,153.02,16.33755874633789
1974-04-01T00:00:00Z,-28.41,153.02,13.983977317810059
1974-05-01T00:00:00Z,-28.41,153.02,10.238177299499512
1974-06-01T00:00:00Z,-28.41,153.02,6.5022125244140625
1974-07-01T00:00:00Z,-28.41,153.02,4.409917831420898
1974-08-01T00:00:00Z,-28.41,153.02,5.415205001831055
1974-09-01T00:00:00Z,-28.41,153.02,7.466715335845947
1974-10-01T00:00:00Z,-28.41,153.02,11.044486999511719
1974-11-01T00:00:00Z,-28.41,153.02,12.708990097045898
1974-12-01T00:00:00Z,-28.41,153.02,15.561418533325195
1975-01-01T00:00:00Z,-28.41,153.02,16.78171157836914
1975-02-01T00:00:00Z,-28.41,153.02,16.601211547851562
1975-03-01T00:00:00Z,-28.41,153.02,16.62358283996582
1975-04-01T00:00:00Z,-28.41,153.02,12.507547378540039
1975-05-01T00:00:00Z,-28.41,153.02,8.453007698059082
1975-06-01T00:00:00Z,-28.41,153.02,6.695853233337402
1975-07-01T00:00:00Z,-28.41,153.02,6.24110221862793
1975-08-01T00:00:00Z,-28.41,153.02,6.719114303588867
1975-09-01T00:00:00Z,-28.41,153.02,10.05799388885498
1975-10-01T00:00:00Z,-28.41,153.02,11.6286039352417
1975-11-01T00:00:00Z,-28.41,153.02,14.475955963134766
1975-12-01T00:00:00Z,-28.41,153.02,16.45942497253418
1976-01-01T00:00:00Z,-28.41,153.02,17.112607955932617
1976-02-01T00:00:00Z,-28.41,153.02,17.186973571777344
1976-03-01T00:00:00Z,-28.41,153.02,17.117809295654297
1976-04-01T00:00:00Z,-28.41,153.02,12.645207405090332
1976-05-01T00:00:00Z,-28.41,153.02,10.773152351379395
1976-06-01T00:00:00Z,-28.41,153.02,7.6057000160217285
1976-07-01T00:00:00Z,-28.41,153.02,6.673353672027588
1976-08-01T00:00:00Z,-28.41,153.02,4.717504024505615
1976-09-01T00:00:00Z,-28.41,153.02,7.619411468505859
1976-10-01T00:00:00Z,-28.41,153.02,10.687636375427246
1976-11-01T00:00:00Z,-28.41,153.02,14.310235977172852
1976-12-01T00:00:00Z,-28.41,153.02,16.827030181884766
1977-01-01T00:00:00Z,-28.41,153.02,16.543489456176758
1977-02-01T00:00:00Z,-28.41,153.02,17.47180938720703
1977-03-01T00:00:00Z,-28.41,153.02,16.618619918823242
1977-04-01T00:00:00Z,-28.41,153.02,13.421875953674316
1977-05-01T00:00:00Z,-28.41,153.02,10.3726806640625
1977-06-01T00:00:00Z,-28.41,153.02,6.073383808135986
1977-07-01T00:00:00Z,-28.41,153.02,4.323123455047607
1977-08-01T00:00:00Z,-28.41,153.02,5.302677154541016
1977-09-01T00:00:00Z,-28.41,153.02,8.151708602905273
1977-10-01T00:00:00Z,-28.41,153.02,11.836614608764648
1977-11-01T00:00:00Z,-28.41,153.02,15.292740821838379
1977-12-01T00:00:00Z,-28.41,153.02,15.969223976135254
1978-01-01T00:00:00Z,-28.41,153.02,18.290740966796875
1978-02-01T00:00:00Z,-28.41,153.02,17.39354705810547
1978-03-01T00:00:00Z,-28.41,153.02,16.615856170654297
1978-04-01T00:00:00Z,-28.41,153.02,12.488031387329102
1978-05-01T00:00:00Z,-28.41,153.02,9.827169418334961
1978-06-01T00:00:00Z,-28.41,153.02,6.654209613800049
1978-07-01T00:00:00Z,-28.41,153.02,5.142580509185791
1978-08-01T00:00:00Z,-28.41,153.02,6.233736991882324
1978-09-01T00:00:00Z,-28.41,153.02,8.95284652709961
1978-10-01T00:00:00Z,-28.41,153.02,10.746071815490723
1978-11-01T00:00:00Z,-28.41,153.02,13.705893516540527
1978-12-01T00:00:00Z,-28.41,153.02,15.657092094421387
1979-01-01T00:00:00Z,-28.41,153.02,17.48086166381836
1979-02-01T00:00:00Z,-28.41,153.02,16.755245208740234
1979-03-01T00:00:00Z,-28.41,153.02,15.593585968017578
1979-04-01T00:00:00Z,-28.41,153.02,13.619133949279785
1979-05-01T00:00:00Z,-28.41,153.02,8.662060737609863
1979-06-01T00:00:00Z,-28.41,153.02,8.406237602233887
1979-07-01T00:00:00Z,-28.41,153.02,4.7040205001831055
1979-08-01T00:00:00Z,-28.41,153.02,5.637842655181885
1979-09-01T00:00:00Z,-28.41,153.02,8.673345565795898
1979-10-01T00:00:00Z,-28.41,153.02,11.510871887207031
1979-11-01T00:00:00Z,-28.41,153.02,15.312764167785645
1979-12-01T00:00:00Z,-28.41,153.02,17.404531478881836
1980-01-01T00:00:00Z,-28.41,153.02,17.911724090576172
1980-02-01T00:00:00Z,-28.41,153.02,17.831024169921875
1980-03-01T00:00:00Z,-28.41,153.02,14.99207878112793
1980-04-01T00:00:00Z,-28.41,153.02,12.88339614868164
1980-05-01T00:00:00Z,-28.41,153.02,11.801492691040039
1980-06-01T00:00:00Z,-28.41,153.02,6.7708563804626465
1980-07-01T00:00:00Z,-28.41,153.02,4.8976545333862305
1980-08-01T00:00:00Z,-28.41,153.02,6.869328498840332
1980-09-01T00:00:00Z,-28.41,153.02,8.115471839904785
1980-10-01T00:00:00Z,-28.41,153.02,13.327016830444336
1980-11-01T00:00:00Z,-28.41,153.02,14.348267555236816
1980-12-01T00:00:00Z,-28.41,153.02,15.656230926513672
1981-01-01T00:00:00Z,-28.41,153.02,16.866580963134766
1981-02-01T00:00:00Z,-28.41,153.02,19.131465911865234
1981-03-01T00:00:00Z,-28.41,153.02,15.524452209472656
1981-04-01T00:00:00Z,-28.41,153.02,13.112202644348145
1981-05-01T00:00:00Z,-28.41,153.02,10.043326377868652
1981-06-01T00:00:00Z,-28.41,153.02,6.379347324371338
1981-07-01T00:00:00Z,-28.41,153.02,5.501669883728027
1981-08-01T00:00:00Z,-28.41,153.02,5.2280707359313965
1981-09-01T00:00:00Z,-28.41,153.02,9.404324531555176
1981-10-01T00:00:00Z,-28.41,153.02,10.514294624328613
1981-11-01T00:00:00Z,-28.41,153.02,14.06692886352539
1981-12-01T00:00:00Z,-28.41,153.02,16.950286865234375
1982-01-01T00:00:00Z,-28.41,153.02,18.30172348022461
1982-02-01T00:00:00Z,-28.41,153.02,17.383012771606445
1982-03-01T00:00:00Z,-28.41,153.02,16.974685668945312
1982-04-01T00:00:00Z,-28.41,153.02,12.534339904785156
1982-05-01T00:00:00Z,-28.41,153.02,8.815864562988281
1982-06-01T00:00:00Z,-28.41,153.02,4.14366340637207
1982-07-01T00:00:00Z,-28.41,153.02,3.431269407272339
1982-08-01T00:00:00Z,-28.41,153.02,6.8442206382751465
1982-09-01T00:00:00Z,-28.41,153.02,8.726897239685059
1982-10-01T00:00:00Z,-28.41,153.02,10.197586059570312
1982-11-01T00:00:00Z,-28.41,153.02,13.372332572937012
1982-12-01T00:00:00Z,-28.41,153.02,16.390878677368164
1983-01-01T00:00:00Z,-28.41,153.02,16.523649215698242
1983-02-01T00:00:00Z,-28.41,153.02,16.757368087768555
1983-03-01T00:00:00Z,-28.41,153.02,16.31117057800293
1983-04-01T00:00:00Z,-28.41,153.02,13.006728172302246
1983-05-01T00:00:00Z,-28.41,153.02,12.334047317504883
1983-06-01T00:00:00Z,-28.41,153.02,7.4928998947143555
1983-07-01T00:00:00Z,-28.41,153.02,7.008642673492432
1983-08-01T00:00:00Z,-28.41,153.02,7.04902458190918
1983-09-01T00:00:00Z,-28.41,153.02,10.785911560058594
1983-10-01T00:00:00Z,-28.41,153.02,12.970118522644043
1983-11-01T00:00:00Z,-28.41,153.02,14.317329406738281
1983-12-01T00:00:00Z,-28.41,153.02,14.932219505310059
1984-01-01T00:00:00Z,-28.41,153.02,17.173465728759766
1984-02-01T00:00:00Z,-28.41,153.02,16.656742095947266
1984-03-01T00:00:00Z,-28.41,153.02,15.369476318359375
1984-04-01T00:00:00Z,-28.41,153.02,12.643590927124023
1984-05-01T00:00:00Z,-28.41,153.02,8.523772239685059
1984-06-01T00:00:00Z,-28.41,153.02,8.44747543334961
1984-07-01T00:00:00Z,-28.41,153.02,6.933862686157227
1984-08-01T00:00:00Z,-28.41,153.02,5.5527544021606445
1984-09-01T00:00:00Z,-28.41,153.02,7.386231899261475
1984-10-01T00:00:00Z,-28.41,153.02,11.434391975402832
1984-11-01T00:00:00Z,-28.41,153.02,14.035347938537598
1984-12-01T00:00:00Z,-28.41,153.02,15.745450019836426
1985-01-01T00:00:00Z,-28.41,153.02,16.774614334106445
1985-02-01T00:00:00Z,-28.41,153.02,16.765432357788086
1985-03-01T00:00:00Z,-28.41,153.02,16.299442291259766
1985-04-01T00:00:00Z,-28.41,153.02,13.005643844604492
1985-05-01T00:00:00Z,-28.41,153.02,10.923903465270996
1985-06-01T00:00:00Z,-28.41,153.02,5.482433795928955
1985-07-01T00:00:00Z,-28.41,153.02,5.1501545906066895
1985-08-01T00:00:00Z,-28.41,153.02,6.016415596008301
1985-09-01T00:00:00Z,-28.41,153.02,8.119426727294922
1985-10-01T00:00:00Z,-28.41,153.02,11.115729331970215
1985-11-01T00:00:00Z,-28.41,153.02,14.56490707397461
1985-12-01T00:00:00Z,-28.41,153.02,16.459239959716797
1986-01-01T00:00:00Z,-28.41,153.02,16.174022674560547
1986-02-01T00:00:00Z,-28.41,153.02,16.494810104370117
1986-03-01T00:00:00Z,-28.41,153.02,14.846273422241211
1986-04-01T00:00:00Z,-28.41,153.02,13.04914665222168
1986-05-01T00:00:00Z,-28.41,153.02,11.359067916870117
1986-06-01T00:00:00Z,-28.41,153.02,6.069334030151367
1986-07-01T00:00:00Z,-28.41,153.02,6.52770471572876
1986-08-01T00:00:00Z,-28.41,153.02,5.807265758514404
1986-09-01T00:00:00Z,-28.41,153.02,9.21543025970459
1986-10-01T00:00:00Z,-28.41,153.02,11.94467830657959
1986-11-01T00:00:00Z,-28.41,153.02,13.27526569366455
1986-12-01T00:00:00Z,-28.41,153.02,15.370457649230957
1987-01-01T00:00:00Z,-28.41,153.02,18.927547454833984
1987-02-01T00:00:00Z,-28.41,153.02,17.47797966003418
1987-03-01T00:00:00Z,-28.41,153.02,15.317159652709961
1987-04-01T00:00:00Z,-28.41,153.02,13.325045585632324
1987-05-01T00:00:00Z,-28.41,153.02,11.06419563293457
1987-06-01T00:00:00Z,-28.41,153.02,8.679183006286621
1987-07-01T00:00:00Z,-28.41,153.02,4.558046817779541
1987-08-01T00:00:00Z,-28.41,153.02,8.283265113830566
1987-09-01T00:00:00Z,-28.41,153.02,8.173413276672363
1987-10-01T00:00:00Z,-28.41,153.02,11.650371551513672
1987-11-01T00:00:00Z,-28.41,153.02,13.241790771484375
1987-12-01T00:00:00Z,-28.41,153.02,16.62086296081543
1988-01-01T00:00:00Z,-28.41,153.02,17.5006046295166
1988-02-01T00:00:00Z,-28.41,153.02,15.719573974609375
1988-03-01T00:00:00Z,-28.41,153.02,14.269322395324707
1988-04-01T00:00:00Z,-28.41,153.02,14.558725357055664
1988-05-01T00:00:00Z,-28.41,153.02,10.735881805419922
1988-06-01T00:00:00Z,-28.41,153.02,7.472229480743408
1988-07-01T00:00:00Z,-28.41,153.02,7.348427772521973
1988-08-01T00:00:00Z,-28.41,153.02,7.460381507873535
1988-09-01T00:00:00Z,-28.41,153.02,10.713166236877441
1988-10-01T00:00:00Z,-28.41,153.02,13.736910820007324
1988-11-01T00:00:00Z,-28.41,153.02,14.006608009338379
1988-12-01T00:00:00Z,-28.41,153.02,17.23621368408203
1989-01-01T00:00:00Z,-28.41,153.02,16.342416763305664
1989-02-01T00:00:00Z,-28.41,153.02,16.290740966796875
1989-03-01T00:00:00Z,-28.41,153.02,16.607192993164062
1989-04-01T00:00:00Z,-28.41,153.02,15.1028470993042
1989-05-01T00:00:00Z,-28.41,153.02,12.838556289672852
1989-06-01T00:00:00Z,-28.41,153.02,7.643774509429932
1989-07-01T00:00:00Z,-28.41,153.02,5.8698835372924805
1989-08-01T00:00:00Z,-28.41,153.02,4.522555828094482
1989-09-01T00:00:00Z,-28.41,153.02,7.70562744140625
1989-10-01T00:00:00Z,-28.41,153.02,12.082777976989746
1989-11-01T00:00:00Z,-28.41,153.02,14.12803840637207
1989-12-01T00:00:00Z,-28.41,153.02,15.417381286621094
1990-01-01T00:00:00Z,-28.41,153.02,16.92024803161621
1990-02-01T00:00:00Z,-28.41,153.02,17.95832061767578
1990-03-01T00:00:00Z,-28.41,153.02,15.673857688903809
1990-04-01T00:00:00Z,-28.41,153.02,14.59127426147461
1990-05-01T00:00:00Z,-28.41,153.02,10.888020515441895
1990-06-01T00:00:00Z,-28.41,153.02,7.071774959564209
1990-07-01T00:00:00Z,-28.41,153.02,5.458693981170654
1990-08-01T00:00:00Z,-28.41,153.02,5.149585247039795
1990-09-01T00:00:00Z,-28.41,153.02,8.454216957092285
1990-10-01T00:00:00Z,-28.41,153.02,12.111379623413086
1990-11-01T00:00:00Z,-28.41,153.02,14.744420051574707
1990-12-01T00:00:00Z,-28.41,153.02,17.85605239868164
1991-01-01T00:00:00Z,-28.41,153.02,18.093151092529297
1991-02-01T00:00:00Z,-28.41,153.02,17.694686889648438
1991-03-01T00:00:00Z,-28.41,153.02,14.936324119567871
1991-04-01T00:00:00Z,-28.41,153.02,11.850975036621094
1991-05-01T00:00:00Z,-28.41,153.02,11.657228469848633
1991-06-01T00:00:00Z,-28.41,153.02,8.114354133605957
1991-07-01T00:00:00Z,-28.41,153.02,4.6283464431762695
1991-08-01T00:00:00Z,-28.41,153.02,5.4657087326049805
1991-09-01T00:00:00Z,-28.41,153.02,7.702611446380615
1991-10-01T00:00:00Z,-28.41,153.02,12.191494941711426
1991-11-01T00:00:00Z,-28.41,153.02,14.606131553649902
1991-12-01T00:00:00Z,-28.41,153.02,15.519037246704102
1992-01-01T00:00:00Z,-28.41,153.02,17.728771209716797
1992-02-01T00:00:00Z,-28.41,153.02,18.13883399963379
1992-03-01T00:00:00Z,-28.41,153.02,15.921211242675781
1992-04-01T00:00:00Z,-28.41,153.02,13.620386123657227
1992-05-01T00:00:00Z,-28.41,153.02,10.822515487670898
1992-06-01T00:00:00Z,-28.41,153.02,5.963502407073975
1992-07-01T00:00:00Z,-28.41,153.02,5.16439962387085
1992-08-01T00:00:00Z,-28.41,153.02,6.179297924041748
1992-09-01T00:00:00Z,-28.41,153.02,8.038166999816895
1992-10-01T00:00:00Z,-28.41,153.02,10.670244216918945
1992-11-01T00:00:00Z,-28.41,153.02,13.64362907409668
1992-12-01T00:00:00Z,-28.41,153.02,15.41788101196289
1993-01-01T00:00:00Z,-28.41,153.02,17.59136390686035
1993-02-01T00:00:00Z,-28.41,153.02,17.108034133911133
1993-03-01T00:00:00Z,-28.41,153.02,14.989669799804688
1993-04-01T00:00:00Z,-28.41,153.02,12.408807754516602
1993-05-01T00:00:00Z,-28.41,153.02,10.242714881896973
1993-06-01T00:00:00Z,-28.41,153.02,6.037383556365967
1993-07-01T00:00:00Z,-28.41,153.02,9.652174949645996
1993-08-01T00:00:00Z,-28.41,153.02,6.719645023345947
1993-09-01T00:00:00Z,-28.41,153.02,9.149964332580566
1993-10-01T00:00:00Z,-28.41,153.02,11.960070610046387
1993-11-01T00:00:00Z,-28.41,153.02,14.351633071899414
1993-12-01T00:00:00Z,-28.41,153.02,15.23816967010498
1994-01-01T00:00:00Z,-28.41,153.02,18.225173950195312
1994-02-01T00:00:00Z,-28.41,153.02,16.755537033081055
1994-03-01T00:00:00Z,-28.41,153.02,15.075777053833008
1994-04-01T00:00:00Z,-28.41,153.02,12.445388793945312
1994-05-01T00:00:00Z,-28.41,153.02,8.023140907287598
1994-06-01T00:00:00Z,-28.41,153.02,5.736036777496338
1994-07-01T00:00:00Z,-28.41,153.02,4.861145496368408
1994-08-01T00:00:00Z,-28.41,153.02,4.889153480529785
1994-09-01T00:00:00Z,-28.41,153.02,7.395709991455078
1994-10-01T00:00:00Z,-28.41,153.02,10.846532821655273
1994-11-01T00:00:00Z,-28.41,153.02,15.106809616088867
1994-12-01T00:00:00Z,-28.41,153.02,16.091211318969727
1995-01-01T00:00:00Z,-28.41,153.02,16.77496337890625
1995-02-01T00:00:00Z,-28.41,153.02,17.24818992614746
1995-03-01T00:00:00Z,-28.41,153.02,15.735862731933594
1995-04-01T00:00:00Z,-28.41,153.02,11.624105453491211
1995-05-01T00:00:00Z,-28.41,153.02,11.161259651184082
1995-06-01T00:00:00Z,-28.41,153.02,7.585330963134766
1995-07-01T00:00:00Z,-28.41,153.02,4.80710506439209
1995-08-01T00:00:00Z,-28.41,153.02,6.748822212219238
1995-09-01T00:00:00Z,-28.41,153.02,9.28747844696045
1995-10-01T00:00:00Z,-28.41,153.02,12.089741706848145
1995-11-01T00:00:00Z,-28.41,153.02,15.779768943786621
1995-12-01T00:00:00Z,-28.41,153.02,15.487091064453125
1996-01-01T00:00:00Z,-28.41,153.02,18.07250213623047
1996-02-01T00:00:00Z,-28.41,153.02,16.51070213317871
1996-03-01T00:00:00Z,-28.41,153.02,15.122395515441895
1996-04-01T00:00:00Z,-28.41,153.02,11.526266098022461
1996-05-01T00:00:00Z,-28.41,153.02,11.50875473022461
1996-06-01T00:00:00Z,-28.41,153.02,8.787169456481934
1996-07-01T00:00:00Z,-28.41,153.02,5.1623640060424805
1996-08-01T00:00:00Z,-28.41,153.02,6.582152843475342
1996-09-01T00:00:00Z,-28.41,153.02,8.665711402893066
1996-10-01T00:00:00Z,-28.41,153.02,11.757853507995605
1996-11-01T00:00:00Z,-28.41,153.02,13.681652069091797
1996-12-01T00:00:00Z,-28.41,153.02,15.81790542602539
1997-01-01T00:00:00Z,-28.41,153.02,15.863348960876465
1997-02-01T00:00:00Z,-28.41,153.02,18.12503433227539
1997-03-01T00:00:00Z,-28.41,153.02,15.93536376953125
1997-04-01T00:00:00Z,-28.41,153.02,11.711265563964844
1997-05-01T00:00:00Z,-28.41,153.02,10.717144012451172
1997-06-01T00:00:00Z,-28.41,153.02,6.624014854431152
1997-07-01T00:00:00Z,-28.41,153.02,6.240236759185791
1997-08-01T00:00:00Z,-28.41,153.02,5.0562520027160645
1997-09-01T00:00:00Z,-28.41,153.02,9.791987419128418
1997-10-01T00:00:00Z,-28.41,153.02,11.899092674255371
1997-11-01T00:00:00Z,-28.41,153.02,15.784208297729492
1997-12-01T00:00:00Z,-28.41,153.02,18.055160522460938
1998-01-01T00:00:00Z,-28.41,153.02,17.853036880493164
1998-02-01T00:00:00Z,-28.41,153.02,18.493385314941406
1998-03-01T00:00:00Z,-28.41,153.02,16.22471809387207
1998-04-01T00:00:00Z,-28.41,153.02,14.375385284423828
1998-05-01T00:00:00Z,-28.41,153.02,10.216567993164062
1998-06-01T00:00:00Z,-28.41,153.02,7.723934173583984
1998-07-01T00:00:00Z,-28.41,153.02,7.656004905700684
1998-08-01T00:00:00Z,-28.41,153.02,9.05294132232666
1998-09-01T00:00:00Z,-28.41,153.02,11.383416175842285
1998-10-01T00:00:00Z,-28.41,153.02,12.021469116210938
1998-11-01T00:00:00Z,-28.41,153.02,13.36614990234375
1998-12-01T00:00:00Z,-28.41,153.02,16.18281364440918
1999-01-01T00:00:00Z,-28.41,153.02,17.553741455078125
1999-02-01T00:00:00Z,-28.41,153.02,17.41183090209961
1999-03-01T00:00:00Z,-28.41,153.02,16.612308502197266
1999-04-01T00:00:00Z,-28.41,153.02,12.115917205810547
1999-05-01T00:00:00Z,-28.41,153.02,11.683113098144531
1999-06-01T00:00:00Z,-28.41,153.02,7.3692827224731445
1999-07-01T00:00:00Z,-28.41,153.02,8.01594066619873
1999-08-01T00:00:00Z,-28.41,153.02,7.285088539123535
1999-09-01T00:00:00Z,-28.41,153.02,9.716323852539062
1999-10-01T00:00:00Z,-28.41,153.02,13.326667785644531
1999-11-01T00:00:00Z,-28.41,153.02,12.944485664367676
1999-12-01T00:00:00Z,-28.41,153.02,14.02746868133545
2000-01-01T00:00:00Z,-28.41,153.02,16.319068908691406
2000-02-01T00:00:00Z,-28.41,153.02,15.703906059265137
2000-03-01T00:00:00Z,-28.41,153.02,16.43065071105957
2000-04-01T00:00:00Z,-28.41,153.02,13.857890129089355
2000-05-01T00:00:00Z,-28.41,153.02,10.48838996887207
2000-06-01T00:00:00Z,-28.41,153.02,6.257184028625488
2000-07-01T00:00:00Z,-28.41,153.02,5.210703372955322
2000-08-01T00:00:00Z,-28.41,153.02,5.896775722503662
2000-09-01T00:00:00Z,-28.41,153.02,9.532034873962402
2000-10-01T00:00:00Z,-28.41,153.02,12.239261627197266
2000-11-01T00:00:00Z,-28.41,153.02,14.2251558303833
2000-12-01T00:00:00Z,-28.41,153.02,16.45468521118164
2001-01-01T00:00:00Z,-28.41,153.02,17.30933380126953
2001-02-01T00:00:00Z,-28.41,153.02,16.64887046813965
2001-03-01T00:00:00Z,-28.41,153.02,17.000104904174805
2001-04-01T00:00:00Z,-28.41,153.02,13.249832153320312
2001-05-01T00:00:00Z,-28.41,153.02,9.170633316040039
2001-06-01T00:00:00Z,-28.41,153.02,7.662818908691406
2001-07-01T00:00:00Z,-28.41,153.02,5.938082218170166
2001-08-01T00:00:00Z,-28.41,153.02,5.551427364349365
2001-09-01T00:00:00Z,-28.41,153.02,8.926434516906738
2001-10-01T00:00:00Z,-28.41,153.02,11.580633163452148
2001-11-01T00:00:00Z,-28.41,153.02,13.817112922668457
2001-12-01T00:00:00Z,-28.41,153.02,17.153160095214844
2002-01-01T00:00:00Z,-28.41,153.02,17.442989349365234
2002-02-01T00:00:00Z,-28.41,153.02,17.802936553955078
2002-03-01T00:00:00Z,-28.41,153.02,15.682516098022461
2002-04-01T00:00:00Z,-28.41,153.02,13.25293254852295
2002-05-01T00:00:00Z,-28.41,153.02,9.094893455505371
2002-06-01T00:00:00Z,-28.41,153.02,6.873563289642334
2002-07-01T00:00:00Z,-28.41,153.02,2.840546131134033
2002-08-01T00:00:00Z,-28.41,153.02,6.541284084320068
2002-09-01T00:00:00Z,-28.41,153.02,9.443160057067871
2002-10-01T00:00:00Z,-28.41,153.02,11.781402587890625
2002-11-01T00:00:00Z,-28.41,153.02,14.796908378601074
2002-12-01T00:00:00Z,-28.41,153.02,15.803426742553711
2003-01-01T00:00:00Z,-28.41,153.02,16.17182159423828
2003-02-01T00:00:00Z,-28.41,153.02,17.639774322509766
2003-03-01T00:00:00Z,-28.41,153.02,15.313847541809082
2003-04-01T00:00:00Z,-28.41,153.02,12.900432586669922
2003-05-01T00:00:00Z,-28.41,153.02,9.89106559753418
2003-06-01T00:00:00Z,-28.41,153.02,7.771172046661377
2003-07-01T00:00:00Z,-28.41,153.02,5.629648685455322
2003-08-01T00:00:00Z,-28.41,153.02,6.602173328399658
2003-09-01T00:00:00Z,-28.41,153.02,8.929909706115723
2003-10-01T00:00:00Z,-28.41,153.02,11.246824264526367
2003-11-01T00:00:00Z,-28.41,153.02,12.952152252197266
2003-12-01T00:00:00Z,-28.41,153.02,16.997127532958984
2004-01-01T00:00:00Z,-28.41,153.02,18.641773223876953
2004-02-01T00:00:00Z,-28.41,153.02,18.179094314575195
2004-03-01T00:00:00Z,-28.41,153.02,16.53546142578125
2004-04-01T00:00:00Z,-28.41,153.02,13.943130493164062
2004-05-01T00:00:00Z,-28.41,153.02,8.260083198547363
2004-06-01T00:00:00Z,-28.41,153.02,5.84708309173584
2004-07-01T00:00:00Z,-28.41,153.02,5.222908020019531
2004-08-01T00:00:00Z,-28.41,153.02,5.557341575622559
2004-09-01T00:00:00Z,-28.41,153.02,8.593636512756348
2004-10-01T00:00:00Z,-28.41,153.02,12.859453201293945
2004-11-01T00:00:00Z,-28.41,153.02,14.297382354736328
2004-12-01T00:00:00Z,-28.41,153.02,16.324951171875
2005-01-01T00:00:00Z,-28.41,153.02,17.70272445678711
2005-02-01T00:00:00Z,-28.41,153.02,17.699493408203125
2005-03-01T00:00:00Z,-28.41,153.02,14.549159049987793
2005-04-01T00:00:00Z,-28.41,153.02,13.756332397460938
2005-05-01T00:00:00Z,-28.41,153.02,9.500783920288086
2005-06-01T00:00:00Z,-28.41,153.02,8.690767288208008
2005-07-01T00:00:00Z,-28.41,153.02,6.873169898986816
2005-08-01T00:00:00Z,-28.41,153.02,5.737067699432373
2005-09-01T00:00:00Z,-28.41,153.02,9.724617004394531
2005-10-01T00:00:00Z,-28.41,153.02,13.937246322631836
2005-11-01T00:00:00Z,-28.41,153.02,15.512319564819336
2005-12-01T00:00:00Z,-28.41,153.02,17.632802963256836
2006-01-01T00:00:00Z,-28.41,153.02,18.814172744750977
2006-02-01T00:00:00Z,-28.41,153.02,18.377538681030273
2006-03-01T00:00:00Z,-28.41,153.02,16.077919006347656
2006-04-01T00:00:00Z,-28.41,153.02,12.455117225646973
2006-05-01T00:00:00Z,-28.41,153.02,7.575839996337891
2006-06-01T00:00:00Z,-28.41,153.02,6.8502349853515625
2006-07-01T00:00:00Z,-28.41,153.02,6.066248416900635
2006-08-01T00:00:00Z,-28.41,153.02,6.509947299957275
2006-09-01T00:00:00Z,-28.41,153.02,10.402412414550781
2006-10-01T00:00:00Z,-28.41,153.02,12.178983688354492
2006-11-01T00:00:00Z,-28.41,153.02,13.913161277770996
2006-12-01T00:00:00Z,-28.41,153.02,14.621713638305664
2007-01-01T00:00:00Z,-28.41,153.02,17.241270065307617
2007-02-01T00:00:00Z,-28.41,153.02,16.85535430908203
2007-03-01T00:00:00Z,-28.41,153.02,16.389015197753906
2007-04-01T00:00:00Z,-28.41,153.02,12.833879470825195
2007-05-01T00:00:00Z,-28.41,153.02,11.197149276733398
2007-06-01T00:00:00Z,-28.41,153.02,7.2171630859375
2007-07-01T00:00:00Z,-28.41,153.02,3.552492141723633
2007-08-01T00:00:00Z,-28.41,153.02,7.850656986236572
2007-09-01T00:00:00Z,-28.41,153.02,9.447927474975586
2007-10-01T00:00:00Z,-28.41,153.02,13.13573169708252
2007-11-01T00:00:00Z,-28.41,153.02,14.545150756835938
2007-12-01T00:00:00Z,-28.41,153.02,16.89583396911621
2008-01-01T00:00:00Z,-28.41,153.02,18.062461853027344
2008-02-01T00:00:00Z,-28.41,153.02,16.863597869873047
2008-03-01T00:00:00Z,-28.41,153.02,14.24927806854248
2008-04-01T00:00:00Z,-28.41,153.02,11.406155586242676
2008-05-01T00:00:00Z,-28.41,153.02,8.026092529296875
2008-06-01T00:00:00Z,-28.41,153.02,8.337980270385742
2008-07-01T00:00:00Z,-28.41,153.02,6.1237006187438965
2008-08-01T00:00:00Z,-28.41,153.02,4.294636249542236
2008-09-01T00:00:00Z,-28.41,153.02,10.991101264953613
2008-10-01T00:00:00Z,-28.41,153.02,11.80616569519043
2008-11-01T00:00:00Z,-28.41,153.02,15.34779167175293
2008-12-01T00:00:00Z,-28.41,153.02,16.377826690673828
2009-01-01T00:00:00Z,-28.41,153.02,17.430377960205078
2009-02-01T00:00:00Z,-28.41,153.02,17.421701431274414
2009-03-01T00:00:00Z,-28.41,153.02,15.911797523498535
2009-04-01T00:00:00Z,-28.41,153.02,13.806427001953125
2009-05-01T00:00:00Z,-28.41,153.02,9.921636581420898
2009-06-01T00:00:00Z,-28.41,153.02,7.572494983673096
2009-07-01T00:00:00Z,-28.41,153.02,5.692433834075928
2009-08-01T00:00:00Z,-28.41,153.02,7.704000949859619
2009-09-01T00:00:00Z,-28.41,153.02,8.974141120910645
2009-10-01T00:00:00Z,-28.41,153.02,11.528120040893555
2009-11-01T00:00:00Z,-28.41,153.02,15.962652206420898
2009-12-01T00:00:00Z,-28.41,153.02,17.762468338012695
2010-01-01T00:00:00Z,-28.41,153.02,17.654644012451172
2010-02-01T00:00:00Z,-28.41,153.02,18.129858016967773
2010-03-01T00:00:00Z,-28.41,153.02,16.48475456237793
2010-04-01T00:00:00Z,-28.41,153.02,13.966355323791504
2010-05-01T00:00:00Z,-28.41,153.02,9.578876495361328
2010-06-01T00:00:00Z,-28.41,153.02,7.212687015533447
2010-07-01T00:00:00Z,-28.41,153.02,7.552918910980225
2010-08-01T00:00:00Z,-28.41,153.02,6.5333685874938965
2010-09-01T00:00:00Z,-28.41,153.02,11.652199745178223
2010-10-01T00:00:00Z,-28.41,153.02,12.593592643737793
2010-11-01T00:00:00Z,-28.41,153.02,14.775653839111328
2010-12-01T00:00:00Z,-28.41,153.02,16.99559211730957
2011-01-01T00:00:00Z,-28.41,153.02,17.845256805419922
2011-02-01T00:00:00Z,-28.41,153.02,17.80548667907715
2011-03-01T00:00:00Z,-28.41,153.02,16.65962791442871
2011-04-01T00:00:00Z,-28.41,153.02,13.434557914733887
2011-05-01T00:00:00Z,-28.41,153.02,8.387776374816895
2011-06-01T00:00:00Z,-28.41,153.02,6.322244644165039
2011-07-01T00:00:00Z,-28.41,153.02,4.932432174682617
2011-08-01T00:00:00Z,-28.41,153.02,7.1985063552856445
2011-09-01T00:00:00Z,-28.41,153.02,8.436108589172363
2011-10-01T00:00:00Z,-28.41,153.02,11.63562297821045
2011-11-01T00:00:00Z,-28.41,153.02,15.909038543701172
2011-12-01T00:00:00Z,-28.41,153.02,14.808879852294922
2012-01-01T00:00:00Z,-28.41,153.02,17.037033081054688
2012-02-01T00:00:00Z,-28.41,153.02,17.240249633789062
2012-03-01T00:00:00Z,-28.41,153.02,15.842796325683594
2012-04-01T00:00:00Z,-28.41,153.02,13.461301803588867
2012-05-01T00:00:00Z,-28.41,153.02,8.369961738586426
2012-06-01T00:00:00Z,-28.41,153.02,7.800419330596924
2012-07-01T00:00:00Z,-28.41,153.02,6.777566432952881
2012-08-01T00:00:00Z,-28.41,153.02,5.166422367095947
2012-09-01T00:00:00Z,-28.41,153.02,8.514711380004883
2012-10-01T00:00:00Z,-28.41,153.02,11.176398277282715
2012-11-01T00:00:00Z,-28.41,153.02,14.75180435180664
2012-12-01T00:00:00Z,-28.41,153.02,16.875511169433594
