time,latitude[unit="degrees_north"],longitude[unit="degrees_east"],air_temperature[unit="C"]
1970-01-01T00:00:00Z,-32.9852,147.8852,16.01971435546875
1970-02-01T00:00:00Z,-32.9852,147.8852,17.78998374938965
1970-03-01T00:00:00Z,-32.9852,147.8852,12.771995544433594
1970-04-01T00:00:00Z,-32.9852,147.8852,10.55163860321045
1970-05-01T00:00:00Z,-32.9852,147.8852,5.398776531219482
1970-06-01T00:00:00Z,-32.9852,147.8852,4.132673263549805
1970-07-01T00:00:00Z,-32.9852,147.8852,1.4054354429244995
1970-08-01T00:00:00Z,-32.9852,147.8852,3.4438769817352295
1970-09-01T00:00:00Z,-32.9852,147.8852,5.616323471069336
1970-10-01T00:00:00Z,-32.9852,147.8852,9.972895622253418
1970-11-01T00:00:00Z,-32.9852,147.8852,11.900697708129883
1970-12-01T00:00:00Z,-32.9852,147.8852,15.883636474609375
1971-01-01T00:00:00Z,-32.9852,147.8852,17.494123458862305
1971-02-01T00:00:00Z,-32.9852,147.8852,17.278593063354492
1971-03-01T00:00:00Z,-32.9852,147.8852,17.016332626342773
1971-04-01T00:00:00Z,-32.9852,147.8852,10.86952018737793
1971-05-01T00:00:00Z,-32.9852,147.8852,6.499765872955322
1971-06-01T00:00:00Z,-32.9852,147.8852,2.3219637870788574
1971-07-01T00:00:00Z,-32.9852,147.8852,1.7122769355773926
1971-08-01T00:00:00Z,-32.9852,147.8852,4.339415550231934
1971-09-01T00:00:00Z,-32.9852,147.8852,6.7989301681518555
1971-10-01T00:00:00Z,-32.9852,147.8852,8.26500129699707
1971-11-01T00:00:00Z,-32.9852,147.8852,11.72365665435791
1971-12-01T00:00:00Z,-32.9852,147.8852,15.850276947021484
1972-01-01T00:00:00Z,-32.9852,147.8852,16.348827362060547
1972-02-01T00:00:00Z,-32.9852,147.8852,15.946732521057129
1972-03-01T00:00:00Z,-32.9852,147.8852,12.514921188354492
1972-04-01T00:00:00Z,-32.9852,147.8852,8.869235038757324
1972-05-01T00:00:00Z,-32.9852,147.8852,6.853306770324707
1972-06-01T00:00:00Z,-32.9852,147.8852,2.5719587802886963
1972-07-01T00:00:00Z,-32.9852,147.8852,2.275775909423828
1972-08-01T00:00:00Z,-32.9852,147.8852,5.6406450271606445
1972-09-01T00:00:00Z,-32.9852,147.8852,6.566086292266846
1972-10-01T00:00:00Z,-32.9852,147.8852,10.591070175170898
1972-11-01T00:00:00Z,-32.9852,147.8852,13.03515338897705
1972-12-01T00:00:00Z,-32.9852,147.8852,17.244279861450195
1973-01-01T00:00:00Z,-32.9852,147.8852,20.17502212524414
1973-02-01T00:00:00Z,-32.9852,147.8852,19.210132598876953
1973-03-01T00:00:00Z,-32.9852,147.8852,14.294934272766113
1973-04-01T00:00:00Z,-32.9852,147.8852,11.64643669128418
1973-05-01T00:00:00Z,-32.9852,147.8852,7.079654693603516
1973-06-01T00:00:00Z,-32.9852,147.8852,5.600682735443115
1973-07-01T00:00:00Z,-32.9852,147.8852,5.624431610107422
1973-08-01T00:00:00Z,-32.9852,147.8852,5.221282958984375
1973-09-01T00:00:00Z,-32.9852,147.8852,7.084467887878418
1973-10-01T00:00:00Z,-32.9852,147.8852,11.703887939453125
1973-11-01T00:00:00Z,-32.9852,147.8852,12.919424057006836
1973-12-01T00:00:00Z,-32.9852,147.8852,16.18909454345703
1974-01-01T00:00:00Z,-32.9852,147.8852,19.156307220458984
1974-02-01T00:00:00Z,-32.9852,147.8852,16.966629028320312
1974-03-01T00:00:00Z,-32.9852,147.8852,15.87270450592041
1974-04-01T00:00:00Z,-32.9852,147.8852,13.802650451660156
1974-05-01T00:00:00Z,-32.9852,147.8852,8.343817710876465
1974-06-01T00:00:00Z,-32.9852,147.8852,3.205869197845459
1974-07-01T00:00:00Z,-32.9852,147.8852,4.168241024017334
1974-08-01T00:00:00Z,-32.9852,147.8852,4.3043293952941895
1974-09-01T00:00:00Z,-32.9852,147.8852,5.588215351104736
1974-10-01T00:00:00Z,-32.9852,147.8852,9.40048599243164
1974-11-01T00:00:00Z,-32.9852,147.8852,10.50817584991455
1974-12-01T00:00:00Z,-32.9852,147.8852,13.53316879272461
1975-01-01T00:00:00Z,-32.9852,147.8852,15.333159446716309
1975-02-01T00:00:00Z,-32.9852,147.8852,17.64249038696289
1975-03-01T00:00:00Z,-32.9852,147.8852,13.704117774963379
1975-04-01T00:00:00Z,-32.9852,147.8852,9.484803199768066
1975-05-01T00:00:00Z,-32.9852,147.8852,7.012307167053223
1975-06-01T00:00:00Z,-32.9852,147.8852,4.249783515930176
1975-07-01T00:00:00Z,-32.9852,147.8852,4.7308030128479
1975-08-01T00:00:00Z,-32.9852,147.8852,4.660508155822754
1975-09-01T00:00:00Z,-32.9852,147.8852,8.721273422241211
1975-10-01T00:00:00Z,-32.9852,147.8852,9.682548522949219
1975-11-01T00:00:00Z,-32.9852,147.8852,13.14289379119873
1975-12-01T00:00:00Z,-32.9852,147.8852,18.240251541137695
1976-01-01T00:00:00Z,-32.9852,147.8852,17.218387603759766
1976-02-01T00:00:00Z,-32.9852,147.8852,17.999473571777344
1976-03-01T00:00:00Z,-32.9852,147.8852,14.580123901367188
1976-04-01T00:00:00Z,-32.9852,147.8852,9.233942985534668
1976-05-01T00:00:00Z,-32.9852,147.8852,4.93684720993042
1976-06-01T00:00:00Z,-32.9852,147.8852,3.7111587524414062
1976-07-01T00:00:00Z,-32.9852,147.8852,2.297393560409546
1976-08-01T00:00:00Z,-32.9852,147.8852,3.1117093563079834
1976-09-01T00:00:00Z,-32.9852,147.8852,5.831752300262451
1976-10-01T00:00:00Z,-32.9852,147.8852,9.69749641418457
1976-11-01T00:00:00Z,-32.9852,147.8852,11.334975242614746
1976-12-01T00:00:00Z,-32.9852,147.8852,14.54426383972168
1977-01-01T00:00:00Z,-32.9852,147.8852,17.443017959594727
1977-02-01T00:00:00Z,-32.9852,147.8852,19.393878936767578
1977-03-01T00:00:00Z,-32.9852,147.8852,14.545053482055664
1977-04-01T00:00:00Z,-32.9852,147.8852,8.660212516784668
1977-05-01T00:00:00Z,-32.9852,147.8852,8.189567565917969
1977-06-01T00:00:00Z,-32.9852,147.8852,4.187595844268799
1977-07-01T00:00:00Z,-32.9852,147.8852,1.505635142326355
1977-08-01T00:00:00Z,-32.9852,147.8852,3.4778056144714355
1977-09-01T00:00:00Z,-32.9852,147.8852,5.40693998336792
1977-10-01T00:00:00Z,-32.9852,147.8852,10.396689414978027
1977-11-01T00:00:00Z,-32.9852,147.8852,13.398914337158203
1977-12-01T00:00:00Z,-32.9852,147.8852,16.375564575195312
1978-01-01T00:00:00Z,-32.9852,147.8852,18.362625122070312
1978-02-01T00:00:00Z,-32.9852,147.8852,17.92940902709961
1978-03-01T00:00:00Z,-32.9852,147.8852,16.41048240661621
1978-04-01T00:00:00Z,-32.9852,147.8852,9.213231086730957
1978-05-01T00:00:00Z,-32.9852,147.8852,8.755203247070312
1978-06-01T00:00:00Z,-32.9852,147.8852,6.002087593078613
1978-07-01T00:00:00Z,-32.9852,147.8852,3.5483198165893555
1978-08-01T00:00:00Z,-32.9852,147.8852,3.7949635982513428
1978-09-01T00:00:00Z,-32.9852,147.8852,7.466612339019775
1978-10-01T00:00:00Z,-32.9852,147.8852,9.038517951965332
1978-11-01T00:00:00Z,-32.9852,147.8852,12.565245628356934
1978-12-01T00:00:00Z,-32.9852,147.8852,13.812146186828613
1979-01-01T00:00:00Z,-32.9852,147.8852,20.315107345581055
1979-02-01T00:00:00Z,-32.9852,147.8852,18.730710983276367
1979-03-01T00:00:00Z,-32.9852,147.8852,15.573409080505371
1979-04-01T00:00:00Z,-32.9852,147.8852,10.342855453491211
1979-05-01T00:00:00Z,-32.9852,147.8852,6.892264366149902
1979-06-01T00:00:00Z,-32.9852,147.8852,4.817661762237549
1979-07-01T00:00:00Z,-32.9852,147.8852,2.2261970043182373
1979-08-01T00:00:00Z,-32.9852,147.8852,3.783230781555176
1979-09-01T00:00:00Z,-32.9852,147.8852,6.884976387023926
1979-10-01T00:00:00Z,-32.9852,147.8852,9.874140739440918
1979-11-01T00:00:00Z,-32.9852,147.8852,14.362196922302246
1979-12-01T00:00:00Z,-32.9852,147.8852,16.451122283935547
1980-01-01T00:00:00Z,-32.9852,147.8852,17.204463958740234
1980-02-01T00:00:00Z,-32.9852,147.8852,17.655824661254883
1980-03-01T00:00:00Z,-32.9852,147.8852,14.97397232055664
1980-04-01T00:00:00Z,-32.9852,147.8852,10.84510326385498
1980-05-01T00:00:00Z,-32.9852,147.8852,8.935758590698242
1980-06-01T00:00:00Z,-32.9852,147.8852,4.822812557220459
1980-07-01T00:00:00Z,-32.9852,147.8852,3.9031074047088623
1980-08-01T00:00:00Z,-32.9852,147.8852,3.7430713176727295
1980-09-01T00:00:00Z,-32.9852,147.8852,6.243971347808838
1980-10-01T00:00:00Z,-32.9852,147.8852,11.413518905639648
1980-11-01T00:00:00Z,-32.9852,147.8852,14.577620506286621
1980-12-01T00:00:00Z,-32.9852,147.8852,17.52605628967285
1981-01-01T00:00:00Z,-32.9852,147.8852,22.169893264770508
1981-02-01T00:00:00Z,-32.9852,147.8852,20.154399871826172
1981-03-01T00:00:00Z,-32.9852,147.8852,14.195119857788086
1981-04-01T00:00:00Z,-32.9852,147.8852,11.405800819396973
1981-05-01T00:00:00Z,-32.9852,147.8852,8.779963493347168
1981-06-01T00:00:00Z,-32.9852,147.8852,5.802219867706299
1981-07-01T00:00:00Z,-32.9852,147.8852,4.5762104988098145
1981-08-01T00:00:00Z,-32.9852,147.8852,4.711671829223633
1981-09-01T00:00:00Z,-32.9852,147.8852,7.138638973236084
1981-10-01T00:00:00Z,-32.9852,147.8852,11.314799308776855
1981-11-01T00:00:00Z,-32.9852,147.8852,13.047796249389648
1981-12-01T00:00:00Z,-32.9852,147.8852,16.23906898498535
1982-01-01T00:00:00Z,-32.9852,147.8852,19.69496726989746
1982-02-01T00:00:00Z,-32.9852,147.8852,19.030818939208984
1982-03-01T00:00:00Z,-32.9852,147.8852,16.22658348083496
1982-04-01T00:00:00Z,-32.9852,147.8852,10.455945014953613
1982-05-01T00:00:00Z,-32.9852,147.8852,5.854684829711914
1982-06-01T00:00:00Z,-32.9852,147.8852,2.279215097427368
1982-07-01T00:00:00Z,-32.9852,147.8852,1.268671989440918
1982-08-01T00:00:00Z,-32.9852,147.8852,4.644039630889893
1982-09-01T00:00:00Z,-32.9852,147.8852,6.472977161407471
1982-10-01T00:00:00Z,-32.9852,147.8852,9.248817443847656
1982-11-01T00:00:00Z,-32.9852,147.8852,14.771859169006348
1982-12-01T00:00:00Z,-32.9852,147.8852,17.985004425048828
1983-01-01T00:00:00Z,-32.9852,147.8852,17.5587100982666
1983-02-01T00:00:00Z,-32.9852,147.8852,21.110910415649414
1983-03-01T00:00:00Z,-32.9852,147.8852,18.024560928344727
1983-04-01T00:00:00Z,-32.9852,147.8852,10.794757843017578
1983-05-01T00:00:00Z,-32.9852,147.8852,10.106143951416016
1983-06-01T00:00:00Z,-32.9852,147.8852,4.972805023193359
1983-07-01T00:00:00Z,-32.9852,147.8852,3.0407378673553467
1983-08-01T00:00:00Z,-32.9852,147.8852,5.314568042755127
1983-09-01T00:00:00Z,-32.9852,147.8852,7.2487969398498535
1983-10-01T00:00:00Z,-32.9852,147.8852,10.10118579864502
1983-11-01T00:00:00Z,-32.9852,147.8852,12.36018180847168
1983-12-01T00:00:00Z,-32.9852,147.8852,16.08928871154785
1984-01-01T00:00:00Z,-32.9852,147.8852,15.847972869873047
1984-02-01T00:00:00Z,-32.9852,147.8852,16.684837341308594
1984-03-01T00:00:00Z,-32.9852,147.8852,12.144505500793457
1984-04-01T00:00:00Z,-32.9852,147.8852,10.27193546295166
1984-05-01T00:00:00Z,-32.9852,147.8852,5.654394149780273
1984-06-01T00:00:00Z,-32.9852,147.8852,3.149909496307373
1984-07-01T00:00:00Z,-32.9852,147.8852,3.809704303741455
1984-08-01T00:00:00Z,-32.9852,147.8852,5.6471991539001465
1984-09-01T00:00:00Z,-32.9852,147.8852,5.919120788574219
1984-10-01T00:00:00Z,-32.9852,147.8852,9.850481033325195
1984-11-01T00:00:00Z,-32.9852,147.8852,13.587970733642578
1984-12-01T00:00:00Z,-32.9852,147.8852,14.10888671875
1985-01-01T00:00:00Z,-32.9852,147.8852,16.27485466003418
1985-02-01T00:00:00Z,-32.9852,147.8852,16.660911560058594
1985-03-01T00:00:00Z,-32.9852,147.8852,15.929987907409668
1985-04-01T00:00:00Z,-32.9852,147.8852,11.485333442687988
1985-05-01T00:00:00Z,-32.9852,147.8852,7.7177414894104
1985-06-01T00:00:00Z,-32.9852,147.8852,3.2379684448242188
1985-07-01T00:00:00Z,-32.9852,147.8852,2.7471680641174316
1985-08-01T00:00:00Z,-32.9852,147.8852,5.2979416847229
1985-09-01T00:00:00Z,-32.9852,147.8852,6.026758670806885
1985-10-01T00:00:00Z,-32.9852,147.8852,10.288737297058105
1985-11-01T00:00:00Z,-32.9852,147.8852,13.698516845703125
1985-12-01T00:00:00Z,-32.9852,147.8852,14.67663288116455
1986-01-01T00:00:00Z,-32.9852,147.8852,15.483210563659668
1986-02-01T00:00:00Z,-32.9852,147.8852,16.410566329956055
1986-03-01T00:00:00Z,-32.9852,147.8852,16.11772918701172
1986-04-01T00:00:00Z,-32.9852,147.8852,11.029620170593262
1986-05-01T00:00:00Z,-32.9852,147.8852,7.994474411010742
1986-06-01T00:00:00Z,-32.9852,147.8852,3.1600112915039062
1986-07-01T00:00:00Z,-32.9852,147.8852,4.28671932220459
1986-08-01T00:00:00Z,-32.9852,147.8852,4.439916133880615
1986-09-01T00:00:00Z,-32.9852,147.8852,7.213947772979736
1986-10-01T00:00:00Z,-32.9852,147.8852,8.213626861572266
1986-11-01T00:00:00Z,-32.9852,147.8852,12.181268692016602
1986-12-01T00:00:00Z,-32.9852,147.8852,13.899170875549316
1987-01-01T00:00:00Z,-32.9852,147.8852,16.58448600769043
1987-02-01T00:00:00Z,-32.9852,147.8852,18.161075592041016
1987-03-01T00:00:00Z,-32.9852,147.8852,13.111692428588867
1987-04-01T00:00:00Z,-32.9852,147.8852,10.70523452758789
1987-05-01T00:00:00Z,-32.9852,147.8852,7.520134925842285
1987-06-01T00:00:00Z,-32.9852,147.8852,5.8888068199157715
1987-07-01T00:00:00Z,-32.9852,147.8852,2.2046942710876465
1987-08-01T00:00:00Z,-32.9852,147.8852,6.522665977478027
1987-09-01T00:00:00Z,-32.9852,147.8852,6.087281703948975
1987-10-01T00:00:00Z,-32.9852,147.8852,9.015161514282227
1987-11-01T00:00:00Z,-32.9852,147.8852,13.731626510620117
1987-12-01T00:00:00Z,-32.9852,147.8852,16.000144958496094
1988-01-01T00:00:00Z,-32.9852,147.8852,19.437969207763672
1988-02-01T00:00:00Z,-32.9852,147.8852,16.115543365478516
1988-03-01T00:00:00Z,-32.9852,147.8852,14.926340103149414
1988-04-01T00:00:00Z,-32.9852,147.8852,13.10603141784668
1988-05-01T00:00:00Z,-32.9852,147.8852,8.953922271728516
1988-06-01T00:00:00Z,-32.9852,147.8852,4.710758209228516
1988-07-01T00:00:00Z,-32.9852,147.8852,5.606091022491455
1988-08-01T00:00:00Z,-32.9852,147.8852,4.675346851348877
1988-09-01T00:00:00Z,-32.9852,147.8852,7.680225372314453
1988-10-01T00:00:00Z,-32.9852,147.8852,9.828439712524414
1988-11-01T00:00:00Z,-32.9852,147.8852,12.796059608459473
1988-12-01T00:00:00Z,-32.9852,147.8852,17.670833587646484
1989-01-01T00:00:00Z,-32.9852,147.8852,15.83571720123291
1989-02-01T00:00:00Z,-32.9852,147.8852,17.095752716064453
1989-03-01T00:00:00Z,-32.9852,147.8852,17.14073371887207
1989-04-01T00:00:00Z,-32.9852,147.8852,13.484782218933105
1989-05-01T00:00:00Z,-32.9852,147.8852,10.574996948242188
1989-06-01T00:00:00Z,-32.9852,147.8852,5.255825996398926
1989-07-01T00:00:00Z,-32.9852,147.8852,4.2359490394592285
1989-08-01T00:00:00Z,-32.9852,147.8852,3.4715847969055176
1989-09-01T00:00:00Z,-32.9852,147.8852,4.8853840827941895
1989-10-01T00:00:00Z,-32.9852,147.8852,8.855520248413086
1989-11-01T00:00:00Z,-32.9852,147.8852,13.145540237426758
1989-12-01T00:00:00Z,-32.9852,147.8852,16.041383743286133
1990-01-01T00:00:00Z,-32.9852,147.8852,18.68474006652832
1990-02-01T00:00:00Z,-32.9852,147.8852,17.56648063659668
1990-03-01T00:00:00Z,-32.9852,147.8852,16.33486557006836
1990-04-01T00:00:00Z,-32.9852,147.8852,13.810422897338867
1990-05-01T00:00:00Z,-32.9852,147.8852,7.9675774574279785
1990-06-01T00:00:00Z,-32.9852,147.8852,4.486791133880615
1990-07-01T00:00:00Z,-32.9852,147.8852,5.389299392700195
1990-08-01T00:00:00Z,-32.9852,147.8852,5.261463642120361
1990-09-01T00:00:00Z,-32.9852,147.8852,6.635164260864258
1990-10-01T00:00:00Z,-32.9852,147.8852,9.421813011169434
1990-11-01T00:00:00Z,-32.9852,147.8852,12.914037704467773
1990-12-01T00:00:00Z,-32.9852,147.8852,17.525306701660156
1991-01-01T00:00:00Z,-32.9852,147.8852,19.226224899291992
1991-02-01T00:00:00Z,-32.9852,147.8852,20.001060485839844
1991-03-01T00:00:00Z,-32.9852,147.8852,14.32213306427002
1991-04-01T00:00:00Z,-32.9852,147.8852,9.19908618927002
1991-05-01T00:00:00Z,-32.9852,147.8852,7.869614601135254
1991-06-01T00:00:00Z,-32.9852,147.8852,8.194659233093262
1991-07-01T00:00:00Z,-32.9852,147.8852,4.112208366394043
1991-08-01T00:00:00Z,-32.9852,147.8852,4.040200233459473
1991-09-01T00:00:00Z,-32.9852,147.8852,5.775197505950928
1991-10-01T00:00:00Z,-32.9852,147.8852,10.462138175964355
1991-11-01T00:00:00Z,-32.9852,147.8852,12.633374214172363
1991-12-01T00:00:00Z,-32.9852,147.8852,15.181718826293945
1992-01-01T00:00:00Z,-32.9852,147.8852,15.722675323486328
1992-02-01T00:00:00Z,-32.9852,147.8852,16.831567764282227
1992-03-01T00:00:00Z,-32.9852,147.8852,15.070404052734375
1992-04-01T00:00:00Z,-32.9852,147.8852,11.628935813903809
1992-05-01T00:00:00Z,-32.9852,147.8852,7.266704082489014
1992-06-01T00:00:00Z,-32.9852,147.8852,4.463991641998291
1992-07-01T00:00:00Z,-32.9852,147.8852,3.3110222816467285
1992-08-01T00:00:00Z,-32.9852,147.8852,3.61974835395813
1992-09-01T00:00:00Z,-32.9852,147.8852,5.594940662384033
1992-10-01T00:00:00Z,-32.9852,147.8852,10.070686340332031
1992-11-01T00:00:00Z,-32.9852,147.8852,11.394352912902832
1992-12-01T00:00:00Z,-32.9852,147.8852,15.691277503967285
1993-01-01T00:00:00Z,-32.9852,147.8852,19.078458786010742
1993-02-01T00:00:00Z,-32.9852,147.8852,17.799636840820312
1993-03-01T00:00:00Z,-32.9852,147.8852,14.222946166992188
1993-04-01T00:00:00Z,-32.9852,147.8852,10.789739608764648
1993-05-01T00:00:00Z,-32.9852,147.8852,6.931382179260254
1993-06-01T00:00:00Z,-32.9852,147.8852,4.07273006439209
1993-07-01T00:00:00Z,-32.9852,147.8852,6.214163780212402
1993-08-01T00:00:00Z,-32.9852,147.8852,4.804626941680908
1993-09-01T00:00:00Z,-32.9852,147.8852,7.272994518280029
1993-10-01T00:00:00Z,-32.9852,147.8852,9.117203712463379
1993-11-01T00:00:00Z,-32.9852,147.8852,12.290397644042969
1993-12-01T00:00:00Z,-32.9852,147.8852,15.17275333404541
1994-01-01T00:00:00Z,-32.9852,147.8852,16.65985679626465
1994-02-01T00:00:00Z,-32.9852,147.8852,18.77002716064453
1994-03-01T00:00:00Z,-32.9852,147.8852,12.711353302001953
1994-04-01T00:00:00Z,-32.9852,147.8852,9.495965957641602
1994-05-01T00:00:00Z,-32.9852,147.8852,5.858372688293457
1994-06-01T00:00:00Z,-32.9852,147.8852,5.098770618438721
1994-07-01T00:00:00Z,-32.9852,147.8852,2.03245210647583
1994-08-01T00:00:00Z,-32.9852,147.8852,1.9991028308868408
1994-09-01T00:00:00Z,-32.9852,147.8852,4.746196269989014
1994-10-01T00:00:00Z,-32.9852,147.8852,9.2489595413208
1994-11-01T00:00:00Z,-32.9852,147.8852,13.867990493774414
1994-12-01T00:00:00Z,-32.9852,147.8852,18.010040283203125
1995-01-01T00:00:00Z,-32.9852,147.8852,18.32967758178711
1995-02-01T00:00:00Z,-32.9852,147.8852,16.66990089416504
1995-03-01T00:00:00Z,-32.9852,147.8852,13.105545043945312
1995-04-01T00:00:00Z,-32.9852,147.8852,8.057150840759277
1995-05-01T00:00:00Z,-32.9852,147.8852,9.670190811157227
1995-06-01T00:00:00Z,-32.9852,147.8852,5.954375267028809
1995-07-01T00:00:00Z,-32.9852,147.8852,3.622955799102783
1995-08-01T00:00:00Z,-32.9852,147.8852,4.698797225952148
1995-09-01T00:00:00Z,-32.9852,147.8852,6.760931015014648
1995-10-01T00:00:00Z,-32.9852,147.8852,10.458608627319336
1995-11-01T00:00:00Z,-32.9852,147.8852,14.326173782348633
1995-12-01T00:00:00Z,-32.9852,147.8852,14.851808547973633
1996-01-01T00:00:00Z,-32.9852,147.8852,18.033477783203125
1996-02-01T00:00:00Z,-32.9852,147.8852,14.893916130065918
1996-03-01T00:00:00Z,-32.9852,147.8852,14.164397239685059
1996-04-01T00:00:00Z,-32.9852,147.8852,8.223305702209473
1996-05-01T00:00:00Z,-32.9852,147.8852,7.856700420379639
1996-06-01T00:00:00Z,-32.9852,147.8852,5.530284404754639
1996-07-01T00:00:00Z,-32.9852,147.8852,4.93058443069458
1996-08-01T00:00:00Z,-32.9852,147.8852,4.747812271118164
1996-09-01T00:00:00Z,-32.9852,147.8852,6.072650909423828
1996-10-01T00:00:00Z,-32.9852,147.8852,9.865240097045898
1996-11-01T00:00:00Z,-32.9852,147.8852,11.43718147277832
1996-12-01T00:00:00Z,-32.9852,147.8852,15.050662994384766
1997-01-01T00:00:00Z,-32.9852,147.8852,17.349308013916016
1997-02-01T00:00:00Z,-32.9852,147.8852,20.046024322509766
1997-03-01T00:00:00Z,-32.9852,147.8852,13.640971183776855
1997-04-01T00:00:00Z,-32.9852,147.8852,8.564713478088379
1997-05-01T00:00:00Z,-32.9852,147.8852,8.555641174316406
1997-06-01T00:00:00Z,-32.9852,147.8852,3.2203316688537598
1997-07-01T00:00:00Z,-32.9852,147.8852,1.5611684322357178
1997-08-01T00:00:00Z,-32.9852,147.8852,2.941263198852539
1997-09-01T00:00:00Z,-32.9852,147.8852,7.224074840545654
1997-10-01T00:00:00Z,-32.9852,147.8852,9.419193267822266
1997-11-01T00:00:00Z,-32.9852,147.8852,14.993687629699707
1997-12-01T00:00:00Z,-32.9852,147.8852,17.228775024414062
1998-01-01T00:00:00Z,-32.9852,147.8852,19.3870792388916
1998-02-01T00:00:00Z,-32.9852,147.8852,17.4827823638916
1998-03-01T00:00:00Z,-32.9852,147.8852,15.5897216796875
1998-04-01T00:00:00Z,-32.9852,147.8852,11.195636749267578
1998-05-01T00:00:00Z,-32.9852,147.8852,7.357194423675537
1998-06-01T00:00:00Z,-32.9852,147.8852,4.4264726638793945
1998-07-01T00:00:00Z,-32.9852,147.8852,4.009061336517334
1998-08-01T00:00:00Z,-32.9852,147.8852,6.1426215171813965
1998-09-01T00:00:00Z,-32.9852,147.8852,8.432080268859863
1998-10-01T00:00:00Z,-32.9852,147.8852,8.754851341247559
1998-11-01T00:00:00Z,-32.9852,147.8852,11.64020824432373
1998-12-01T00:00:00Z,-32.9852,147.8852,15.887945175170898
1999-01-01T00:00:00Z,-32.9852,147.8852,20.08453941345215
1999-02-01T00:00:00Z,-32.9852,147.8852,16.95456886291504
1999-03-01T00:00:00Z,-32.9852,147.8852,14.897440910339355
1999-04-01T00:00:00Z,-32.9852,147.8852,8.052818298339844
1999-05-01T00:00:00Z,-32.9852,147.8852,6.408051490783691
1999-06-01T00:00:00Z,-32.9852,147.8852,4.652641296386719
1999-07-01T00:00:00Z,-32.9852,147.8852,3.9339795112609863
1999-08-01T00:00:00Z,-32.9852,147.8852,3.7373101711273193
1999-09-01T00:00:00Z,-32.9852,147.8852,8.082460403442383
1999-10-01T00:00:00Z,-32.9852,147.8852,11.401610374450684
1999-11-01T00:00:00Z,-32.9852,147.8852,10.755359649658203
1999-12-01T00:00:00Z,-32.9852,147.8852,15.13963508605957
2000-01-01T00:00:00Z,-32.9852,147.8852,15.395029067993164
2000-02-01T00:00:00Z,-32.9852,147.8852,18.876806259155273
2000-03-01T00:00:00Z,-32.9852,147.8852,16.98690414428711
2000-04-01T00:00:00Z,-32.9852,147.8852,11.188484191894531
2000-05-01T00:00:00Z,-32.9852,147.8852,6.739652633666992
2000-06-01T00:00:00Z,-32.9852,147.8852,3.5587947368621826
2000-07-01T00:00:00Z,-32.9852,147.8852,2.3932034969329834
2000-08-01T00:00:00Z,-32.9852,147.8852,4.012534141540527
2000-09-01T00:00:00Z,-32.9852,147.8852,6.896675109863281
2000-10-01T00:00:00Z,-32.9852,147.8852,9.463032722473145
2000-11-01T00:00:00Z,-32.9852,147.8852,15.126999855041504
2000-12-01T00:00:00Z,-32.9852,147.8852,16.12173080444336
2001-01-01T00:00:00Z,-32.9852,147.8852,19.778667449951172
2001-02-01T00:00:00Z,-32.9852,147.8852,19.680631637573242
2001-03-01T00:00:00Z,-32.9852,147.8852,14.138047218322754
2001-04-01T00:00:00Z,-32.9852,147.8852,10.35262680053711
2001-05-01T00:00:00Z,-32.9852,147.8852,5.629819393157959
2001-06-01T00:00:00Z,-32.9852,147.8852,4.016901016235352
2001-07-01T00:00:00Z,-32.9852,147.8852,3.6799747943878174
2001-08-01T00:00:00Z,-32.9852,147.8852,3.4155526161193848
2001-09-01T00:00:00Z,-32.9852,147.8852,7.8992180824279785
2001-10-01T00:00:00Z,-32.9852,147.8852,8.206340789794922
2001-11-01T00:00:00Z,-32.9852,147.8852,12.347997665405273
2001-12-01T00:00:00Z,-32.9852,147.8852,14.725297927856445
2002-01-01T00:00:00Z,-32.9852,147.8852,16.707759857177734
2002-02-01T00:00:00Z,-32.9852,147.8852,17.114273071289062
2002-03-01T00:00:00Z,-32.9852,147.8852,14.164352416992188
2002-04-01T00:00:00Z,-32.9852,147.8852,12.166529655456543
2002-05-01T00:00:00Z,-32.9852,147.8852,6.453615188598633
2002-06-01T00:00:00Z,-32.9852,147.8852,3.9179670810699463
2002-07-01T00:00:00Z,-32.9852,147.8852,1.619890809059143
2002-08-01T00:00:00Z,-32.9852,147.8852,3.57966685295105
2002-09-01T00:00:00Z,-32.9852,147.8852,6.875734806060791
2002-10-01T00:00:00Z,-32.9852,147.8852,9.407614707946777
2002-11-01T00:00:00Z,-32.9852,147.8852,15.334952354431152
2002-12-01T00:00:00Z,-32.9852,147.8852,16.71470832824707
2003-01-01T00:00:00Z,-32.9852,147.8852,19.46428108215332
2003-02-01T00:00:00Z,-32.9852,147.8852,20.08562660217285
2003-03-01T00:00:00Z,-32.9852,147.8852,14.010048866271973
2003-04-01T00:00:00Z,-32.9852,147.8852,11.199358940124512
2003-05-01T00:00:00Z,-32.9852,147.8852,7.537710666656494
2003-06-01T00:00:00Z,-32.9852,147.8852,5.889914512634277
2003-07-01T00:00:00Z,-32.9852,147.8852,4.086842060089111
2003-08-01T00:00:00Z,-32.9852,147.8852,4.169854164123535
2003-09-01T00:00:00Z,-32.9852,147.8852,5.82712459564209
2003-10-01T00:00:00Z,-32.9852,147.8852,8.117756843566895
2003-11-01T00:00:00Z,-32.9852,147.8852,13.105208396911621
2003-12-01T00:00:00Z,-32.9852,147.8852,17.849239349365234
2004-01-01T00:00:00Z,-32.9852,147.8852,18.493240356445312
2004-02-01T00:00:00Z,-32.9852,147.8852,20.098630905151367
2004-03-01T00:00:00Z,-32.9852,147.8852,14.54533863067627
2004-04-01T00:00:00Z,-32.9852,147.8852,11.1367826461792
2004-05-01T00:00:00Z,-32.9852,147.8852,4.885189056396484
2004-06-01T00:00:00Z,-32.9852,147.8852,5.190904140472412
2004-07-01T00:00:00Z,-32.9852,147.8852,3.1336233615875244
2004-08-01T00:00:00Z,-32.9852,147.8852,4.7852935791015625
2004-09-01T00:00:00Z,-32.9852,147.8852,6.088839530944824
2004-10-01T00:00:00Z,-32.9852,147.8852,9.75741958618164
2004-11-01T00:00:00Z,-32.9852,147.8852,12.974824905395508
2004-12-01T00:00:00Z,-32.9852,147.8852,16.01640510559082
2005-01-01T00:00:00Z,-32.9852,147.8852,18.50894546508789
2005-02-01T00:00:00Z,-32.9852,147.8852,16.700700759887695
2005-03-01T00:00:00Z,-32.9852,147.8852,14.112028121948242
2005-04-01T00:00:00Z,-32.9852,147.8852,13.15557861328125
2005-05-01T00:00:00Z,-32.9852,147.8852,5.770486831665039
2005-06-01T00:00:00Z,-32.9852,147.8852,6.398897171020508
2005-07-01T00:00:00Z,-32.9852,147.8852,5.205175399780273
2005-08-01T00:00:00Z,-32.9852,147.8852,3.911298990249634
2005-09-01T00:00:00Z,-32.9852,147.8852,6.975017547607422
2005-10-01T00:00:00Z,-32.9852,147.8852,10.26091194152832
2005-11-01T00:00:00Z,-32.9852,147.8852,14.041305541992188
2005-12-01T00:00:00Z,-32.9852,147.8852,15.493624687194824
2006-01-01T00:00:00Z,-32.9852,147.8852,21.322147369384766
2006-02-01T00:00:00Z,-32.9852,147.8852,18.72154426574707
2006-03-01T00:00:00Z,-32.9852,147.8852,15.711248397827148
2006-04-01T00:00:00Z,-32.9852,147.8852,7.705708026885986
2006-05-01T00:00:00Z,-32.9852,147.8852,3.2444984912872314
2006-06-01T00:00:00Z,-32.9852,147.8852,1.9882596731185913
2006-07-01T00:00:00Z,-32.9852,147.8852,4.148373126983643
2006-08-01T00:00:00Z,-32.9852,147.8852,2.452725648880005
2006-09-01T00:00:00Z,-32.9852,147.8852,6.21853494644165
2006-10-01T00:00:00Z,-32.9852,147.8852,10.258942604064941
2006-11-01T00:00:00Z,-32.9852,147.8852,14.141436576843262
2006-12-01T00:00:00Z,-32.9852,147.8852,16.918947219848633
2007-01-01T00:00:00Z,-32.9852,147.8852,19.229551315307617
2007-02-01T00:00:00Z,-32.9852,147.8852,20.181446075439453
2007-03-01T00:00:00Z,-32.9852,147.8852,17.371654510498047
2007-04-01T00:00:00Z,-32.9852,147.8852,11.727779388427734
2007-05-01T00:00:00Z,-32.9852,147.8852,9.462953567504883
2007-06-01T00:00:00Z,-32.9852,147.8852,3.908724069595337
2007-07-01T00:00:00Z,-32.9852,147.8852,2.9404752254486084
2007-08-01T00:00:00Z,-32.9852,147.8852,5.497831344604492
2007-09-01T00:00:00Z,-32.9852,147.8852,5.565859317779541
2007-10-01T00:00:00Z,-32.9852,147.8852,10.767060279846191
2007-11-01T00:00:00Z,-32.9852,147.8852,16.011703491210938
2007-12-01T00:00:00Z,-32.9852,147.8852,16.972362518310547
2008-01-01T00:00:00Z,-32.9852,147.8852,19.338768005371094
2008-02-01T00:00:00Z,-32.9852,147.8852,16.121633529663086
2008-03-01T00:00:00Z,-32.9852,147.8852,14.596807479858398
2008-04-01T00:00:00Z,-32.9852,147.8852,8.923076629638672
2008-05-01T00:00:00Z,-32.9852,147.8852,5.881588935852051
2008-06-01T00:00:00Z,-32.9852,147.8852,6.639003753662109
2008-07-01T00:00:00Z,-32.9852,147.8852,3.2399368286132812
2008-08-01T00:00:00Z,-32.9852,147.8852,2.996213674545288
2008-09-01T00:00:00Z,-32.9852,147.8852,6.872991561889648
2008-10-01T00:00:00Z,-32.9852,147.8852,11.016983985900879
2008-11-01T00:00:00Z,-32.9852,147.8852,13.948880195617676
2008-12-01T00:00:00Z,-32.9852,147.8852,15.633636474609375
2009-01-01T00:00:00Z,-32.9852,147.8852,19.280010223388672
2009-02-01T00:00:00Z,-32.9852,147.8852,19.197288513183594
2009-03-01T00:00:00Z,-32.9852,147.8852,15.301087379455566
2009-04-01T00:00:00Z,-32.9852,147.8852,11.296806335449219
2009-05-01T00:00:00Z,-32.9852,147.8852,7.226154804229736
2009-06-01T00:00:00Z,-32.9852,147.8852,6.607497692108154
2009-07-01T00:00:00Z,-32.9852,147.8852,4.384483337402344
2009-08-01T00:00:00Z,-32.9852,147.8852,4.593051433563232
2009-09-01T00:00:00Z,-32.9852,147.8852,6.664937973022461
2009-10-01T00:00:00Z,-32.9852,147.8852,9.557693481445312
2009-11-01T00:00:00Z,-32.9852,147.8852,17.949831008911133
2009-12-01T00:00:00Z,-32.9852,147.8852,16.938671112060547
2010-01-01T00:00:00Z,-32.9852,147.8852,19.78468894958496
2010-02-01T00:00:00Z,-32.9852,147.8852,19.51357650756836
2010-03-01T00:00:00Z,-32.9852,147.8852,15.169888496398926
2010-04-01T00:00:00Z,-32.9852,147.8852,11.475443840026855
2010-05-01T00:00:00Z,-32.9852,147.8852,6.740246772766113
2010-06-01T00:00:00Z,-32.9852,147.8852,4.504971981048584
2010-07-01T00:00:00Z,-32.9852,147.8852,4.054802894592285
2010-08-01T00:00:00Z,-32.9852,147.8852,3.8058857917785645
2010-09-01T00:00:00Z,-32.9852,147.8852,6.560711860656738
2010-10-01T00:00:00Z,-32.9852,147.8852,10.306333541870117
2010-11-01T00:00:00Z,-32.9852,147.8852,13.920988082885742
2010-12-01T00:00:00Z,-32.9852,147.8852,15.571174621582031
2011-01-01T00:00:00Z,-32.9852,147.8852,19.123552322387695
2011-02-01T00:00:00Z,-32.9852,147.8852,18.88621711730957
2011-03-01T00:00:00Z,-32.9852,147.8852,15.196377754211426
2011-04-01T00:00:00Z,-32.9852,147.8852,9.171344757080078
2011-05-01T00:00:00Z,-32.9852,147.8852,4.563451766967773
2011-06-01T00:00:00Z,-32.9852,147.8852,3.686483383178711
2011-07-01T00:00:00Z,-32.9852,147.8852,2.873960494995117
2011-08-01T00:00:00Z,-32.9852,147.8852,4.814969539642334
2011-09-01T00:00:00Z,-32.9852,147.8852,5.915220737457275
2011-10-01T00:00:00Z,-32.9852,147.8852,9.910802841186523
2011-11-01T00:00:00Z,-32.9852,147.8852,14.60385799407959
2011-12-01T00:00:00Z,-32.9852,147.8852,14.420391082763672
2012-01-01T00:00:00Z,-32.9852,147.8852,17.234861373901367
2012-02-01T00:00:00Z,-32.9852,147.8852,16.61583709716797
2012-03-01T00:00:00Z,-32.9852,147.8852,13.82225513458252
2012-04-01T00:00:00Z,-32.9852,147.8852,9.55343246459961
2012-05-01T00:00:00Z,-32.9852,147.8852,3.958894968032837
2012-06-01T00:00:00Z,-32.9852,147.8852,4.2403082847595215
2012-07-01T00:00:00Z,-32.9852,147.8852,2.883061647415161
2012-08-01T00:00:00Z,-32.9852,147.8852,1.934215784072876
2012-09-01T00:00:00Z,-32.9852,147.8852,4.517385482788086
2012-10-01T00:00:00Z,-32.9852,147.8852,7.720318794250488
2012-11-01T00:00:00Z,-32.9852,147.8852,13.972715377807617
2012-12-01T00:00:00Z,-32.9852,147.8852,16.528934478759766
