time,latitude[unit="degrees_north"],longitude[unit="degrees_east"],air_temperature[unit="C"]
1970-01-01T00:00:00Z,-30.04,150.73,31.341848373413086
1970-02-01T00:00:00Z,-30.04,150.73,31.798463821411133
1970-03-01T00:00:00Z,-30.04,150.73,29.264339447021484
1970-04-01T00:00:00Z,-30.04,150.73,26.044843673706055
1970-05-01T00:00:00Z,-30.04,150.73,19.473751068115234
1970-06-01T00:00:00Z,-30.04,150.73,18.26274871826172
1970-07-01T00:00:00Z,-30.04,150.73,18.146686553955078
1970-08-01T00:00:00Z,-30.04,150.73,18.451725006103516
1970-09-01T00:00:00Z,-30.04,150.73,19.930057525634766
1970-10-01T00:00:00Z,-30.04,150.73,25.77217674255371
1970-11-01T00:00:00Z,-30.04,150.73,27.245328903198242
1970-12-01T00:00:00Z,-30.04,150.73,28.664081573486328
1971-01-01T00:00:00Z,-30.04,150.73,29.496112823486328
1971-02-01T00:00:00Z,-30.04,150.73,29.573169708251953
1971-03-01T00:00:00Z,-30.04,150.73,29.159473419189453
1971-04-01T00:00:00Z,-30.04,150.73,25.242000579833984
1971-05-01T00:00:00Z,-30.04,150.73,20.735824584960938
1971-06-01T00:00:00Z,-30.04,150.73,18.08715057373047
1971-07-01T00:00:00Z,-30.04,150.73,16.177461624145508
1971-08-01T00:00:00Z,-30.04,150.73,18.085140228271484
1971-09-01T00:00:00Z,-30.04,150.73,21.209333419799805
1971-10-01T00:00:00Z,-30.04,150.73,25.89276695251465
1971-11-01T00:00:00Z,-30.04,150.73,26.368915557861328
1971-12-01T00:00:00Z,-30.04,150.73,30.208927154541016
1972-01-01T00:00:00Z,-30.04,150.73,29.873498916625977
1972-02-01T00:00:00Z,-30.04,150.73,30.000991821289062
1972-03-01T00:00:00Z,-30.04,150.73,30.065418243408203
1972-04-01T00:00:00Z,-30.04,150.73,24.937236785888672
1972-05-01T00:00:00Z,-30.04,150.73,21.717575073242188
1972-06-01T00:00:00Z,-30.04,150.73,19.136343002319336
1972-07-01T00:00:00Z,-30.04,150.73,17.473220825195312
1972-08-01T00:00:00Z,-30.04,150.73,19.428451538085938
1972-09-01T00:00:00Z,-30.04,150.73,24.306190490722656
1972-10-01T00:00:00Z,-30.04,150.73,25.66274070739746
1972-11-01T00:00:00Z,-30.04,150.73,27.75849723815918
1972-12-01T00:00:00Z,-30.04,150.73,32.937191009521484
1973-01-01T00:00:00Z,-30.04,150.73,33.086631774902344
1973-02-01T00:00:00Z,-30.04,150.73,31.14992332458496
1973-03-01T00:00:00Z,-30.04,150.73,31.170284271240234
1973-04-01T00:00:00Z,-30.04,150.73,27.620243072509766
1973-05-01T00:00:00Z,-30.04,150.73,23.517553329467773
1973-06-01T00:00:00Z,-30.04,150.73,18.19874382019043
1973-07-01T00:00:00Z,-30.04,150.73,19.256271362304688
1973-08-01T00:00:00Z,-30.04,150.73,18.841108322143555
1973-09-01T00:00:00Z,-30.04,150.73,22.556377410888672
1973-10-01T00:00:00Z,-30.04,150.73,25.79435920715332
1973-11-01T00:00:00Z,-30.04,150.73,28.866456985473633
1973-12-01T00:00:00Z,-30.04,150.73,30.04811668395996
1974-01-01T00:00:00Z,-30.04,150.73,30.29488182067871
1974-02-01T00:00:00Z,-30.04,150.73,31.877092361450195
1974-03-01T00:00:00Z,-30.04,150.73,30.154373168945312
1974-04-01T00:00:00Z,-30.04,150.73,26.65448760986328
1974-05-01T00:00:00Z,-30.04,150.73,21.423173904418945
1974-06-01T00:00:00Z,-30.04,150.73,17.829992294311523
1974-07-01T00:00:00Z,-30.04,150.73,16.325244903564453
1974-08-01T00:00:00Z,-30.04,150.73,17.0246639251709
1974-09-01T00:00:00Z,-30.04,150.73,19.693910598754883
1974-10-01T00:00:00Z,-30.04,150.73,23.222318649291992
1974-11-01T00:00:00Z,-30.04,150.73,26.462141036987305
1974-12-01T00:00:00Z,-30.04,150.73,32.690120697021484
1975-01-01T00:00:00Z,-30.04,150.73,32.568233489990234
1975-02-01T00:00:00Z,-30.04,150.73,30.39922523498535
1975-03-01T00:00:00Z,-30.04,150.73,27.918113708496094
1975-04-01T00:00:00Z,-30.04,150.73,24.860031127929688
1975-05-01T00:00:00Z,-30.04,150.73,22.023483276367188
1975-06-01T00:00:00Z,-30.04,150.73,17.319751739501953
1975-07-01T00:00:00Z,-30.04,150.73,18.046152114868164
1975-08-01T00:00:00Z,-30.04,150.73,18.168006896972656
1975-09-01T00:00:00Z,-30.04,150.73,21.79903793334961
1975-10-01T00:00:00Z,-30.04,150.73,23.57447624206543
1975-11-01T00:00:00Z,-30.04,150.73,28.545391082763672
1975-12-01T00:00:00Z,-30.04,150.73,30.291236877441406
1976-01-01T00:00:00Z,-30.04,150.73,30.118419647216797
1976-02-01T00:00:00Z,-30.04,150.73,28.018756866455078
1976-03-01T00:00:00Z,-30.04,150.73,28.725505828857422
1976-04-01T00:00:00Z,-30.04,150.73,25.20374870300293
1976-05-01T00:00:00Z,-30.04,150.73,21.890411376953125
1976-06-01T00:00:00Z,-30.04,150.73,17.612220764160156
1976-07-01T00:00:00Z,-30.04,150.73,17.4444580078125
1976-08-01T00:00:00Z,-30.04,150.73,17.848054885864258
1976-09-01T00:00:00Z,-30.04,150.73,19.894834518432617
1976-10-01T00:00:00Z,-30.04,150.73,21.692689895629883
1976-11-01T00:00:00Z,-30.04,150.73,27.788795471191406
1976-12-01T00:00:00Z,-30.04,150.73,33.079551696777344
1977-01-01T00:00:00Z,-30.04,150.73,31.73189353942871
1977-02-01T00:00:00Z,-30.04,150.73,31.437660217285156
1977-03-01T00:00:00Z,-30.04,150.73,28.12017250061035
1977-04-01T00:00:00Z,-30.04,150.73,25.115707397460938
1977-05-01T00:00:00Z,-30.04,150.73,19.65534782409668
1977-06-01T00:00:00Z,-30.04,150.73,16.115467071533203
1977-07-01T00:00:00Z,-30.04,150.73,16.61125373840332
1977-08-01T00:00:00Z,-30.04,150.73,20.679548263549805
1977-09-01T00:00:00Z,-30.04,150.73,21.364564895629883
1977-10-01T00:00:00Z,-30.04,150.73,27.329133987426758
1977-11-01T00:00:00Z,-30.04,150.73,31.02018165588379
1977-12-01T00:00:00Z,-30.04,150.73,32.96766662597656
1978-01-01T00:00:00Z,-30.04,150.73,31.240005493164062
1978-02-01T00:00:00Z,-30.04,150.73,32.37838363647461
1978-03-01T00:00:00Z,-30.04,150.73,29.461931228637695
1978-04-01T00:00:00Z,-30.04,150.73,25.467853546142578
1978-05-01T00:00:00Z,-30.04,150.73,20.791318893432617
1978-06-01T00:00:00Z,-30.04,150.73,15.267507553100586
1978-07-01T00:00:00Z,-30.04,150.73,15.457244873046875
1978-08-01T00:00:00Z,-30.04,150.73,16.656492233276367
1978-09-01T00:00:00Z,-30.04,150.73,19.365346908569336
1978-10-01T00:00:00Z,-30.04,150.73,23.81369972229004
1978-11-01T00:00:00Z,-30.04,150.73,26.6793212890625
1978-12-01T00:00:00Z,-30.04,150.73,29.098623275756836
1979-01-01T00:00:00Z,-30.04,150.73,34.035865783691406
1979-02-01T00:00:00Z,-30.04,150.73,32.26010513305664
1979-03-01T00:00:00Z,-30.04,150.73,29.251445770263672
1979-04-01T00:00:00Z,-30.04,150.73,26.93037986755371
1979-05-01T00:00:00Z,-30.04,150.73,19.94719123840332
1979-06-01T00:00:00Z,-30.04,150.73,19.138132095336914
1979-07-01T00:00:00Z,-30.04,150.73,17.301578521728516
1979-08-01T00:00:00Z,-30.04,150.73,18.73419189453125
1979-09-01T00:00:00Z,-30.04,150.73,21.890735626220703
1979-10-01T00:00:00Z,-30.04,150.73,24.9224796295166
1979-11-01T00:00:00Z,-30.04,150.73,29.344932556152344
1979-12-01T00:00:00Z,-30.04,150.73,35.39979934692383
1980-01-01T00:00:00Z,-30.04,150.73,32.70233917236328
1980-02-01T00:00:00Z,-30.04,150.73,33.36967086791992
1980-03-01T00:00:00Z,-30.04,150.73,32.58400344848633
1980-04-01T00:00:00Z,-30.04,150.73,27.873098373413086
1980-05-01T00:00:00Z,-30.04,150.73,21.762311935424805
1980-06-01T00:00:00Z,-30.04,150.73,17.869407653808594
1980-07-01T00:00:00Z,-30.04,150.73,15.992086410522461
1980-08-01T00:00:00Z,-30.04,150.73,20.5604248046875
1980-09-01T00:00:00Z,-30.04,150.73,25.800045013427734
1980-10-01T00:00:00Z,-30.04,150.73,28.06363868713379
1980-11-01T00:00:00Z,-30.04,150.73,31.508777618408203
1980-12-01T00:00:00Z,-30.04,150.73,30.862394332885742
1981-01-01T00:00:00Z,-30.04,150.73,34.735713958740234
1981-02-01T00:00:00Z,-30.04,150.73,33.61665344238281
1981-03-01T00:00:00Z,-30.04,150.73,31.433208465576172
1981-04-01T00:00:00Z,-30.04,150.73,27.65285301208496
1981-05-01T00:00:00Z,-30.04,150.73,20.869171142578125
1981-06-01T00:00:00Z,-30.04,150.73,15.741385459899902
1981-07-01T00:00:00Z,-30.04,150.73,16.0698184967041
1981-08-01T00:00:00Z,-30.04,150.73,16.81826400756836
1981-09-01T00:00:00Z,-30.04,150.73,24.04075050354004
1981-10-01T00:00:00Z,-30.04,150.73,24.57677459716797
1981-11-01T00:00:00Z,-30.04,150.73,25.99924659729004
1981-12-01T00:00:00Z,-30.04,150.73,32.362144470214844
1982-01-01T00:00:00Z,-30.04,150.73,32.82998275756836
1982-02-01T00:00:00Z,-30.04,150.73,32.97806167602539
1982-03-01T00:00:00Z,-30.04,150.73,27.85603904724121
1982-04-01T00:00:00Z,-30.04,150.73,25.53225326538086
1982-05-01T00:00:00Z,-30.04,150.73,22.37583351135254
1982-06-01T00:00:00Z,-30.04,150.73,16.768226623535156
1982-07-01T00:00:00Z,-30.04,150.73,16.57785415649414
1982-08-01T00:00:00Z,-30.04,150.73,21.875062942504883
1982-09-01T00:00:00Z,-30.04,150.73,22.196178436279297
1982-10-01T00:00:00Z,-30.04,150.73,25.99094009399414
1982-11-01T00:00:00Z,-30.04,150.73,32.52085876464844
1982-12-01T00:00:00Z,-30.04,150.73,32.48527526855469
1983-01-01T00:00:00Z,-30.04,150.73,32.03982925415039
1983-02-01T00:00:00Z,-30.04,150.73,33.89317321777344
1983-03-01T00:00:00Z,-30.04,150.73,30.72274398803711
1983-04-01T00:00:00Z,-30.04,150.73,22.80837631225586
1983-05-01T00:00:00Z,-30.04,150.73,20.151748657226562
1983-06-01T00:00:00Z,-30.04,150.73,16.64154624938965
1983-07-01T00:00:00Z,-30.04,150.73,16.139081954956055
1983-08-01T00:00:00Z,-30.04,150.73,17.47246742248535
1983-09-01T00:00:00Z,-30.04,150.73,22.57822036743164
1983-10-01T00:00:00Z,-30.04,150.73,24.50354766845703
1983-11-01T00:00:00Z,-30.04,150.73,25.883275985717773
1983-12-01T00:00:00Z,-30.04,150.73,29.339859008789062
1984-01-01T00:00:00Z,-30.04,150.73,28.33154296875
1984-02-01T00:00:00Z,-30.04,150.73,29.769798278808594
1984-03-01T00:00:00Z,-30.04,150.73,28.681612014770508
1984-04-01T00:00:00Z,-30.04,150.73,24.165985107421875
1984-05-01T00:00:00Z,-30.04,150.73,21.407278060913086
1984-06-01T00:00:00Z,-30.04,150.73,19.09410858154297
1984-07-01T00:00:00Z,-30.04,150.73,14.30875015258789
1984-08-01T00:00:00Z,-30.04,150.73,17.823856353759766
1984-09-01T00:00:00Z,-30.04,150.73,19.335556030273438
1984-10-01T00:00:00Z,-30.04,150.73,25.113828659057617
1984-11-01T00:00:00Z,-30.04,150.73,28.36385154724121
1984-12-01T00:00:00Z,-30.04,150.73,31.001506805419922
1985-01-01T00:00:00Z,-30.04,150.73,34.44730758666992
1985-02-01T00:00:00Z,-30.04,150.73,32.16387176513672
1985-03-01T00:00:00Z,-30.04,150.73,29.88362693786621
1985-04-01T00:00:00Z,-30.04,150.73,24.678009033203125
1985-05-01T00:00:00Z,-30.04,150.73,21.588895797729492
1985-06-01T00:00:00Z,-30.04,150.73,16.680627822875977
1985-07-01T00:00:00Z,-30.04,150.73,17.443016052246094
1985-08-01T00:00:00Z,-30.04,150.73,17.931657791137695
1985-09-01T00:00:00Z,-30.04,150.73,20.650043487548828
1985-10-01T00:00:00Z,-30.04,150.73,24.136625289916992
1985-11-01T00:00:00Z,-30.04,150.73,27.130760192871094
1985-12-01T00:00:00Z,-30.04,150.73,29.95197105407715
1986-01-01T00:00:00Z,-30.04,150.73,31.209501266479492
1986-02-01T00:00:00Z,-30.04,150.73,32.8956413269043
1986-03-01T00:00:00Z,-30.04,150.73,31.729415893554688
1986-04-01T00:00:00Z,-30.04,150.73,28.235437393188477
1986-05-01T00:00:00Z,-30.04,150.73,22.301483154296875
1986-06-01T00:00:00Z,-30.04,150.73,18.054241180419922
1986-07-01T00:00:00Z,-30.04,150.73,16.06196403503418
1986-08-01T00:00:00Z,-30.04,150.73,17.561983108520508
1986-09-01T00:00:00Z,-30.04,150.73,22.081466674804688
1986-10-01T00:00:00Z,-30.04,150.73,23.70621681213379
1986-11-01T00:00:00Z,-30.04,150.73,26.942916870117188
1986-12-01T00:00:00Z,-30.04,150.73,30.901729583740234
1987-01-01T00:00:00Z,-30.04,150.73,32.88752365112305
1987-02-01T00:00:00Z,-30.04,150.73,32.266944885253906
1987-03-01T00:00:00Z,-30.04,150.73,28.543468475341797
1987-04-01T00:00:00Z,-30.04,150.73,26.339401245117188
1987-05-01T00:00:00Z,-30.04,150.73,20.670303344726562
1987-06-01T00:00:00Z,-30.04,150.73,18.521169662475586
1987-07-01T00:00:00Z,-30.04,150.73,16.88251495361328
1987-08-01T00:00:00Z,-30.04,150.73,18.151697158813477
1987-09-01T00:00:00Z,-30.04,150.73,22.379310607910156
1987-10-01T00:00:00Z,-30.04,150.73,24.223167419433594
1987-11-01T00:00:00Z,-30.04,150.73,27.632524490356445
1987-12-01T00:00:00Z,-30.04,150.73,31.02443504333496
1988-01-01T00:00:00Z,-30.04,150.73,31.86920928955078
1988-02-01T00:00:00Z,-30.04,150.73,29.2836856842041
1988-03-01T00:00:00Z,-30.04,150.73,28.293088912963867
1988-04-01T00:00:00Z,-30.04,150.73,23.51258659362793
1988-05-01T00:00:00Z,-30.04,150.73,20.802898406982422
1988-06-01T00:00:00Z,-30.04,150.73,17.7358341217041
1988-07-01T00:00:00Z,-30.04,150.73,17.581308364868164
1988-08-01T00:00:00Z,-30.04,150.73,18.69561004638672
1988-09-01T00:00:00Z,-30.04,150.73,21.679203033447266
1988-10-01T00:00:00Z,-30.04,150.73,28.973690032958984
1988-11-01T00:00:00Z,-30.04,150.73,29.011682510375977
1988-12-01T00:00:00Z,-30.04,150.73,31.765865325927734
1989-01-01T00:00:00Z,-30.04,150.73,30.644832611083984
1989-02-01T00:00:00Z,-30.04,150.73,31.150287628173828
1989-03-01T00:00:00Z,-30.04,150.73,29.6155948638916
1989-04-01T00:00:00Z,-30.04,150.73,24.29556655883789
1989-05-01T00:00:00Z,-30.04,150.73,21.657590866088867
1989-06-01T00:00:00Z,-30.04,150.73,16.4751033782959
1989-07-01T00:00:00Z,-30.04,150.73,14.461414337158203
1989-08-01T00:00:00Z,-30.04,150.73,16.597640991210938
1989-09-01T00:00:00Z,-30.04,150.73,22.017913818359375
1989-10-01T00:00:00Z,-30.04,150.73,26.37215232849121
1989-11-01T00:00:00Z,-30.04,150.73,27.05438232421875
1989-12-01T00:00:00Z,-30.04,150.73,30.575563430786133
1990-01-01T00:00:00Z,-30.04,150.73,33.334495544433594
1990-02-01T00:00:00Z,-30.04,150.73,30.936553955078125
1990-03-01T00:00:00Z,-30.04,150.73,29.585996627807617
1990-04-01T00:00:00Z,-30.04,150.73,23.203805923461914
1990-05-01T00:00:00Z,-30.04,150.73,21.205585479736328
1990-06-01T00:00:00Z,-30.04,150.73,16.48503303527832
1990-07-01T00:00:00Z,-30.04,150.73,16.00620460510254
1990-08-01T00:00:00Z,-30.04,150.73,15.519585609436035
1990-09-01T00:00:00Z,-30.04,150.73,20.913799285888672
1990-10-01T00:00:00Z,-30.04,150.73,25.484155654907227
1990-11-01T00:00:00Z,-30.04,150.73,30.84858512878418
1990-12-01T00:00:00Z,-30.04,150.73,35.080238342285156
1991-01-01T00:00:00Z,-30.04,150.73,31.84469985961914
1991-02-01T00:00:00Z,-30.04,150.73,32.486534118652344
1991-03-01T00:00:00Z,-30.04,150.73,30.52509307861328
1991-04-01T00:00:00Z,-30.04,150.73,26.171939849853516
1991-05-01T00:00:00Z,-30.04,150.73,22.106225967407227
1991-06-01T00:00:00Z,-30.04,150.73,19.198915481567383
1991-07-01T00:00:00Z,-30.04,150.73,15.61081314086914
1991-08-01T00:00:00Z,-30.04,150.73,18.904878616333008
1991-09-01T00:00:00Z,-30.04,150.73,22.545509338378906
1991-10-01T00:00:00Z,-30.04,150.73,27.950408935546875
1991-11-01T00:00:00Z,-30.04,150.73,29.40180015563965
1991-12-01T00:00:00Z,-30.04,150.73,29.998960494995117
1992-01-01T00:00:00Z,-30.04,150.73,32.66263198852539
1992-02-01T00:00:00Z,-30.04,150.73,30.234079360961914
1992-03-01T00:00:00Z,-30.04,150.73,29.734628677368164
1992-04-01T00:00:00Z,-30.04,150.73,25.439105987548828
1992-05-01T00:00:00Z,-30.04,150.73,20.553049087524414
1992-06-01T00:00:00Z,-30.04,150.73,16.811748504638672
1992-07-01T00:00:00Z,-30.04,150.73,17.931594848632812
1992-08-01T00:00:00Z,-30.04,150.73,18.536651611328125
1992-09-01T00:00:00Z,-30.04,150.73,20.76925277709961
1992-10-01T00:00:00Z,-30.04,150.73,24.691179275512695
1992-11-01T00:00:00Z,-30.04,150.73,26.497190475463867
1992-12-01T00:00:00Z,-30.04,150.73,29.559921264648438
1993-01-01T00:00:00Z,-30.04,150.73,34.212284088134766
1993-02-01T00:00:00Z,-30.04,150.73,32.455081939697266
1993-03-01T00:00:00Z,-30.04,150.73,29.256206512451172
1993-04-01T00:00:00Z,-30.04,150.73,27.72616195678711
1993-05-01T00:00:00Z,-30.04,150.73,22.61753273010254
1993-06-01T00:00:00Z,-30.04,150.73,17.147920608520508
1993-07-01T00:00:00Z,-30.04,150.73,18.969562530517578
1993-08-01T00:00:00Z,-30.04,150.73,19.516149520874023
1993-09-01T00:00:00Z,-30.04,150.73,20.652217864990234
1993-10-01T00:00:00Z,-30.04,150.73,24.299957275390625
1993-11-01T00:00:00Z,-30.04,150.73,29.282541275024414
1993-12-01T00:00:00Z,-30.04,150.73,30.362384796142578
1994-01-01T00:00:00Z,-30.04,150.73,34.85822677612305
1994-02-01T00:00:00Z,-30.04,150.73,30.47080421447754
1994-03-01T00:00:00Z,-30.04,150.73,26.877105712890625
1994-04-01T00:00:00Z,-30.04,150.73,26.07779884338379
1994-05-01T00:00:00Z,-30.04,150.73,22.366031646728516
1994-06-01T00:00:00Z,-30.04,150.73,18.249494552612305
1994-07-01T00:00:00Z,-30.04,150.73,18.554439544677734
1994-08-01T00:00:00Z,-30.04,150.73,19.76671600341797
1994-09-01T00:00:00Z,-30.04,150.73,22.779409408569336
1994-10-01T00:00:00Z,-30.04,150.73,27.067834854125977
1994-11-01T00:00:00Z,-30.04,150.73,29.659570693969727
1994-12-01T00:00:00Z,-30.04,150.73,32.654541015625
1995-01-01T00:00:00Z,-30.04,150.73,30.395496368408203
1995-02-01T00:00:00Z,-30.04,150.73,29.684947967529297
1995-03-01T00:00:00Z,-30.04,150.73,30.517210006713867
1995-04-01T00:00:00Z,-30.04,150.73,25.14624786376953
1995-05-01T00:00:00Z,-30.04,150.73,20.964521408081055
1995-06-01T00:00:00Z,-30.04,150.73,16.77404022216797
1995-07-01T00:00:00Z,-30.04,150.73,16.26395034790039
1995-08-01T00:00:00Z,-30.04,150.73,21.764190673828125
1995-09-01T00:00:00Z,-30.04,150.73,22.239953994750977
1995-10-01T00:00:00Z,-30.04,150.73,25.844377517700195
1995-11-01T00:00:00Z,-30.04,150.73,28.907543182373047
1995-12-01T00:00:00Z,-30.04,150.73,29.1816349029541
1996-01-01T00:00:00Z,-30.04,150.73,30.17962074279785
1996-02-01T00:00:00Z,-30.04,150.73,29.15887451171875
1996-03-01T00:00:00Z,-30.04,150.73,29.574811935424805
1996-04-01T00:00:00Z,-30.04,150.73,25.529773712158203
1996-05-01T00:00:00Z,-30.04,150.73,21.88019561767578
1996-06-01T00:00:00Z,-30.04,150.73,18.46866798400879
1996-07-01T00:00:00Z,-30.04,150.73,16.005672454833984
1996-08-01T00:00:00Z,-30.04,150.73,18.85279083251953
1996-09-01T00:00:00Z,-30.04,150.73,22.127212524414062
1996-10-01T00:00:00Z,-30.04,150.73,25.487163543701172
1996-11-01T00:00:00Z,-30.04,150.73,28.443044662475586
1996-12-01T00:00:00Z,-30.04,150.73,30.359018325805664
1997-01-01T00:00:00Z,-30.04,150.73,30.254253387451172
1997-02-01T00:00:00Z,-30.04,150.73,31.769691467285156
1997-03-01T00:00:00Z,-30.04,150.73,29.76409149169922
1997-04-01T00:00:00Z,-30.04,150.73,27.135103225708008
1997-05-01T00:00:00Z,-30.04,150.73,21.07111930847168
1997-06-01T00:00:00Z,-30.04,150.73,18.246580123901367
1997-07-01T00:00:00Z,-30.04,150.73,17.678346633911133
1997-08-01T00:00:00Z,-30.04,150.73,19.6871395111084
1997-09-01T00:00:00Z,-30.04,150.73,22.52779769897461
1997-10-01T00:00:00Z,-30.04,150.73,26.01130485534668
1997-11-01T00:00:00Z,-30.04,150.73,30.81796646118164
1997-12-01T00:00:00Z,-30.04,150.73,32.91088104248047
1998-01-01T00:00:00Z,-30.04,150.73,33.354610443115234
1998-02-01T00:00:00Z,-30.04,150.73,32.7741584777832
1998-03-01T00:00:00Z,-30.04,150.73,33.47805404663086
1998-04-01T00:00:00Z,-30.04,150.73,26.18954849243164
1998-05-01T00:00:00Z,-30.04,150.73,20.639747619628906
1998-06-01T00:00:00Z,-30.04,150.73,17.018264770507812
1998-07-01T00:00:00Z,-30.04,150.73,15.895499229431152
1998-08-01T00:00:00Z,-30.04,150.73,19.013212203979492
1998-09-01T00:00:00Z,-30.04,150.73,22.102678298950195
1998-10-01T00:00:00Z,-30.04,150.73,24.134008407592773
1998-11-01T00:00:00Z,-30.04,150.73,26.340845108032227
1998-12-01T00:00:00Z,-30.04,150.73,32.12730026245117
1999-01-01T00:00:00Z,-30.04,150.73,32.983882904052734
1999-02-01T00:00:00Z,-30.04,150.73,30.526111602783203
1999-03-01T00:00:00Z,-30.04,150.73,29.5173282623291
1999-04-01T00:00:00Z,-30.04,150.73,23.839590072631836
1999-05-01T00:00:00Z,-30.04,150.73,22.697080612182617
1999-06-01T00:00:00Z,-30.04,150.73,18.002281188964844
1999-07-01T00:00:00Z,-30.04,150.73,18.09352684020996
1999-08-01T00:00:00Z,-30.04,150.73,19.794397354125977
1999-09-01T00:00:00Z,-30.04,150.73,23.006824493408203
1999-10-01T00:00:00Z,-30.04,150.73,25.95393943786621
1999-11-01T00:00:00Z,-30.04,150.73,24.761308670043945
1999-12-01T00:00:00Z,-30.04,150.73,28.027053833007812
2000-01-01T00:00:00Z,-30.04,150.73,30.895750045776367
2000-02-01T00:00:00Z,-30.04,150.73,31.772930145263672
2000-03-01T00:00:00Z,-30.04,150.73,29.710351943969727
2000-04-01T00:00:00Z,-30.04,150.73,25.828784942626953
2000-05-01T00:00:00Z,-30.04,150.73,21.094009399414062
2000-06-01T00:00:00Z,-30.04,150.73,17.376625061035156
2000-07-01T00:00:00Z,-30.04,150.73,17.670223236083984
2000-08-01T00:00:00Z,-30.04,150.73,18.733989715576172
2000-09-01T00:00:00Z,-30.04,150.73,25.957597732543945
2000-10-01T00:00:00Z,-30.04,150.73,25.5103702545166
2000-11-01T00:00:00Z,-30.04,150.73,26.507732391357422
2000-12-01T00:00:00Z,-30.04,150.73,31.260156631469727
2001-01-01T00:00:00Z,-30.04,150.73,34.084747314453125
2001-02-01T00:00:00Z,-30.04,150.73,32.330848693847656
2001-03-01T00:00:00Z,-30.04,150.73,28.75226593017578
2001-04-01T00:00:00Z,-30.04,150.73,25.838499069213867
2001-05-01T00:00:00Z,-30.04,150.73,20.286418914794922
2001-06-01T00:00:00Z,-30.04,150.73,19.609451293945312
2001-07-01T00:00:00Z,-30.04,150.73,17.475727081298828
2001-08-01T00:00:00Z,-30.04,150.73,18.435440063476562
2001-09-01T00:00:00Z,-30.04,150.73,22.671783447265625
2001-10-01T00:00:00Z,-30.04,150.73,24.89616584777832
2001-11-01T00:00:00Z,-30.04,150.73,26.42396354675293
2001-12-01T00:00:00Z,-30.04,150.73,31.243619918823242
2002-01-01T00:00:00Z,-30.04,150.73,33.233516693115234
2002-02-01T00:00:00Z,-30.04,150.73,31.436779022216797
2002-03-01T00:00:00Z,-30.04,150.73,30.990346908569336
2002-04-01T00:00:00Z,-30.04,150.73,26.96670150756836
2002-05-01T00:00:00Z,-30.04,150.73,21.659883499145508
2002-06-01T00:00:00Z,-30.04,150.73,18.799959182739258
2002-07-01T00:00:00Z,-30.04,150.73,18.738279342651367
2002-08-01T00:00:00Z,-30.04,150.73,20.885656356811523
2002-09-01T00:00:00Z,-30.04,150.73,24.423749923706055
2002-10-01T00:00:00Z,-30.04,150.73,29.065475463867188
2002-11-01T00:00:00Z,-30.04,150.73,32.65037536621094
2002-12-01T00:00:00Z,-30.04,150.73,31.670608520507812
2003-01-01T00:00:00Z,-30.04,150.73,34.89077377319336
2003-02-01T00:00:00Z,-30.04,150.73,31.478172302246094
2003-03-01T00:00:00Z,-30.04,150.73,28.10850715637207
2003-04-01T00:00:00Z,-30.04,150.73,23.710586547851562
2003-05-01T00:00:00Z,-30.04,150.73,21.522525787353516
2003-06-01T00:00:00Z,-30.04,150.73,18.484811782836914
2003-07-01T00:00:00Z,-30.04,150.73,17.089988708496094
2003-08-01T00:00:00Z,-30.04,150.73,18.916364669799805
2003-09-01T00:00:00Z,-30.04,150.73,24.514429092407227
2003-10-01T00:00:00Z,-30.04,150.73,23.879323959350586
2003-11-01T00:00:00Z,-30.04,150.73,28.677635192871094
2003-12-01T00:00:00Z,-30.04,150.73,32.56224822998047
2004-01-01T00:00:00Z,-30.04,150.73,32.44131088256836
2004-02-01T00:00:00Z,-30.04,150.73,33.5304069519043
2004-03-01T00:00:00Z,-30.04,150.73,30.018693923950195
2004-04-01T00:00:00Z,-30.04,150.73,27.743038177490234
2004-05-01T00:00:00Z,-30.04,150.73,21.45419692993164
2004-06-01T00:00:00Z,-30.04,150.73,18.513160705566406
2004-07-01T00:00:00Z,-30.04,150.73,18.032461166381836
2004-08-01T00:00:00Z,-30.04,150.73,19.36922264099121
2004-09-01T00:00:00Z,-30.04,150.73,22.534934997558594
2004-10-01T00:00:00Z,-30.04,150.73,26.7521915435791
2004-11-01T00:00:00Z,-30.04,150.73,28.895437240600586
2004-12-01T00:00:00Z,-30.04,150.73,29.928728103637695
2005-01-01T00:00:00Z,-30.04,150.73,32.46699142456055
2005-02-01T00:00:00Z,-30.04,150.73,33.206642150878906
2005-03-01T00:00:00Z,-30.04,150.73,29.755577087402344
2005-04-01T00:00:00Z,-30.04,150.73,29.03622055053711
2005-05-01T00:00:00Z,-30.04,150.73,22.20033073425293
2005-06-01T00:00:00Z,-30.04,150.73,18.364625930786133
2005-07-01T00:00:00Z,-30.04,150.73,18.163545608520508
2005-08-01T00:00:00Z,-30.04,150.73,19.314956665039062
2005-09-01T00:00:00Z,-30.04,150.73,22.23042869567871
2005-10-01T00:00:00Z,-30.04,150.73,27.459306716918945
2005-11-01T00:00:00Z,-30.04,150.73,28.98280143737793
2005-12-01T00:00:00Z,-30.04,150.73,33.18309783935547
2006-01-01T00:00:00Z,-30.04,150.73,34.172733306884766
2006-02-01T00:00:00Z,-30.04,150.73,33.695655822753906
2006-03-01T00:00:00Z,-30.04,150.73,30.112998962402344
2006-04-01T00:00:00Z,-30.04,150.73,25.825098037719727
2006-05-01T00:00:00Z,-30.04,150.73,21.55757713317871
2006-06-01T00:00:00Z,-30.04,150.73,18.433279037475586
2006-07-01T00:00:00Z,-30.04,150.73,17.893918991088867
2006-08-01T00:00:00Z,-30.04,150.73,20.55938720703125
2006-09-01T00:00:00Z,-30.04,150.73,24.1708984375
2006-10-01T00:00:00Z,-30.04,150.73,28.492563247680664
2006-11-01T00:00:00Z,-30.04,150.73,30.55297088623047
2006-12-01T00:00:00Z,-30.04,150.73,31.01567268371582
2007-01-01T00:00:00Z,-30.04,150.73,34.46708297729492
2007-02-01T00:00:00Z,-30.04,150.73,33.33950424194336
2007-03-01T00:00:00Z,-30.04,150.73,30.6972713470459
2007-04-01T00:00:00Z,-30.04,150.73,26.9517822265625
2007-05-01T00:00:00Z,-30.04,150.73,23.2609806060791
2007-06-01T00:00:00Z,-30.04,150.73,15.355399131774902
2007-07-01T00:00:00Z,-30.04,150.73,16.074844360351562
2007-08-01T00:00:00Z,-30.04,150.73,20.456682205200195
2007-09-01T00:00:00Z,-30.04,150.73,23.63799285888672
2007-10-01T00:00:00Z,-30.04,150.73,29.299928665161133
2007-11-01T00:00:00Z,-30.04,150.73,27.435361862182617
2007-12-01T00:00:00Z,-30.04,150.73,29.13056182861328
2008-01-01T00:00:00Z,-30.04,150.73,30.832935333251953
2008-02-01T00:00:00Z,-30.04,150.73,28.91558074951172
2008-03-01T00:00:00Z,-30.04,150.73,29.541851043701172
2008-04-01T00:00:00Z,-30.04,150.73,24.562761306762695
2008-05-01T00:00:00Z,-30.04,150.73,22.50111961364746
2008-06-01T00:00:00Z,-30.04,150.73,19.682628631591797
2008-07-01T00:00:00Z,-30.04,150.73,17.159780502319336
2008-08-01T00:00:00Z,-30.04,150.73,17.578636169433594
2008-09-01T00:00:00Z,-30.04,150.73,23.03264808654785
2008-10-01T00:00:00Z,-30.04,150.73,26.890352249145508
2008-11-01T00:00:00Z,-30.04,150.73,27.297374725341797
2008-12-01T00:00:00Z,-30.04,150.73,30.363313674926758
2009-01-01T00:00:00Z,-30.04,150.73,33.3454475402832
2009-02-01T00:00:00Z,-30.04,150.73,32.163116455078125
2009-03-01T00:00:00Z,-30.04,150.73,30.619705200195312
2009-04-01T00:00:00Z,-30.04,150.73,25.586082458496094
2009-05-01T00:00:00Z,-30.04,150.73,21.72026252746582
2009-06-01T00:00:00Z,-30.04,150.73,18.257625579833984
2009-07-01T00:00:00Z,-30.04,150.73,17.30709457397461
2009-08-01T00:00:00Z,-30.04,150.73,22.892210006713867
2009-09-01T00:00:00Z,-30.04,150.73,23.935802459716797
2009-10-01T00:00:00Z,-30.04,150.73,26.902280807495117
2009-11-01T00:00:00Z,-30.04,150.73,33.702781677246094
2009-12-01T00:00:00Z,-30.04,150.73,33.024192810058594
2010-01-01T00:00:00Z,-30.04,150.73,33.39258575439453
2010-02-01T00:00:00Z,-30.04,150.73,31.75838851928711
2010-03-01T00:00:00Z,-30.04,150.73,29.800209045410156
2010-04-01T00:00:00Z,-30.04,150.73,26.979907989501953
2010-05-01T00:00:00Z,-30.04,150.73,21.59484100341797
2010-06-01T00:00:00Z,-30.04,150.73,17.47996711730957
2010-07-01T00:00:00Z,-30.04,150.73,17.170242309570312
2010-08-01T00:00:00Z,-30.04,150.73,16.89794158935547
2010-09-01T00:00:00Z,-30.04,150.73,21.345863342285156
2010-10-01T00:00:00Z,-30.04,150.73,23.751527786254883
2010-11-01T00:00:00Z,-30.04,150.73,26.11847496032715
2010-12-01T00:00:00Z,-30.04,150.73,28.11347007751465
2011-01-01T00:00:00Z,-30.04,150.73,32.354679107666016
2011-02-01T00:00:00Z,-30.04,150.73,33.026634216308594
2011-03-01T00:00:00Z,-30.04,150.73,28.982358932495117
2011-04-01T00:00:00Z,-30.04,150.73,25.578168869018555
2011-05-01T00:00:00Z,-30.04,150.73,20.102327346801758
2011-06-01T00:00:00Z,-30.04,150.73,17.578998565673828
2011-07-01T00:00:00Z,-30.04,150.73,16.937002182006836
2011-08-01T00:00:00Z,-30.04,150.73,20.071069717407227
2011-09-01T00:00:00Z,-30.04,150.73,22.886699676513672
2011-10-01T00:00:00Z,-30.04,150.73,24.344661712646484
2011-11-01T00:00:00Z,-30.04,150.73,29.75877571105957
2011-12-01T00:00:00Z,-30.04,150.73,26.975038528442383
2012-01-01T00:00:00Z,-30.04,150.73,29.831167221069336
2012-02-01T00:00:00Z,-30.04,150.73,29.697546005249023
2012-03-01T00:00:00Z,-30.04,150.73,28.99264907836914
2012-04-01T00:00:00Z,-30.04,150.73,25.770734786987305
2012-05-01T00:00:00Z,-30.04,150.73,21.701828002929688
2012-06-01T00:00:00Z,-30.04,150.73,18.021738052368164
2012-07-01T00:00:00Z,-30.04,150.73,17.241634368896484
2012-08-01T00:00:00Z,-30.04,150.73,19.22308349609375
2012-09-01T00:00:00Z,-30.04,150.73,23.76680564880371
2012-10-01T00:00:00Z,-30.04,150.73,27.287628173828125
2012-11-01T00:00:00Z,-30.04,150.73,31.429183959960938
2012-12-01T00:00:00Z,-30.04,150.73,33.08616256713867
