"Species","Date","Season","Curve","Leaf","Ci","Photo","VPD","Tleaf","PARin","Datacontrib","location","Growthcond","OriginalFile","species","DataSet"
"Betula pendula","Jul-98","summer",1,1,22,0.5,0.71,5,1225,"Wang","Mekrijärvi Finland","OTC","Kaiyun_xls","Betula pendula_WANG","WANG_ET_AL"
"Betula pendula","Jul-98","summer",1,1,51,3.7,0.72,5.2,1220,"Wang","Mekrijärvi Finland","OTC","Kaiyun_xls","Betula pendula_WANG","WANG_ET_AL"
"Betula pendula","Jul-98","summer",1,1,97,5.3,0.74,5.1,1200,"Wang","Mekrijärvi Finland","OTC","Kaiyun_xls","Betula pendula_WANG","WANG_ET_AL"
"Betula pendula","Jul-98","summer",1,1,190,7,0.74,5.3,1205,"Wang","Mekrijärvi Finland","OTC","Kaiyun_xls","Betula pendula_WANG","WANG_ET_AL"
"Betula pendula","Jul-98","summer",1,1,342,9,0.82,5.7,1210,"Wang","Mekrijärvi Finland","OTC","Kaiyun_xls","Betula pendula_WANG","WANG_ET_AL"
"Betula pendula","Jul-98","summer",1,1,785,9.2,0.83,5.8,1213,"Wang","Mekrijärvi Finland","OTC","Kaiyun_xls","Betula pendula_WANG","WANG_ET_AL"
"Betula pendula","Jul-98","summer",2,1,24,-2,0.6,10.1,1210,"Wang","Mekrijärvi Finland","OTC","Kaiyun_xls","Betula pendula_WANG","WANG_ET_AL"
"Betula pendula","Jul-98","summer",2,1,55,2.4,0.62,10.3,1220,"Wang","Mekrijärvi Finland","OTC","Kaiyun_xls","Betula pendula_WANG","WANG_ET_AL"
"Betula pendula","Jul-98","summer",2,1,99,5.7,0.64,10.4,1198,"Wang","Mekrijärvi Finland","OTC","Kaiyun_xls","Betula pendula_WANG","WANG_ET_AL"
"Betula pendula","Jul-98","summer",2,1,142,9.4,0.64,10.8,1195,"Wang","Mekrijärvi Finland","OTC","Kaiyun_xls","Betula pendula_WANG","WANG_ET_AL"
"Betula pendula","Jul-98","summer",2,1,320,12,0.67,11,1200,"Wang","Mekrijärvi Finland","OTC","Kaiyun_xls","Betula pendula_WANG","WANG_ET_AL"
"Betula pendula","Jul-98","summer",2,1,515,14.2,0.68,11.2,1220,"Wang","Mekrijärvi Finland","OTC","Kaiyun_xls","Betula pendula_WANG","WANG_ET_AL"
"Betula pendula","Jul-98","summer",2,1,884,14.8,0.75,11.4,1223,"Wang","Mekrijärvi Finland","OTC","Kaiyun_xls","Betula pendula_WANG","WANG_ET_AL"
"Betula pendula","Jul-98","summer",3,1,24,-5,0.62,21,1245,"Wang","Mekrijärvi Finland","OTC","Kaiyun_xls","Betula pendula_WANG","WANG_ET_AL"
"Betula pendula","Jul-98","summer",3,1,52,0,0.62,21.3,1223,"Wang","Mekrijärvi Finland","OTC","Kaiyun_xls","Betula pendula_WANG","WANG_ET_AL"
"Betula pendula","Jul-98","summer",3,1,95,6.1,0.65,21.5,1210,"Wang","Mekrijärvi Finland","OTC","Kaiyun_xls","Betula pendula_WANG","WANG_ET_AL"
"Betula pendula","Jul-98","summer",3,1,146,11.2,0.67,21.7,1211,"Wang","Mekrijärvi Finland","OTC","Kaiyun_xls","Betula pendula_WANG","WANG_ET_AL"
"Betula pendula","Jul-98","summer",3,1,244,15.4,0.7,21.8,1200,"Wang","Mekrijärvi Finland","OTC","Kaiyun_xls","Betula pendula_WANG","WANG_ET_AL"
"Betula pendula","Jul-98","summer",3,1,623,22.3,0.75,22,1215,"Wang","Mekrijärvi Finland","OTC","Kaiyun_xls","Betula pendula_WANG","WANG_ET_AL"
"Betula pendula","Jul-98","summer",3,1,894,23.7,0.72,22.4,1211,"Wang","Mekrijärvi Finland","OTC","Kaiyun_xls","Betula pendula_WANG","WANG_ET_AL"
"Betula pendula","Jul-98","summer",4,1,21,-5.1,0.65,25.3,1189,"Wang","Mekrijärvi Finland","OTC","Kaiyun_xls","Betula pendula_WANG","WANG_ET_AL"
"Betula pendula","Jul-98","summer",4,1,55,-0.2,0.67,25.6,1192,"Wang","Mekrijärvi Finland","OTC","Kaiyun_xls","Betula pendula_WANG","WANG_ET_AL"
"Betula pendula","Jul-98","summer",4,1,128,7.2,0.69,25.8,1200,"Wang","Mekrijärvi Finland","OTC","Kaiyun_xls","Betula pendula_WANG","WANG_ET_AL"
"Betula pendula","Jul-98","summer",4,1,236,14.1,0.7,26,1205,"Wang","Mekrijärvi Finland","OTC","Kaiyun_xls","Betula pendula_WANG","WANG_ET_AL"
"Betula pendula","Jul-98","summer",4,1,518,19.3,0.72,26.4,1208,"Wang","Mekrijärvi Finland","OTC","Kaiyun_xls","Betula pendula_WANG","WANG_ET_AL"
"Betula pendula","Jul-98","summer",4,1,910,19.9,0.76,26.7,1210,"Wang","Mekrijärvi Finland","OTC","Kaiyun_xls","Betula pendula_WANG","WANG_ET_AL"
"Betula pendula","Jul-98","summer",5,1,26,-7,0.62,31.2,1245,"Wang","Mekrijärvi Finland","OTC","Kaiyun_xls","Betula pendula_WANG","WANG_ET_AL"
"Betula pendula","Jul-98","summer",5,1,58,-3,0.64,31.4,1246,"Wang","Mekrijärvi Finland","OTC","Kaiyun_xls","Betula pendula_WANG","WANG_ET_AL"
"Betula pendula","Jul-98","summer",5,1,99,1.2,0.68,31.7,1240,"Wang","Mekrijärvi Finland","OTC","Kaiyun_xls","Betula pendula_WANG","WANG_ET_AL"
"Betula pendula","Jul-98","summer",5,1,165,5.1,0.78,32.2,1200,"Wang","Mekrijärvi Finland","OTC","Kaiyun_xls","Betula pendula_WANG","WANG_ET_AL"
"Betula pendula","Jul-98","summer",5,1,352,9.3,0.8,32.5,1198,"Wang","Mekrijärvi Finland","OTC","Kaiyun_xls","Betula pendula_WANG","WANG_ET_AL"
"Betula pendula","Jul-98","summer",5,1,629,9.8,0.84,32.7,1191,"Wang","Mekrijärvi Finland","OTC","Kaiyun_xls","Betula pendula_WANG","WANG_ET_AL"
"Betula pendula","Jul-98","summer",5,1,899,13.3,0.87,33,1178,"Wang","Mekrijärvi Finland","OTC","Kaiyun_xls","Betula pendula_WANG","WANG_ET_AL"
"Betula pendula","Jul-98","summer",6,2,26,1,0.72,5.1,1211,"Wang","Mekrijärvi Finland","OTC","Kaiyun_xls","Betula pendula_WANG","WANG_ET_AL"
"Betula pendula","Jul-98","summer",6,2,54,3.4,0.73,5.2,1203,"Wang","Mekrijärvi Finland","OTC","Kaiyun_xls","Betula pendula_WANG","WANG_ET_AL"
"Betula pendula","Jul-98","summer",6,2,95,5,0.72,5.4,1206,"Wang","Mekrijärvi Finland","OTC","Kaiyun_xls","Betula pendula_WANG","WANG_ET_AL"
"Betula pendula","Jul-98","summer",6,2,197,8,0.8,5.6,1231,"Wang","Mekrijärvi Finland","OTC","Kaiyun_xls","Betula pendula_WANG","WANG_ET_AL"
"Betula pendula","Jul-98","summer",6,2,342,7,0.84,5.7,1234,"Wang","Mekrijärvi Finland","OTC","Kaiyun_xls","Betula pendula_WANG","WANG_ET_AL"
"Betula pendula","Jul-98","summer",6,2,785,8.9,0.86,5.9,1230,"Wang","Mekrijärvi Finland","OTC","Kaiyun_xls","Betula pendula_WANG","WANG_ET_AL"
"Betula pendula","Jul-98","summer",7,2,25,-1.8,0.65,10,1179,"Wang","Mekrijärvi Finland","OTC","Kaiyun_xls","Betula pendula_WANG","WANG_ET_AL"
"Betula pendula","Jul-98","summer",7,2,59,2.3,0.66,10.2,1189,"Wang","Mekrijärvi Finland","OTC","Kaiyun_xls","Betula pendula_WANG","WANG_ET_AL"
"Betula pendula","Jul-98","summer",7,2,102,7.1,0.64,10.4,1215,"Wang","Mekrijärvi Finland","OTC","Kaiyun_xls","Betula pendula_WANG","WANG_ET_AL"
"Betula pendula","Jul-98","summer",7,2,148,8.7,0.67,10.4,1216,"Wang","Mekrijärvi Finland","OTC","Kaiyun_xls","Betula pendula_WANG","WANG_ET_AL"
"Betula pendula","Jul-98","summer",7,2,317,12.4,0.69,10.6,1218,"Wang","Mekrijärvi Finland","OTC","Kaiyun_xls","Betula pendula_WANG","WANG_ET_AL"
"Betula pendula","Jul-98","summer",7,2,516,14.4,0.7,10.9,1221,"Wang","Mekrijärvi Finland","OTC","Kaiyun_xls","Betula pendula_WANG","WANG_ET_AL"
"Betula pendula","Jul-98","summer",7,2,882,16.9,0.76,11,1215,"Wang","Mekrijärvi Finland","OTC","Kaiyun_xls","Betula pendula_WANG","WANG_ET_AL"
"Betula pendula","Jul-98","summer",8,2,23,-6,0.7,21.3,1245,"Wang","Mekrijärvi Finland","OTC","Kaiyun_xls","Betula pendula_WANG","WANG_ET_AL"
"Betula pendula","Jul-98","summer",8,2,48,-1,0.71,21.4,1234,"Wang","Mekrijärvi Finland","OTC","Kaiyun_xls","Betula pendula_WANG","WANG_ET_AL"
"Betula pendula","Jul-98","summer",8,2,92,5,0.73,21.6,1212,"Wang","Mekrijärvi Finland","OTC","Kaiyun_xls","Betula pendula_WANG","WANG_ET_AL"
"Betula pendula","Jul-98","summer",8,2,147,8.1,0.74,21.8,1202,"Wang","Mekrijärvi Finland","OTC","Kaiyun_xls","Betula pendula_WANG","WANG_ET_AL"
"Betula pendula","Jul-98","summer",8,2,243,14.2,0.75,21.9,1211,"Wang","Mekrijärvi Finland","OTC","Kaiyun_xls","Betula pendula_WANG","WANG_ET_AL"
"Betula pendula","Jul-98","summer",8,2,621,20.1,0.8,22.4,1218,"Wang","Mekrijärvi Finland","OTC","Kaiyun_xls","Betula pendula_WANG","WANG_ET_AL"
"Betula pendula","Jul-98","summer",8,2,901,22.6,0.83,22.6,1221,"Wang","Mekrijärvi Finland","OTC","Kaiyun_xls","Betula pendula_WANG","WANG_ET_AL"
"Betula pendula","Jul-98","summer",9,2,22,-6.5,0.68,25.2,1178,"Wang","Mekrijärvi Finland","OTC","Kaiyun_xls","Betula pendula_WANG","WANG_ET_AL"
"Betula pendula","Jul-98","summer",9,2,54,-0.3,0.72,25.3,1180,"Wang","Mekrijärvi Finland","OTC","Kaiyun_xls","Betula pendula_WANG","WANG_ET_AL"
"Betula pendula","Jul-98","summer",9,2,117,6.8,0.75,25.6,1181,"Wang","Mekrijärvi Finland","OTC","Kaiyun_xls","Betula pendula_WANG","WANG_ET_AL"
"Betula pendula","Jul-98","summer",9,2,236,13.2,0.76,25.9,1189,"Wang","Mekrijärvi Finland","OTC","Kaiyun_xls","Betula pendula_WANG","WANG_ET_AL"
"Betula pendula","Jul-98","summer",9,2,520,18.2,0.78,26.1,1189,"Wang","Mekrijärvi Finland","OTC","Kaiyun_xls","Betula pendula_WANG","WANG_ET_AL"
"Betula pendula","Jul-98","summer",9,2,897,22.4,0.83,26.6,1185,"Wang","Mekrijärvi Finland","OTC","Kaiyun_xls","Betula pendula_WANG","WANG_ET_AL"
"Betula pendula","Jul-98","summer",10,2,24,-6.5,0.62,31.5,1156,"Wang","Mekrijärvi Finland","OTC","Kaiyun_xls","Betula pendula_WANG","WANG_ET_AL"
"Betula pendula","Jul-98","summer",10,2,58,-2.4,0.64,31.5,1203,"Wang","Mekrijärvi Finland","OTC","Kaiyun_xls","Betula pendula_WANG","WANG_ET_AL"
"Betula pendula","Jul-98","summer",10,2,96,0.7,0.68,32,1206,"Wang","Mekrijärvi Finland","OTC","Kaiyun_xls","Betula pendula_WANG","WANG_ET_AL"
"Betula pendula","Jul-98","summer",10,2,168,4.6,0.69,31.6,1208,"Wang","Mekrijärvi Finland","OTC","Kaiyun_xls","Betula pendula_WANG","WANG_ET_AL"
"Betula pendula","Jul-98","summer",10,2,355,7.6,0.7,32,1207,"Wang","Mekrijärvi Finland","OTC","Kaiyun_xls","Betula pendula_WANG","WANG_ET_AL"
"Betula pendula","Jul-98","summer",10,2,636,11.3,0.72,32.4,1205,"Wang","Mekrijärvi Finland","OTC","Kaiyun_xls","Betula pendula_WANG","WANG_ET_AL"
"Betula pendula","Jul-98","summer",10,2,912,12.8,7.6,32.8,1159,"Wang","Mekrijärvi Finland","OTC","Kaiyun_xls","Betula pendula_WANG","WANG_ET_AL"
"Betula pendula","Jul-98","summer",11,3,25,0.7,0.68,5.2,1145,"Wang","Mekrijärvi Finland","OTC","Kaiyun_xls","Betula pendula_WANG","WANG_ET_AL"
"Betula pendula","Jul-98","summer",11,3,46,3.6,0.7,5.4,1142,"Wang","Mekrijärvi Finland","OTC","Kaiyun_xls","Betula pendula_WANG","WANG_ET_AL"
"Betula pendula","Jul-98","summer",11,3,95,5.7,0.71,5.7,1125,"Wang","Mekrijärvi Finland","OTC","Kaiyun_xls","Betula pendula_WANG","WANG_ET_AL"
"Betula pendula","Jul-98","summer",11,3,167,8.5,0.72,5.4,1136,"Wang","Mekrijärvi Finland","OTC","Kaiyun_xls","Betula pendula_WANG","WANG_ET_AL"
"Betula pendula","Jul-98","summer",11,3,346,9.4,0.75,5.5,1202,"Wang","Mekrijärvi Finland","OTC","Kaiyun_xls","Betula pendula_WANG","WANG_ET_AL"
"Betula pendula","Jul-98","summer",11,3,790,11,0.79,6,1212,"Wang","Mekrijärvi Finland","OTC","Kaiyun_xls","Betula pendula_WANG","WANG_ET_AL"
"Betula pendula","Jul-98","summer",12,3,29,-1.5,0.7,10.2,1210,"Wang","Mekrijärvi Finland","OTC","Kaiyun_xls","Betula pendula_WANG","WANG_ET_AL"
"Betula pendula","Jul-98","summer",12,3,58,2.7,0.72,10.3,1210,"Wang","Mekrijärvi Finland","OTC","Kaiyun_xls","Betula pendula_WANG","WANG_ET_AL"
"Betula pendula","Jul-98","summer",12,3,104,7.9,0.73,10.5,1203,"Wang","Mekrijärvi Finland","OTC","Kaiyun_xls","Betula pendula_WANG","WANG_ET_AL"
"Betula pendula","Jul-98","summer",12,3,145,11,0.75,10.6,1204,"Wang","Mekrijärvi Finland","OTC","Kaiyun_xls","Betula pendula_WANG","WANG_ET_AL"
"Betula pendula","Jul-98","summer",12,3,326,13.7,0.76,10.2,1178,"Wang","Mekrijärvi Finland","OTC","Kaiyun_xls","Betula pendula_WANG","WANG_ET_AL"
"Betula pendula","Jul-98","summer",12,3,515,16,0.78,10.4,1178,"Wang","Mekrijärvi Finland","OTC","Kaiyun_xls","Betula pendula_WANG","WANG_ET_AL"
"Betula pendula","Jul-98","summer",12,3,879,17.5,0.8,10.8,1174,"Wang","Mekrijärvi Finland","OTC","Kaiyun_xls","Betula pendula_WANG","WANG_ET_AL"
"Betula pendula","Jul-98","summer",13,3,28,-6.1,0.75,21.5,1208,"Wang","Mekrijärvi Finland","OTC","Kaiyun_xls","Betula pendula_WANG","WANG_ET_AL"
"Betula pendula","Jul-98","summer",13,3,46,-0.7,0.76,21.4,1204,"Wang","Mekrijärvi Finland","OTC","Kaiyun_xls","Betula pendula_WANG","WANG_ET_AL"
"Betula pendula","Jul-98","summer",13,3,105,4.9,0.78,21.7,1211,"Wang","Mekrijärvi Finland","OTC","Kaiyun_xls","Betula pendula_WANG","WANG_ET_AL"
"Betula pendula","Jul-98","summer",13,3,154,9.2,0.8,21.8,1213,"Wang","Mekrijärvi Finland","OTC","Kaiyun_xls","Betula pendula_WANG","WANG_ET_AL"
"Betula pendula","Jul-98","summer",13,3,251,13.9,0.82,22,1215,"Wang","Mekrijärvi Finland","OTC","Kaiyun_xls","Betula pendula_WANG","WANG_ET_AL"
"Betula pendula","Jul-98","summer",13,3,628,19.4,0.84,22.4,1223,"Wang","Mekrijärvi Finland","OTC","Kaiyun_xls","Betula pendula_WANG","WANG_ET_AL"
"Betula pendula","Jul-98","summer",13,3,889,21.1,0.87,22.7,1224,"Wang","Mekrijärvi Finland","OTC","Kaiyun_xls","Betula pendula_WANG","WANG_ET_AL"
"Betula pendula","Jul-98","summer",14,3,24,-6.2,0.67,25.1,1214,"Wang","Mekrijärvi Finland","OTC","Kaiyun_xls","Betula pendula_WANG","WANG_ET_AL"
"Betula pendula","Jul-98","summer",14,3,61,-0.8,0.68,25.4,1215,"Wang","Mekrijärvi Finland","OTC","Kaiyun_xls","Betula pendula_WANG","WANG_ET_AL"
"Betula pendula","Jul-98","summer",14,3,133,7.1,0.69,25.7,1214,"Wang","Mekrijärvi Finland","OTC","Kaiyun_xls","Betula pendula_WANG","WANG_ET_AL"
"Betula pendula","Jul-98","summer",14,3,245,13.8,0.72,25.8,1109,"Wang","Mekrijärvi Finland","OTC","Kaiyun_xls","Betula pendula_WANG","WANG_ET_AL"
"Betula pendula","Jul-98","summer",14,3,518,17.8,0.76,26,1108,"Wang","Mekrijärvi Finland","OTC","Kaiyun_xls","Betula pendula_WANG","WANG_ET_AL"
"Betula pendula","Jul-98","summer",14,3,895,21.3,0.85,26.4,1108,"Wang","Mekrijärvi Finland","OTC","Kaiyun_xls","Betula pendula_WANG","WANG_ET_AL"
"Betula pendula","Jul-98","summer",15,3,31,-5.6,0.65,31,1125,"Wang","Mekrijärvi Finland","OTC","Kaiyun_xls","Betula pendula_WANG","WANG_ET_AL"
"Betula pendula","Jul-98","summer",15,3,62,-1.9,0.68,31.9,1128,"Wang","Mekrijärvi Finland","OTC","Kaiyun_xls","Betula pendula_WANG","WANG_ET_AL"
"Betula pendula","Jul-98","summer",15,3,112,1.2,0.71,31.5,1134,"Wang","Mekrijärvi Finland","OTC","Kaiyun_xls","Betula pendula_WANG","WANG_ET_AL"
"Betula pendula","Jul-98","summer",15,3,158,4.1,0.76,31.8,1159,"Wang","Mekrijärvi Finland","OTC","Kaiyun_xls","Betula pendula_WANG","WANG_ET_AL"
"Betula pendula","Jul-98","summer",15,3,363,8.9,0.78,32.2,1167,"Wang","Mekrijärvi Finland","OTC","Kaiyun_xls","Betula pendula_WANG","WANG_ET_AL"
"Betula pendula","Jul-98","summer",15,3,644,12.4,0.8,32.7,1184,"Wang","Mekrijärvi Finland","OTC","Kaiyun_xls","Betula pendula_WANG","WANG_ET_AL"
"Betula pendula","Jul-98","summer",15,3,895,12.4,0.85,33.2,1187,"Wang","Mekrijärvi Finland","OTC","Kaiyun_xls","Betula pendula_WANG","WANG_ET_AL"
"Betula pendula","Jul-98","summer",16,4,28,0.74,0.8,5.3,1234,"Wang","Mekrijärvi Finland","OTC","Kaiyun_xls","Betula pendula_WANG","WANG_ET_AL"
"Betula pendula","Jul-98","summer",16,4,53,3,0.81,5.3,1235,"Wang","Mekrijärvi Finland","OTC","Kaiyun_xls","Betula pendula_WANG","WANG_ET_AL"
"Betula pendula","Jul-98","summer",16,4,104,4.8,0.83,5.6,1245,"Wang","Mekrijärvi Finland","OTC","Kaiyun_xls","Betula pendula_WANG","WANG_ET_AL"
"Betula pendula","Jul-98","summer",16,4,198,7.1,0.84,5.8,1255,"Wang","Mekrijärvi Finland","OTC","Kaiyun_xls","Betula pendula_WANG","WANG_ET_AL"
"Betula pendula","Jul-98","summer",16,4,342,8,0.86,5.8,1254,"Wang","Mekrijärvi Finland","OTC","Kaiyun_xls","Betula pendula_WANG","WANG_ET_AL"
"Betula pendula","Jul-98","summer",16,4,795,10,0.87,5.9,1241,"Wang","Mekrijärvi Finland","OTC","Kaiyun_xls","Betula pendula_WANG","WANG_ET_AL"
"Betula pendula","Jul-98","summer",17,4,32,-1.7,0.78,10.2,1124,"Wang","Mekrijärvi Finland","OTC","Kaiyun_xls","Betula pendula_WANG","WANG_ET_AL"
"Betula pendula","Jul-98","summer",17,4,54,2.5,0.79,10.4,1105,"Wang","Mekrijärvi Finland","OTC","Kaiyun_xls","Betula pendula_WANG","WANG_ET_AL"
"Betula pendula","Jul-98","summer",17,4,97,7.2,0.8,10.8,1123,"Wang","Mekrijärvi Finland","OTC","Kaiyun_xls","Betula pendula_WANG","WANG_ET_AL"
"Betula pendula","Jul-98","summer",17,4,146,9.6,0.82,11.2,1127,"Wang","Mekrijärvi Finland","OTC","Kaiyun_xls","Betula pendula_WANG","WANG_ET_AL"
"Betula pendula","Jul-98","summer",17,4,325,14.6,0.84,10.2,1134,"Wang","Mekrijärvi Finland","OTC","Kaiyun_xls","Betula pendula_WANG","WANG_ET_AL"
"Betula pendula","Jul-98","summer",17,4,512,17.1,0.86,10.5,1156,"Wang","Mekrijärvi Finland","OTC","Kaiyun_xls","Betula pendula_WANG","WANG_ET_AL"
"Betula pendula","Jul-98","summer",17,4,876,16.2,0.88,10.8,1234,"Wang","Mekrijärvi Finland","OTC","Kaiyun_xls","Betula pendula_WANG","WANG_ET_AL"
"Betula pendula","Jul-98","summer",18,4,27,-5.7,0.76,21.3,1245,"Wang","Mekrijärvi Finland","OTC","Kaiyun_xls","Betula pendula_WANG","WANG_ET_AL"
"Betula pendula","Jul-98","summer",18,4,54,-0.4,0.78,21.5,1246,"Wang","Mekrijärvi Finland","OTC","Kaiyun_xls","Betula pendula_WANG","WANG_ET_AL"
"Betula pendula","Jul-98","summer",18,4,97,4.7,0.78,21.7,1232,"Wang","Mekrijärvi Finland","OTC","Kaiyun_xls","Betula pendula_WANG","WANG_ET_AL"
"Betula pendula","Jul-98","summer",18,4,154,9.7,0.8,21.6,1232,"Wang","Mekrijärvi Finland","OTC","Kaiyun_xls","Betula pendula_WANG","WANG_ET_AL"
"Betula pendula","Jul-98","summer",18,4,250,14.9,0.82,21.9,1125,"Wang","Mekrijärvi Finland","OTC","Kaiyun_xls","Betula pendula_WANG","WANG_ET_AL"
"Betula pendula","Jul-98","summer",18,4,628,21.1,0.84,22,1187,"Wang","Mekrijärvi Finland","OTC","Kaiyun_xls","Betula pendula_WANG","WANG_ET_AL"
"Betula pendula","Jul-98","summer",18,4,903,22.3,0.87,22.5,1187,"Wang","Mekrijärvi Finland","OTC","Kaiyun_xls","Betula pendula_WANG","WANG_ET_AL"
"Betula pendula","Jul-98","summer",19,4,26,-6.4,0.7,25.1,1204,"Wang","Mekrijärvi Finland","OTC","Kaiyun_xls","Betula pendula_WANG","WANG_ET_AL"
"Betula pendula","Jul-98","summer",19,4,64,-1,0.75,25.7,1205,"Wang","Mekrijärvi Finland","OTC","Kaiyun_xls","Betula pendula_WANG","WANG_ET_AL"
"Betula pendula","Jul-98","summer",19,4,128,6.3,0.74,25.9,1206,"Wang","Mekrijärvi Finland","OTC","Kaiyun_xls","Betula pendula_WANG","WANG_ET_AL"
"Betula pendula","Jul-98","summer",19,4,239,12.1,0.79,26.1,1222,"Wang","Mekrijärvi Finland","OTC","Kaiyun_xls","Betula pendula_WANG","WANG_ET_AL"
"Betula pendula","Jul-98","summer",19,4,517,17,0.82,26.4,1224,"Wang","Mekrijärvi Finland","OTC","Kaiyun_xls","Betula pendula_WANG","WANG_ET_AL"
"Betula pendula","Jul-98","summer",19,4,865,18.7,0.87,26.8,1225,"Wang","Mekrijärvi Finland","OTC","Kaiyun_xls","Betula pendula_WANG","WANG_ET_AL"
"Betula pendula","Jul-98","summer",20,4,32,-5,0.65,31.5,1251,"Wang","Mekrijärvi Finland","OTC","Kaiyun_xls","Betula pendula_WANG","WANG_ET_AL"
"Betula pendula","Jul-98","summer",20,4,65,-1.7,0.71,32,1254,"Wang","Mekrijärvi Finland","OTC","Kaiyun_xls","Betula pendula_WANG","WANG_ET_AL"
"Betula pendula","Jul-98","summer",20,4,106,0.9,0.79,32.7,1261,"Wang","Mekrijärvi Finland","OTC","Kaiyun_xls","Betula pendula_WANG","WANG_ET_AL"
"Betula pendula","Jul-98","summer",20,4,158,3,0.77,32.9,1234,"Wang","Mekrijärvi Finland","OTC","Kaiyun_xls","Betula pendula_WANG","WANG_ET_AL"
"Betula pendula","Jul-98","summer",20,4,359,8.2,0.8,31.2,1251,"Wang","Mekrijärvi Finland","OTC","Kaiyun_xls","Betula pendula_WANG","WANG_ET_AL"
"Betula pendula","Jul-98","summer",20,4,648,11.2,0.84,31.8,1234,"Wang","Mekrijärvi Finland","OTC","Kaiyun_xls","Betula pendula_WANG","WANG_ET_AL"
"Betula pendula","Jul-98","summer",20,4,889,9.8,0.87,32.5,1224,"Wang","Mekrijärvi Finland","OTC","Kaiyun_xls","Betula pendula_WANG","WANG_ET_AL"
"Pinus sylvestris","Jul-98","summer",21,1,26,0.2,0.7,5.8,1187,"Wang","Mekrijärvi Finland","OTC","Kaiyun_xls","Pinus sylvestris_WANG","WANG_ET_AL"
"Pinus sylvestris","Jul-98","summer",21,1,55,2.1,0.71,5.4,1195,"Wang","Mekrijärvi Finland","OTC","Kaiyun_xls","Pinus sylvestris_WANG","WANG_ET_AL"
"Pinus sylvestris","Jul-98","summer",21,1,108,3.7,0.72,5,1200,"Wang","Mekrijärvi Finland","OTC","Kaiyun_xls","Pinus sylvestris_WANG","WANG_ET_AL"
"Pinus sylvestris","Jul-98","summer",21,1,151,4.5,0.74,5.3,1205,"Wang","Mekrijärvi Finland","OTC","Kaiyun_xls","Pinus sylvestris_WANG","WANG_ET_AL"
"Pinus sylvestris","Jul-98","summer",21,1,322,5.1,0.7,5.6,1221,"Wang","Mekrijärvi Finland","OTC","Kaiyun_xls","Pinus sylvestris_WANG","WANG_ET_AL"
"Pinus sylvestris","Jul-98","summer",21,1,628,7.6,0.76,5.4,1199,"Wang","Mekrijärvi Finland","OTC","Kaiyun_xls","Pinus sylvestris_WANG","WANG_ET_AL"
"Pinus sylvestris","Jul-98","summer",22,1,25,-1.5,0.71,10.2,1208,"Wang","Mekrijärvi Finland","OTC","Kaiyun_xls","Pinus sylvestris_WANG","WANG_ET_AL"
"Pinus sylvestris","Jul-98","summer",22,1,49,0.8,0.73,10.3,1124,"Wang","Mekrijärvi Finland","OTC","Kaiyun_xls","Pinus sylvestris_WANG","WANG_ET_AL"
"Pinus sylvestris","Jul-98","summer",22,1,95,4.4,0.75,10.5,1126,"Wang","Mekrijärvi Finland","OTC","Kaiyun_xls","Pinus sylvestris_WANG","WANG_ET_AL"
"Pinus sylvestris","Jul-98","summer",22,1,143,6.2,0.78,10.8,1124,"Wang","Mekrijärvi Finland","OTC","Kaiyun_xls","Pinus sylvestris_WANG","WANG_ET_AL"
"Pinus sylvestris","Jul-98","summer",22,1,252,10.4,0.79,11.4,1189,"Wang","Mekrijärvi Finland","OTC","Kaiyun_xls","Pinus sylvestris_WANG","WANG_ET_AL"
"Pinus sylvestris","Jul-98","summer",22,1,466,10.1,0.82,11.6,1188,"Wang","Mekrijärvi Finland","OTC","Kaiyun_xls","Pinus sylvestris_WANG","WANG_ET_AL"
"Pinus sylvestris","Jul-98","summer",22,1,768,12.8,0.86,11.8,1189,"Wang","Mekrijärvi Finland","OTC","Kaiyun_xls","Pinus sylvestris_WANG","WANG_ET_AL"
"Pinus sylvestris","Jul-98","summer",23,1,29,-5.8,0.74,20.1,1205,"Wang","Mekrijärvi Finland","OTC","Kaiyun_xls","Pinus sylvestris_WANG","WANG_ET_AL"
"Pinus sylvestris","Jul-98","summer",23,1,61,-1,0.76,20.6,1223,"Wang","Mekrijärvi Finland","OTC","Kaiyun_xls","Pinus sylvestris_WANG","WANG_ET_AL"
"Pinus sylvestris","Jul-98","summer",23,1,101,5.1,0.71,20.8,1221,"Wang","Mekrijärvi Finland","OTC","Kaiyun_xls","Pinus sylvestris_WANG","WANG_ET_AL"
"Pinus sylvestris","Jul-98","summer",23,1,162,8.2,0.75,21.4,1187,"Wang","Mekrijärvi Finland","OTC","Kaiyun_xls","Pinus sylvestris_WANG","WANG_ET_AL"
"Pinus sylvestris","Jul-98","summer",23,1,267,12.6,0.78,21.6,1189,"Wang","Mekrijärvi Finland","OTC","Kaiyun_xls","Pinus sylvestris_WANG","WANG_ET_AL"
"Pinus sylvestris","Jul-98","summer",23,1,674,17.2,0.82,21.5,1121,"Wang","Mekrijärvi Finland","OTC","Kaiyun_xls","Pinus sylvestris_WANG","WANG_ET_AL"
"Pinus sylvestris","Jul-98","summer",23,1,815,18.1,0.86,21.8,1129,"Wang","Mekrijärvi Finland","OTC","Kaiyun_xls","Pinus sylvestris_WANG","WANG_ET_AL"
"Pinus sylvestris","Jul-98","summer",24,1,24,-7.2,0.65,25.4,1145,"Wang","Mekrijärvi Finland","OTC","Kaiyun_xls","Pinus sylvestris_WANG","WANG_ET_AL"
"Pinus sylvestris","Jul-98","summer",24,1,51,-3.1,6.8,25.6,1126,"Wang","Mekrijärvi Finland","OTC","Kaiyun_xls","Pinus sylvestris_WANG","WANG_ET_AL"
"Pinus sylvestris","Jul-98","summer",24,1,105,2.4,0.74,25.9,1209,"Wang","Mekrijärvi Finland","OTC","Kaiyun_xls","Pinus sylvestris_WANG","WANG_ET_AL"
"Pinus sylvestris","Jul-98","summer",24,1,225,8.1,0.8,26.4,1208,"Wang","Mekrijärvi Finland","OTC","Kaiyun_xls","Pinus sylvestris_WANG","WANG_ET_AL"
"Pinus sylvestris","Jul-98","summer",24,1,371,11.4,0.81,26.7,1230,"Wang","Mekrijärvi Finland","OTC","Kaiyun_xls","Pinus sylvestris_WANG","WANG_ET_AL"
"Pinus sylvestris","Jul-98","summer",24,1,542,11.8,0.82,26.8,1232,"Wang","Mekrijärvi Finland","OTC","Kaiyun_xls","Pinus sylvestris_WANG","WANG_ET_AL"
"Pinus sylvestris","Jul-98","summer",24,1,843,15.4,0.86,26.2,1234,"Wang","Mekrijärvi Finland","OTC","Kaiyun_xls","Pinus sylvestris_WANG","WANG_ET_AL"
"Pinus sylvestris","Jul-98","summer",25,1,24,-6.5,0.74,30.6,1203,"Wang","Mekrijärvi Finland","OTC","Kaiyun_xls","Pinus sylvestris_WANG","WANG_ET_AL"
"Pinus sylvestris","Jul-98","summer",25,1,51,-3.5,0.75,30.9,1244,"Wang","Mekrijärvi Finland","OTC","Kaiyun_xls","Pinus sylvestris_WANG","WANG_ET_AL"
"Pinus sylvestris","Jul-98","summer",25,1,98,0.3,0.78,31.2,1198,"Wang","Mekrijärvi Finland","OTC","Kaiyun_xls","Pinus sylvestris_WANG","WANG_ET_AL"
"Pinus sylvestris","Jul-98","summer",25,1,184,3.5,0.81,31.6,1199,"Wang","Mekrijärvi Finland","OTC","Kaiyun_xls","Pinus sylvestris_WANG","WANG_ET_AL"
"Pinus sylvestris","Jul-98","summer",25,1,264,6,0.84,31.9,1189,"Wang","Mekrijärvi Finland","OTC","Kaiyun_xls","Pinus sylvestris_WANG","WANG_ET_AL"
"Pinus sylvestris","Jul-98","summer",25,1,544,7,0.86,32.5,1177,"Wang","Mekrijärvi Finland","OTC","Kaiyun_xls","Pinus sylvestris_WANG","WANG_ET_AL"
"Pinus sylvestris","Jul-98","summer",25,1,856,10.2,0.87,32.8,1202,"Wang","Mekrijärvi Finland","OTC","Kaiyun_xls","Pinus sylvestris_WANG","WANG_ET_AL"
"Pinus sylvestris","Jul-98","summer",26,2,27,0.1,0.8,5.2,1124,"Wang","Mekrijärvi Finland","OTC","Kaiyun_xls","Pinus sylvestris_WANG","WANG_ET_AL"
"Pinus sylvestris","Jul-98","summer",26,2,49,2.4,0.81,5.4,1125,"Wang","Mekrijärvi Finland","OTC","Kaiyun_xls","Pinus sylvestris_WANG","WANG_ET_AL"
"Pinus sylvestris","Jul-98","summer",26,2,112,4.3,0.82,5.6,1129,"Wang","Mekrijärvi Finland","OTC","Kaiyun_xls","Pinus sylvestris_WANG","WANG_ET_AL"
"Pinus sylvestris","Jul-98","summer",26,2,148,5.2,0.86,5.1,1109,"Wang","Mekrijärvi Finland","OTC","Kaiyun_xls","Pinus sylvestris_WANG","WANG_ET_AL"
"Pinus sylvestris","Jul-98","summer",26,2,331,6.2,0.84,5.7,1148,"Wang","Mekrijärvi Finland","OTC","Kaiyun_xls","Pinus sylvestris_WANG","WANG_ET_AL"
"Pinus sylvestris","Jul-98","summer",26,2,634,6.6,0.87,6.1,1179,"Wang","Mekrijärvi Finland","OTC","Kaiyun_xls","Pinus sylvestris_WANG","WANG_ET_AL"
"Pinus sylvestris","Jul-98","summer",27,2,27,-2,0.66,10,1134,"Wang","Mekrijärvi Finland","OTC","Kaiyun_xls","Pinus sylvestris_WANG","WANG_ET_AL"
"Pinus sylvestris","Jul-98","summer",27,2,56,1.1,0.67,10.2,1159,"Wang","Mekrijärvi Finland","OTC","Kaiyun_xls","Pinus sylvestris_WANG","WANG_ET_AL"
"Pinus sylvestris","Jul-98","summer",27,2,112,6.1,0.74,10.5,1168,"Wang","Mekrijärvi Finland","OTC","Kaiyun_xls","Pinus sylvestris_WANG","WANG_ET_AL"
"Pinus sylvestris","Jul-98","summer",27,2,158,7.7,0.78,10.7,1120,"Wang","Mekrijärvi Finland","OTC","Kaiyun_xls","Pinus sylvestris_WANG","WANG_ET_AL"
"Pinus sylvestris","Jul-98","summer",27,2,241,8.5,0.79,10.9,1123,"Wang","Mekrijärvi Finland","OTC","Kaiyun_xls","Pinus sylvestris_WANG","WANG_ET_AL"
"Pinus sylvestris","Jul-98","summer",27,2,456,11.5,0.72,11.4,1124,"Wang","Mekrijärvi Finland","OTC","Kaiyun_xls","Pinus sylvestris_WANG","WANG_ET_AL"
"Pinus sylvestris","Jul-98","summer",27,2,775,12.6,0.81,11.6,1124,"Wang","Mekrijärvi Finland","OTC","Kaiyun_xls","Pinus sylvestris_WANG","WANG_ET_AL"
"Pinus sylvestris","Jul-98","summer",28,2,26,-4.8,0.76,20,1178,"Wang","Mekrijärvi Finland","OTC","Kaiyun_xls","Pinus sylvestris_WANG","WANG_ET_AL"
"Pinus sylvestris","Jul-98","summer",28,2,58,-1.3,0.75,20.2,1179,"Wang","Mekrijärvi Finland","OTC","Kaiyun_xls","Pinus sylvestris_WANG","WANG_ET_AL"
"Pinus sylvestris","Jul-98","summer",28,2,108,4.1,7.8,20.6,1129,"Wang","Mekrijärvi Finland","OTC","Kaiyun_xls","Pinus sylvestris_WANG","WANG_ET_AL"
"Pinus sylvestris","Jul-98","summer",28,2,154,7.4,7,20.7,1123,"Wang","Mekrijärvi Finland","OTC","Kaiyun_xls","Pinus sylvestris_WANG","WANG_ET_AL"
"Pinus sylvestris","Jul-98","summer",28,2,251,10.8,0.68,20.8,1145,"Wang","Mekrijärvi Finland","OTC","Kaiyun_xls","Pinus sylvestris_WANG","WANG_ET_AL"
"Pinus sylvestris","Jul-98","summer",28,2,513,13.2,0.8,20.5,1214,"Wang","Mekrijärvi Finland","OTC","Kaiyun_xls","Pinus sylvestris_WANG","WANG_ET_AL"
"Pinus sylvestris","Jul-98","summer",28,2,702,14.4,0.84,21.2,1215,"Wang","Mekrijärvi Finland","OTC","Kaiyun_xls","Pinus sylvestris_WANG","WANG_ET_AL"
"Pinus sylvestris","Jul-98","summer",29,2,28,-6.6,0.75,25,1214,"Wang","Mekrijärvi Finland","OTC","Kaiyun_xls","Pinus sylvestris_WANG","WANG_ET_AL"
"Pinus sylvestris","Jul-98","summer",29,2,56,-2.8,0.76,25.3,1215,"Wang","Mekrijärvi Finland","OTC","Kaiyun_xls","Pinus sylvestris_WANG","WANG_ET_AL"
"Pinus sylvestris","Jul-98","summer",29,2,99,2.1,0.78,25.7,1216,"Wang","Mekrijärvi Finland","OTC","Kaiyun_xls","Pinus sylvestris_WANG","WANG_ET_AL"
"Pinus sylvestris","Jul-98","summer",29,2,205,7,0.8,25.9,1218,"Wang","Mekrijärvi Finland","OTC","Kaiyun_xls","Pinus sylvestris_WANG","WANG_ET_AL"
"Pinus sylvestris","Jul-98","summer",29,2,362,10.4,0.81,26.4,1215,"Wang","Mekrijärvi Finland","OTC","Kaiyun_xls","Pinus sylvestris_WANG","WANG_ET_AL"
"Pinus sylvestris","Jul-98","summer",29,2,564,13.8,0.82,26.8,1216,"Wang","Mekrijärvi Finland","OTC","Kaiyun_xls","Pinus sylvestris_WANG","WANG_ET_AL"
"Pinus sylvestris","Jul-98","summer",29,2,852,15.2,0.86,26.9,1225,"Wang","Mekrijärvi Finland","OTC","Kaiyun_xls","Pinus sylvestris_WANG","WANG_ET_AL"
"Pinus sylvestris","Jul-98","summer",30,2,29,-6,0.8,30.2,1224,"Wang","Mekrijärvi Finland","OTC","Kaiyun_xls","Pinus sylvestris_WANG","WANG_ET_AL"
"Pinus sylvestris","Jul-98","summer",30,2,52,-3.2,0.64,30.6,1224,"Wang","Mekrijärvi Finland","OTC","Kaiyun_xls","Pinus sylvestris_WANG","WANG_ET_AL"
"Pinus sylvestris","Jul-98","summer",30,2,112,0.25,0.68,30.8,1213,"Wang","Mekrijärvi Finland","OTC","Kaiyun_xls","Pinus sylvestris_WANG","WANG_ET_AL"
"Pinus sylvestris","Jul-98","summer",30,2,176,3,0.72,31.4,1215,"Wang","Mekrijärvi Finland","OTC","Kaiyun_xls","Pinus sylvestris_WANG","WANG_ET_AL"
"Pinus sylvestris","Jul-98","summer",30,2,258,5.5,0.78,30.8,1189,"Wang","Mekrijärvi Finland","OTC","Kaiyun_xls","Pinus sylvestris_WANG","WANG_ET_AL"
"Pinus sylvestris","Jul-98","summer",30,2,523,8.6,0.85,31.5,1187,"Wang","Mekrijärvi Finland","OTC","Kaiyun_xls","Pinus sylvestris_WANG","WANG_ET_AL"
"Pinus sylvestris","Jul-98","summer",30,2,821,9.4,0.88,31.8,1189,"Wang","Mekrijärvi Finland","OTC","Kaiyun_xls","Pinus sylvestris_WANG","WANG_ET_AL"
"Pinus sylvestris","Jul-98","summer",31,3,29,0.12,0.64,5.1,1145,"Wang","Mekrijärvi Finland","OTC","Kaiyun_xls","Pinus sylvestris_WANG","WANG_ET_AL"
"Pinus sylvestris","Jul-98","summer",31,3,53,1.8,0.7,5.4,1123,"Wang","Mekrijärvi Finland","OTC","Kaiyun_xls","Pinus sylvestris_WANG","WANG_ET_AL"
"Pinus sylvestris","Jul-98","summer",31,3,121,4.7,0.71,5.6,1145,"Wang","Mekrijärvi Finland","OTC","Kaiyun_xls","Pinus sylvestris_WANG","WANG_ET_AL"
"Pinus sylvestris","Jul-98","summer",31,3,149,6.2,0.78,5.6,1145,"Wang","Mekrijärvi Finland","OTC","Kaiyun_xls","Pinus sylvestris_WANG","WANG_ET_AL"
"Pinus sylvestris","Jul-98","summer",31,3,329,5.5,0.76,5.8,1144,"Wang","Mekrijärvi Finland","OTC","Kaiyun_xls","Pinus sylvestris_WANG","WANG_ET_AL"
"Pinus sylvestris","Jul-98","summer",31,3,618,5.8,0.84,5.5,1147,"Wang","Mekrijärvi Finland","OTC","Kaiyun_xls","Pinus sylvestris_WANG","WANG_ET_AL"
"Pinus sylvestris","Jul-98","summer",32,3,31,-1.7,0.63,10.3,1248,"Wang","Mekrijärvi Finland","OTC","Kaiyun_xls","Pinus sylvestris_WANG","WANG_ET_AL"
"Pinus sylvestris","Jul-98","summer",32,3,59,1.5,0.68,10.5,1215,"Wang","Mekrijärvi Finland","OTC","Kaiyun_xls","Pinus sylvestris_WANG","WANG_ET_AL"
"Pinus sylvestris","Jul-98","summer",32,3,104,5.5,0.69,10.6,1215,"Wang","Mekrijärvi Finland","OTC","Kaiyun_xls","Pinus sylvestris_WANG","WANG_ET_AL"
"Pinus sylvestris","Jul-98","summer",32,3,162,8.2,0.72,10.8,1246,"Wang","Mekrijärvi Finland","OTC","Kaiyun_xls","Pinus sylvestris_WANG","WANG_ET_AL"
"Pinus sylvestris","Jul-98","summer",32,3,256,9.2,0.72,10.9,1243,"Wang","Mekrijärvi Finland","OTC","Kaiyun_xls","Pinus sylvestris_WANG","WANG_ET_AL"
"Pinus sylvestris","Jul-98","summer",32,3,512,13.1,0.78,11.5,1254,"Wang","Mekrijärvi Finland","OTC","Kaiyun_xls","Pinus sylvestris_WANG","WANG_ET_AL"
"Pinus sylvestris","Jul-98","summer",32,3,725,11.6,0.84,11.9,1251,"Wang","Mekrijärvi Finland","OTC","Kaiyun_xls","Pinus sylvestris_WANG","WANG_ET_AL"
"Pinus sylvestris","Jul-98","summer",33,3,27,-4.6,0.66,20.2,1189,"Wang","Mekrijärvi Finland","OTC","Kaiyun_xls","Pinus sylvestris_WANG","WANG_ET_AL"
"Pinus sylvestris","Jul-98","summer",33,3,63,-1.1,0.68,20.4,1178,"Wang","Mekrijärvi Finland","OTC","Kaiyun_xls","Pinus sylvestris_WANG","WANG_ET_AL"
"Pinus sylvestris","Jul-98","summer",33,3,111,3.8,0.69,20.6,1189,"Wang","Mekrijärvi Finland","OTC","Kaiyun_xls","Pinus sylvestris_WANG","WANG_ET_AL"
"Pinus sylvestris","Jul-98","summer",33,3,167,8.6,0.71,20.9,1189,"Wang","Mekrijärvi Finland","OTC","Kaiyun_xls","Pinus sylvestris_WANG","WANG_ET_AL"
"Pinus sylvestris","Jul-98","summer",33,3,256,11.7,0.73,21.4,1187,"Wang","Mekrijärvi Finland","OTC","Kaiyun_xls","Pinus sylvestris_WANG","WANG_ET_AL"
"Pinus sylvestris","Jul-98","summer",33,3,584,14.4,0.78,21.6,1196,"Wang","Mekrijärvi Finland","OTC","Kaiyun_xls","Pinus sylvestris_WANG","WANG_ET_AL"
"Pinus sylvestris","Jul-98","summer",33,3,765,17.4,0.82,22.1,1194,"Wang","Mekrijärvi Finland","OTC","Kaiyun_xls","Pinus sylvestris_WANG","WANG_ET_AL"
"Pinus sylvestris","Jul-98","summer",34,3,29,-6.1,0.65,25.1,1211,"Wang","Mekrijärvi Finland","OTC","Kaiyun_xls","Pinus sylvestris_WANG","WANG_ET_AL"
"Pinus sylvestris","Jul-98","summer",34,3,57,-2.2,0.68,25.4,1224,"Wang","Mekrijärvi Finland","OTC","Kaiyun_xls","Pinus sylvestris_WANG","WANG_ET_AL"
"Pinus sylvestris","Jul-98","summer",34,3,121,2.4,0.74,25.8,1225,"Wang","Mekrijärvi Finland","OTC","Kaiyun_xls","Pinus sylvestris_WANG","WANG_ET_AL"
"Pinus sylvestris","Jul-98","summer",34,3,199,6.5,0.76,25.9,1225,"Wang","Mekrijärvi Finland","OTC","Kaiyun_xls","Pinus sylvestris_WANG","WANG_ET_AL"
"Pinus sylvestris","Jul-98","summer",34,3,351,9.5,0.78,26,1226,"Wang","Mekrijärvi Finland","OTC","Kaiyun_xls","Pinus sylvestris_WANG","WANG_ET_AL"
"Pinus sylvestris","Jul-98","summer",34,3,512,10.1,0.81,26.7,1197,"Wang","Mekrijärvi Finland","OTC","Kaiyun_xls","Pinus sylvestris_WANG","WANG_ET_AL"
"Pinus sylvestris","Jul-98","summer",34,3,723,12.2,0.83,26.8,1194,"Wang","Mekrijärvi Finland","OTC","Kaiyun_xls","Pinus sylvestris_WANG","WANG_ET_AL"
"Pinus sylvestris","Jul-98","summer",35,3,27,-5.2,0.74,31,1254,"Wang","Mekrijärvi Finland","OTC","Kaiyun_xls","Pinus sylvestris_WANG","WANG_ET_AL"
"Pinus sylvestris","Jul-98","summer",35,3,49,-3.1,0.76,30.4,1234,"Wang","Mekrijärvi Finland","OTC","Kaiyun_xls","Pinus sylvestris_WANG","WANG_ET_AL"
"Pinus sylvestris","Jul-98","summer",35,3,125,0.1,0.8,30.9,1235,"Wang","Mekrijärvi Finland","OTC","Kaiyun_xls","Pinus sylvestris_WANG","WANG_ET_AL"
"Pinus sylvestris","Jul-98","summer",35,3,177,3.1,0.84,31.2,1241,"Wang","Mekrijärvi Finland","OTC","Kaiyun_xls","Pinus sylvestris_WANG","WANG_ET_AL"
"Pinus sylvestris","Jul-98","summer",35,3,254,4.5,0.85,31.7,1231,"Wang","Mekrijärvi Finland","OTC","Kaiyun_xls","Pinus sylvestris_WANG","WANG_ET_AL"
"Pinus sylvestris","Jul-98","summer",35,3,426,6.8,0.87,32,1223,"Wang","Mekrijärvi Finland","OTC","Kaiyun_xls","Pinus sylvestris_WANG","WANG_ET_AL"
"Pinus sylvestris","Jul-98","summer",35,3,752,7.8,0.75,32.9,1242,"Wang","Mekrijärvi Finland","OTC","Kaiyun_xls","Pinus sylvestris_WANG","WANG_ET_AL"
"Pinus sylvestris","Jul-98","summer",36,4,31,0.15,0.7,5.2,1145,"Wang","Mekrijärvi Finland","OTC","Kaiyun_xls","Pinus sylvestris_WANG","WANG_ET_AL"
"Pinus sylvestris","Jul-98","summer",36,4,52,2.8,0.72,5.3,1146,"Wang","Mekrijärvi Finland","OTC","Kaiyun_xls","Pinus sylvestris_WANG","WANG_ET_AL"
"Pinus sylvestris","Jul-98","summer",36,4,128,5,0.76,5.4,1167,"Wang","Mekrijärvi Finland","OTC","Kaiyun_xls","Pinus sylvestris_WANG","WANG_ET_AL"
"Pinus sylvestris","Jul-98","summer",36,4,162,5.7,0.78,5.1,1175,"Wang","Mekrijärvi Finland","OTC","Kaiyun_xls","Pinus sylvestris_WANG","WANG_ET_AL"
"Pinus sylvestris","Jul-98","summer",36,4,334,7.1,0.79,5.4,1176,"Wang","Mekrijärvi Finland","OTC","Kaiyun_xls","Pinus sylvestris_WANG","WANG_ET_AL"
"Pinus sylvestris","Jul-98","summer",36,4,622,6.7,0.81,5.6,1201,"Wang","Mekrijärvi Finland","OTC","Kaiyun_xls","Pinus sylvestris_WANG","WANG_ET_AL"
"Pinus sylvestris","Jul-98","summer",37,4,24,-1.9,0.75,10.4,1211,"Wang","Mekrijärvi Finland","OTC","Kaiyun_xls","Pinus sylvestris_WANG","WANG_ET_AL"
"Pinus sylvestris","Jul-98","summer",37,4,46,0.7,7.6,10.6,1213,"Wang","Mekrijärvi Finland","OTC","Kaiyun_xls","Pinus sylvestris_WANG","WANG_ET_AL"
"Pinus sylvestris","Jul-98","summer",37,4,97,4.8,0.8,11,1215,"Wang","Mekrijärvi Finland","OTC","Kaiyun_xls","Pinus sylvestris_WANG","WANG_ET_AL"
"Pinus sylvestris","Jul-98","summer",37,4,143,7.2,0.81,11.5,1245,"Wang","Mekrijärvi Finland","OTC","Kaiyun_xls","Pinus sylvestris_WANG","WANG_ET_AL"
"Pinus sylvestris","Jul-98","summer",37,4,257,9.7,0.72,11.4,1165,"Wang","Mekrijärvi Finland","OTC","Kaiyun_xls","Pinus sylvestris_WANG","WANG_ET_AL"
"Pinus sylvestris","Jul-98","summer",37,4,456,10.7,0.81,10,1165,"Wang","Mekrijärvi Finland","OTC","Kaiyun_xls","Pinus sylvestris_WANG","WANG_ET_AL"
"Pinus sylvestris","Jul-98","summer",37,4,716,10.2,0.86,10.8,1167,"Wang","Mekrijärvi Finland","OTC","Kaiyun_xls","Pinus sylvestris_WANG","WANG_ET_AL"
"Pinus sylvestris","Jul-98","summer",38,4,25,-5.1,0.68,20.1,1145,"Wang","Mekrijärvi Finland","OTC","Kaiyun_xls","Pinus sylvestris_WANG","WANG_ET_AL"
"Pinus sylvestris","Jul-98","summer",38,4,55,-0.9,0.72,20.6,1165,"Wang","Mekrijärvi Finland","OTC","Kaiyun_xls","Pinus sylvestris_WANG","WANG_ET_AL"
"Pinus sylvestris","Jul-98","summer",38,4,112,3.9,0.76,20.7,1167,"Wang","Mekrijärvi Finland","OTC","Kaiyun_xls","Pinus sylvestris_WANG","WANG_ET_AL"
"Pinus sylvestris","Jul-98","summer",38,4,159,7.9,0.78,20.9,1145,"Wang","Mekrijärvi Finland","OTC","Kaiyun_xls","Pinus sylvestris_WANG","WANG_ET_AL"
"Pinus sylvestris","Jul-98","summer",38,4,255,11.2,0.77,21.4,1135,"Wang","Mekrijärvi Finland","OTC","Kaiyun_xls","Pinus sylvestris_WANG","WANG_ET_AL"
"Pinus sylvestris","Jul-98","summer",38,4,589,14.6,0.81,21.6,1187,"Wang","Mekrijärvi Finland","OTC","Kaiyun_xls","Pinus sylvestris_WANG","WANG_ET_AL"
"Pinus sylvestris","Jul-98","summer",38,4,711,15.5,0.84,21.9,1198,"Wang","Mekrijärvi Finland","OTC","Kaiyun_xls","Pinus sylvestris_WANG","WANG_ET_AL"
"Pinus sylvestris","Jul-98","summer",39,4,27,-5.8,0.66,25.3,1211,"Wang","Mekrijärvi Finland","OTC","Kaiyun_xls","Pinus sylvestris_WANG","WANG_ET_AL"
"Pinus sylvestris","Jul-98","summer",39,4,49,-2,0.67,25.6,1222,"Wang","Mekrijärvi Finland","OTC","Kaiyun_xls","Pinus sylvestris_WANG","WANG_ET_AL"
"Pinus sylvestris","Jul-98","summer",39,4,122,2.4,0.69,25.8,1222,"Wang","Mekrijärvi Finland","OTC","Kaiyun_xls","Pinus sylvestris_WANG","WANG_ET_AL"
"Pinus sylvestris","Jul-98","summer",39,4,214,6.8,0.71,25.9,1223,"Wang","Mekrijärvi Finland","OTC","Kaiyun_xls","Pinus sylvestris_WANG","WANG_ET_AL"
"Pinus sylvestris","Jul-98","summer",39,4,354,10.6,0.76,26.4,1245,"Wang","Mekrijärvi Finland","OTC","Kaiyun_xls","Pinus sylvestris_WANG","WANG_ET_AL"
"Pinus sylvestris","Jul-98","summer",39,4,566,13.6,0.8,26.5,1256,"Wang","Mekrijärvi Finland","OTC","Kaiyun_xls","Pinus sylvestris_WANG","WANG_ET_AL"
"Pinus sylvestris","Jul-98","summer",39,4,726,13.7,0.81,26.7,1256,"Wang","Mekrijärvi Finland","OTC","Kaiyun_xls","Pinus sylvestris_WANG","WANG_ET_AL"
"Pinus sylvestris","Jul-98","summer",40,4,24,-5.4,0.68,30.1,1245,"Wang","Mekrijärvi Finland","OTC","Kaiyun_xls","Pinus sylvestris_WANG","WANG_ET_AL"
"Pinus sylvestris","Jul-98","summer",40,4,57,-2.8,0.69,30.2,1275,"Wang","Mekrijärvi Finland","OTC","Kaiyun_xls","Pinus sylvestris_WANG","WANG_ET_AL"
"Pinus sylvestris","Jul-98","summer",40,4,112,0.22,0.72,30.5,1275,"Wang","Mekrijärvi Finland","OTC","Kaiyun_xls","Pinus sylvestris_WANG","WANG_ET_AL"
"Pinus sylvestris","","summer",40,4,172,2.5,0.74,31,1145,"","","","","Pinus sylvestris_WANG","WANG_ET_AL"
"Pinus sylvestris","","summer",40,4,261,5.4,0.76,32.4,1145,"","","","","Pinus sylvestris_WANG","WANG_ET_AL"
"Pinus sylvestris","","summer",40,4,512,8.4,0.8,32.7,1178,"","","","","Pinus sylvestris_WANG","WANG_ET_AL"
"Pinus sylvestris","","summer",40,4,844,9.2,0.84,33.2,1178,"","","","","Pinus sylvestris_WANG","WANG_ET_AL"
