Season,Obs,Time,Photo,Cond,Ci,Trmmol,VpdL,Area,StmRat,BLCond,Tair,Tleaf,TBlk,CO2R,CO2S,H2OR,H2OS,RH_R,RH_S,Flow,PARi,PARo,Press,CsMch,HsMch,Status,HHMMSS
Dry,7,1501.5,-0.59,0.0274,367,1.52,5.2,6,0.5,2.56,45.44,41.31,47.8,365.1,365.2,25.742,27.951,25.69,27.9,400,0,59,98.39,4.34,2.44,111115,14:26:20
Dry,1,756.5,-1.2,0.0681,27.6,3.64,5.09,6,0.5,2.56,45.17,41.82,47.53,-1.7,0.1,25.977,31.263,26.29,31.64,400.1,999,57,98.41,1.53,2.49,111105,14:13:54
Dry,3,1055,-0.755,0.0494,69.4,2.86,5.46,6,0.5,2.56,45.44,42.44,47.57,49.2,50.1,26.039,30.197,25.99,30.14,399.9,999,56,98.4,1.98,2.49,111115,14:18:52
Dry,4,1158,-0.292,0.0412,102,2.4,5.49,6,0.5,2.56,45.15,42.36,47.2,99.8,99.8,26.028,29.524,26.37,29.91,400.2,1001,56,98.4,2.52,2.48,111115,14:20:37
Dry,5,1290.3,0.872,0.0364,143,2.13,5.5,6,0.5,2.56,44.94,42.26,46.99,200.3,198.3,25.932,29.027,26.56,29.73,400,1000,57,98.39,3.31,2.48,111115,14:22:48
Dry,6,1405.3,2.69,0.0297,189,1.78,5.64,6,0.5,2.56,45.05,42.44,47.19,366.8,361.8,25.834,28.432,26.3,28.94,400.1,1000,59,98.39,4.38,2.48,111115,14:24:43
Dry,8,1643.3,3.43,0.0106,224,0.669,5.88,6,0.5,2.56,44.05,42.59,45.42,800.9,795,25.659,26.635,27.52,28.56,400.2,1000,60,98.38,6.04,2.47,111115,14:28:41
Dry,9,1796.3,4.62,0.00729,475,0.452,5.78,6,0.5,2.56,43.93,42.26,45.63,1600.7,1592.7,25.591,26.251,27.61,28.32,400.2,1001,60,98.38,6.48,2.5,111115,14:31:15
Dry,15,2761,-0.735,0.0616,363,2.26,3.52,6,0.5,2.56,40.02,37.33,41.71,365.7,365.6,26.121,29.413,34.62,38.99,400,0,64,98.36,4.86,2.49,111115,14:47:20
Dry,10,2126.8,-1.02,0.0176,89.7,0.709,3.8,6,0.5,2.56,36.98,37.59,37.05,-1.9,-0.3,26.555,27.589,41.49,43.1,400.2,999,61,98.37,0.983,2.36,111105,14:36:44
Dry,11,2260,-0.545,0.0506,65.5,1.95,3.69,6,0.5,2.56,38.57,37.81,39.56,51,51.6,26.65,29.491,38.19,42.26,400.3,1000,60,98.37,1.74,2.4,111115,14:38:57
Dry,12,2406,0.177,0.0724,89.7,2.68,3.56,6,0.5,2.56,38.89,37.74,39.97,100.1,99.4,26.649,30.543,37.53,43.02,400,1000,57,98.37,2.36,2.48,111115,14:41:23
Dry,13,2513.5,2.06,0.0754,142,2.8,3.57,6,0.5,2.56,39.18,37.81,40.35,201.2,197.3,26.568,30.637,36.84,42.48,400.1,1001,61,98.37,3.38,2.51,111115,14:43:12
Dry,14,2631.3,5.42,0.0676,208,2.6,3.7,6,0.5,2.56,39.14,38.02,40.15,366.2,356.7,26.388,30.176,36.65,41.92,400.1,999,63,98.36,4.4,2.5,111115,14:45:09
Dry,16,2968.3,5.97,0.0197,266,0.84,4.03,6,0.5,2.56,37.95,38.1,38.39,800.5,790.5,25.889,27.115,38.35,40.17,400.1,1000,67,98.35,6.2,2.43,111115,14:50:46
Dry,17,3128,8.85,0.0135,460,0.574,4.02,6,0.5,2.56,37.88,37.94,38.4,1600.7,1586,25.792,26.631,38.36,39.61,400,1001,67,98.35,6.86,2.45,111115,14:53:26
Dry,24,4463.5,-0.32,0.0922,357,2.1,2.22,6,0.5,2.56,35.23,33.54,36.27,365.1,364.4,27.319,30.372,46.96,52.21,400,0,44,98.34,4.57,2.45,111115,15:15:42
Dry,18,3519.8,-1.54,0.0608,42.4,2.4,3.77,6,0.5,2.56,38.83,37.87,39.97,0.3,2.6,25.368,28.857,35.82,40.75,400,1000,51,98.34,1.31,2.34,111105,14:59:59
Dry,19,3861.8,-1.26,0.073,28.3,1.85,2.46,6,0.5,2.56,32.86,33.99,32.39,-1.4,0.5,26.581,29.277,52.14,57.43,400.1,1001,55,98.34,1.31,2.34,111105,15:05:39
Dry,20,3982.5,-0.422,0.0796,56.5,1.95,2.38,6,0.5,2.56,33.12,33.83,32.93,49.4,49.9,26.747,29.587,51.7,57.19,400.1,1001,59,98.34,1.83,2.4,111115,15:07:41
Dry,21,4145,0.466,0.0871,86.4,2.09,2.34,6,0.5,2.56,33.32,33.89,33.12,99.9,98.9,27.214,30.251,52.01,57.82,400,1001,52,98.34,2.39,2.41,111115,15:10:23
Dry,22,4252.5,2.72,0.0915,141,2.16,2.31,6,0.5,2.56,33.41,33.91,33.13,201.1,196.4,27.457,30.602,52.24,58.22,400.1,999,50,98.33,3.38,2.44,111115,15:12:11
Dry,23,4365.3,6.33,0.0939,233,2.22,2.31,6,0.5,2.56,33.46,33.96,33.33,366.6,355.9,27.499,30.729,52.17,58.29,399.9,1000,48,98.34,4.93,2.48,111115,15:14:04
Dry,25,4607,11.5,0.0894,542,2.26,2.46,6,0.5,2.56,33.75,34.39,33.31,800.4,780.6,27.262,30.542,50.88,57,400,1000,49,98.35,7.01,2.54,111115,15:18:06
Dry,26,4764.3,13,0.0749,1.23E+03,1.87,2.42,6,0.5,2.56,33.43,34.12,33.13,1599.1,1575.3,27.312,30.037,51.89,57.06,400,1000,51,98.35,7.11,2.58,111115,15:20:42
Dry,35,6253.8,-0.397,0.105,362,1.42,1.34,6,0.5,2.56,29.57,29.39,29.04,363.8,363.6,26.181,28.247,61.93,66.82,399.8,0,18,98.33,4.72,2.38,111115,15:45:30
Dry,27,5284,-1.26,0.0882,23.6,1.34,1.49,6,0.5,2.56,27.92,30.28,26.09,-1.4,0.5,26.91,28.865,70.04,75.13,400,1001,31,98.33,1.43,2.41,111105,15:29:22
Dry,28,5412,-0.178,0.0973,51.5,1.39,1.4,6,0.5,2.56,27.74,29.9,26.29,49.5,49.7,26.777,28.798,70.45,75.77,400,1000,30,98.33,1.98,2.41,111115,15:31:30
Dry,29,5517,0.629,0.104,86.6,1.49,1.42,6,0.5,2.56,28.11,29.98,26.88,100,98.9,26.687,28.857,68.7,74.28,399.9,1001,28,98.33,2.74,2.42,111115,15:33:15
Dry,30,5628.3,3.04,0.106,144,1.54,1.43,6,0.5,2.56,28.22,30.02,26.87,200.7,195.7,26.587,28.833,68.03,73.78,400,1001,28,98.33,3.6,2.42,111115,15:35:06
Dry,31,5743.3,6.84,0.11,245,1.6,1.43,6,0.5,2.56,28.32,30.02,27.07,366.5,355.3,26.479,28.807,67.36,73.28,399.7,1000,28,98.33,4.94,2.44,111115,15:37:01
Dry,33,5981.3,10.2,0.112,612,1.79,1.58,6,0.5,2.56,29.44,30.64,28.43,800.4,782.9,26.272,28.872,62.62,68.82,400.1,1000,21,98.34,6.93,2.46,111115,15:40:58
Dry,34,6133,10.5,0.109,1.38E+03,1.65,1.49,6,0.5,2.56,28.34,30.2,27,1600.2,1580.6,26.235,28.633,66.63,72.72,399.9,1000,19,98.33,7.14,2.52,111115,15:43:31
Dry,1,214,-0.518,0.0166,391,0.654,3.72,6,0.5,2.56,37.8,36.86,37.99,364.7,365.2,24.795,25.75,37.07,38.5,400.1,0,46,98.47,4.4,2.33,111115,13:47:59
Dry,2,311,0.351,0.0155,307,0.591,3.61,6,0.5,2.56,37.59,36.54,37.82,364.7,363.9,24.898,25.761,37.66,38.96,400.1,25,49,98.47,4.21,2.33,111115,13:49:37
Dry,3,408,1.01,0.0126,216,0.474,3.57,6,0.5,2.56,37.34,36.44,37.6,364.6,362.8,25.127,25.82,38.51,39.57,400,51,49,98.46,4.22,2.34,111115,13:51:12
Dry,4,504,0.901,0.0113,217,0.419,3.51,6,0.5,2.56,37.18,36.29,37.42,364.4,362.8,25.333,25.946,39.18,40.12,400,101,50,98.45,4.29,2.34,111115,13:52:49
Dry,5,598.5,1.05,0.011,193,0.404,3.47,6,0.5,2.56,37.03,36.2,37.27,364.6,362.8,25.447,26.037,39.66,40.58,400,200,49,98.45,4.33,2.34,111115,13:54:24
Dry,6,695,1.39,0.0128,172,0.473,3.5,6,0.5,2.56,36.86,36.32,37.13,364.5,362.2,25.438,26.128,40.02,41.1,400.1,400,49,98.45,4.33,2.35,111115,13:56:00
Dry,7,793,1.78,0.0157,163,0.601,3.63,6,0.5,2.56,36.83,36.74,37.01,364.7,361.7,25.399,26.276,40.03,41.41,400.1,798,49,98.44,4.34,2.35,111115,13:57:38
Dry,8,889.3,2.28,0.0196,156,0.823,3.98,6,0.5,2.56,36.79,37.83,36.96,364.7,360.8,25.396,26.598,40.11,42.01,399.9,1600,49,98.44,4.29,2.35,111115,13:59:14
