Season,Obs,Time,Photo,Cond,Ci,Trmmol,VpdL,Area,StmRat,BLCond,Tair,Tleaf,TBlk,CO2R,CO2S,H2OR,H2OS,RH_R,RH_S,Flow,PARi,PARo,Press,CsMch,HsMch,Status
Dry,1,249.3,-0.699,0.00536,551,0.169,2.99,6,0.5,2.56,36.73,35.43,36.93,364.1,365.1,27.959,28.205,44.56,44.95,400.8,0,286,98.98,3.81,3.21,111115
Dry,2,350,-0.0182,0.00502,352,0.152,2.87,6,0.5,2.56,36.2,35,36.38,364,364,27.867,28.087,45.71,46.08,400.8,24,1200,98.98,3.72,3.22,111115
Dry,3,442.3,0.226,0.0045,268,0.128,2.71,6,0.5,2.56,35.64,34.48,35.84,363.3,362.9,27.859,28.046,47.12,47.43,400.9,50,232,98.98,3.58,3.19,111115
Dry,4,534.5,0.144,0.0043,297,0.12,2.65,6,0.5,2.56,35.3,34.27,35.49,365.4,365.1,27.849,28.023,48.01,48.31,400.8,100,1201,98.98,3.76,3.19,111115
Dry,5,639.3,0.329,0.00438,231,0.123,2.66,6,0.5,2.56,35.13,34.35,35.3,365.1,364.5,27.936,28.114,48.6,48.91,400.8,200,1193,98.98,3.34,3.19,111115
Dry,6,733,0.175,0.00537,297,0.159,2.8,6,0.5,2.56,35.22,34.86,35.34,365.2,364.9,28.092,28.323,48.62,49.02,400.7,399,1167,98.98,3.64,3.22,111115
Dry,7,826.3,0.491,0.00573,212,0.188,3.1,6,0.5,2.56,35.58,35.92,35.68,365.2,364.3,28.404,28.677,48.21,48.67,400.7,798,363,98.97,3.33,3.24,111115
Dry,8,920.5,0.608,0.00586,181,0.219,3.53,6,0.5,2.56,35.68,37.28,35.72,364.7,363.6,28.681,29,48.41,48.94,400.6,1599,1250,98.97,3.47,3.25,111115
Dry,,,,,,,,,,,,,,,,,,,,,,,,,,
Dry,9,1814.5,-0.71,0.00557,197,0.267,4.52,6,0.5,2.56,40.91,39.87,42.09,-1,0.1,28.374,28.763,36.08,36.58,400.8,999,818,98.95,0.29,3.25,111105
Dry,10,1928,-0.605,0.00595,191,0.289,4.56,6,0.5,2.56,41.49,40.03,43.09,35.7,36.6,28.562,28.982,35.22,35.74,400.8,999,285,98.95,0.622,3.25,111135
Dry,11,2023.3,-0.495,0.00607,172,0.285,4.42,6,0.5,2.56,41,39.66,42.49,49.4,50.2,28.465,28.88,36.01,36.54,400.7,1001,369,98.95,0.67,3.26,111115
Dry,12,2123.5,-0.335,0.00685,169,0.331,4.55,6,0.5,2.56,41.88,39.99,43.88,100.3,100.7,28.465,28.946,34.38,34.96,400.8,1000,1247,98.94,1.27,3.26,111115
Dry,13,2235.3,0.146,0.00626,148,0.306,4.59,6,0.5,2.56,41.3,40.15,42.5,199.7,199.4,28.692,29.136,35.73,36.28,400.9,1001,254,98.94,2.18,3.3,111115
Dry,14,2349.3,0.707,0.00668,174,0.327,4.6,6,0.5,2.56,41.47,40.16,42.9,366.3,365.1,28.649,29.124,35.36,35.95,400.8,1000,1282,98.93,3.27,3.33,111115
Dry,15,2446,0.409,0.00622,235,0.31,4.69,6,0.5,2.56,41.36,40.4,42.49,365,364.2,28.717,29.168,35.65,36.21,400.8,1000,1319,98.94,3.48,3.34,111115
Dry,16,2584.3,1.03,0.00501,420,0.244,4.56,6,0.5,2.56,40.47,40.15,41.11,799.5,797.7,29.073,29.427,37.83,38.29,400.9,1002,953,98.93,5.45,3.42,111115
Dry,17,2742.3,2.41,0.00505,743,0.241,4.48,6,0.5,2.56,40.73,39.94,41.92,1600.4,1596.2,29.105,29.454,37.36,37.81,400.9,1000,1147,98.93,6.46,3.45,111115
Dry,18,2989.8,-0.0138,0.00582,340,0.281,4.54,6,0.5,2.56,41.4,40.09,42.89,363.8,363.7,28.99,29.398,35.92,36.42,400.9,999,268,98.93,3.52,3.35,111115
Dry,,,,,,,,,,,,,,,,,,,,,,,,,,
Dry,25,4047,-0.535,0.0172,400,0.452,2.52,6,0.5,2.56,35.97,33.84,37.65,365.1,365.6,27.444,28.102,45.56,46.65,400.6,0,301,98.9,3.8,3.23,111115
Dry,19,3417.3,-0.481,0.00491,153,0.14,2.71,6,0.5,2.56,33.67,34.72,33.73,-1.2,-0.5,28.617,28.821,53.96,54.35,400.9,1001,298,98.92,0.00514,3.23,111105
Dry,20,3527,-0.307,0.00731,99.8,0.211,2.74,6,0.5,2.56,34.16,34.79,34.49,35.3,35.7,28.39,28.697,52.08,52.65,400.8,1001,342,98.92,0.286,3.21,111135
Dry,21,3623.3,-0.302,0.00913,99.8,0.271,2.82,6,0.5,2.56,34.3,35,34.51,49.8,50.3,28.181,28.575,51.32,52.03,401,999,298,98.91,0.664,3.21,111115
Dry,22,3726.3,-0.0407,0.0107,101,0.315,2.81,6,0.5,2.56,34.18,34.94,34.3,99.6,99.6,28.027,28.486,51.37,52.21,400.9,999,287,98.9,1.38,3.22,111115
Dry,23,3835,0.413,0.0128,139,0.382,2.84,6,0.5,2.56,34.3,34.98,34.51,200.2,199.5,27.819,28.374,50.63,51.64,400.9,1000,308,98.9,2.52,3.22,111115
Dry,24,3949.5,1.81,0.0139,141,0.41,2.81,6,0.5,2.56,34.36,34.88,34.7,366.4,363.5,27.68,28.276,50.22,51.3,400.9,1000,257,98.9,3.71,3.23,111115
Dry,26,4188.3,3.33,0.0108,272,0.328,2.9,6,0.5,2.56,34.04,34.96,33.9,800.2,794.8,27.234,27.711,50.3,51.18,401.1,999,338,98.89,6.24,3.26,111115
Dry,27,4338.3,4.72,0.00823,616,0.254,2.93,6,0.5,2.56,34.51,34.99,34.9,1600,1592.3,27.077,27.446,48.7,49.36,400.8,1000,333,98.89,7.01,3.28,111115
Dry,,,,,,,,,,,,,,,,,,,,,,,,,,
Dry,28,4978.8,-0.433,-0.00186,-366,-0.036,1.84,6,0.5,2.56,27.96,31.23,26.17,-0.6,0.1,27.649,27.597,72.2,72.06,399.9,1000,677,98.87,0.326,3.24,111105
Dry,29,5116.5,-0.488,0.000126,6.08E+03,0.00239,1.8,6,0.5,2.56,27.67,31.14,25.87,-0.7,-0.1,27.761,27.761,73.71,73.71,399.7,999,374,98.86,0.107,3.29,111105
Dry,30,5232.3,-0.38,-0.00134,-448,-0.0239,1.71,6,0.5,2.56,27.36,30.77,25.55,-1.1,-0.5,27.799,27.764,75.19,75.1,400,1000,892,98.87,0.208,3.3,111105
Dry,31,5422.3,-0.37,0.00215,271,0.0375,1.66,6,0.5,2.56,27.26,30.72,25.44,-1,-0.5,28.032,28.087,76.25,76.39,400.1,1000,980,98.86,0.21,3.33,111105
Dry,32,5727.8,-0.536,0.00705,147,0.111,1.51,6,0.5,2.56,26.98,30.19,25.32,26,26.8,28.116,28.278,77.76,78.21,399.9,999,1008,98.85,0.914,3.41,111135
Dry,33,6189.8,-0.0356,0.0225,52.8,0.369,1.57,6,0.5,2.56,27.29,30.83,25.46,51.6,51.7,28.773,29.31,78.09,79.55,399.8,999,1056,98.84,1.59,3.6,111115
Dry,34,6433.3,0.377,0.0304,77.7,0.51,1.61,6,0.5,2.56,27.69,31.24,25.85,100.8,100.1,29.214,29.957,77.45,79.42,399.9,1000,1074,98.83,2.04,3.64,111115
Dry,35,6591,1.79,0.0351,111,0.604,1.66,6,0.5,2.56,27.98,31.55,26.12,200.8,197.9,29.457,30.335,76.81,79.1,399.9,1000,1125,98.83,3.19,3.68,111115
Dry,36,6747,4.13,0.035,161,0.61,1.68,6,0.5,2.56,28.15,31.67,26.29,366,359.5,29.566,30.454,76.33,78.62,399.8,1001,1159,98.82,4.43,3.67,111115
Dry,37,6862.3,-0.106,0.0283,364,0.381,1.3,6,0.5,2.56,28.24,30.05,26.68,365.8,365.7,29.546,30.101,75.87,77.3,399.9,0,291,98.82,4.12,3.56,111115
Dry,48,9059.3,-0.469,0.0265,384,0.374,1.36,6,0.5,2.56,28.57,29.96,27.47,363.4,363.9,28.727,29.272,72.33,73.7,399.9,0,184,98.76,3.83,3.41,111115
Dry,38,7558,-0.821,0.0183,71.7,0.313,1.64,6,0.5,2.56,27.52,31.15,25.68,-0.8,0.4,28.983,29.44,77.59,78.81,399.6,1000,1279,98.8,0.867,3.58,111105
Dry,39,7714.5,-0.44,0.0183,74.1,0.338,1.77,6,0.5,2.56,28.03,31.76,26.16,36.5,37.1,29.325,29.818,76.2,77.48,399.9,1000,1220,98.8,1.18,3.53,111135
Dry,40,7871.3,-0.153,0.0175,62.4,0.323,1.77,6,0.5,2.56,28.27,31.93,26.38,49.8,50,29.782,30.252,76.32,77.52,399.7,1001,1320,98.8,1.32,3.56,111115
Dry,41,8030,0.343,0.0198,68.1,0.367,1.77,6,0.5,2.56,28.42,32.04,26.53,99,98.4,30.005,30.54,76.23,77.59,399.6,1000,1237,98.79,1.61,3.58,111115
Dry,42,8187,1.36,0.0175,69.2,0.307,1.68,6,0.5,2.56,28.28,31.77,26.46,199.8,197.7,30.264,30.711,77.52,78.67,399.8,1001,209,98.79,3.01,3.66,111115
Dry,43,8342.5,3.59,0.0116,-139,0.187,1.54,6,0.5,2.56,27.72,31.1,25.92,366.2,360.7,30.106,30.378,79.68,80.4,399.9,1000,190,98.79,5.03,3.79,111115
Dry,44,8498,3.87,0.00979,-276,0.149,1.46,6,0.5,2.56,27.22,30.56,25.43,364.8,358.9,29.567,29.785,80.53,81.12,399.9,1000,1203,98.78,5.26,3.85,111115
Dry,45,8659,8.62,0.0302,313,0.471,1.5,6,0.5,2.56,27.39,30.79,25.56,801.7,788.2,29.272,29.957,78.97,80.82,399.7,1000,1330,98.77,8.08,3.91,111115
Dry,46,8818.5,11.6,0.0393,1.07E+03,0.659,1.62,6,0.5,2.56,27.73,31.31,25.85,1599.9,1580.9,29.18,30.139,77.15,79.68,399.8,1000,1155,98.76,8.27,3.82,111115
Dry,47,8958.5,1.91,0.0207,204,0.365,1.69,6,0.5,2.56,27.76,31.36,25.9,363.8,360.7,29.017,29.548,76.57,77.97,399.7,1000,208,98.76,4.29,3.56,111115
