Season,Obs,Time,PARi,Photo,Ci,CO2R,Tleaf,CO2S,Cond,RH_S,Trmmol,VpdL,BLCond,Tair,TBlk,H2OR,H2OS,RH_R,Flow,PARo,Press,CsMch,HsMch,Status
Wet,1,11:30:31,1600,3.82,187,364.2,35.62,357.6,0.0402,38.27,1.52,3.69,2.56,34.97,34.95,19.323,21.552,34.31,399.7,93,100.2,6.05,4.42,111115
Wet,2,11:31:52,801,3.6,176,364.1,34.65,358.1,0.035,38.08,1.23,3.43,2.56,34.7,34.71,19.32,21.121,34.83,399.9,87,100.2,6.06,4.35,111115
Wet,3,11:33:16,401,3.34,170,363.8,33.88,358.2,0.031,38.22,1.02,3.22,2.56,34.37,34.44,19.309,20.814,35.45,399.9,124,100.1,6,4.34,111115
Wet,4,11:34:40,201,2.73,190,363.9,33.4,359.3,0.0285,38.4,0.905,3.1,2.56,34.11,34.21,19.282,20.611,35.92,399.9,113,100.2,6.29,4.31,111115
Wet,5,11:36:03,99,1.96,228,363.9,33.06,360.5,0.0269,38.66,0.832,3.02,2.56,33.89,34.01,19.273,20.496,36.35,399.9,141,100.1,6.03,4.29,111115
Wet,6,11:37:23,50,1.22,267,363.9,32.79,361.6,0.0249,38.9,0.753,2.95,2.56,33.67,33.83,19.267,20.374,36.79,399.9,100,100.1,6.04,4.3,111115
Wet,7,11:38:46,24,0.454,314,363.9,32.59,362.8,0.0225,39.04,0.673,2.91,2.56,33.48,33.65,19.243,20.231,37.14,399.9,86,100.1,5.95,4.26,111115
Wet,8,11:40:08,0,-0.708,399,364,32.55,364.7,0.0215,39.14,0.64,2.9,2.56,33.38,33.54,19.235,20.176,37.32,399.8,103,100.1,5.84,4.26,111115
Wet,,,,,,,,,,,,,,,,,,,,,,,,
Wet,9,,1000,-1.41,113,4.2,33.52,6.3,0.0205,39.48,0.669,3.17,2.56,33.33,33.4,19.31,20.292,37.56,399.9,111,100.1,4.08,4.28,111105
Wet,10,11:44:22,1001,-0.392,79,53.1,33.41,53.6,0.022,39.97,0.708,3.13,2.56,33.12,33.15,19.263,20.304,37.93,399.9,98,100.1,4.39,4.31,111115
Wet,11,11:46:10,999,0.11,90.5,103.6,33.37,103.4,0.0227,40.21,0.729,3.12,2.56,33.05,33.04,19.269,20.34,38.09,399.9,78,100.1,4.79,4.3,111115
Wet,12,,1000,0.726,95.9,152.9,33.27,151.7,0.0237,40.54,0.75,3.09,2.56,32.94,32.92,19.278,20.38,38.35,399.9,71,100.1,4.81,4.29,111115
Wet,13,11:49:47,999,0.923,129,200.5,33.16,198.9,0.0243,40.93,0.759,3.05,2.56,32.82,32.79,19.322,20.438,38.69,399.8,73,100.1,5.11,4.3,111115
Wet,14,11:51:46,1001,3.26,167,401.3,33.04,395.9,0.0245,41.09,0.759,3.02,2.56,32.71,32.68,19.278,20.393,38.85,399.9,89,100.1,5.6,4.28,111115
Wet,15,11:54:16,1001,7.48,265,800.4,32.93,788.3,0.0243,41.15,0.746,3,2.56,32.61,32.58,19.221,20.318,38.93,399.8,150,100.1,6.03,4.29,111115
Wet,16,11:56:42,1000,13.8,503,1600.3,33.02,1578.1,0.0217,40.94,0.676,3.03,2.56,32.6,32.55,19.209,20.203,38.92,399.9,96,100.1,6.5,4.27,111115
Wet,17,,999,15.1,647,1999.7,33.01,1975.4,0.0192,40.78,0.601,3.04,2.56,32.59,32.52,19.222,20.105,38.98,399.9,67,100.1,6.11,4.26,111115
Wet,,,,,,,33.19222222,,,,,,,,,,,,,,,,,
Wet,18,,1000,-1.06,48.1,2.1,25.34,3.7,0.0384,72.28,0.482,1.24,2.56,22.71,20.81,19.294,20.002,69.72,399.8,49,100.1,3.81,4.28,111105
Wet,19,12:18:54,1000,0.133,47.2,53.5,25.18,53.3,0.0431,73.05,0.526,1.21,2.56,22.54,20.64,19.248,20.021,70.23,399.9,91,100.1,4.07,4.28,111115
Wet,20,12:20:59,1002,0.985,66.4,102.4,25.32,100.9,0.0489,72.7,0.601,1.22,2.56,22.75,20.91,19.298,20.181,69.52,400,50,100.1,4.62,4.29,111115
Wet,21,12:23:12,1001,1.54,97.4,151.5,25.47,149,0.0509,73.04,0.632,1.23,2.56,22.81,20.91,19.423,20.352,69.71,399.8,68,100.1,4.94,4.31,111115
Wet,22,12:24:55,1000,2.43,119,200.5,25.34,196.7,0.0527,73.65,0.636,1.2,2.56,22.74,20.9,19.497,20.433,70.28,399.8,62,100.1,5.08,4.31,111115
Wet,23,12:26:58,1001,5.51,219,401.5,25.42,392.8,0.0535,73.81,0.649,1.21,2.56,22.77,20.9,19.564,20.518,70.37,399.9,124,100.1,5.59,4.32,111115
Wet,24,,1001,10.2,455,800.1,25.55,784.1,0.0524,74.25,0.639,1.21,2.56,22.84,20.91,19.787,20.725,70.89,399.9,1443,100,5.68,4.34,111115
Wet,25,,999,11.8,954,1601.4,25.43,1582.8,0.0316,78.16,0.349,1.09,2.56,22.77,20.9,21.21,21.722,76.31,399.7,46,100,5.13,4.45,111115
Wet,,,,,,,25.38125,,,,,,,,,,,,,,,,,
Wet,26,12:39:14,1000,-1.55,115,1.2,29.39,3.5,0.0221,79.74,0.243,1.07,2.56,28.11,27.52,30.093,30.446,78.82,399.6,38,100,3.98,5.15,111105
Wet,27,12:41:05,999,-1.05,116,49.4,29.35,51,0.0253,78.43,0.28,1.08,2.56,28.28,27.93,29.836,30.243,77.37,399.8,45,100,4.43,5.13,111115
Wet,28,12:42:51,1000,-0.263,112,100,29.39,100.3,0.0318,77.42,0.359,1.1,2.56,28.43,28.12,29.591,30.112,76.08,400,0,100,4.67,5.13,111115
Wet,29,12:44:46,999,1.02,97.8,150.1,29.39,148.4,0.034,77.03,0.393,1.13,2.56,28.35,27.92,29.251,29.824,75.56,399.9,5,100,4.31,5.08,111115
Wet,30,12:46:26,1000,1.86,118,200.8,29.35,197.9,0.0393,76.09,0.459,1.14,2.56,28.42,28.12,28.916,29.584,74.37,399.8,6,100,5.03,5.08,111115
Wet,31,12:48:21,1000,5.23,182,401,29.32,392.8,0.0413,75.26,0.492,1.17,2.56,28.44,28.12,28.588,29.304,73.43,399.7,297,100,5.81,5.03,111115
Wet,32,12:50:39,999,10.6,365,800.9,29.42,784.4,0.0422,74.73,0.518,1.2,2.56,28.49,28.12,28.419,29.173,72.8,400,165,100,6.44,5.01,111115
Wet,33,12:53:17,1000,14.3,930,1601.8,29.5,1579.3,0.0371,75.64,0.467,1.23,2.56,28.22,27.53,28.395,29.076,73.87,399.9,1058,100,5.92,5.01,111115
Wet,,,,,,,29.38875,,,,,,,,,,,,,,,,,
Wet,34,,999,-2.06,201,3.6,37.68,6.7,0.0165,43.61,0.612,3.56,2.56,38.51,39.43,28.973,29.864,42.31,399.9,70,99.97,4.34,5.09,111105
Wet,35,13:06:47,1001,-1.28,159,49.2,37.49,51,0.0181,43.34,0.659,3.49,2.56,38.63,39.82,28.903,29.862,41.95,400,55,99.96,4.81,5.09,111115
Wet,36,13:08:37,1000,-0.765,158,100.2,37.34,101.3,0.019,42.99,0.685,3.45,2.56,38.68,40.03,28.697,29.694,41.54,399.9,48,99.96,5.03,5.07,111115
Wet,37,13:10:30,1000,-0.0672,147,150.2,37.45,150.1,0.0205,41.11,0.749,3.51,2.56,39.37,41.2,28.39,29.48,39.59,399.9,44,99.96,5.46,5.05,111115
Wet,38,13:12:09,999,0.719,131,199.5,37.53,198.2,0.0202,40.6,0.751,3.57,2.56,39.46,41.2,28.151,29.245,39.08,399.9,44,99.97,5.32,5.03,111115
Wet,39,13:14:32,999,2.41,187,401.1,37.61,397.1,0.0202,39.65,0.761,3.62,2.56,39.73,41.59,27.879,28.988,38.13,399.9,47,99.96,6.26,5.01,111115
Wet,40,,1000,6.06,240,800.5,37.69,790.5,0.0188,38.94,0.721,3.68,2.56,39.88,41.78,27.646,28.696,37.52,399.8,6,99.95,7.04,4.98,111115
Wet,41,,1000,12,382,1601.1,37.85,1581.5,0.0169,38.37,0.665,3.76,2.56,39.96,41.79,27.433,28.403,37.06,399.8,5,99.96,7.79,4.93,111115
Wet,42,,999,13.3,528,1999.7,37.8,1977.9,0.0156,38.82,0.615,3.77,2.56,39.6,41.2,27.284,28.182,37.58,399.6,7,99.97,7.93,4.94,111115
Wet,,,,,,,37.60444444,,,,,,,,,,,,,,,,,
Wet,43,13:43:57,999,-1.44,176,3.4,39.57,5.6,0.0131,34.11,0.612,4.46,2.56,41.84,43.96,27.018,27.91,33.02,399.9,124,99.94,4.11,4.91,111105
Wet,44,13:44:05,999,-0.778,134,53.6,39.83,54.7,0.0144,33.22,0.685,4.53,2.56,42.51,44.77,27.153,28.151,32.05,399.9,289,99.93,4.54,4.93,111115
Wet,45,13:45:38,1000,0.0401,92.1,104.4,40.21,104.2,0.0144,32.6,0.706,4.66,2.56,43.01,45.28,27.338,28.368,31.42,399.9,108,99.91,4.93,4.95,111115
Wet,46,13:47:33,1000,0.285,155,202.7,40.54,202,0.0139,32.35,0.696,4.78,2.56,43.29,45.49,27.54,28.555,31.2,399.8,175,99.91,5.47,4.97,111115
Wet,47,13:49:23,1000,1.39,201,400.5,40.66,398,0.013,32.61,0.655,4.81,2.56,43.24,45.29,27.77,28.724,31.53,399.9,150,99.89,6.05,4.98,111115
Wet,48,,1000,3.79,231,800.7,40.79,794.3,0.0117,32.65,0.596,4.85,2.56,43.3,45.29,27.977,28.845,31.67,399.9,170,99.9,7.44,4.97,111115
Wet,49,13:53:43,1000,8.27,272,1601.1,40.61,1587.4,0.0107,32.51,0.539,4.78,2.56,43.38,45.61,28.047,28.832,31.62,399.8,82,99.9,8.72,4.97,111115
Wet,50,13:56:13,1000,10.1,318,1999.4,40.73,1982.8,0.0103,32.08,0.523,4.83,2.56,43.6,45.88,28.028,28.79,31.23,400.1,5,99.91,7.73,4.96,111115
,,,,,,,40.3675,,,,,,,,,,,,,,,,,
