Season,Obs,Time,Photo,Ci,Cond,Trmmol,VpdL,Area,StmRat,BLCond,Tair,Tleaf,TBlk,CO2R,CO2S,H2OR,H2OS,RH_R,RH_S,Flow,PARi,PARo,Press,CsMch,HsMch,Status
Wet,1,,-1.65,16.4,0.207,2.39,1.2,6,1,2.84,29.14,29.02,29.1,1.1,3,25.384,28.179,62.73,69.64,499.5,1001,61,100.2,2.56,1.59,111105
Wet,2,,0.0729,47.6,0.205,2.42,1.22,6,1,2.84,29.29,29.18,29.25,49.5,49.2,25.539,28.36,62.56,69.47,499.5,999,63,100.2,2.47,1.59,111115
Wet,3,,1.08,96.3,0.199,2.41,1.25,6,1,2.84,29.46,29.37,29.43,109.2,107.6,25.722,28.531,62.39,69.2,499.7,1000,61,100.2,2.91,1.59,111115
Wet,4,,3.34,167,0.195,2.39,1.26,6,1,2.84,29.61,29.5,29.56,204.6,200,25.915,28.698,62.34,69.03,499.6,1001,51,100.2,2.64,1.6,111115
Wet,5,,8.06,322,0.191,2.35,1.27,6,1,2.84,29.65,29.52,29.61,411.7,400.9,25.972,28.709,62.33,68.89,499.8,998,46,100.2,2.44,1.6,111115
Wet,6,,12,673,0.184,2.29,1.28,6,1,2.84,29.73,29.58,29.7,815.1,798.5,26.042,28.718,62.19,68.58,499.6,999,43,100.2,1.04,1.58,111115
Wet,7,10:02:25,12.4,1.45E+03,0.178,2.23,1.29,6,1,2.84,29.69,29.57,29.68,1614.2,1595,26.04,28.638,62.35,68.57,499.6,999,40,100.2,-2.64,1.58,111115
Wet,,,,,,,,,,,,,,,,,,,,,,,,,,
Wet,9,,-1.49,14.9,0.205,1.81,0.933,6,0.5,2.56,22.27,24.26,20.46,0.4,2.6,18.391,21.051,68.3,78.18,399.8,999,61,100.2,1.75,1.43,111105
Wet,10,,0.0205,51.6,0.204,1.73,0.895,6,0.5,2.56,22.07,24.1,20.26,52.7,52.5,18.605,21.149,69.93,79.49,399.8,1000,66,100.2,1.91,1.44,111115
Wet,11,10:21:18,1.54,90.2,0.208,1.7,0.864,6,0.5,2.56,21.96,24,20.16,106.8,104.2,18.766,21.267,71.03,80.5,399.9,1000,67,100.2,1.8,1.46,111115
Wet,12,10:23:23,4.08,167,0.205,1.65,0.848,6,0.5,2.56,21.93,23.94,20.12,210.2,203.6,18.907,21.331,71.69,80.89,399.8,1000,62,100.2,1.77,1.44,111115
Wet,13,10:26:15,6.32,343,0.204,1.63,0.841,6,0.5,2.56,21.89,23.9,20.12,411.2,400.7,18.94,21.33,71.97,81.05,399.6,1001,59,100.2,1.44,1.44,111115
Wet,14,10:28:59,6.62,734,0.204,1.6,0.83,6,0.5,2.56,21.88,23.83,20.13,811.3,799.4,18.957,21.312,72.09,81.04,399.9,1000,46,100.2,-0.523,1.42,111115
Wet,15,10:43:34,7.56,1.51E+03,0.204,1.63,0.84,6,0.5,2.56,22.13,23.9,20.52,1611.7,1596.4,18.949,21.337,70.99,79.93,399.8,1000,41,100.2,-5.45,1.41,111115
Wet,,,,,,,,,,,,,,,,,,,,,,,,,,
Wet,16,10:44:58,-2.08,31.5,0.14,4.37,3.16,6,0.5,2.56,36.71,35,37.46,4.6,7.7,18.436,24.827,29.77,40.09,399.8,1000,35,100.2,2.64,1.43,111105
Wet,17,10:46:55,-0.513,55.1,0.142,4.32,3.09,6,0.5,2.56,37.55,34.73,39.45,51.3,51.7,18.358,24.678,28.31,38.05,399.9,1000,35,100.2,2.46,1.4,111115
Wet,18,10:49:01,0.427,93.5,0.14,4.33,3.13,6,0.5,2.56,37.55,34.82,39.25,105,103.7,18.283,24.62,28.19,37.96,399.8,999,43,100.2,2.77,1.4,111115
Wet,19,10:51:35,2.93,156,0.14,4.33,3.13,6,0.5,2.56,37.46,34.86,39.04,206.5,200.8,18.325,24.658,28.4,38.21,399.9,1000,50,100.2,2.46,1.39,111115
Wet,20,10:53:34,7.57,293,0.14,4.32,3.13,6,0.5,2.56,37.46,34.85,39.05,415.1,401.1,18.386,24.702,28.49,38.27,399.8,1000,57,100.2,2.51,1.37,111115
Wet,21,10:56:17,13.7,598,0.14,4.33,3.13,6,0.5,2.56,37.59,34.89,39.25,824.2,798.4,18.449,24.791,28.39,38.14,399.9,1001,67,100.2,1.27,1.39,111115
Wet,22,11:00:22,14.4,1.35E+03,0.137,4.19,3.1,6,0.5,2.56,37.42,34.77,39.05,1630.1,1598.5,18.571,24.706,28.83,38.36,399.7,1001,85,100.1,-1.86,1.38,111115
Wet,,,,,,,,,,,,,,,,,,,,,,,,,,
Wet,23,11:33:08,-2.09,65,0.106,4.79,4.48,6,0.5,2.56,43.47,39.41,45.85,33.2,36.1,20.05,27.049,22.53,30.4,400,1000,70,100.1,2.79,1.42,111135
Wet,24,11:34:38,-1.53,69.8,0.105,4.77,4.51,6,0.5,2.56,43.48,39.48,45.86,48.2,50.1,20.072,27.033,22.54,30.36,400.1,1001,87,100.1,2.77,1.41,111115
Wet,25,11:36:21,-0.168,98.2,0.104,4.74,4.5,6,0.5,2.56,43.46,39.46,45.86,103.6,103.1,20.078,27.005,22.57,30.36,399.9,999,96,100.1,2.98,1.4,111115
Wet,26,11:38:14,2.06,157,0.104,4.74,4.49,6,0.5,2.56,43.43,39.44,45.84,207.8,203.2,20.074,26.996,22.6,30.4,400,1001,80,100.1,2.78,1.39,111115
Wet,27,11:40:15,6.27,276,0.104,4.76,4.52,6,0.5,2.56,43.55,39.52,45.95,413,400.8,20.078,27.032,22.47,30.26,399.7,1001,87,100.1,2.18,1.38,111115
Wet,28,,12.9,543,0.103,4.66,4.46,6,0.5,2.56,43.37,39.32,45.79,825.5,800.6,20.067,26.861,22.67,30.34,400.1,1000,82,100,1.19,1.37,111115
Wet,29,11:43:24,17.9,1.20E+03,0.101,4.62,4.54,6,0.5,2.56,43.53,39.49,45.91,1636.2,1598.3,19.976,26.721,22.37,29.93,400.1,1000,77,100,-1.68,1.36,111115
