Season,Obs,Time,PARi,Photo,Ci,Tleaf,CO2R,Cond,Trmmol,VpdL,Area,StmRat,BLCond,Tair,TBlk,CO2S,H2OR,H2OS,RH_R,RH_S,Flow,PARo,Press,CsMch,HsMch,Status
Wet,1,10:55:11,1500,8.82,281,36.03,364.8,0.276,5.94,2.27,6,0.5,2.56,36.69,36.8,348.4,28.449,37.025,45.95,59.8,400,744,100.1,3.57,2.07,111115
Wet,2,10:56:27,1003,9.24,277,35.23,364.3,0.269,5.33,2.09,6,0.5,2.56,36.28,36.39,347.6,28.556,36.273,47.17,59.92,399.8,332,100.1,3.76,2.07,111115
Wet,3,10:57:51,799,9.63,272,34.73,363.6,0.261,4.92,1.99,6,0.5,2.56,35.87,36,346.6,28.63,35.747,48.37,60.4,399.9,363,100.1,3.65,2.04,111115
Wet,4,10:59:13,500,8.75,278,34.22,363.4,0.25,4.49,1.88,6,0.5,2.56,35.6,35.77,347.9,28.693,35.191,49.19,60.33,400,315,100.1,3.7,2.03,111115
Wet,5,11:00:35,401,8.31,283,33.88,364.9,0.247,4.28,1.81,6,0.5,2.56,35.38,35.59,350.2,28.698,34.888,49.8,60.54,399.9,307,100.1,3.5,2.03,111115
Wet,6,11:01:58,200,5.79,303,33.5,364.9,0.24,4,1.74,6,0.5,2.56,35.15,35.37,354.1,28.696,34.485,50.45,60.63,400,390,100.1,3.25,2,111115
Wet,7,11:03:20,99,2.76,329,33.21,364.7,0.235,3.79,1.69,6,0.5,2.56,34.95,35.18,358.5,28.704,34.202,51.02,60.79,399.9,272,100.1,3.55,2.01,111115
Wet,8,11:04:43,49,0.633,347,32.89,364.3,0.231,3.6,1.63,6,0.5,2.56,34.66,34.9,361.4,28.677,33.895,51.79,61.21,399.9,255,100.1,3.52,1.99,111115
Wet,9,11:06:07,25,-0.491,357,32.71,364.3,0.231,3.52,1.59,6,0.5,2.56,34.43,34.68,363.1,28.627,33.728,52.36,61.69,399.9,227,100.1,3.73,2.02,111115
Wet,10,11:07:29,0,-1.93,370,32.61,364.3,0.231,3.48,1.57,6,0.5,2.56,34.32,34.55,365.3,28.598,33.642,52.62,61.9,399.5,216,100.1,3.83,2.01,111115
Wet,,,,,,,,,,,,,,,,,,,,,,,,,,
Wet,11,1312.8,0,-2.56,26.2,32.7,3.3,0.227,3.38,1.56,6,0.5,2.56,34.16,34.28,7.1,29.149,34.052,54.11,63.21,399.9,212,100.1,2.79,2.05,111105
Wet,12,1428.3,999,-1.26,58.3,33.63,49.2,0.244,3.91,1.68,6,0.5,2.56,34.16,34.26,50.8,29.836,35.488,55.41,65.9,400,198,100.1,3.06,2.08,111115
Wet,13,11:16:51,999,0.0914,95.2,33.51,99.1,0.245,3.79,1.62,6,0.5,2.56,33.99,34.08,98.4,30.235,35.716,56.67,66.94,399.9,188,100.1,3.35,2.09,111115
Wet,14,11:18:25,999,2.05,129,33.49,150.6,0.245,3.77,1.61,6,0.5,2.56,33.91,33.98,146.7,30.293,35.753,57.04,67.32,400,168,100.1,3.59,2.1,111115
Wet,15,11:20:09,999,3.98,161,33.45,200.4,0.245,3.76,1.61,6,0.5,2.56,33.85,33.91,193.3,30.239,35.679,57.12,67.39,399.8,189,100.1,3.67,2.09,111115
Wet,16,11:22:08,1001,10.6,297,33.3,400.3,0.241,3.62,1.58,6,0.5,2.56,33.72,33.77,382.2,30.328,35.572,57.71,67.69,399.9,231,100.1,3.95,2.08,111115
Wet,17,11:24:29,1000,17.3,627,33.16,798.7,0.242,3.62,1.57,6,0.5,2.56,33.58,33.64,768.6,30.019,35.263,57.57,67.63,400,234,100.1,3.23,2.07,111115
Wet,18,11:27:14,1000,17,1.41E+03,33.05,1600.8,0.239,3.63,1.59,6,0.5,2.56,33.44,33.5,1566.8,29.49,34.744,56.99,67.14,399.9,223,100.1,1.51,2.04,111115
Wet,19,11:29:49,1000,17.5,1.79E+03,32.88,2000.2,0.237,3.59,1.59,6,0.5,2.56,33.26,33.32,1963.3,29.037,34.243,56.68,66.85,400,279,100.1,0.121,2.03,111115
Wet,,,,,,33.24111111,,,,,,,,,,,,,,,,,,,,
Wet,20,11:36:53,1001,-3.05,27.6,29.8,2.4,0.253,2.39,1,6,0.5,2.56,28.55,27.72,6.9,28.593,32.069,73.03,81.91,399.6,213,100.1,2.29,2.1,111105
Wet,21,11:38:49,1001,-1.28,58.8,29.81,49.4,0.258,2.46,1.01,6,0.5,2.56,28.8,28.12,51.1,28.416,31.991,71.51,80.5,399.9,159,100.1,2.62,2.08,111115
Wet,22,11:40:34,1000,0.62,93.2,29.86,100.3,0.253,2.47,1.03,6,0.5,2.56,28.72,27.92,99.1,28.31,31.897,71.58,80.65,399.9,712,100,2.89,2.09,111115
Wet,23,11:42:17,1001,2.63,125,29.84,150.1,0.25,2.46,1.04,6,0.5,2.56,28.69,27.92,145.6,28.243,31.812,71.52,80.56,399.9,397,100,2.82,2.09,111115
Wet,24,11:44:01,1000,4.45,159,29.9,199.7,0.251,2.51,1.06,6,0.5,2.56,28.82,28.11,192.3,28.132,31.772,70.73,79.88,399.9,320,100,2.96,2.06,111115
Wet,25,11:46:01,999,10.5,306,29.87,400.7,0.256,2.55,1.06,6,0.5,2.56,28.73,27.92,383.5,28.02,31.719,70.8,80.15,399.9,163,100,3.15,2.08,111115
Wet,26,11:48:36,1000,14.8,661,29.8,801.2,0.252,2.53,1.06,6,0.5,2.56,28.79,28.12,776,27.839,31.508,70.08,79.32,400,183,100,2.92,2.07,111115
Wet,27,11:51:18,1001,14.8,1.44E+03,29.91,1601.2,0.25,2.58,1.09,6,0.5,2.56,28.75,27.92,1572.8,27.683,31.441,69.85,79.33,399.7,212,100,1.03,2.05,111115
Wet,28,,1001,15.3,1.83E+03,29.91,1999.6,0.249,2.58,1.09,6,0.5,2.56,28.53,27.53,1968.9,27.695,31.442,70.79,80.37,399.8,239,100,-1.04,2.07,111115
Wet,,,,,,29.85555556,,,,,,,,,,,,,,,,,,,,
Wet,32,,1002,-2.65,19.2,26.85,3.1,0.386,3.49,1.01,6,0.5,2.56,24.82,23.24,7,20.283,25.391,64.46,80.7,399.8,225,99.97,2.04,1.9,111105
Wet,33,12:20:42,1000,-0.726,53.9,26.88,50.5,0.376,3.47,1.03,6,0.5,2.56,24.92,23.44,51.3,20.212,25.289,63.82,79.86,399.8,191,99.96,2.25,1.88,111115
Wet,34,12:20:52,1001,1.57,90.2,26.81,102.2,0.376,3.46,1.02,6,0.5,2.56,24.92,23.44,99.3,20.124,25.179,63.58,79.55,400,184,99.96,2.28,1.88,111115
Wet,35,12:22:23,1001,3.42,126,26.75,151.1,0.37,3.42,1.02,6,0.5,2.56,24.91,23.42,145.2,20.025,25.027,63.3,79.11,399.8,161,99.96,2.17,1.85,111115
Wet,36,12:24:05,1000,5.28,165,26.79,201.9,0.373,3.48,1.04,6,0.5,2.56,25.21,24.02,193,19.913,24.999,61.81,77.59,399.9,165,99.97,2.2,1.87,111115
Wet,37,12:25:55,1001,11.1,321,26.84,400.6,0.362,3.46,1.06,6,0.5,2.56,25.28,24.02,382,19.82,24.88,61.28,76.92,399.9,189,99.96,2.44,1.83,111115
Wet,38,12:27:56,1000,14,693,26.88,800.7,0.359,3.48,1.07,6,0.5,2.56,25.31,24.02,775.6,19.737,24.827,60.9,76.61,400.1,210,99.95,2,1.83,111115
Wet,39,12:30:32,1000,13.9,1.47E+03,26.94,1600.4,0.353,3.5,1.1,6,0.5,2.56,25.43,24.21,1571.3,19.612,24.739,60.1,75.81,399.8,228,99.94,-0.628,1.83,111115
Wet,40,12:33:16,999,14.9,1.86E+03,27.05,1999.9,0.34,3.39,1.1,6,0.5,2.56,25.27,23.83,1967.6,20.001,24.964,61.85,77.2,399.9,242,99.93,-1.37,1.82,111115
Wet,,,,,,26.86555556,,,,,,,,,,,,,,,,,,,,
Wet,41,15:15:32,999,-2.47,44.9,38,4.4,0.106,3.88,3.61,6,0.5,2.56,41.86,44.27,8,24.878,30.53,30.31,37.19,399.8,242,99.71,2.28,1.84,111105
Wet,42,16111,1000,-0.899,66.7,37.83,54.9,0.103,3.76,3.59,6,0.5,2.56,41.75,44.16,56,24.72,30.188,30.3,37.01,400,249,99.71,2.61,1.84,111115
Wet,43,16228.8,1000,0.155,94.1,37.88,103.4,0.101,3.71,3.62,6,0.5,2.56,41.73,44.14,102.6,24.608,30.013,30.18,36.81,400,250,99.69,2.77,1.85,111115
Wet,44,16385.8,1002,0.826,127,37.98,151.9,0.0965,3.61,3.69,6,0.5,2.56,41.79,44.2,149.9,24.449,29.711,29.89,36.32,399.9,239,99.69,2.78,1.84,111115
Wet,45,16513.8,1001,0.85,171,38.09,200.3,0.093,3.54,3.75,6,0.5,2.56,41.8,44.19,198,24.361,29.52,29.77,36.07,399.9,224,99.68,2.92,1.83,111115
Wet,46,16651.8,999,5.94,261,38.16,401.6,0.0895,3.46,3.8,6,0.5,2.56,41.91,44.31,390.7,24.268,29.308,29.48,35.61,400,211,99.67,3.13,1.85,111115
Wet,47,15:29:25,999,12.4,493,38.29,800.9,0.0834,3.3,3.88,6,0.5,2.56,41.98,44.38,778.5,24.159,28.972,29.23,35.06,399.8,203,99.65,3.07,1.8,111115
Wet,48,15:31:36,1000,18.7,1.08E+03,38.27,1600.5,0.0777,3.11,3.91,6,0.5,2.56,41.96,44.36,1565.1,24.053,28.582,29.14,34.63,399.9,193,99.65,2.1,1.8,111115
Wet,49,15:34:47,1001,20.9,1.38E+03,38.28,2000.4,0.0725,2.93,3.94,6,0.5,2.56,41.93,44.36,1960.4,23.981,28.252,29.09,34.27,399.9,189,99.64,1.3,1.79,111115
,,,,,,38.08666667,,,,,,,,,,,,,,,,,,,,
