Ci,Photo,E,Cond,CO2S,Tleaf,Curve,Species,Month,Date,X,X.1,X.2,Season
181.8652163,9.564992988,0.902643562,0.057340809,380,21.4,1,Pinus pinaster_L,7,6,NA,NA,NA,Jul
204.9660186,6.546434992,1.225933678,0.044230417,380,31.6,2,Pinus pinaster_L,7,6,NA,NA,NA,Jul
194.1004283,5.551157348,0.796949143,0.033987027,380,26.1,3,Pinus pinaster_L,8,27,NA,NA,NA,AugSept
220.3448425,6.194011563,0.794056938,0.045288629,380,21.1,4,Pinus pinaster_L,8,27,NA,NA,NA,AugSept
239.4219042,5.603910102,0.668697468,0.046616422,380,16.2,5,Pinus pinaster_L,8,27,NA,NA,NA,AugSept
216.558743,7.376228364,1.324195536,0.054572851,380,30.6,6,Pinus pinaster_L,8,27,NA,NA,NA,AugSept
205.0528856,6.375328602,0.964153354,0.042483199,380,26.1,7,Pinus pinaster_L,9,1,NA,NA,NA,AugSept
236.9437241,5.931706507,0.695244802,0.048695737,380,16.1,8,Pinus pinaster_L,9,1,NA,NA,NA,AugSept
234.8694561,7.493623534,1.030395566,0.063124549,380,21.1,9,Pinus pinaster_L,9,1,NA,NA,NA,AugSept
243.5972982,7.074505712,2.327241203,0.067635887,380,35.1,10,Pinus pinaster_L,9,1,NA,NA,NA,AugSept
239.8624241,7.971834834,1.689813924,0.072279434,380,30.8,11,Pinus pinaster_L,9,1,NA,NA,NA,AugSept
181.0552622,7.60961225,0.68899538,0.043943925,380,17,12,Pinus pinaster_L,11,17,NA,NA,NA,Nov
191.4537674,6.462604385,0.396977404,0.038562788,380,12.3,13,Pinus pinaster_L,11,17,NA,NA,NA,Nov
143.1290182,8.264886201,0.69817396,0.039525141,380,21.9,14,Pinus pinaster_L,11,17,NA,NA,NA,Nov
177.3080401,8.665959566,1.608444237,0.051284053,380,31.2,15,Pinus pinaster_L,11,17,NA,NA,NA,Nov
194.2557209,6.99476987,2.206363951,0.04627608,380,35.9,16,Pinus pinaster_L,11,17,NA,NA,NA,Nov
171.2935596,7.597478634,1.015414941,0.042097435,380,26.8,17,Pinus pinaster_L,11,17,NA,NA,NA,Nov
204.6692227,8.658126345,0.816423615,0.057798039,383,16.3,18,Pinus pinaster_L,11,19,NA,NA,NA,Nov
193.1336418,10.86659738,1.42968554,0.07094992,383,26.2,19,Pinus pinaster_L,11,19,NA,NA,NA,Nov
162.5795319,8.523078469,2.15096066,0.046607292,383,35.8,20,Pinus pinaster_L,11,19,NA,NA,NA,Nov
163.7757442,8.558403536,2.148967867,0.047103906,383,35.7,20,Pinus pinaster_L,11,19,NA,NA,NA,Nov
191.6738033,10.08271588,1.881076281,0.065487065,383,30.9,21,Pinus pinaster_L,11,19,NA,NA,NA,Nov
208.7943351,8.172311976,0.799433435,0.053520768,389,21,28,Pinus pinaster_L,1,26,NA,1.159989429,1,Jan
211.4902073,8.932547107,1.213446249,0.061149052,389,25.8,29,Pinus pinaster_L,1,26,NA,0.94542264,0.7,Jan
165.4604807,7.76320788,1.884071394,0.04125496,389,35,30,Pinus pinaster_L,1,26,NA,0.645196191,-0.2,Jan
237.7657346,6.160619905,2.334204876,0.052075007,389,35.4,31,Pinus pinaster_L,1,26,NA,0.418604617,0.3,Jan
199.19705,8.124964992,1.587081451,0.051675924,389,30.9,31,Pinus pinaster_L,1,26,NA,0.765501634,0.8,Jan
219.4965022,7.983471677,0.787655569,0.055950149,389,16.4,32,Pinus pinaster_L,1,26,NA,1.140917829,1.4,Jan
202.9041649,7.195129033,0.724125863,0.049420264,373,16.5,33,Pinus pinaster_L,1,28,NA,1.146562142,1.5,Jan
173.6801756,7.837078497,1.047427914,0.045878809,373,26.4,34,Pinus pinaster_L,1,28,NA,0.989260919,1.3,Jan
208.8588838,5.166874802,1.837248624,0.038388167,373,36.2,35,Pinus pinaster_L,1,28,NA,0.639811583,1.1,Jan
178.1533115,7.585499656,1.533552872,0.046315236,373,31.4,36,Pinus pinaster_L,1,28,NA,0.769465757,1.3,Jan
190.1913626,8.156757402,0.855701768,0.052551801,373,21.7,37,Pinus pinaster_L,1,28,NA,1.086699464,1.6,Jan
174.8391614,10.35610554,0.887909392,0.062673858,373,20.9,38,Pinus pinaster_L,2,1,NA,0.982851848,0.9,Jan
193.036988,11.06060155,2.099117121,0.078732396,373,30.7,39,Pinus pinaster_L,2,1,NA,0.437948239,0.6,Jan
175.4896601,10.43374362,1.319549789,0.064286322,373,26.1,40,Pinus pinaster_L,2,1,NA,0.809975666,1,Jan
138.3806119,7.63561791,1.554858104,0.037783913,373,36,41,Pinus pinaster_L,2,1,NA,0.737786272,0.8,Jan
158.2792604,9.625161764,2.01595996,0.054369942,373,35.8,42,Pinus pinaster_L,2,1,NA,0.500031181,0.7,Jan
216.1301696,9.706599429,0.973861816,0.077079709,373,16.2,43,Pinus pinaster_L,2,1,NA,0.968499548,1.2,Jan
169.5812388,9.559584454,0.937476488,0.055593886,373,22.2,44,Pinus pinaster_L,3,29,NA,1.518387657,NA,Mar
184.2831511,9.124395971,1.906002793,0.059505973,373,31.8,45,Pinus pinaster_L,3,29,NA,1.165507341,NA,Mar
168.1744801,7.117068963,2.136803277,0.041881134,373,36.4,46,Pinus pinaster_L,3,29,NA,0.962282967,NA,Mar
166.1489784,8.55414815,1.146988829,0.048548874,373,26.9,47,Pinus pinaster_L,3,29,NA,1.40997286,NA,Mar
125.47465,8.677131111,0.999115971,0.040015421,373,27,47,Pinus pinaster_L,3,29,NA,1.476356287,NA,Mar
201.6222041,7.601112217,0.810627348,0.052257213,373,17.2,48,Pinus pinaster_L,3,29,NA,1.651065853,NA,Mar
232.3937675,10.24391744,1.129893437,0.094855367,373,16.1,49,Pinus pinaster_L,3,30,NA,0.789236984,NA,Mar
206.5814259,10.74972683,1.001917696,0.081076395,373,15.9,50,Pinus pinaster_L,3,30,NA,0.878084377,NA,Mar
209.4468324,11.575208,1.18589207,0.091072607,373,21.1,50,Pinus pinaster_L,3,30,NA,0.735663384,NA,Mar
178.9796639,11.91550591,1.041157503,0.075990234,373,21,51,Pinus pinaster_L,3,30,NA,0.830091134,NA,Mar
208.3876033,12.54496832,2.574589742,0.103701842,373,30.9,51,Pinus pinaster_L,3,30,NA,-0.119258629,NA,Mar
137.919266,12.58687627,1.898546165,0.065600872,373,30.8,51,Pinus pinaster_L,3,30,NA,0.358227479,NA,Mar
174.0587814,10.61022529,2.87521624,0.067952945,373,35.4,52,Pinus pinaster_L,3,30,NA,-0.49529537,NA,Mar
196.1431947,11.13737732,1.532836929,0.07973794,373,26.1,53,Pinus pinaster_L,3,30,NA,0.608153648,NA,Mar
168.6059146,10.55040059,1.326120879,0.062518009,373,26.3,53,Pinus pinaster_L,3,30,NA,0.763871707,NA,Mar
214.2840263,9.019783632,0.93687905,0.069756338,373,16.2,54,Pinus pinaster_L,4,3,NA,1.117563832,1.2,Mar
175.9234097,9.426005426,0.804328446,0.056531356,373,16.2,54,Pinus pinaster_L,4,3,NA,1.18246835,1.2,Mar
179.2877255,10.00684624,0.920167672,0.061963243,373,21.2,55,Pinus pinaster_L,4,3,NA,1.124280816,1.1,Mar
145.9932332,10.40199979,0.828866489,0.053644429,373,21.2,55,Pinus pinaster_L,4,3,NA,1.168621674,1.1,Mar
186.3047041,9.205725053,1.783729026,0.060613718,373,30.8,56,Pinus pinaster_L,4,3,NA,0.708755441,0.7,Mar
174.3295559,10.48983493,1.850837121,0.065244534,373,30.7,56,Pinus pinaster_L,4,3,NA,0.676685823,0.6,Mar
194.7297732,6.836824581,2.25526904,0.047387911,373,35.7,57,Pinus pinaster_L,4,3,NA,0.487146765,0.6,Mar
170.0987758,8.975582679,2.443521555,0.054599349,373,35.4,57,Pinus pinaster_L,4,3,NA,0.397909494,0.3,Mar
201.3125726,8.825243628,1.307869905,0.062728226,373,26.2,58,Pinus pinaster_L,4,3,NA,0.936075456,1.1,Mar
154.905498,9.087235468,1.098175929,0.048622414,373,26.3,58,Pinus pinaster_L,4,3,NA,1.037096577,1.2,Mar
146.2754336,9.111601459,0.784702787,0.046298783,373,21.8,59,Pinus pinaster_L,6,8,NA,1.388278453,1.7,Jun
194.8897046,8.749264011,0.884172476,0.058653336,373,17.3,60,Pinus pinaster_L,6,8,NA,1.219726098,2.2,Jun
159.7182779,9.200862296,1.658739067,0.051603568,373,31.4,61,Pinus pinaster_L,6,8,NA,1.014669186,1.3,Jun
191.9887912,8.51711623,2.577222485,0.059385918,373,35.5,62,Pinus pinaster_L,6,8,NA,0.56796296,0.4,Jun
142.1300469,8.48057295,1.082497375,0.042342625,373,27.3,63,Pinus pinaster_L,6,8,NA,1.186807877,2.2,Jun
195.2082954,7.611215835,1.489725975,0.051576533,373,30.4,64,Pinus pinaster_L,6,8,NA,0.957334205,0.3,Jun
172.6738145,8.294099987,0.733957098,0.047976677,373,16.9,65,Pinus pinaster_L,6,9,NA,1.004700222,1.8,Jun
153.1003702,9.856274634,0.831119474,0.052393105,373,21.5,66,Pinus pinaster_L,6,9,NA,0.896803744,1.4,Jun
177.634262,10.24793432,1.269654128,0.063714185,373,26,67,Pinus pinaster_L,6,9,NA,0.813532748,0.9,Jun
194.3324299,9.030505661,2.593776034,0.064290711,373,34.9,68,Pinus pinaster_L,6,9,NA,0.195005015,-0.2,Jun
170.1065805,9.514063825,1.674234452,0.056776144,373,30.8,69,Pinus pinaster_L,6,9,NA,0.603763424,0.7,Jun
164.6479328,9.796191328,0.853942007,0.055427177,373,21.3,70,Pinus pinaster_L,6,13,NA,1.320811623,1.2,Jun
212.5378324,9.428397634,0.968807584,0.072558444,373,16.6,71,Pinus pinaster_L,6,13,NA,1.277749456,1.6,Jun
175.4648441,10.3601736,1.238343165,0.063606633,373,25.7,72,Pinus pinaster_L,6,13,NA,1.092452717,0.6,Jun
208.2690501,9.397449197,2.874749402,0.074861007,373,34.8,73,Pinus pinaster_L,6,13,NA,0.373057537,-0.3,Jun
192.8360133,9.362002213,1.834491654,0.064543812,373,30.7,74,Pinus pinaster_L,6,13,NA,0.907863524,0.6,Jun
241.2018365,6.557308555,0.972847642,0.057160775,380,21.9,75,Pinus pinaster_T,7,7,NA,1.42501535,1.8,Jul
228.7832857,7.783863158,1.554541538,0.064211052,380,31.7,76,Pinus pinaster_T,7,7,NA,1.089681905,1.6,Jul
261.6779363,6.462841456,2.632208504,0.07433737,380,35.3,77,Pinus pinaster_T,7,7,NA,0.582936941,1.2,Jul
232.3212736,7.995318559,1.512500909,0.067937351,380,26.7,78,Pinus pinaster_T,7,7,NA,1.119400144,1.6,Jul
296.1201276,4.472438866,0.90512639,0.067504301,380,16,79,Pinus pinaster_T,7,7,NA,1.388164939,1.9,Jul
197.5358045,5.618689537,0.681602325,0.034921788,380,22.2,80,Pinus pinaster_T,8,7,NA,1.481858862,2.1,AugSept
230.0772219,6.607960343,1.400571323,0.053849098,380,31.9,81,Pinus pinaster_T,8,7,NA,1.264136401,1.8,AugSept
253.7075205,6.686588357,2.387119364,0.070283681,380,35.8,82,Pinus pinaster_T,8,7,NA,0.835859104,1.7,AugSept
241.3825604,7.203884094,1.536209638,0.065332174,380,27.1,83,Pinus pinaster_T,8,7,NA,1.182671573,2,AugSept
210.9861655,8.028112146,1.155376656,0.05729354,380,21.5,84,Pinus pinaster_T,8,24,NA,1.539456235,NA,AugSept
200.1431068,8.915878665,1.304764186,0.060200348,380,30.9,85,Pinus pinaster_T,8,24,NA,1.085353295,NA,AugSept
246.3850635,8.504474321,2.498004343,0.085854809,380,35.6,87,Pinus pinaster_T,8,24,NA,0.501453076,NA,AugSept
142.8823365,5.165809686,0.400161707,0.023668523,380,16.58650543,88,Pinus pinaster_T,8,25,NA,1.586505434,NA,AugSept
180.3830268,5.240920653,0.477959413,0.029070493,380,16.63742198,88,Pinus pinaster_T,8,25,NA,1.537421979,NA,AugSept
181.6001771,5.606426995,0.624529512,0.031671054,380,21.53706125,89,Pinus pinaster_T,8,25,NA,1.437061255,NA,AugSept
207.5188709,5.076503902,0.819889779,0.033672985,380,26.4663285,90,Pinus pinaster_T,8,25,NA,1.366328497,NA,AugSept
230.5769194,4.385494506,1.015777019,0.034353557,380,31.38470015,91,Pinus pinaster_T,8,25,NA,1.28470015,NA,AugSept
263.5104901,3.374599212,1.437816253,0.036117786,380,36.21046945,92,Pinus pinaster_T,8,25,NA,1.110469453,NA,AugSept
205.6399095,5.977493932,0.968555459,0.03982774,380,26.5,93,Pinus pinaster_T,8,26,NA,1.495897885,NA,AugSept
229.3980769,6.630463191,0.933732791,0.052523457,380,21.3,94,Pinus pinaster_T,8,26,NA,1.484550458,NA,AugSept
269.0719965,5.87578144,0.922365695,0.065687083,380,16.6,95,Pinus pinaster_T,8,26,NA,1.492679236,NA,AugSept
262.9707269,6.253471707,0.926694094,0.066123253,380,16.6,95,Pinus pinaster_T,8,26,NA,1.492378624,NA,AugSept
241.0878801,7.102163569,1.616215804,0.064399261,380,31,96,Pinus pinaster_T,8,26,NA,1.194709281,NA,AugSept
257.2414663,6.536996123,2.561188982,0.071659278,380,35.5,97,Pinus pinaster_T,8,26,NA,0.795228502,NA,AugSept
176.8989048,8.749399558,1.093378793,0.050780584,380,26.1,98,Pinus pinaster_T,11,6,NA,1.400864545,1.1,Nov
226.4150748,8.34342643,0.913742864,0.066329341,380,16.7,99,Pinus pinaster_T,11,6,NA,1.492657554,1.7,Nov
208.4276513,8.42603145,1.841652645,0.061005768,380,30.3,100,Pinus pinaster_T,11,6,NA,1.041343496,0.2,Nov
198.7197317,8.452605087,2.47642337,0.058717827,380,35.1,101,Pinus pinaster_T,11,6,NA,0.741438704,0,Nov
180.6407211,8.815708157,0.877665215,0.051920754,380,22,102,Pinus pinaster_T,11,6,NA,1.507554003,2,Nov
204.1882224,9.64465679,0.970414223,0.071076427,371,16.7,104,Pinus pinaster_T,11,24,NA,1.52189778,NA,Nov
170.1928762,11.03252316,1.014495996,0.066580227,371,21.6,105,Pinus pinaster_T,11,24,NA,1.512402043,NA,Nov
174.4414394,11.10918125,1.420395774,0.06965159,371,26.3,106,Pinus pinaster_T,11,24,NA,1.321591815,NA,Nov
188.552483,10.65789091,2.039439576,0.074026684,371,30.8,107,Pinus pinaster_T,11,24,NA,1.041695802,NA,Nov
202.3225994,9.735978437,2.969484031,0.075802487,371,35,108,Pinus pinaster_T,11,24,NA,0.610662689,NA,Nov
106.9917447,8.441537356,2.327625799,0.037592114,371,39.4,109,Pinus pinaster_T,11,24,NA,0.940166895,NA,Nov
222.6571849,9.250358239,0.992271993,0.078115295,371,16.2,110,Pinus pinaster_T,11,25,NA,1.195932031,NA,Nov
197.1915725,10.65266741,1.432277416,0.07706739,371,25.7,111,Pinus pinaster_T,11,25,NA,1.00384284,NA,Nov
198.282239,8.932394017,2.740634587,0.066475862,371,35,112,Pinus pinaster_T,11,25,NA,0.407901883,NA,Nov
175.6494762,9.672355817,1.612577117,0.060326158,371,30.8,113,Pinus pinaster_T,11,25,NA,0.920242214,NA,Nov
177.0702738,9.923229738,0.940199042,0.061317982,371,21.4,114,Pinus pinaster_T,11,25,NA,1.207646822,NA,Nov
228.8624275,8.799231671,1.05764582,0.077812991,371,16.5,115,Pinus pinaster_T,11,25,NA,1.140882743,NA,Nov
334.5359389,9.550631128,2.788548805,0.636674914,380,21.1,116,Pinus pinaster_T,NA,NA,NA,0.17338338,NA,NA
332.5417701,8.806259968,2.232303594,0.453975926,380,15.6,117,Pinus pinaster_T,NA,NA,NA,0.388508244,NA,NA
233.3234198,10.91980184,1.684107242,0.09915146,380,25.4,118,Pinus pinaster_T,NA,NA,NA,1.128287376,NA,NA
240.7156737,11.2104131,1.858646373,0.110174436,380,30.4,119,Pinus pinaster_T,NA,NA,NA,1.042829695,NA,NA
253.449132,10.3530177,3.036035193,0.118416961,380,34.4,120,Pinus pinaster_T,NA,NA,NA,0.324121585,NA,NA
159.9698515,8.720568368,0.730877431,0.045609678,379.9306154,21.2,121,Pinus pinaster_T,1,25,NA,1.320199237,NA,Jan
187.5266409,8.516642539,0.765153375,0.051840419,379.9306154,16.6,122,Pinus pinaster_T,1,25,NA,1.292591977,NA,Jan
120.1639461,7.768710872,0.793915042,0.033484683,379.9306154,26.1,123,Pinus pinaster_T,1,25,NA,1.290941836,NA,Jan
177.1674943,5.475953508,1.63522889,0.031802125,379.9306154,35.3,124,Pinus pinaster_T,1,25,NA,0.882816438,NA,Jan
138.5068299,4.962283826,1.272852082,0.023321696,379.9306154,35.5,125,Pinus pinaster_T,1,25,NA,1.078535495,NA,Jan
183.3060658,8.502608938,1.57374296,0.051976326,379.9306154,30.7,126,Pinus pinaster_T,1,25,NA,0.885960888,NA,Jan
182.8421303,6.798054468,0.924053231,0.041298193,373,25.9,127,Pinus pinaster_T,1,27,NA,1.323416701,NA,Jan
205.8715385,7.534124911,1.665481394,0.055221452,373,30.8,128,Pinus pinaster_T,1,27,NA,0.982625675,NA,Jan
192.0324418,5.236818511,1.778435205,0.034732425,373,35.8,129,Pinus pinaster_T,1,27,NA,0.950203061,NA,Jan
187.0444978,5.190564164,1.716643204,0.033278884,373,35.8,130,Pinus pinaster_T,1,27,NA,0.977100129,NA,Jan
172.1894367,7.369936546,0.688079769,0.041962118,373,21.2,130,Pinus pinaster_T,1,27,NA,1.442515388,NA,Jan
256.2372002,6.685999267,0.924377466,0.071449976,373,16.1,131,Pinus pinaster_T,1,27,NA,1.307992884,NA,Jan
242.5950697,7.226319525,0.904897071,0.068324212,373,16.2,131,Pinus pinaster_T,1,27,NA,1.318744173,NA,Jan
185.6611021,9.648948396,0.932719055,0.061862018,373,21.3,132,Pinus pinaster_T,1,31,NA,0.929645417,NA,Jan
194.0067819,9.463664451,1.900039696,0.065984177,373,30.8,133,Pinus pinaster_T,1,31,NA,0.457426959,NA,Jan
55.70697325,8.550283135,1.312202448,0.030132113,373,35.6,134,Pinus pinaster_T,1,31,NA,0.777370081,NA,Jan
130.6542482,8.302066145,1.652917912,0.039908509,373,35.6,134,Pinus pinaster_T,1,31,NA,0.618255024,NA,Jan
159.3090294,11.09195279,1.29481643,0.062716071,373,26.1,135,Pinus pinaster_T,1,31,NA,0.747197857,NA,Jan
207.0231076,8.303634214,0.828161302,0.059928451,373,16.2,136,Pinus pinaster_T,1,31,NA,0.946563395,NA,Jan
213.661683,11.17619265,1.259189667,0.091834955,371,17,142,Pinus pinaster_T,3,28,NA,1.672059529,NA,Mar
203.34585,10.88877423,1.151290411,0.081945416,371,16.9,142,Pinus pinaster_T,3,28,NA,1.718720327,NA,Mar
194.6342378,12.8730324,1.82646588,0.095860195,371,26.2,143,Pinus pinaster_T,3,28,NA,1.341830997,NA,Mar
191.550003,12.35784691,1.740391172,0.08906438,371,26.2,143,Pinus pinaster_T,3,28,NA,1.377937745,NA,Mar
117.3415154,9.649221106,2.223684788,0.045151702,371,35.6,144,Pinus pinaster_T,3,28,NA,1.182498495,NA,Mar
87.66935335,10.84551419,2.21841163,0.045017349,371,35.6,144,Pinus pinaster_T,3,28,NA,1.182712784,NA,Mar
248.6969357,11.90594556,3.453291827,0.149580347,371,31.2,145,Pinus pinaster_T,3,28,NA,0.613319316,NA,Mar
251.5324191,11.61648,3.456499935,0.149867745,371,31.2,145,Pinus pinaster_T,3,28,NA,0.614078844,NA,Mar
192.3339568,10.36648982,3.177927853,0.076158409,371,35.2,146,Pinus pinaster_T,3,28,NA,0.634282632,NA,Mar
243.135001,10.62203086,2.893519842,0.118882498,371,31.2,147,Pinus pinaster_T,3,28,NA,0.749379716,NA,Mar
198.5347007,10.89971237,1.229228875,0.078988847,371,21.8,148,Pinus pinaster_T,3,28,NA,1.660380667,NA,Mar
192.9931328,10.5875513,1.181144712,0.073231816,371,21.9,148,Pinus pinaster_T,3,28,NA,1.682198432,NA,Mar
207.9079956,10.3603974,1.132002835,0.078710658,373,21.2,149,Pinus pinaster_T,3,31,NA,1.575651885,NA,Mar
178.8680982,10.53785382,0.992210698,0.065721045,373,21.1,149,Pinus pinaster_T,3,31,NA,1.676913243,NA,Mar
189.1980808,11.3966915,1.557545706,0.078179945,373,26,150,Pinus pinaster_T,3,31,NA,1.251746644,NA,Mar
203.5834179,10.34328069,2.250432094,0.078910216,373,31,151,Pinus pinaster_T,3,31,NA,0.818908787,NA,Mar
182.474266,11.46373239,2.196634569,0.076686696,373,31,151,Pinus pinaster_T,3,31,NA,0.942583969,NA,Mar
183.172533,9.232245657,2.836721268,0.061717806,373,35.8,152,Pinus pinaster_T,3,31,NA,0.429732947,NA,Mar
210.2494331,8.435157967,0.885254899,0.062572992,373,16.4,153,Pinus pinaster_T,3,31,NA,1.810765727,NA,Mar
244.865045,7.636756049,1.001975524,0.074588695,373,16.3,153,Pinus pinaster_T,3,31,NA,1.733412414,NA,Mar
