"Tree","Curve","Name","CO2_Tret","Obs","HHMMSS","FTime","EBal.","Photo","Cond","Ci","Trmmol","VpdL","CTleaf","Area","BLC_1","StmRat","BLCond","Tair","Tleaf","TBlk","CO2R","CO2S","H2OR","H2OS","RH_R","RH_S","Flow","PARi","PARo","Press","CsMch","HsMch","StableF","BLCslope","BLCoffst","f_parin","f_parout","alphaK","Status","CO2_Treatment","species","DataSet"
1,1,"Eter202-25C","amb",13,"10:47:15",602,0,22.6,0.522,311,3.92,0.884,25.1,6,1.42,1,2.84,25.61,25.1,25.98,425.33,396.39,18.073,22.672,55.97,70.22,500.1,1800,103,102.1,-0.261,0.125,1,-0.22,2.74,1,0,0.16,111115,"ambient","Eucalyptus tereticornis_EucFace","EucFace"
1,1,"Eter202-25C","amb",14,"10:50:10",777.5,0,-0.674,0.529,45.3,3.99,0.889,25.13,6,1.42,1,2.84,25.57,25.13,25.98,42.97,43.57,18.005,22.685,55.89,70.41,500.1,1799,27,102.1,0.765,0.208,1,-0.22,2.74,1,0,0.16,111135,"ambient","Eucalyptus tereticornis_EucFace","EucFace"
1,1,"Eter202-25C","amb",15,"10:51:50",877,0,6.91,0.517,119,3.96,0.9,25.18,6,1.42,1,2.84,25.58,25.18,25.98,154.43,145.44,18.018,22.666,55.87,70.28,500.1,1799,998,102.1,1.1,0.189,1,-0.22,2.74,1,0,0.16,111115,"ambient","Eucalyptus tereticornis_EucFace","EucFace"
1,1,"Eter202-25C","amb",16,"10:53:32",979,0,11.8,0.522,175,3.97,0.894,25.12,6,1.42,1,2.84,25.56,25.12,25.99,234.96,219.73,17.952,22.604,55.76,70.21,500.1,1799,119,102.1,1.21,0.244,1,-0.22,2.74,1,0,0.16,111115,"ambient","Eucalyptus tereticornis_EucFace","EucFace"
1,1,"Eter202-25C","amb",17,"10:55:12",1079,0,18.1,0.526,259,4.02,0.899,25.13,6,1.42,1,2.84,25.57,25.13,25.98,350.02,326.67,17.861,22.576,55.44,70.07,500.1,1800,1020,102.1,0.896,0.238,1,-0.22,2.74,1,0,0.16,111115,"ambient","Eucalyptus tereticornis_EucFace","EucFace"
1,1,"Eter202-25C","amb",19,"10:57:08",1195.5,0,21.9,0.536,317,4.08,0.9,25.1,6,1.42,1,2.84,25.57,25.1,25.99,426.41,398.13,17.73,22.52,55.03,69.9,500.1,1799,1027,102.1,0.12,0.228,1,-0.22,2.74,1,0,0.16,111115,"ambient","Eucalyptus tereticornis_EucFace","EucFace"
1,1,"Eter202-25C","amb",20,"10:59:08",1315.5,0,26.8,0.536,446,4.1,0.904,25.06,6,1.42,1,2.84,25.57,25.06,25.98,581.36,546.46,17.592,22.4,54.59,69.52,500.1,1801,688,102.1,-0.968,0.203,1,-0.22,2.74,1,0,0.16,111115,"ambient","Eucalyptus tereticornis_EucFace","EucFace"
1,1,"Eter202-25C","amb",22,"11:01:34",1461,0,30.1,0.533,840,4.13,0.913,25.1,6,1.42,1,2.84,25.59,25.1,25.98,998.89,958.05,17.555,22.393,54.4,69.4,500.1,1799,275,102.1,-4.78,0.18,0.7,-0.22,2.74,1,0,0.16,111115,"ambient","Eucalyptus tereticornis_EucFace","EucFace"
1,1,"Eter202-25C","amb",23,"11:03:38",1585.5,0,29.5,0.539,1340,4.09,0.897,24.95,6,1.42,1,2.84,25.5,24.95,25.99,1499.67,1457.12,17.489,22.288,54.5,69.45,500.1,1801,642,102.1,-10.6,0.21,0.7,-0.22,2.74,1,0,0.16,111115,"ambient","Eucalyptus tereticornis_EucFace","EucFace"
1,1,"Eter202-25C","amb",25,"11:06:17",1744.5,0,29.9,0.538,1630,4.12,0.904,24.95,6,1.42,1,2.84,25.88,24.95,26.56,1799.86,1755.34,17.369,22.2,52.92,67.64,500.1,1800,535,102.1,-15.4,0.125,1,-0.22,2.74,1,0,0.16,111115,"ambient","Eucalyptus tereticornis_EucFace","EucFace"
1,2,"Eter202-32C","amb",39,"11:21:32",2660.5,0,20.6,0.512,314,8.68,1.97,32.2,6,1.42,1,2.84,35.75,32.2,36.89,428.26,399.42,17.92,28.046,31.05,48.6,500.1,1799,1247,102,-1.04,-0.112,1,-0.22,2.74,1,0,0.16,111115,"ambient","Eucalyptus tereticornis_EucFace","EucFace"
1,2,"Eter202-32C","amb",41,"11:24:12",2819,0,-2,0.514,52.5,8.67,1.96,32.28,6,1.42,1,2.84,35.62,32.28,36.7,44.99,46.9,18.277,28.39,31.9,49.56,500.1,1800,1253,102,0.0528,-0.108,1,-0.22,2.74,1,0,0.16,111135,"ambient","Eucalyptus tereticornis_EucFace","EucFace"
1,2,"Eter202-32C","amb",42,"11:25:49",2916.5,0,4.97,0.511,125,8.4,1.91,32.03,6,1.42,1,2.84,35.19,32.03,36.29,154.65,147.21,18.422,28.214,32.92,50.42,500.1,1800,1446,102,0.0357,-0.0927,1,-0.22,2.74,1,0,0.16,111115,"ambient","Eucalyptus tereticornis_EucFace","EucFace"
1,2,"Eter202-32C","amb",44,"11:27:26",3013.5,0,9.9,0.512,179,8.33,1.89,31.96,6,1.42,1,2.84,35.43,31.96,36.7,234.92,220.83,18.485,28.201,32.6,49.73,500,1801,1454,102,-0.318,-0.0789,1,-0.22,2.74,1,0,0.16,111115,"ambient","Eucalyptus tereticornis_EucFace","EucFace"
1,2,"Eter202-32C","amb",45,"11:29:00",3107.5,0,16.2,0.506,260,8.38,1.92,32.12,6,1.42,1,2.84,35.77,32.12,37.08,350.58,327.82,18.573,28.341,32.14,49.04,500,1800,1435,102,-0.875,-0.116,1,-0.22,2.74,1,0,0.16,111115,"ambient","Eucalyptus tereticornis_EucFace","EucFace"
1,2,"Eter202-32C","amb",47,"11:30:41",3208,0,20.4,0.51,315,8.19,1.86,31.86,6,1.42,1,2.84,35.89,31.86,37.47,428.23,399.77,18.669,28.214,32.1,48.51,500,1800,1453,102,-1.33,-0.0986,1,-0.22,2.74,1,0,0.16,111115,"ambient","Eucalyptus tereticornis_EucFace","EucFace"
1,2,"Eter202-32C","amb",49,"11:32:27",3314.5,0,26.9,0.509,435,8.32,1.89,32.06,6,1.42,1,2.84,36.41,32.06,38.06,585.16,547.46,18.752,28.446,31.34,47.54,500.1,1800,1452,102,-2.6,-0.113,1,-0.22,2.74,1,0,0.16,111115,"ambient","Eucalyptus tereticornis_EucFace","EucFace"
1,2,"Eter202-32C","amb",51,"11:34:46",3453,0,34.2,0.502,795,8.47,1.95,32.43,6,1.42,1,2.84,36.31,32.43,37.66,998.52,947.89,18.985,28.857,31.89,48.47,500,1799,1455,102,-6.35,-0.11,1,-0.22,2.74,1,0,0.16,111115,"ambient","Eucalyptus tereticornis_EucFace","EucFace"
1,2,"Eter202-32C","amb",52,"11:37:01",3588.5,0,35.9,0.501,1270,8.43,1.94,32.44,6,1.42,1,2.84,36.04,32.44,37.27,1499.88,1442.25,19.135,28.961,32.63,49.38,500,1799,1479,102,-11.9,-0.0903,0.7,-0.22,2.74,1,0,0.16,111115,"ambient","Eucalyptus tereticornis_EucFace","EucFace"
1,2,"Eter202-32C","amb",54,"11:40:08",3775.5,0,37.3,0.499,1550,8.35,1.93,32.45,6,1.42,1,2.84,35.57,32.45,36.52,1798.18,1736.06,19.38,29.108,33.91,50.93,500,1800,1465,102,-16.8,-0.0887,0.7,-0.22,2.74,1,0,0.16,111115,"ambient","Eucalyptus tereticornis_EucFace","EucFace"
1,3,"Eter202-38C","amb",69,"11:59:20",4928,0,16.1,0.5,322,12.9,2.95,37.55,6,1.42,1,2.84,46.95,37.55,49.74,424.55,399.01,19.844,34.814,19,33.33,500.1,1800,1304,102,-1.28,-0.294,0.3,-0.22,2.74,1,0,0.16,111115,"ambient","Eucalyptus tereticornis_EucFace","EucFace"
1,3,"Eter202-38C","amb",72,"12:01:30",5057,0,-3.76,0.49,60,12.9,2.99,37.69,6,1.42,1,2.84,46.96,37.69,49.73,44.81,48.57,19.994,34.92,19.13,33.42,500.1,1801,1523,102,0.305,-0.295,1,-0.22,2.74,1,0,0.16,111135,"ambient","Eucalyptus tereticornis_EucFace","EucFace"
1,3,"Eter202-38C","amb",73,"12:03:10",5157.5,0,1.91,0.483,135,12.8,3,37.75,6,1.42,1,2.84,46.95,37.75,49.72,154.09,149.5,20.125,34.939,19.27,33.45,500.2,1800,1513,102,0.0379,-0.29,1,-0.22,2.74,1,0,0.16,111115,"ambient","Eucalyptus tereticornis_EucFace","EucFace"
1,3,"Eter202-38C","amb",74,"12:04:33",5240.5,0,5.97,0.48,192,12.5,2.95,37.49,6,1.42,1,2.84,46.74,37.49,49.73,234.91,224.38,20.131,34.592,19.48,33.47,500.2,1799,256,102,-0.302,-0.265,1,-0.22,2.74,1,0,0.16,111115,"ambient","Eucalyptus tereticornis_EucFace","EucFace"
1,3,"Eter202-38C","amb",75,"12:06:13",5340,0,11.5,0.451,271,11.9,2.98,37.4,6,1.42,1,2.84,46.74,37.4,49.74,350.19,331.62,20.109,33.958,19.46,32.86,500.1,1800,1517,102,-0.804,-0.593,1,-0.22,2.74,1,0,0.16,111115,"ambient","Eucalyptus tereticornis_EucFace","EucFace"
1,3,"Eter202-38C","amb",77,"12:07:53",5440,0,15,0.45,323,12,2.99,37.43,6,1.42,1,2.84,46.78,37.43,49.73,425.09,401.3,20.089,33.962,19.4,32.79,500.1,1801,1196,102,-1.34,-0.402,1,-0.22,2.74,1,0,0.16,111115,"ambient","Eucalyptus tereticornis_EucFace","EucFace"
1,3,"Eter202-38C","amb",78,"12:10:11",5578,0,31.6,0.431,776,11.3,2.94,37.06,6,1.42,1,2.84,46.62,37.06,49.74,1000.03,949.2,20.08,33.219,19.54,32.33,500.1,1799,1514,101.9,-7.03,-0.259,1,-0.22,2.74,1,0,0.16,111115,"ambient","Eucalyptus tereticornis_EucFace","EucFace"
1,3,"Eter202-38C","amb",80,"12:12:10",5697.5,0,35.5,0.405,1220,11,3.02,37.23,6,1.42,1,2.84,46.66,37.23,49.73,1500.11,1438.52,20.205,33.006,19.62,32.05,500.1,1800,1515,101.9,-12.3,-0.436,1,-0.22,2.74,1,0,0.16,111115,"ambient","Eucalyptus tereticornis_EucFace","EucFace"
1,3,"Eter202-38C","amb",83,"12:15:01",5868,0,36.7,0.385,1480,11,3.13,37.54,6,1.42,1,2.84,46.72,37.54,49.74,1800.43,1733.68,20.248,32.952,19.61,31.92,500.2,1799,1519,101.9,-16.7,-0.232,1,-0.22,2.74,1,0,0.16,111115,"ambient","Eucalyptus tereticornis_EucFace","EucFace"
1,3,"Eter202-38C","amb",86,"12:17:05",5993,0,13.9,0.361,316,10.7,3.24,37.78,6,1.42,1,2.84,46.72,37.78,49.71,424.71,402.91,20.329,32.743,19.69,31.71,500.1,1799,1525,101.9,-1.84,-0.244,0.7,-0.22,2.74,1,0,0.16,111115,"ambient","Eucalyptus tereticornis_EucFace","EucFace"
2,4,"Tr202-25C","amb",13,"10:53:54",564,0,16.1,0.173,231,2.43,1.45,26.6,6,1.42,1,2.84,24.3,26.6,23.93,415.13,394.65,17.578,20.424,57.8,67.16,500.9,1801,1565,100.3,281,0.83,0.7,-0.22,2.74,1,0,0.16,111135,"ambient","Eucalyptus tereticornis_EucFace","EucFace"
2,4,"Tr202-25C","amb",15,"10:58:08",818,0,4.4,0.175,104,2.42,1.44,26.35,6,1.42,1,2.84,23.32,26.35,22.07,154.63,148.93,17.198,20.039,60,69.91,500.9,1799,1671,100.3,211,0.786,1,-0.22,2.74,1,0,0.16,111115,"ambient","Eucalyptus tereticornis_EucFace","EucFace"
2,4,"Tr202-25C","amb",16,"11:00:08",937.5,0,8.43,0.186,143,2.53,1.41,26.25,6,1.42,1,2.84,23.27,26.25,22.06,234.91,224.12,17.096,20.061,59.81,70.19,500.9,1801,1871,100.3,231,0.785,1,-0.22,2.74,1,0,0.16,111115,"ambient","Eucalyptus tereticornis_EucFace","EucFace"
2,4,"Tr202-25C","amb",18,"11:01:45",1035,0,13.6,0.188,205,2.56,1.42,26.25,6,1.42,1,2.84,23.3,26.25,22.07,350.76,333.47,16.998,20.009,59.39,69.9,500.8,1801,1886,100.3,263,0.783,1,-0.22,2.74,1,0,0.16,111115,"ambient","Eucalyptus tereticornis_EucFace","EucFace"
2,4,"Tr202-25C","amb",20,"11:03:40",1150,0,16.4,0.185,240,2.55,1.43,26.2,6,1.42,1,2.84,23.27,26.2,22.07,417.92,397.08,16.78,19.772,58.7,69.17,500.9,1799,1808,100.3,282,0.777,1,-0.22,2.74,1,0,0.16,111115,"ambient","Eucalyptus tereticornis_EucFace","EucFace"
2,4,"Tr202-25C","amb",21,"11:05:52",1281.5,0,22,0.179,353,2.54,1.47,26.32,6,1.42,1,2.84,23.3,26.32,22.08,600.01,571.9,16.631,19.611,58.09,68.5,500.8,1800,1657,100.3,336,0.777,1,-0.22,2.74,1,0,0.16,111115,"ambient","Eucalyptus tereticornis_EucFace","EucFace"
2,4,"Tr202-25C","amb",23,"11:09:02",1471.5,0,27.2,0.16,1140,2.38,1.54,26.49,6,1.42,1,2.84,23.34,26.49,22.07,1500.51,1463.69,16.486,19.287,57.44,67.2,500.9,1800,1593,100.3,582,0.781,0.7,-0.22,2.74,1,0,0.16,111115,"ambient","Eucalyptus tereticornis_EucFace","EucFace"
2,4,"Tr202-25C","amb",25,"11:10:56",1586,0,28.2,0.136,1380,2.15,1.61,26.72,6,1.42,1,2.84,23.38,26.72,22.08,1801.89,1763.62,16.468,18.997,57.23,66.02,500.8,1799,1934,100.3,655,0.787,1,-0.22,2.74,1,0,0.16,111115,"ambient","Eucalyptus tereticornis_EucFace","EucFace"
2,5,"Tr202-32C","amb",28,"11:26:18",2507.5,0,-1.21,0.208,51.7,4.26,2.13,32.09,6,1.42,1,2.84,31.62,32.09,31.41,41.43,43.46,18.386,26.663,39.45,57.21,300.9,1799,1638,100.3,197,0.732,0.7,-0.22,2.74,1,0,0.16,111135,"ambient","Eucalyptus tereticornis_EucFace","EucFace"
2,5,"Tr202-32C","amb",30,"11:28:58",2668,0,4.23,0.222,111,4.2,1.97,32.15,6,1.42,1,2.84,31.65,32.15,31.42,157.26,147.55,20.246,28.417,43.36,60.86,299.9,1799,1571,100.3,215,0.761,0.7,-0.22,2.74,1,0,0.16,111115,"ambient","Eucalyptus tereticornis_EucFace","EucFace"
2,5,"Tr202-32C","amb",31,"11:31:17",2807,0,7.43,0.229,157,4.1,1.86,32.04,6,1.42,1,2.84,31.61,32.04,31.4,234.54,217.89,21.209,29.162,45.54,62.61,300,1800,1680,100.3,233,0.771,0.7,-0.22,2.74,1,0,0.16,111115,"ambient","Eucalyptus tereticornis_EucFace","EucFace"
2,5,"Tr202-32C","amb",33,"11:33:15",2925,0,12.8,0.224,215,4.02,1.87,31.96,6,1.42,1,2.84,31.59,31.96,31.42,349.7,321.45,21.103,28.907,45.35,62.12,299.9,1799,1749,100.3,263,0.777,1,-0.22,2.74,1,0,0.16,111115,"ambient","Eucalyptus tereticornis_EucFace","EucFace"
2,5,"Tr202-32C","amb",34,"11:35:16",3046,0,16.3,0.222,253,4.02,1.88,32.11,6,1.42,1,2.84,31.65,32.11,31.41,423.78,388.14,21.412,29.208,45.87,62.57,300,1800,1999,100.3,283,0.782,0.7,-0.22,2.74,1,0,0.16,111115,"ambient","Eucalyptus tereticornis_EucFace","EucFace"
2,5,"Tr202-32C","amb",36,"11:37:31",3181,0,22.7,0.213,367,4.03,1.96,32.05,6,1.42,1,2.84,31.63,32.05,31.41,600.36,562.92,22.3,28.182,47.8,60.41,400,1800,1236,100.3,337,0.795,1,-0.22,2.74,1,0,0.16,111115,"ambient","Eucalyptus tereticornis_EucFace","EucFace"
2,5,"Tr202-32C","amb",38,"11:39:04",3274,0,28.9,0.204,682,3.94,2,32.13,6,1.42,1,2.84,31.66,32.13,31.42,999.1,950.06,22.273,28.018,47.67,59.97,400,1799,1670,100.2,451,0.797,0.7,-0.22,2.74,1,0,0.16,111115,"ambient","Eucalyptus tereticornis_EucFace","EucFace"
2,5,"Tr202-32C","amb",40,"11:41:22",3412,0,31.6,0.184,1110,3.68,2.05,32.15,6,1.42,1,2.84,31.64,32.15,31.4,1499.76,1444.34,22.225,27.594,47.62,59.13,400,1800,1404,100.2,581,0.815,1,-0.22,2.74,1,0,0.16,111115,"ambient","Eucalyptus tereticornis_EucFace","EucFace"
2,5,"Tr202-32C","amb",42,"11:43:17",3526.5,0,32.6,0.166,1360,3.42,2.1,32.2,6,1.42,1,2.84,31.63,32.2,31.4,1806.04,1748.14,22.183,27.177,47.56,58.27,400,1801,1073,100.2,656,0.816,0.7,-0.22,2.74,1,0,0.16,111115,"ambient","Eucalyptus tereticornis_EucFace","EucFace"
2,6,"Tr202-38C","amb",43,"12:01:30",4619.5,0,-2.24,0.186,63.1,6.63,3.62,38.37,6,1.42,1,2.84,41.18,38.37,41.9,43.12,46.02,21.982,31.607,27.91,40.13,400.1,1799,1504,100.2,204,0.711,1,-0.22,2.74,1,0,0.16,111135,"ambient","Eucalyptus tereticornis_EucFace","EucFace"
2,6,"Tr202-38C","amb",45,"12:03:14",4723.5,0,1.66,0.163,124,5.87,3.62,38.1,6,1.42,1,2.84,39.69,38.1,39.99,153.68,149.87,22.092,30.626,30.37,42.1,400.1,1801,1982,100.2,221,0.77,1,-0.22,2.74,1,0,0.16,111115,"ambient","Eucalyptus tereticornis_EucFace","EucFace"
2,6,"Tr202-38C","amb",47,"12:05:10",4839.5,0,4.33,0.12,156,4.57,3.77,38,6,1.42,1,2.84,40.16,38,40.97,235.67,227.63,22.125,28.778,29.65,38.57,400.1,1800,1769,100.2,240,0.741,1,-0.22,2.74,1,0,0.16,111115,"ambient","Eucalyptus tereticornis_EucFace","EucFace"
2,6,"Tr202-38C","amb",48,"12:06:47",4936.5,0,7.47,0.0998,196,3.93,3.9,38.07,6,1.42,1,2.84,40.12,38.07,40.95,350.36,337.16,22.067,27.802,29.64,37.34,400.1,1801,2032,100.2,272,0.74,1,-0.22,2.74,1,0,0.16,111115,"ambient","Eucalyptus tereticornis_EucFace","EucFace"
2,6,"Tr202-38C","amb",50,"12:08:27",5037,0,8.52,0.08,209,3.22,3.96,37.93,6,1.42,1,2.84,40.02,37.93,40.95,418.13,403.41,21.984,26.685,29.68,36.03,400,1800,2040,100.2,292,0.731,1,-0.22,2.74,1,0,0.16,111115,"ambient","Eucalyptus tereticornis_EucFace","EucFace"
2,6,"Tr202-38C","amb",51,"12:10:26",5155.5,0,19,0.0612,418,2.55,4.08,37.96,6,1.42,1,2.84,40.39,37.96,41.56,1002.38,970.19,21.866,25.599,28.95,33.89,400.1,1800,1168,100.2,460,0.728,0.7,-0.22,2.74,1,0,0.16,111115,"ambient","Eucalyptus tereticornis_EucFace","EucFace"
2,6,"Tr202-38C","amb",54,"12:14:12",5382,0,29.1,0.0473,856,2.07,4.27,38.24,6,1.42,1,2.84,40.05,38.24,40.97,2005.25,1955.5,21.7,24.735,29.25,33.34,400,1801,2044,100.2,711,0.75,0.7,-0.22,2.74,1,0,0.16,111135,"ambient","Eucalyptus tereticornis_EucFace","EucFace"
2,7,"Tr202-42C","amb",56,"12:20:50",5780,0,-2.91,0.17,71.4,7.71,4.54,40.97,6,1.42,1,2.84,47.45,40.97,49.71,43.32,47.14,21.384,32.568,19.61,29.87,400.1,1800,1654,100.2,208,0.631,1,-0.22,2.74,1,0,0.16,111135,"ambient","Eucalyptus tereticornis_EucFace","EucFace"
2,7,"Tr202-42C","amb",58,"12:22:49",5898.5,0,0.866,0.111,127,5.74,5.1,41.6,6,1.42,1,2.84,47.42,41.6,49.72,154.51,151.9,21.321,29.678,19.59,27.26,400.1,1800,1957,100.2,225,0.687,0.7,-0.22,2.74,1,0,0.16,111115,"ambient","Eucalyptus tereticornis_EucFace","EucFace"
2,7,"Tr202-42C","amb",60,"12:24:52",6022,0,5.84,0.0588,212,3.49,5.73,42.27,6,1.42,1,2.84,45.64,42.27,46.97,414.94,404.06,21.139,26.231,21.27,26.39,400.1,1799,1967,100.2,295,0.763,0.3,-0.22,2.74,1,0,0.16,111115,"ambient","Eucalyptus tereticornis_EucFace","EucFace"
2,7,"Tr202-42C","amb",62,"12:27:15",6164.5,0,12.2,0.0373,380,2.3,5.92,42.3,6,1.42,1,2.84,44.83,42.3,46.01,1000.25,978.51,21.112,24.478,22.14,25.67,400.1,1799,1973,100.2,466,0.78,0.7,-0.22,2.74,1,0,0.16,111115,"ambient","Eucalyptus tereticornis_EucFace","EucFace"
2,7,"Tr202-42C","amb",64,"12:30:57",6387,0,20.1,0.0284,690,1.7,5.75,41.72,6,1.42,1,2.84,45,41.72,46.67,1999.52,1964.31,21.156,23.646,21.99,24.58,400.1,1801,1026,100.2,718,0.784,0.7,-0.22,2.74,1,0,0.16,111115,"ambient","Eucalyptus tereticornis_EucFace","EucFace"
3,8,"Tr319-25C","amb",16,"10:32:50",362,0,22,0.337,278,3.13,1.02,24.97,6,1.42,1,2.84,24.51,24.97,23.59,426.34,398.52,17.595,21.259,57.66,69.67,500.9,1800,172,101.2,-0.321,0.826,0.7,-0.22,2.74,1,0,0.16,111135,"ambient","Eucalyptus tereticornis_EucFace","EucFace"
3,8,"Tr319-25C","amb",18,"10:36:05",556.5,0,-0.734,0.326,46.2,3.25,1.09,25.48,6,1.42,1,2.84,25.29,25.48,25.4,42.34,43.05,17.705,21.513,55.39,67.3,501,1799,187,101.2,-0.436,0.776,1,-0.22,2.74,1,0,0.16,111135,"ambient","Eucalyptus tereticornis_EucFace","EucFace"
3,8,"Tr319-25C","amb",20,"10:37:49",660.5,0,6.32,0.33,111,3.16,1.05,25.2,6,1.42,1,2.84,24.32,25.2,24.03,154.59,146.47,17.718,21.416,58.71,70.96,501,1800,212,101.2,-0.0602,0.802,1,-0.22,2.74,1,0,0.16,111115,"ambient","Eucalyptus tereticornis_EucFace","EucFace"
3,8,"Tr319-25C","amb",22,"10:39:33",765,0,11.7,0.347,157,3.16,1.01,24.95,6,1.42,1,2.84,24.11,24.95,23.84,234.5,219.63,17.664,21.37,59.28,71.72,501,1801,254,101.2,-0.0484,0.807,1,-0.22,2.74,1,0,0.16,111115,"ambient","Eucalyptus tereticornis_EucFace","EucFace"
3,8,"Tr319-25C","amb",23,"10:41:09",861,0,18.4,0.359,232,3.22,0.997,24.91,6,1.42,1,2.84,24.1,24.91,23.84,350.7,327.4,17.624,21.4,59.2,71.89,501,1801,342,101.2,-0.202,0.808,1,-0.22,2.74,1,0,0.16,111115,"ambient","Eucalyptus tereticornis_EucFace","EucFace"
3,8,"Tr319-25C","amb",25,"10:42:54",965.5,0,22.4,0.376,285,3.34,0.99,24.92,6,1.42,1,2.84,24.12,24.92,23.84,425.41,397,17.581,21.49,58.96,72.07,501,1800,611,101.2,-0.407,0.811,1,-0.22,2.74,1,0,0.16,111115,"ambient","Eucalyptus tereticornis_EucFace","EucFace"
3,8,"Tr319-25C","amb",26,"10:44:47",1079,0,27.8,0.386,427,3.47,1.01,25.09,6,1.42,1,2.84,24.18,25.09,23.84,599.45,563.77,17.587,21.655,58.78,72.38,500.9,1799,563,101.2,-0.777,0.821,1,-0.22,2.74,1,0,0.16,111115,"ambient","Eucalyptus tereticornis_EucFace","EucFace"
3,8,"Tr319-25C","amb",28,"10:46:57",1208.5,0,31.2,0.374,795,3.4,1.01,25.12,6,1.42,1,2.84,23.42,25.12,22.62,999.12,957.8,17.641,21.624,61.72,75.65,500.9,1799,926,101.2,-2.33,0.854,0.7,-0.22,2.74,1,0,0.16,111115,"ambient","Eucalyptus tereticornis_EucFace","EucFace"
3,8,"Tr319-25C","amb",30,"10:48:49",1321,0,31,0.338,1290,3.2,1.04,25.15,6,1.42,1,2.84,23.4,25.15,22.67,1499.58,1459.31,17.67,21.416,61.9,75.02,501,1799,782,101.2,-2.33,0.854,0.7,-0.22,2.74,1,0,0.16,111115,"ambient","Eucalyptus tereticornis_EucFace","EucFace"
3,8,"Tr319-25C","amb",34,"10:51:16",1467.5,0,33.4,0.296,1530,2.87,1.06,25.11,6,1.42,1,2.84,22.84,25.11,21.86,1799.56,1753.57,17.817,21.188,64.56,76.78,500.9,1800,913,101.2,-8.81,0.896,0.7,-0.22,2.74,1,0,0.16,111115,"ambient","Eucalyptus tereticornis_EucFace","EucFace"
3,9,"Tr319-32C","amb",45,"11:08:54",2526,0,20.6,0.369,289,6.87,2.05,31.93,6,1.42,1,2.84,34.14,31.93,34.94,427.53,399.6,18.774,26.781,35.26,50.3,500.9,1801,1040,101.2,-1.14,0.782,0.7,-0.22,2.74,1,0,0.16,111115,"ambient","Eucalyptus tereticornis_EucFace","EucFace"
3,9,"Tr319-32C","amb",49,"11:11:56",2708,0,-1.58,0.367,50.2,6.93,2.08,32.1,6,1.42,1,2.84,34.22,32.1,34.93,42.65,44.17,18.881,26.957,35.31,50.42,501,1799,778,101.1,-0.547,0.774,1,-0.22,2.74,1,0,0.16,111135,"ambient","Eucalyptus tereticornis_EucFace","EucFace"
3,9,"Tr319-32C","amb",51,"11:13:37",2809,0,5.17,0.377,118,7.05,2.06,32.13,6,1.42,1,2.84,34.22,32.13,34.94,154.3,146.87,18.97,27.184,35.47,50.82,500.9,1799,1101,101.1,-0.394,0.784,1,-0.22,2.74,1,0,0.16,111115,"ambient","Eucalyptus tereticornis_EucFace","EucFace"
3,9,"Tr319-32C","amb",52,"11:15:20",2911.5,0,10.4,0.384,166,7.14,2.06,32.17,6,1.42,1,2.84,34.26,32.17,34.94,234.93,220.64,19.016,27.336,35.47,50.98,500.9,1799,1113,101.1,-0.465,0.783,1,-0.22,2.74,1,0,0.16,111115,"ambient","Eucalyptus tereticornis_EucFace","EucFace"
3,9,"Tr319-32C","amb",54,"11:16:55",3007,0,17.2,0.395,240,7.17,2.01,32.06,6,1.42,1,2.84,34.09,32.06,34.73,350.37,326.92,19.105,27.461,35.98,51.71,500.9,1800,924,101.1,-0.613,0.803,0.7,-0.22,2.74,1,0,0.16,111115,"ambient","Eucalyptus tereticornis_EucFace","EucFace"
3,9,"Tr319-32C","amb",56,"11:18:39",3111,0,21.6,0.385,286,6.92,1.99,31.86,6,1.42,1,2.84,34.1,31.86,34.93,426.45,397.24,19.122,27.183,35.99,51.16,500.9,1801,1166,101.1,-1.09,0.793,1,-0.22,2.74,1,0,0.16,111115,"ambient","Eucalyptus tereticornis_EucFace","EucFace"
3,9,"Tr319-32C","amb",57,"11:20:26",3217.5,0,28.6,0.363,405,6.8,2.06,32.08,6,1.42,1,2.84,34.2,32.08,34.94,599.95,561.18,19.14,27.069,35.82,50.66,501,1800,1173,101.1,-1.93,0.794,1,-0.22,2.74,1,0,0.16,111115,"ambient","Eucalyptus tereticornis_EucFace","EucFace"
3,9,"Tr319-32C","amb",58,"11:22:30",3341.5,0,35.5,0.336,733,6.63,2.15,32.37,6,1.42,1,2.84,34.15,32.37,34.74,998.96,948.89,19.257,26.984,36.14,50.64,500.9,1798,1190,101.1,-3.99,0.816,1,-0.22,2.74,1,0,0.16,111115,"ambient","Eucalyptus tereticornis_EucFace","EucFace"
3,9,"Tr319-32C","amb",60,"11:24:28",3460,0,38.3,0.296,1170,6.14,2.23,32.53,6,1.42,1,2.84,33.65,32.53,33.95,1500.41,1443.94,19.429,26.586,37.48,51.29,500.9,1800,1200,101.1,-7.64,0.842,1,-0.22,2.74,1,0,0.16,111115,"ambient","Eucalyptus tereticornis_EucFace","EucFace"
3,9,"Tr319-32C","amb",64,"11:26:42",3593.5,0,38.7,0.258,1430,5.28,2.17,32.01,6,1.42,1,2.84,32.94,32.01,33.37,1799.54,1742.18,19.583,25.747,39.33,51.71,501,1800,932,101.1,-10.7,0.846,1,-0.22,2.74,1,0,0.16,111115,"ambient","Eucalyptus tereticornis_EucFace","EucFace"
3,10,"Tr319-38C","amb",68,"11:42:11",4523,0,15.4,0.33,299,9.45,3.07,37.43,6,1.42,1,2.84,43.91,37.43,46.04,421.35,398.36,22.488,33.447,24.95,37.11,500.1,1799,1243,101.1,-2.17,0.669,1,-0.22,2.74,1,0,0.16,111135,"ambient","Eucalyptus tereticornis_EucFace","EucFace"
3,10,"Tr319-38C","amb",70,"11:48:26",4897.5,0,-2.39,0.279,57.8,8.77,3.32,38.12,6,1.42,1,2.84,42.43,38.12,43.26,43.33,45.71,23.315,33.48,27.95,40.13,500.1,1800,1156,101.1,-0.381,0.689,0.7,-0.22,2.74,1,0,0.16,111135,"ambient","Eucalyptus tereticornis_EucFace","EucFace"
3,10,"Tr319-38C","amb",72,"11:50:04",4995.5,0,2.15,0.276,130,8.7,3.32,38.11,6,1.42,1,2.84,43.34,38.11,45.05,154.9,150.75,23.364,33.451,26.7,38.23,500.1,1799,1178,101.1,-0.647,0.711,1,-0.22,2.74,1,0,0.16,111115,"ambient","Eucalyptus tereticornis_EucFace","EucFace"
3,10,"Tr319-38C","amb",73,"11:51:24",5075.5,0,5.76,0.257,176,8.45,3.44,38.37,6,1.42,1,2.84,43.41,38.37,45.06,235.33,226.13,23.385,33.188,26.63,37.79,500.1,1800,1156,101.1,-1,0.721,1,-0.22,2.74,1,0,0.16,111115,"ambient","Eucalyptus tereticornis_EucFace","EucFace"
3,10,"Tr319-38C","amb",74,"11:52:48",5159.5,0,11,0.224,233,7.68,3.55,38.46,6,1.42,1,2.84,42.58,38.46,43.88,350.26,333.96,23.472,32.383,27.91,38.51,500.1,1800,1231,101.1,-1.26,0.763,1,-0.22,2.74,1,0,0.16,111115,"ambient","Eucalyptus tereticornis_EucFace","EucFace"
3,10,"Tr319-38C","amb",76,"11:54:15",5247,0,13.6,0.18,254,6.4,3.63,38.29,6,1.42,1,2.84,41.6,38.29,42.69,419.88,400.47,23.583,31.024,29.53,38.85,500.1,1799,320,101.1,-1.46,0.788,1,-0.22,2.74,1,0,0.16,111115,"ambient","Eucalyptus tereticornis_EucFace","EucFace"
3,10,"Tr319-38C","amb",78,"11:56:32",5383.5,0,33.1,0.135,689,5.02,3.75,38.21,6,1.42,1,2.84,41.46,38.21,42.72,1201.15,1154.51,23.714,29.554,29.91,37.27,500.1,1800,578,101,-7.14,0.796,1,-0.22,2.74,1,0,0.16,111115,"ambient","Eucalyptus tereticornis_EucFace","EucFace"
3,10,"Tr319-38C","amb",80,"11:58:45",5517,0,38.8,0.102,1120,4.07,3.96,38.55,6,1.42,1,2.84,41.38,38.55,42.52,1899.62,1844.07,23.909,28.656,30.28,36.29,500.1,1799,1402,101,-13.8,0.817,0.7,-0.22,2.74,1,0,0.16,111115,"ambient","Eucalyptus tereticornis_EucFace","EucFace"
3,11,"Tr319-41C","amb",88,"12:22:17",6929,0,-2.54,0.216,60.9,8.46,4.03,40.28,6,1.42,1,2.84,47.37,40.28,49.73,41.84,44.43,24.847,34.646,23.07,32.16,500.1,1800,806,101,-0.58,0.711,1,-0.22,2.74,1,0,0.16,111135,"ambient","Eucalyptus tereticornis_EucFace","EucFace"
3,11,"Tr319-41C","amb",90,"12:25:43",7134.5,0,1.39,0.154,154,6.97,4.56,41.13,6,1.42,1,2.84,47.51,41.13,49.72,184.67,181.49,24.726,32.812,22.79,30.24,500,1799,1286,101,-0.953,0.73,1,-0.22,2.74,1,0,0.16,111115,"ambient","Eucalyptus tereticornis_EucFace","EucFace"
3,11,"Tr319-41C","amb",91,"12:27:08",7219.5,0,6.74,0.14,263,6.53,4.66,41.26,6,1.42,1,2.84,46.96,41.26,48.95,378.84,367.87,24.768,32.346,23.47,30.65,500.1,1800,1361,101,-1.51,0.766,1,-0.22,2.74,1,0,0.16,111115,"ambient","Eucalyptus tereticornis_EucFace","EucFace"
3,11,"Tr319-41C","amb",93,"12:28:24",7295.5,0,7.91,0.125,268,5.69,4.55,40.76,6,1.42,1,2.84,46.7,40.76,48.96,410.22,398.02,24.77,31.381,23.79,30.14,500.1,1800,1174,101,-1.82,0.775,1,-0.22,2.74,1,0,0.16,111115,"ambient","Eucalyptus tereticornis_EucFace","EucFace"
3,11,"Tr319-41C","amb",96,"12:31:26",7477.5,0,27.4,0.08,809,3.89,4.79,40.79,6,1.42,1,2.84,46.72,40.79,49.07,1499.64,1459.95,24.654,29.19,23.65,28,500.1,1800,467,101,-10.9,0.782,0.7,-0.22,2.74,1,0,0.16,111115,"ambient","Eucalyptus tereticornis_EucFace","EucFace"
3,11,"Tr319-41C","amb",98,"12:33:16",7588.5,0,28.3,0.0616,1040,3.14,4.99,41.06,6,1.42,1,2.84,46.69,41.06,48.95,1949.39,1908.28,24.599,28.265,23.64,27.16,500,1799,569,101,-15.5,0.79,0.7,-0.22,2.74,1,0,0.16,111115,"ambient","Eucalyptus tereticornis_EucFace","EucFace"
4,12,"R3-Tr398-22C","amb",6,"10:23:53",277,0,22.5,0.254,243,1.58,0.675,22.33,6,1.42,1,2.84,20.64,22.33,19.89,426.96,399.26,18.091,19.948,75.55,83.3,500.2,1799,81,101.9,3.43,0.657,1,-0.22,2.74,1,0,0.16,111115,"ambient","Eucalyptus tereticornis_EucFace","EucFace"
4,12,"R3-Tr398-22C","amb",9,"10:26:48",452,0,-0.127,0.273,43,1.55,0.619,22.1,6,1.42,1,2.84,20.03,22.1,19.56,42.56,42.63,18.3,20.122,79.33,87.22,500.2,1800,809,101.9,5.13,1.05,0.7,-0.22,2.74,1,0,0.16,111135,"ambient","Eucalyptus tereticornis_EucFace","EucFace"
4,12,"R3-Tr398-22C","amb",12,"10:28:15",538,0,12.9,0.271,142,1.55,0.622,22.12,6,1.42,1,2.84,19.92,22.12,19.37,241.56,225.68,18.307,20.124,79.92,87.85,500.2,1800,810,101.9,7.15,1.15,0.7,-0.22,2.74,1,0,0.16,111115,"ambient","Eucalyptus tereticornis_EucFace","EucFace"
4,12,"R3-Tr398-22C","amb",17,"10:30:34",677,0,22.5,0.265,248,1.53,0.629,22.2,6,1.42,1,2.84,19.92,22.2,19.27,425.63,397.88,18.384,20.187,80.24,88.12,500.1,1800,813,101.9,9.27,1.25,1,-0.22,2.74,1,0,0.16,111115,"ambient","Eucalyptus tereticornis_EucFace","EucFace"
4,12,"R3-Tr398-22C","amb",22,"10:34:47",930,0,28.2,0.344,1590,2.41,0.782,22.11,6,1.42,1,2.84,19.72,22.11,18.98,1798.76,1759.81,15.704,18.54,69.42,81.96,500.1,1799,1221,101.9,-7.35,0.753,1,-0.22,2.74,1,0,0.16,111115,"ambient","Eucalyptus tereticornis_EucFace","EucFace"
4,13,"R3-Tr398-25C","amb",32,"10:40:37",1278.5,0,23.6,0.307,257,2.74,0.982,25.29,6,1.42,1,2.84,24.41,25.29,24.41,426.59,397,18.893,22.106,62.74,73.41,500.1,1799,154,101.9,-0.24,0.264,0.7,-0.22,2.74,1,0,0.16,111115,"ambient","Eucalyptus tereticornis_EucFace","EucFace"
4,13,"R3-Tr398-25C","amb",35,"10:42:45",1408,0,-0.949,0.317,48,2.74,0.954,25.26,6,1.42,1,2.84,24.01,25.26,23.86,42.48,43.48,19.117,22.333,65.01,75.94,500.1,1799,1256,101.9,1.15,0.403,1,-0.22,2.74,1,0,0.16,111135,"ambient","Eucalyptus tereticornis_EucFace","EucFace"
4,13,"R3-Tr398-25C","amb",36,"10:44:18",1500.5,0,6.87,0.314,106,2.62,0.918,25.05,6,1.42,1,2.84,23.65,25.05,23.45,154.58,145.88,19.209,22.281,66.77,77.44,500.1,1801,1256,101.9,1.85,0.466,1,-0.22,2.74,1,0,0.16,111115,"ambient","Eucalyptus tereticornis_EucFace","EucFace"
4,13,"R3-Tr398-25C","amb",38,"10:46:00",1602.5,0,12.2,0.327,151,2.65,0.896,24.95,6,1.42,1,2.84,23.73,24.95,23.65,234.81,219.44,19.208,22.318,66.41,77.17,500.1,1800,1266,101.9,1.65,0.517,1,-0.22,2.74,1,0,0.16,111115,"ambient","Eucalyptus tereticornis_EucFace","EucFace"
4,13,"R3-Tr398-25C","amb",39,"10:47:39",1701.5,0,18.6,0.311,218,2.54,0.899,24.94,6,1.42,1,2.84,23.72,24.94,23.65,350.25,326.93,19.275,22.26,66.68,77.01,500.1,1800,1268,101.9,1.57,0.435,1,-0.22,2.74,1,0,0.16,111115,"ambient","Eucalyptus tereticornis_EucFace","EucFace"
4,13,"R3-Tr398-25C","amb",41,"10:49:37",1820,0,22.5,0.321,270,2.6,0.894,24.94,6,1.42,1,2.84,23.74,24.94,23.65,426.26,397.97,19.268,22.314,66.61,77.14,500.1,1799,1278,101.9,1.14,0.472,0.7,-0.22,2.74,1,0,0.16,111115,"ambient","Eucalyptus tereticornis_EucFace","EucFace"
4,13,"R3-Tr398-25C","amb",42,"10:51:39",1941.5,0,30.9,0.31,773,2.52,0.896,24.89,6,1.42,1,2.84,23.73,24.89,23.65,999.96,960.04,19.244,22.202,66.54,76.77,500.1,1799,1030,101.9,-2.88,0.403,0.7,-0.22,2.74,1,0,0.16,111115,"ambient","Eucalyptus tereticornis_EucFace","EucFace"
4,13,"R3-Tr398-25C","amb",44,"10:53:54",2077,0,31.9,0.33,1270,2.65,0.89,24.9,6,1.42,1,2.84,23.87,24.9,23.85,1500.69,1457.73,19.176,22.288,65.76,76.44,500.1,1799,1175,101.9,-8.38,0.455,1,-0.22,2.74,1,0,0.16,111115,"ambient","Eucalyptus tereticornis_EucFace","EucFace"
4,13,"R3-Tr398-25C","amb",48,"10:56:41",2244,0,32.3,0.335,1560,2.76,0.913,24.98,6,1.42,1,2.84,23.8,24.98,23.66,1801.11,1756.58,18.969,22.211,65.33,76.49,500.1,1801,1281,101.9,-12.2,0.481,1,-0.22,2.74,1,0,0.16,111115,"ambient","Eucalyptus tereticornis_EucFace","EucFace"
4,14,"R3-Tr398-32C","amb",56,"11:08:47",2970,0,22.9,0.34,265,6.63,2.14,32.3,6,1.42,1,2.84,34.22,32.3,34.95,426.45,395.78,18.899,26.644,35.59,50.18,500.1,1800,1267,101.9,-2.06,-0.11,0.7,-0.22,2.74,1,0,0.16,111115,"ambient","Eucalyptus tereticornis_EucFace","EucFace"
4,14,"R3-Tr398-32C","amb",58,"11:10:41",3084,0,-1.71,0.348,53.5,6.7,2.12,32.29,6,1.42,1,2.84,33.54,32.29,33.96,44.86,46.54,19.027,26.85,37.22,52.53,500.1,1800,1270,101.9,-0.239,-0.0564,1,-0.22,2.74,1,0,0.16,111135,"ambient","Eucalyptus tereticornis_EucFace","EucFace"
4,14,"R3-Tr398-32C","amb",59,"11:12:12",3174.5,0,5.78,0.347,113,6.55,2.08,32.15,6,1.42,1,2.84,33.46,32.15,33.96,154.7,146.61,19.207,26.856,37.75,52.78,500.1,1801,1269,101.9,-0.447,-0.041,1,-0.22,2.74,1,0,0.16,111115,"ambient","Eucalyptus tereticornis_EucFace","EucFace"
4,14,"R3-Tr398-32C","amb",60,"11:13:54",3276.5,0,11,0.347,158,6.45,2.05,32.07,6,1.42,1,2.84,33.44,32.07,33.97,235.06,220.2,19.428,26.958,38.22,53.03,500,1800,1281,101.9,-0.749,-0.0377,1,-0.22,2.74,1,0,0.16,111115,"ambient","Eucalyptus tereticornis_EucFace","EucFace"
4,14,"R3-Tr398-32C","amb",61,"11:15:30",3373,0,17.7,0.347,228,6.47,2.05,32.19,6,1.42,1,2.84,33.49,32.19,33.97,350.55,326.82,19.684,27.237,38.63,53.45,500,1800,1286,101.9,-1.25,-0.0333,1,-0.22,2.74,1,0,0.16,111115,"ambient","Eucalyptus tereticornis_EucFace","EucFace"
4,14,"R3-Tr398-32C","amb",63,"11:17:15",3477.5,0,22.1,0.347,274,6.42,2.04,32.21,6,1.42,1,2.84,33.51,32.21,34.05,426.65,397.12,19.957,27.452,39.1,53.78,500.1,1799,1287,101.9,-1.45,-0.024,1,-0.22,2.74,1,0,0.16,111115,"ambient","Eucalyptus tereticornis_EucFace","EucFace"
4,14,"R3-Tr398-32C","amb",64,"11:19:02",3585,0,29,0.351,381,6.4,2.01,32.22,6,1.42,1,2.84,33.46,32.22,34.01,581.35,542.35,20.283,27.746,39.85,54.51,500,1800,1290,101.9,-2.17,-0.00379,1,-0.22,2.74,1,0,0.16,111115,"ambient","Eucalyptus tereticornis_EucFace","EucFace"
4,14,"R3-Tr398-32C","amb",65,"11:21:11",3714,0,36.7,0.348,734,6.39,2.02,32.39,6,1.42,1,2.84,34.3,32.39,34.93,998.82,947.54,20.681,28.13,38.78,52.74,500.1,1801,1297,101.9,-6.19,-0.0176,0.7,-0.22,2.74,1,0,0.16,111115,"ambient","Eucalyptus tereticornis_EucFace","EucFace"
4,14,"R3-Tr398-32C","amb",66,"11:23:15",3837.5,0,38.6,0.285,1160,6.29,2.38,33.77,6,1.42,1,2.84,33.13,33.77,34.27,1498.97,1441.74,21.106,28.436,42.24,56.92,500.1,1800,1307,101.9,-7.88,0.079,0.7,-0.22,2.74,1,0,0.16,111115,"ambient","Eucalyptus tereticornis_EucFace","EucFace"
4,14,"R3-Tr398-32C","amb",70,"11:25:51",3993.5,0,39.5,0.287,1440,5.96,2.24,33.31,6,1.42,1,2.84,32.24,33.31,33.22,1799.94,1740.05,21.534,28.479,45.31,59.92,500.1,1799,1308,101.9,-10.8,0.12,0.7,-0.22,2.74,1,0,0.16,111115,"ambient","Eucalyptus tereticornis_EucFace","EucFace"
4,15,"R3-Tr398-38C","amb",83,"11:37:36",4698.5,0,20.6,0.276,251,8.43,3.24,37.61,6,1.42,1,2.84,39.79,37.61,41.85,426.43,397.65,22.391,32.175,31.11,44.7,500.1,1800,1317,101.8,-0.544,-0.0831,0.7,-0.22,2.74,1,0,0.16,111115,"ambient","Eucalyptus tereticornis_EucFace","EucFace"
4,15,"R3-Tr398-38C","amb",88,"11:38:44",4767.5,0,20.4,0.286,257,8.34,3.11,37.21,6,1.42,1,2.84,40.08,37.21,42.41,426.34,397.88,22.412,32.093,30.65,43.89,500.1,1801,1329,101.8,-0.544,-0.0831,1,-0.22,2.74,1,0,0.16,111115,"ambient","Eucalyptus tereticornis_EucFace","EucFace"
4,15,"R3-Tr398-38C","amb",90,"11:41:45",4948,0,-2.66,0.29,60.4,8.96,3.3,37.96,6,1.42,1,2.84,42.54,37.96,46.04,44.7,47.38,22.43,32.83,26.93,39.42,500.1,1800,796,101.8,0.273,-0.158,1,-0.22,2.74,1,0,0.16,111135,"ambient","Eucalyptus tereticornis_EucFace","EucFace"
4,15,"R3-Tr398-38C","amb",91,"11:43:13",5035.5,0,3.94,0.282,116,9.12,3.44,38.39,6,1.42,1,2.84,42.37,38.39,45.47,154.32,147.98,22.388,32.965,27.12,39.94,500.1,1800,72,101.8,0.354,-0.134,1,-0.22,2.74,1,0,0.16,111115,"ambient","Eucalyptus tereticornis_EucFace","EucFace"
4,15,"R3-Tr398-38C","amb",93,"11:44:29",5111.5,0,8.66,0.279,158,9.12,3.47,38.45,6,1.42,1,2.84,42.38,38.45,45.47,235.12,222.3,22.332,32.912,27.03,39.84,500.1,1799,69,101.8,0.152,-0.147,1,-0.22,2.74,1,0,0.16,111115,"ambient","Eucalyptus tereticornis_EucFace","EucFace"
4,15,"R3-Tr398-38C","amb",94,"11:45:57",5199.5,0,15.2,0.275,217,9.03,3.48,38.46,6,1.42,1,2.84,42.09,38.46,45.09,350.67,328.85,22.315,32.798,27.43,40.31,500.1,1799,68,101.8,-0.238,-0.127,1,-0.22,2.74,1,0,0.16,111115,"ambient","Eucalyptus tereticornis_EucFace","EucFace"
4,15,"R3-Tr398-38C","amb",96,"11:47:38",5300.5,0,19.6,0.272,256,8.87,3.46,38.33,6,1.42,1,2.84,41.65,38.33,44.44,426.44,398.74,22.327,32.617,28.1,41.05,500.1,1801,65,101.8,-0.583,-0.135,1,-0.22,2.74,1,0,0.16,111115,"ambient","Eucalyptus tereticornis_EucFace","EucFace"
4,15,"R3-Tr398-38C","amb",98,"11:49:53",5435.5,0,36.2,0.272,673,8.56,3.34,37.87,6,1.42,1,2.84,41.87,37.87,45.06,1000.42,947.3,22.164,32.104,27.56,39.92,500.1,1801,65,101.8,-5.45,-0.147,1,-0.22,2.74,1,0,0.16,111115,"ambient","Eucalyptus tereticornis_EucFace","EucFace"
4,15,"R3-Tr398-38C","amb",100,"11:51:51",5554,0,39.9,0.273,1110,8.8,3.42,38.13,6,1.42,1,2.84,42.74,38.13,46.05,1500.32,1437.25,22.003,32.222,26.13,38.27,500.1,1799,64,101.8,-11.5,-0.165,0.7,-0.22,2.74,1,0,0.16,111115,"ambient","Eucalyptus tereticornis_EucFace","EucFace"
4,15,"R3-Tr398-38C","amb",103,"11:54:25",5707.5,0,42.9,0.271,1370,8.94,3.5,38.31,6,1.42,1,2.84,42.82,38.31,46.04,1801.17,1731.1,21.777,32.155,25.76,38.04,500.1,1800,88,101.8,-15.4,-0.165,1,-0.22,2.74,1,0,0.16,111115,"ambient","Eucalyptus tereticornis_EucFace","EucFace"
5,16,"R3-Tr399","amb",17,"10:40:38",1549.5,0,21,0.312,273,4,1.41,25.41,6,1.42,1,2.84,24.92,25.41,24.1,424.78,397.71,13.442,18.154,43.21,58.36,500,1800,1344,101.7,-2.24,-0.0765,0.7,-0.22,2.74,1,0,0.16,111115,"ambient","Eucalyptus tereticornis_EucFace","EucFace"
5,16,"R3-Tr399","amb",18,"10:44:14",1765,0,-0.659,0.323,47.5,3.98,1.36,25.2,6,1.42,1,2.84,24.32,25.2,23.89,44.33,44.91,13.569,18.256,45.22,60.84,500,1800,1359,101.7,0.491,-0.0379,1,-0.22,2.74,1,0,0.16,111115,"ambient","Eucalyptus tereticornis_EucFace","EucFace"
5,16,"R3-Tr399","amb",19,"10:45:53",1863.5,0,6.11,0.324,110,3.88,1.33,24.94,6,1.42,1,2.84,24.07,24.94,23.69,153.87,145.86,13.529,18.105,45.77,61.25,500,1800,1370,101.7,0.134,-0.029,1,-0.22,2.74,1,0,0.16,111115,"ambient","Eucalyptus tereticornis_EucFace","EucFace"
5,16,"R3-Tr399","amb",20,"10:47:41",1972,0,10.9,0.322,158,3.89,1.33,24.98,6,1.42,1,2.84,24.08,24.98,23.7,235.46,221.33,13.536,18.116,45.77,61.25,500,1801,1377,101.7,-0.168,-0.0309,1,-0.22,2.74,1,0,0.16,111115,"ambient","Eucalyptus tereticornis_EucFace","EucFace"
5,16,"R3-Tr399","amb",21,"10:49:40",2091,0,16,0.323,217,3.88,1.33,24.94,6,1.42,1,2.84,24.07,24.94,23.7,329.98,309.34,13.524,18.097,45.76,61.23,500,1800,1383,101.7,-1.04,-0.0225,1,-0.22,2.74,1,0,0.16,111115,"ambient","Eucalyptus tereticornis_EucFace","EucFace"
5,16,"R3-Tr399","amb",22,"10:51:19",2189.5,0,20.3,0.32,280,3.84,1.33,24.83,6,1.42,1,2.84,24.14,24.83,23.89,424.84,398.6,13.391,17.917,45.09,60.34,500,1800,1386,101.7,-1.76,-0.0306,1,-0.22,2.74,1,0,0.16,111115,"ambient","Eucalyptus tereticornis_EucFace","EucFace"
5,16,"R3-Tr399","amb",23,"10:53:06",2297,0,26.1,0.316,386,3.89,1.36,24.96,6,1.42,1,2.84,24.33,24.96,24.09,574.04,540.22,13.252,17.84,44.13,59.41,500,1798,1404,101.7,-3.55,-0.0246,1,-0.22,2.74,1,0,0.16,111115,"ambient","Eucalyptus tereticornis_EucFace","EucFace"
5,16,"R3-Tr399","amb",24,"10:55:54",2464.5,0,30.4,0.308,961,3.86,1.38,24.9,6,1.42,1,2.84,24.29,24.9,24.09,1198.93,1157.07,12.985,17.531,43.33,58.5,500,1800,1411,101.7,-13,-0.0207,0.7,-0.22,2.74,1,0,0.16,111115,"ambient","Eucalyptus tereticornis_EucFace","EucFace"
5,16,"R3-Tr399","amb",25,"10:57:59",2590,0,30.7,0.293,1240,3.76,1.41,24.88,6,1.42,1,2.84,24.4,24.88,24.28,1500.02,1456.56,12.76,17.198,42.32,57.03,500,1799,1410,101.7,-18.8,-0.015,1,-0.22,2.74,1,0,0.16,111115,"ambient","Eucalyptus tereticornis_EucFace","EucFace"
5,16,"R3-Tr399","amb",27,"11:01:34",2804.5,0,30.7,0.259,1510,3.56,1.49,25.05,6,1.42,1,2.84,24.1,25.05,23.69,1799.82,1755.53,12.533,16.728,42.3,56.46,500,1799,1423,101.7,-24.2,-0.00115,1,-0.22,2.74,1,0,0.16,111115,"ambient","Eucalyptus tereticornis_EucFace","EucFace"
5,17,"R3-Tr399","amb",32,"11:14:26",3577.5,0,17.3,0.172,221,4.27,2.58,31.87,6,1.42,1,2.84,32.93,31.87,32.72,424.82,402.05,16.219,21.236,32.79,42.93,500,1799,1458,101.7,-2.82,-0.166,1,-0.22,2.74,1,0,0.16,111115,"ambient","Eucalyptus tereticornis_EucFace","EucFace"
5,17,"R3-Tr399","amb",34,"11:16:44",3715,0,-1.61,0.17,52.2,3.96,2.42,31.5,6,1.42,1,2.84,33.03,31.5,34.01,36.35,38.1,17.182,21.828,34.53,43.86,500,1800,1458,101.7,0.299,-0.133,1,-0.22,2.74,1,0,0.16,111135,"ambient","Eucalyptus tereticornis_EucFace","EucFace"
5,17,"R3-Tr399","amb",35,"11:18:24",3814.5,0,4.03,0.171,105,3.99,2.43,31.78,6,1.42,1,2.84,33.62,31.78,34.8,155.14,149.58,17.781,22.459,34.57,43.66,500,1799,1466,101.7,-0.145,-0.148,1,-0.22,2.74,1,0,0.16,111115,"ambient","Eucalyptus tereticornis_EucFace","EucFace"
5,17,"R3-Tr399","amb",36,"11:20:11",3922,0,7.85,0.173,141,4.05,2.43,32.03,6,1.42,1,2.84,33.87,32.03,35.02,235.35,224.84,18.355,23.099,35.2,44.3,500,1799,1470,101.7,-0.747,-0.151,1,-0.22,2.74,1,0,0.16,111115,"ambient","Eucalyptus tereticornis_EucFace","EucFace"
5,17,"R3-Tr399","amb",37,"11:22:09",4040,0,12.3,0.172,184,4.03,2.43,32.23,6,1.42,1,2.84,33.72,32.23,34.62,330.22,313.99,18.943,23.663,36.63,45.76,500,1799,1471,101.7,-1.53,-0.143,1,-0.22,2.74,1,0,0.16,111115,"ambient","Eucalyptus tereticornis_EucFace","EucFace"
5,17,"R3-Tr399","amb",38,"11:23:49",4139.5,0,16,0.168,232,3.84,2.37,32.09,6,1.42,1,2.84,33.16,32.09,33.82,424.96,403.9,19.435,23.93,38.77,47.74,500,1800,1473,101.7,-2.43,-0.131,1,-0.22,2.74,1,0,0.16,111115,"ambient","Eucalyptus tereticornis_EucFace","EucFace"
5,17,"R3-Tr399","amb",39,"11:25:34",4245,0,21.7,0.16,302,3.59,2.33,32.03,6,1.42,1,2.84,33.1,32.03,33.85,574.12,545.76,19.957,24.157,39.94,48.35,500,1800,1480,101.7,-4.21,-0.129,1,-0.22,2.74,1,0,0.16,111115,"ambient","Eucalyptus tereticornis_EucFace","EucFace"
5,17,"R3-Tr399","amb",40,"11:28:18",4408.5,0,33.8,0.141,719,3.15,2.3,32.14,6,1.42,1,2.84,33.11,32.14,33.85,1199.62,1154.75,20.996,24.679,41.99,49.36,500,1800,1478,101.7,-13.5,-0.12,1,-0.22,2.74,1,0,0.16,111115,"ambient","Eucalyptus tereticornis_EucFace","EucFace"
5,17,"R3-Tr399","amb",41,"11:30:22",4532.5,0,28.9,0.116,1000,2.6,2.27,32.13,6,1.42,1,2.84,32.71,32.13,33.26,1496.64,1457.47,21.906,24.943,44.81,51.02,500,1800,1481,101.7,-18.9,-0.106,0.3,-0.22,2.74,1,0,0.16,111115,"ambient","Eucalyptus tereticornis_EucFace","EucFace"
5,17,"R3-Tr399","amb",43,"11:34:05",4756,0,34.6,0.083,1020,1.77,2.15,31.83,6,1.42,1,2.84,32.7,31.83,33.46,1798.91,1753.6,23.255,25.328,47.6,51.84,500,1800,449,101.7,-25.1,-0.118,0.7,-0.22,2.74,1,0,0.16,111115,"ambient","Eucalyptus tereticornis_EucFace","EucFace"
5,18,"R3-Tr399","amb",49,"11:49:27",5679,0,12.4,0.193,269,6.52,3.51,37.47,6,1.42,1,2.84,45.81,37.47,49.85,414.95,396.97,21.526,29.127,21.77,29.46,500,1799,415,101.6,-3.58,-0.444,1,-0.22,2.74,1,0,0.16,111115,"ambient","Eucalyptus tereticornis_EucFace","EucFace"
5,18,"R3-Tr399","amb",50,"11:51:38",5808.5,0,-2.44,0.162,60.6,6.22,3.91,38.48,6,1.42,1,2.84,46.19,38.48,49.85,35.89,38.54,21.471,28.715,21.3,28.48,500,1800,684,101.6,0.542,-0.451,1,-0.22,2.74,1,0,0.16,111135,"ambient","Eucalyptus tereticornis_EucFace","EucFace"
5,18,"R3-Tr399","amb",51,"11:53:57",5947.5,0,3.9,0.132,166,5.45,4.18,39.04,6,1.42,1,2.84,46.36,39.04,49.85,235.2,229.02,21.786,28.14,21.42,27.67,500.1,1799,498,101.6,-1.14,-0.396,1,-0.22,2.74,1,0,0.16,111115,"ambient","Eucalyptus tereticornis_EucFace","EucFace"
5,18,"R3-Tr399","amb",52,"11:56:12",6083,0,7.58,0.108,264,4.79,4.45,39.61,6,1.42,1,2.84,46.48,39.61,49.85,415.41,404,22.051,27.639,21.55,27.01,500,1799,1524,101.6,-3.42,-0.355,1,-0.22,2.74,1,0,0.16,111115,"ambient","Eucalyptus tereticornis_EucFace","EucFace"
5,18,"R3-Tr399","amb",53,"11:58:52",6242.5,0,19.9,0.0833,710,3.78,4.52,39.55,6,1.42,1,2.84,45.26,39.55,48.1,1201.21,1171.99,22.367,26.785,23.27,27.87,500.1,1800,1528,101.6,-15.7,-0.259,0.7,-0.22,2.74,1,0,0.16,111125,"ambient","Eucalyptus tereticornis_EucFace","EucFace"
6,19,"R2-Tr202","amb",5,"10:47:07",579.5,0,25.9,0.452,280,5.09,1.3,25.18,6,1.42,1,2.84,27.1,25.18,28.01,424.49,391.01,12.839,18.827,36.34,53.29,500.1,1799,1722,101.9,-2.98,-0.188,1,-0.22,2.74,1,0,0.16,111115,"ambient","Eucalyptus tereticornis_EucFace","EucFace"
6,19,"R2-Tr202","amb",7,"10:52:10",882,0,-1.36,0.427,41.5,5.27,1.41,25.67,6,1.42,1,2.84,27.27,25.67,27.99,35.21,36.61,12.451,18.652,34.9,52.28,500.1,1799,1733,101.9,-0.0816,-0.167,1,-0.22,2.74,1,0,0.16,111135,"ambient","Eucalyptus tereticornis_EucFace","EucFace"
6,19,"R2-Tr202","amb",8,"10:53:50",981.5,0,7.97,0.422,108,5.16,1.4,25.49,6,1.42,1,2.84,27.19,25.49,28,154.88,144.42,12.351,18.433,34.78,51.91,500.1,1800,1730,101.9,-0.685,-0.165,1,-0.22,2.74,1,0,0.16,111115,"ambient","Eucalyptus tereticornis_EucFace","EucFace"
6,19,"R2-Tr202","amb",9,"10:55:40",1092,0,13.8,0.42,154,5.17,1.4,25.4,6,1.42,1,2.84,27.17,25.4,28,235.23,217.29,12.106,18.193,34.13,51.28,500.1,1800,1737,101.9,-1.28,-0.158,1,-0.22,2.74,1,0,0.16,111115,"ambient","Eucalyptus tereticornis_EucFace","EucFace"
6,19,"R2-Tr202","amb",10,"10:57:33",1204.5,0,20.2,0.412,210,5.05,1.4,25.35,6,1.42,1,2.84,27.15,25.35,28,330.25,304.2,12.206,18.16,34.45,51.25,500.1,1800,1734,101.9,-2.04,-0.161,1,-0.22,2.74,1,0,0.16,111115,"ambient","Eucalyptus tereticornis_EucFace","EucFace"
6,19,"R2-Tr202","amb",11,"10:59:18",1309.5,0,25.4,0.404,272,4.96,1.39,25.33,6,1.42,1,2.84,27.14,25.33,28.01,424.78,392,12.283,18.131,34.67,51.18,500,1800,1735,101.9,-3.15,-0.156,1,-0.22,2.74,1,0,0.16,111115,"ambient","Eucalyptus tereticornis_EucFace","EucFace"
6,19,"R2-Tr202","amb",12,"11:01:21",1433,0,31.5,0.388,374,4.97,1.45,25.6,6,1.42,1,2.84,27.23,25.6,28.01,570.15,529.25,12.31,18.165,34.58,51.02,500.1,1798,1737,101.9,-4.74,-0.146,1,-0.22,2.74,1,0,0.16,111115,"ambient","Eucalyptus tereticornis_EucFace","EucFace"
6,19,"R2-Tr202","amb",13,"11:03:46",1577.5,0,37.3,0.371,751,4.88,1.48,25.6,6,1.42,1,2.84,27.22,25.6,28.01,1000.15,949.81,12.096,17.846,34,50.15,500.1,1800,1741,101.9,-11.4,-0.136,1,-0.22,2.74,1,0,0.16,111115,"ambient","Eucalyptus tereticornis_EucFace","EucFace"
6,19,"R2-Tr202","amb",14,"11:05:56",1707.5,0,37.9,0.348,1220,4.78,1.53,25.65,6,1.42,1,2.84,27.24,25.65,28.01,1501.6,1447.82,11.787,17.42,33.09,48.9,500.1,1800,1740,101.9,-21,-0.129,1,-0.22,2.74,1,0,0.16,111115,"ambient","Eucalyptus tereticornis_EucFace","EucFace"
6,19,"R2-Tr202","amb",16,"11:09:32",1923.5,0,38.6,0.307,1480,4.56,1.63,25.75,6,1.42,1,2.84,27.22,25.75,28.01,1801.15,1745.33,11.242,16.617,31.58,46.68,500.1,1799,1753,101.9,-27.2,-0.116,1,-0.22,2.74,1,0,0.16,111115,"ambient","Eucalyptus tereticornis_EucFace","EucFace"
6,20,"R2-Tr202","amb",23,"11:23:59",2792,0,22,0.248,229,6.4,2.77,31.82,6,1.42,1,2.84,35.27,31.82,36.99,424.47,395.09,11.706,19.24,20.8,34.19,500,1801,1747,101.9,-3.02,-0.112,1,-0.22,2.74,1,0,0.16,111115,"ambient","Eucalyptus tereticornis_EucFace","EucFace"
6,20,"R2-Tr202","amb",25,"11:27:32",3004,0,-1.92,0.24,49,6.1,2.71,31.54,6,1.42,1,2.84,35.89,31.54,38.16,35.11,37.14,11.876,19.055,20.38,32.71,500,1801,1744,101.8,-0.0961,-0.222,1,-0.22,2.74,1,0,0.16,111135,"ambient","Eucalyptus tereticornis_EucFace","EucFace"
6,20,"R2-Tr202","amb",26,"11:29:12",3103.5,0,5.99,0.244,98.9,6.29,2.76,31.74,6,1.42,1,2.84,35.97,31.74,38.14,154.73,146.44,11.693,19.103,19.99,32.66,500,1799,1734,101.8,-0.791,-0.221,1,-0.22,2.74,1,0,0.16,111115,"ambient","Eucalyptus tereticornis_EucFace","EucFace"
6,20,"R2-Tr202","amb",27,"11:30:55",3207,0,11.1,0.256,138,6.5,2.72,31.58,6,1.42,1,2.84,36.53,31.58,39.1,235.56,220.54,11.402,19.048,18.89,31.56,500,1799,1739,101.8,-1.44,-0.226,1,-0.22,2.74,1,0,0.16,111115,"ambient","Eucalyptus tereticornis_EucFace","EucFace"
6,20,"R2-Tr202","amb",28,"11:32:35",3306.5,0,17.1,0.256,180,6.56,2.75,31.67,6,1.42,1,2.84,36.6,31.67,39.13,329.18,306.2,11.289,19.007,18.64,31.38,500,1799,1751,101.8,-2.56,-0.231,1,-0.22,2.74,1,0,0.16,111115,"ambient","Eucalyptus tereticornis_EucFace","EucFace"
6,20,"R2-Tr202","amb",29,"11:34:21",3413,0,22.1,0.248,228,6.67,2.88,32.25,6,1.42,1,2.84,36.82,32.25,39.12,425.02,395.37,11.37,19.225,18.54,31.35,500,1800,1754,101.8,-3.46,-0.228,1,-0.22,2.74,1,0,0.16,111115,"ambient","Eucalyptus tereticornis_EucFace","EucFace"
6,20,"R2-Tr202","amb",30,"11:36:26",3537.5,0,29.1,0.247,309,6.75,2.92,32.34,6,1.42,1,2.84,36.87,32.34,39.13,570.38,531.19,11.159,19.099,18.15,31.06,500,1799,1743,101.8,-5.42,-0.215,1,-0.22,2.74,1,0,0.16,111115,"ambient","Eucalyptus tereticornis_EucFace","EucFace"
6,20,"R2-Tr202","amb",31,"11:38:47",3679,0,39.4,0.229,614,6.54,3.03,32.66,6,1.42,1,2.84,36.99,32.66,39.13,1000.48,945.8,11.239,18.934,18.16,30.59,500.1,1799,1732,101.8,-12,-0.198,0.7,-0.22,2.74,1,0,0.16,111115,"ambient","Eucalyptus tereticornis_EucFace","EucFace"
6,20,"R2-Tr202","amb",32,"11:40:54",3805.5,0,42.4,0.207,1030,6.23,3.18,33.12,6,1.42,1,2.84,37.11,33.12,39.13,1501.46,1439.8,11.399,18.739,18.3,30.07,500,1800,1736,101.8,-21.2,-0.185,1,-0.22,2.74,1,0,0.16,111115,"ambient","Eucalyptus tereticornis_EucFace","EucFace"
6,20,"R2-Tr202","amb",34,"11:43:37",3968,0,42.8,0.181,1260,5.42,3.13,32.63,6,1.42,1,2.84,36.24,32.63,38.12,1799.6,1736.96,11.436,17.826,19.26,30.01,500,1801,1734,101.8,-27.4,-0.147,0.7,-0.22,2.74,1,0,0.16,111115,"ambient","Eucalyptus tereticornis_EucFace","EucFace"
6,21,"R2-Tr202","amb",42,"12:03:06",5138,0,-2.08,0.0592,88.6,3.37,5.66,39.04,6,1.42,1,2.84,45.61,39.04,49.07,35.05,37.39,9.615,13.599,9.84,13.92,500.1,1799,1721,101.8,0.557,-0.0949,1,-0.22,2.74,1,0,0.16,111135,"ambient","Eucalyptus tereticornis_EucFace","EucFace"
6,21,"R2-Tr202","amb",43,"12:05:06",5258,0,2.31,0.0484,137,2.62,5.39,38.08,6,1.42,1,2.84,45.23,38.08,49.05,234.62,231.12,9.642,12.749,10.06,13.3,500,1801,1711,101.8,-1.59,-0.0729,1,-0.22,2.74,1,0,0.16,111115,"ambient","Eucalyptus tereticornis_EucFace","EucFace"
6,21,"R2-Tr202","amb",44,"12:06:45",5356.5,0,3.52,0.0414,183,2.24,5.38,37.92,6,1.42,1,2.84,45.19,37.92,49.08,348.68,343.54,9.595,12.255,10.04,12.82,500,1800,1710,101.8,-3.1,-0.064,1,-0.22,2.74,1,0,0.16,111115,"ambient","Eucalyptus tereticornis_EucFace","EucFace"
6,21,"R2-Tr202","amb",45,"12:08:27",5458.5,0,4.42,0.0367,197,2.01,5.43,37.97,6,1.42,1,2.84,45.13,37.97,49,425.44,419.13,9.527,11.913,9.99,12.49,500,1800,1718,101.8,-4.37,-0.0572,1,-0.22,2.74,1,0,0.16,111115,"ambient","Eucalyptus tereticornis_EucFace","EucFace"
6,21,"R2-Tr202","amb",46,"12:10:15",5567,0,11,0.0325,376,1.84,5.61,38.36,6,1.42,1,2.84,45.3,38.36,49.08,1001.51,986.12,9.444,11.626,9.82,12.09,500,1800,1630,101.8,-14.5,-0.0435,1,-0.22,2.74,1,0,0.16,111115,"ambient","Eucalyptus tereticornis_EucFace","EucFace"
6,21,"R2-Tr202","amb",47,"12:13:18",5749.5,0,15,0.0256,721,1.48,5.68,38.45,6,1.42,1,2.84,45.13,38.45,48.79,1801.52,1780.37,9.438,11.188,9.9,11.74,500,1800,1408,101.8,-30.8,-0.032,0.7,-0.22,2.74,1,0,0.16,111115,"ambient","Eucalyptus tereticornis_EucFace","EucFace"
6,21,"R2-Tr202","amb",48,"12:15:43",5895,0,13.9,0.0215,915,1.24,5.69,38.39,6,1.42,1,2.84,44.87,38.39,48.44,2118.81,2098.96,9.483,10.955,10.08,11.64,500,1800,149,101.8,-37.6,-0.0198,0.7,-0.22,2.74,1,0,0.16,111115,"ambient","Eucalyptus tereticornis_EucFace","EucFace"
7,22,"R3-Tr319B","amb",11,"10:32:35",635,0,20.4,0.28,262,3.01,1.16,25.11,6,1.42,1,2.84,24.61,25.11,24.69,419.96,394.11,16.581,20.12,54.03,65.56,500.1,1799,141,101.2,2.99,0.468,1,-0.22,2.74,1,0,0.16,111115,"ambient","Eucalyptus tereticornis_EucFace","EucFace"
7,22,"R3-Tr319B","amb",13,"10:36:00",839.5,0,-0.971,0.283,47,3.13,1.2,25.35,6,1.42,1,2.84,24.49,25.35,24.29,40.86,41.87,16.598,20.273,54.48,66.54,500,1800,175,101.2,1.61,0.419,0.7,-0.22,2.74,1,0,0.16,111135,"ambient","Eucalyptus tereticornis_EucFace","EucFace"
7,22,"R3-Tr319B","amb",14,"10:37:38",937,0,6.29,0.298,108,3.14,1.15,25.11,6,1.42,1,2.84,24.02,25.11,23.71,155.21,147.1,16.587,20.278,56,68.46,500,1800,191,101.2,2.4,0.439,0.7,-0.22,2.74,1,0,0.16,111115,"ambient","Eucalyptus tereticornis_EucFace","EucFace"
7,22,"R3-Tr319B","amb",15,"10:39:23",1042,0,11.9,0.318,151,3.23,1.11,24.96,6,1.42,1,2.84,24.07,24.96,23.91,235.54,220.39,16.539,20.333,55.65,68.41,500,1800,288,101.2,2.66,0.437,0.7,-0.22,2.74,1,0,0.16,111115,"ambient","Eucalyptus tereticornis_EucFace","EucFace"
7,22,"R3-Tr319B","amb",16,"10:40:52",1131.5,0,18.6,0.332,224,3.36,1.11,25.01,6,1.42,1,2.84,24.1,25.01,23.91,350.98,327.32,16.477,20.43,55.33,68.61,500,1801,494,101.2,2.75,0.433,1,-0.22,2.74,1,0,0.16,111115,"ambient","Eucalyptus tereticornis_EucFace","EucFace"
7,22,"R3-Tr319B","amb",17,"10:42:36",1235.5,0,22.4,0.351,274,3.56,1.12,25.17,6,1.42,1,2.84,24.17,25.17,23.91,420.7,392.17,16.476,20.658,55.11,69.09,500,1800,1179,101.2,2.71,0.441,1,-0.22,2.74,1,0,0.16,111115,"ambient","Eucalyptus tereticornis_EucFace","EucFace"
7,22,"R3-Tr319B","amb",18,"10:44:23",1342,0,27.8,0.36,418,3.59,1.11,25.17,6,1.42,1,2.84,23.72,25.17,23.13,599.2,563.44,16.568,20.789,56.94,71.45,500,1799,872,101.2,2.55,0.458,1,-0.22,2.74,1,0,0.16,111115,"ambient","Eucalyptus tereticornis_EucFace","EucFace"
7,22,"R3-Tr319B","amb",19,"10:46:14",1453.5,0,30.7,0.34,785,3.45,1.12,25.23,6,1.42,1,2.84,23.01,25.23,21.91,1000.62,959.86,16.74,20.796,60.05,74.6,500,1800,1260,101.2,1.26,0.493,0.7,-0.22,2.74,1,0,0.16,111115,"ambient","Eucalyptus tereticornis_EucFace","EucFace"
7,22,"R3-Tr319B","amb",20,"10:48:20",1579,0,31.1,0.312,1260,3.2,1.12,25.16,6,1.42,1,2.84,22.68,25.16,21.57,1500.34,1457.46,16.894,20.651,61.8,75.55,500,1800,1318,101.2,-1.25,0.534,1,-0.22,2.74,1,0,0.16,111115,"ambient","Eucalyptus tereticornis_EucFace","EucFace"
7,22,"R3-Tr319B","amb",21,"10:50:40",1719.5,0,31.9,0.298,1540,3.05,1.12,25.12,6,1.42,1,2.84,22.21,25.12,20.77,1799.74,1755.02,17.041,20.628,64.18,77.69,500,1799,1256,101.2,-2.9,0.56,0.7,-0.22,2.74,1,0,0.16,111115,"ambient","Eucalyptus tereticornis_EucFace","EucFace"
7,22,"R3-Tr319B","amb",22,"10:51:22",1761,0,32,0.299,1540,3.04,1.11,25.09,6,1.42,1,2.84,22.18,25.09,20.78,1799.6,1754.83,17.096,20.665,64.49,77.95,500,1800,1301,101.2,-2.39,0.585,1,-0.22,2.74,1,0,0.16,111115,"ambient","Eucalyptus tereticornis_EucFace","EucFace"
7,23,"R3-Tr319B","amb",33,"11:08:32",2792,0,21.7,0.298,261,6.24,2.26,31.98,6,1.42,1,2.84,33.81,31.98,34.83,429.48,400.43,17.558,24.858,33.6,47.57,499.9,1800,1386,101.2,2.19,0.317,1,-0.22,2.74,1,0,0.16,111115,"ambient","Eucalyptus tereticornis_EucFace","EucFace"
7,23,"R3-Tr319B","amb",35,"11:10:46",2925,0,-1.91,0.303,52.3,6.37,2.27,32.05,6,1.42,1,2.84,33.86,32.05,34.82,41.13,43.09,17.455,24.911,33.31,47.54,500,1800,1352,101.2,1.58,0.305,1,-0.22,2.74,1,0,0.16,111135,"ambient","Eucalyptus tereticornis_EucFace","EucFace"
7,23,"R3-Tr319B","amb",36,"11:12:44",3043.5,0,5.45,0.325,113,6.67,2.23,32.01,6,1.42,1,2.84,33.85,32.01,34.81,154.95,147.23,17.4,25.202,33.21,48.1,500,1801,1207,101.2,2.03,0.303,1,-0.22,2.74,1,0,0.16,111115,"ambient","Eucalyptus tereticornis_EucFace","EucFace"
7,23,"R3-Tr319B","amb",37,"11:14:24",3143,0,10.8,0.34,158,6.89,2.21,32.04,6,1.42,1,2.84,33.9,32.04,34.83,235.69,220.94,17.382,25.438,33.1,48.44,500,1800,1457,101.2,2.25,0.303,1,-0.22,2.74,1,0,0.16,111115,"ambient","Eucalyptus tereticornis_EucFace","EucFace"
7,23,"R3-Tr319B","amb",38,"11:15:54",3233.5,0,17.5,0.339,226,6.98,2.25,32.22,6,1.42,1,2.84,33.98,32.22,34.82,350.62,326.86,17.408,25.57,33,48.47,499.9,1801,1470,101.2,2.24,0.307,0.7,-0.22,2.74,1,0,0.16,111115,"ambient","Eucalyptus tereticornis_EucFace","EucFace"
7,23,"R3-Tr319B","amb",39,"11:17:37",3336,0,21,0.321,265,6.63,2.24,32.03,6,1.42,1,2.84,33.76,32.03,34.62,419.94,391.6,17.405,25.162,33.39,48.27,500,1801,994,101.1,2.34,0.316,1,-0.22,2.74,1,0,0.16,111115,"ambient","Eucalyptus tereticornis_EucFace","EucFace"
7,23,"R3-Tr319B","amb",40,"11:19:21",3440.5,0,28.3,0.313,385,6.46,2.23,31.9,6,1.42,1,2.84,33.73,31.9,34.62,598.89,560.53,17.297,24.857,33.25,47.78,500,1801,1509,101.1,1.68,0.316,1,-0.22,2.74,1,0,0.16,111115,"ambient","Eucalyptus tereticornis_EucFace","EucFace"
7,23,"R3-Tr319B","amb",41,"11:21:35",3574,0,35.2,0.283,703,6.29,2.38,32.34,6,1.42,1,2.84,33.85,32.34,34.63,1000.71,951.26,17.203,24.567,32.84,46.9,499.9,1800,1533,101.1,-0.251,0.316,0.3,-0.22,2.74,1,0,0.16,111115,"ambient","Eucalyptus tereticornis_EucFace","EucFace"
7,23,"R3-Tr319B","amb",42,"11:23:58",3717.5,0,38.3,0.25,1130,5.94,2.51,32.7,6,1.42,1,2.84,33.59,32.7,34.05,1500.62,1444.36,17.321,24.272,33.54,47,499.9,1800,1569,101.1,-3.13,0.326,0.7,-0.22,2.74,1,0,0.16,111115,"ambient","Eucalyptus tereticornis_EucFace","EucFace"
7,23,"R3-Tr319B","amb",44,"11:26:24",3863,0,38.5,0.224,1390,5.23,2.45,32.24,6,1.42,1,2.84,33.28,32.24,34.03,1800.01,1742.83,17.499,23.624,34.49,46.56,500,1801,1655,101.1,-5.06,0.353,1,-0.22,2.74,1,0,0.16,111115,"ambient","Eucalyptus tereticornis_EucFace","EucFace"
7,24,"R3-Tr319B","amb",45,"11:50:54",5333.5,0,-2.08,0.255,52.8,9.59,3.95,38.62,6,1.42,1,2.84,42.83,38.62,44.58,39.8,41.82,17.866,29.04,20.98,34.1,500.1,1800,1712,101.1,2.21,0.213,1,-0.22,2.74,1,0,0.16,111135,"ambient","Eucalyptus tereticornis_EucFace","EucFace"
7,24,"R3-Tr319B","amb",46,"11:53:21",5480,0,1.96,0.199,126,8.19,4.24,38.96,6,1.42,1,2.84,42.17,38.96,43.6,155.79,151.95,17.884,27.438,21.73,33.34,500,1801,375,101.1,2.87,0.247,0.3,-0.22,2.74,1,0,0.16,111115,"ambient","Eucalyptus tereticornis_EucFace","EucFace"
7,24,"R3-Tr319B","amb",47,"11:55:22",5601.5,0,4.79,0.143,159,6.2,4.38,38.75,6,1.42,1,2.84,41.5,38.75,42.99,236.28,228.84,17.973,25.229,22.63,31.76,500,1801,1722,101.1,2.87,0.285,1,-0.22,2.74,1,0,0.16,111115,"ambient","Eucalyptus tereticornis_EucFace","EucFace"
7,24,"R3-Tr319B","amb",48,"11:57:21",5720.5,0,8.23,0.107,193,4.77,4.47,38.52,6,1.42,1,2.84,40.94,38.52,42.42,351.37,339.55,17.933,23.517,23.25,30.49,500,1799,1765,101.1,2.74,0.299,0.7,-0.22,2.74,1,0,0.16,111115,"ambient","Eucalyptus tereticornis_EucFace","EucFace"
7,24,"R3-Tr319B","amb",49,"11:58:58",5817,0,9.77,0.0916,208,4.26,4.63,38.77,6,1.42,1,2.84,40.73,38.77,42.04,420.64,406.84,17.864,22.858,23.42,29.97,500,1800,1775,101.1,2.68,0.317,0.7,-0.22,2.74,1,0,0.16,111115,"ambient","Eucalyptus tereticornis_EucFace","EucFace"
7,24,"R3-Tr319B","amb",50,"12:01:25",5964,0,28.8,0.0666,673,3.15,4.67,38.51,6,1.42,1,2.84,39.31,38.51,40.09,1500.44,1460.38,17.769,21.468,25.13,30.36,500,1799,1793,101.1,-1.64,0.362,0.7,-0.22,2.74,1,0,0.16,111115,"ambient","Eucalyptus tereticornis_EucFace","EucFace"
7,25,"R3-Tr319B","amb",52,"12:16:37",6876,0,-1.85,0.115,63.6,6.11,5.3,40.95,6,1.42,1,2.84,47.03,40.95,49.78,39.61,41.53,17.542,24.692,16.57,23.32,500,1800,1954,101,2.2,0.238,0.7,-0.22,2.74,1,0,0.16,111135,"ambient","Eucalyptus tereticornis_EucFace","EucFace"
7,25,"R3-Tr319B","amb",53,"12:18:23",6982.5,0,2.46,0.115,179,6.31,5.48,41.42,6,1.42,1,2.84,47.26,41.42,49.83,237.9,233.17,17.516,24.903,16.36,23.25,500,1800,1987,101,2.72,0.236,0.7,-0.22,2.74,1,0,0.16,111115,"ambient","Eucalyptus tereticornis_EucFace","EucFace"
7,25,"R3-Tr319B","amb",54,"12:19:59",7078.5,0,6.33,0.0924,258,5.28,5.65,41.56,6,1.42,1,2.84,47.27,41.56,49.83,411.85,401.71,17.581,23.768,16.4,22.18,500,1802,1328,101,2.4,0.265,0.7,-0.22,2.74,1,0,0.16,111115,"ambient","Eucalyptus tereticornis_EucFace","EucFace"
7,25,"R3-Tr319B","amb",55,"12:22:58",7257.5,0,18.3,0.0441,694,2.73,6.03,41.71,6,1.42,1,2.84,47.18,41.71,49.77,1501.46,1474.7,17.537,20.743,16.44,19.44,500,1801,721,101,-3.83,0.314,0.3,-0.22,2.74,1,0,0.16,111115,"ambient","Eucalyptus tereticornis_EucFace","EucFace"
7,25,"R3-Tr319B","amb",56,"12:25:57",7436,0,18.8,0.0341,836,2.25,6.38,42.4,6,1.42,1,2.84,47.41,42.4,49.83,1900.32,1872.68,17.532,20.174,16.24,18.69,499.9,1799,1619,101,-7.37,0.312,0.7,-0.22,2.74,1,0,0.16,111115,"ambient","Eucalyptus tereticornis_EucFace","EucFace"
