"Species","Tleaf","Cond","Ci","Photo","Trmmol","VpdL","CO2S","PARi","Leaf","Curve","species","season","DataSet","Tavg_30"
"Pinus densiflora",12.27,0.186,65.3,2.175953079,1.35,0.654,98.79,600,1,1,"Pinus densiflora_HAN_2","spring","HAN_2",11.85
"Pinus densiflora",12.2,0.187,97.4,4.574780059,1.38,0.663,167.04,600,1,1,"Pinus densiflora_HAN_2","spring","HAN_2",11.85
"Pinus densiflora",12.15,0.179,125,6.392961877,1.34,0.676,226.18,599,1,1,"Pinus densiflora_HAN_2","spring","HAN_2",11.85
"Pinus densiflora",12.13,0.185,172,7.272727273,1.42,0.689,284.09,599,1,1,"Pinus densiflora_HAN_2","spring","HAN_2",11.85
"Pinus densiflora",12.09,0.177,208,8.445747801,1.38,0.701,343.84,599,1,1,"Pinus densiflora_HAN_2","spring","HAN_2",11.85
"Pinus densiflora",12.53,0.18,208,8.62170088,1.23,0.612,343.7,600,1,1,"Pinus densiflora_HAN_2","spring","HAN_2",11.85
"Pinus densiflora",12.32,0.183,870,7.507331378,1.32,0.647,995.34,599,1,1,"Pinus densiflora_HAN_2","spring","HAN_2",11.85
"Pinus densiflora",12.35,0.185,1220,10.4398827,1.31,0.637,1392.95,599,1,1,"Pinus densiflora_HAN_2","spring","HAN_2",11.85
"Pinus densiflora",12.37,0.187,1410,11.37829912,1.31,0.626,1591.88,599,1,1,"Pinus densiflora_HAN_2","spring","HAN_2",11.85
"Pinus densiflora",12.48,0.18,1600,11.37829912,1.25,0.625,1790.66,600,1,1,"Pinus densiflora_HAN_2","spring","HAN_2",11.85
"Pinus densiflora",19.49,0.233,70,2.170087977,2.85,1.1,97.7,1099,1,2,"Pinus densiflora_HAN_2","spring","HAN_2",11.85
"Pinus densiflora",19.4,0.231,102,5.126099707,2.83,1.1,166.79,1100,1,2,"Pinus densiflora_HAN_2","spring","HAN_2",11.85
"Pinus densiflora",19.31,0.228,127,7.741935484,2.8,1.1,225.39,1100,1,2,"Pinus densiflora_HAN_2","spring","HAN_2",11.85
"Pinus densiflora",19.16,0.229,157,9.970674487,2.8,1.1,282.62,1099,1,2,"Pinus densiflora_HAN_2","spring","HAN_2",11.85
"Pinus densiflora",18.93,0.228,195,11.49560117,2.76,1.09,341.31,1100,1,2,"Pinus densiflora_HAN_2","spring","HAN_2",11.85
"Pinus densiflora",19.6,0.237,198,11.73020528,2.9,1.1,342.06,1099,1,2,"Pinus densiflora_HAN_2","spring","HAN_2",11.85
"Pinus densiflora",21.16,0.26,222,10.55718475,3.58,1.24,341.83,1100,1,2,"Pinus densiflora_HAN_2","spring","HAN_2",11.85
"Pinus densiflora",19.74,0.235,794,14.8973607,2.9,1.1,988.45,1099,1,2,"Pinus densiflora_HAN_2","spring","HAN_2",11.85
"Pinus densiflora",19.86,0.235,1140,18.8856305,2.9,1.11,1385.57,1100,1,2,"Pinus densiflora_HAN_2","spring","HAN_2",11.85
"Pinus densiflora",19.94,0.233,1300,21.46627566,2.88,1.11,1582.82,1099,1,2,"Pinus densiflora_HAN_2","spring","HAN_2",11.85
"Pinus densiflora",19.99,0.233,1490,21.75953079,2.87,1.1,1782.91,1100,1,2,"Pinus densiflora_HAN_2","spring","HAN_2",11.85
"Pinus densiflora",25.25,0.22,80.2,1.173020528,4.46,1.8,97.98,1099,1,3,"Pinus densiflora_HAN_2","spring","HAN_2",11.85
"Pinus densiflora",25.17,0.227,115,3.847507331,4.57,1.79,166.63,1100,1,3,"Pinus densiflora_HAN_2","spring","HAN_2",11.85
"Pinus densiflora",25.11,0.236,145,6.33431085,4.72,1.78,225.64,1100,1,3,"Pinus densiflora_HAN_2","spring","HAN_2",11.85
"Pinus densiflora",24.95,0.249,175,8.973607038,4.91,1.76,283.03,1099,1,3,"Pinus densiflora_HAN_2","spring","HAN_2",11.85
"Pinus densiflora",25.65,0.188,203,8.914956012,3.98,1.88,343.55,1100,1,3,"Pinus densiflora_HAN_2","spring","HAN_2",11.85
"Pinus densiflora",25.26,0.216,205,9.853372434,4.37,1.8,341.73,1100,1,3,"Pinus densiflora_HAN_2","spring","HAN_2",11.85
"Pinus densiflora",24.76,0.258,212,11.20234604,5,1.73,341.87,1099,1,3,"Pinus densiflora_HAN_2","spring","HAN_2",11.85
"Pinus densiflora",25.38,0.206,630,23.98826979,4.24,1.83,981.51,1099,1,3,"Pinus densiflora_HAN_2","spring","HAN_2",11.85
"Pinus densiflora",25.47,0.202,969,26.86217009,4.2,1.84,1379.03,1100,1,3,"Pinus densiflora_HAN_2","spring","HAN_2",11.85
"Pinus densiflora",25.47,0.198,1140,27.62463343,4.11,1.84,1579,1100,1,3,"Pinus densiflora_HAN_2","spring","HAN_2",11.85
"Pinus densiflora",25.52,0.191,1320,27.80058651,4.01,1.86,1778.38,1099,1,3,"Pinus densiflora_HAN_2","spring","HAN_2",11.85
"Pinus densiflora",21.64,0.151,69.2,1.568389058,1.71,1,98.36,1102,2,4,"Pinus densiflora_HAN_2","summer","HAN_2",11.85
"Pinus densiflora",21.69,0.146,103,3.434650456,1.69,1.03,168.11,1101,2,4,"Pinus densiflora_HAN_2","summer","HAN_2",11.85
"Pinus densiflora",21.69,0.148,139,4.607902736,1.74,1.05,225.37,1101,2,4,"Pinus densiflora_HAN_2","summer","HAN_2",11.85
"Pinus densiflora",21.66,0.145,158,6.686930091,1.74,1.07,285.09,1100,2,4,"Pinus densiflora_HAN_2","summer","HAN_2",11.85
"Pinus densiflora",21.6,0.144,190,8.024316109,1.74,1.08,344.61,1100,2,4,"Pinus densiflora_HAN_2","summer","HAN_2",11.85
"Pinus densiflora",21.57,0.15,865,6.382978723,1.64,0.974,994.83,1101,2,4,"Pinus densiflora_HAN_2","summer","HAN_2",11.85
"Pinus densiflora",21.5,0.152,1190,10.3343465,1.62,0.949,1392.67,1100,2,4,"Pinus densiflora_HAN_2","summer","HAN_2",11.85
"Pinus densiflora",21.5,0.158,1340,13.61702128,1.64,0.929,1590.99,1100,2,4,"Pinus densiflora_HAN_2","summer","HAN_2",11.85
"Pinus densiflora",21.73,0.151,1530,13.06990881,1.61,0.946,1790.54,1101,2,4,"Pinus densiflora_HAN_2","summer","HAN_2",11.85
"Pinus densiflora",25.11,0.178,76.2,1.367781155,2.56,1.28,98.85,1099,2,5,"Pinus densiflora_HAN_2","summer","HAN_2",11.85
"Pinus densiflora",24.99,0.178,107,3.805471125,2.53,1.27,167,1099,2,5,"Pinus densiflora_HAN_2","summer","HAN_2",11.85
"Pinus densiflora",24.86,0.171,141,5.136778116,2.42,1.26,225.3,1101,2,5,"Pinus densiflora_HAN_2","summer","HAN_2",11.85
"Pinus densiflora",24.81,0.171,163,7.477203647,2.42,1.26,284.88,1099,2,5,"Pinus densiflora_HAN_2","summer","HAN_2",11.85
"Pinus densiflora",24.71,0.168,196,8.936170213,2.37,1.25,343.73,1099,2,5,"Pinus densiflora_HAN_2","summer","HAN_2",11.85
"Pinus densiflora",25.24,0.178,803,11.12462006,2.56,1.28,991.75,1100,2,5,"Pinus densiflora_HAN_2","summer","HAN_2",11.85
"Pinus densiflora",25.34,0.174,1130,14.65045593,2.51,1.28,1389.51,1099,2,5,"Pinus densiflora_HAN_2","summer","HAN_2",11.85
"Pinus densiflora",25.38,0.173,1320,15.50151976,2.48,1.27,1587.93,1099,2,5,"Pinus densiflora_HAN_2","summer","HAN_2",11.85
"Pinus densiflora",25.36,0.182,1500,17.14285714,2.56,1.25,1786.92,1100,2,5,"Pinus densiflora_HAN_2","summer","HAN_2",11.85
"Pinus densiflora",29.77,0.186,78,1.179331307,4.22,2,98.19,1100,2,6,"Pinus densiflora_HAN_2","summer","HAN_2",11.85
"Pinus densiflora",29.68,0.19,124,2.711246201,4.33,2.01,167.84,1101,2,6,"Pinus densiflora_HAN_2","summer","HAN_2",11.85
"Pinus densiflora",29.52,0.187,149,4.905775076,4.24,2,226.17,1100,2,6,"Pinus densiflora_HAN_2","summer","HAN_2",11.85
"Pinus densiflora",29.27,0.189,176,7.112462006,4.21,1.97,284.7,1100,2,6,"Pinus densiflora_HAN_2","summer","HAN_2",11.85
"Pinus densiflora",29.01,0.196,207,9.240121581,4.26,1.93,342.83,1099,2,6,"Pinus densiflora_HAN_2","summer","HAN_2",11.85
"Pinus densiflora",29.68,0.196,712,17.81155015,4.26,1.92,986.81,1098,2,6,"Pinus densiflora_HAN_2","summer","HAN_2",11.85
"Pinus densiflora",29.89,0.188,1070,19.14893617,4.15,1.95,1384.41,1099,2,6,"Pinus densiflora_HAN_2","summer","HAN_2",11.85
"Pinus densiflora",29.84,0.194,1270,19.39209726,4.19,1.91,1584.85,1100,2,6,"Pinus densiflora_HAN_2","summer","HAN_2",11.85
"Pinus densiflora",29.79,0.196,1440,21.03343465,4.2,1.9,1784.24,1100,2,6,"Pinus densiflora_HAN_2","summer","HAN_2",11.85
"Pinus densiflora",24.33,0.31,46.2,0.300546448,4.8,1.41,50.3,1099,3,7,"Pinus densiflora_HAN_2","autumn","HAN_2",11.85
"Pinus densiflora",24.65,0.305,74.3,2.131147541,4.81,1.44,97.6,1100,3,7,"Pinus densiflora_HAN_2","autumn","HAN_2",11.85
"Pinus densiflora",24.55,0.3,98.6,4.355191257,4.66,1.42,145.4,1099,3,7,"Pinus densiflora_HAN_2","autumn","HAN_2",11.85
"Pinus densiflora",24.49,0.31,125,6.775956284,4.82,1.42,194.5,1100,3,7,"Pinus densiflora_HAN_2","autumn","HAN_2",11.85
"Pinus densiflora",24.47,0.289,201,12.67759563,4.45,1.4,339.8,1099,3,7,"Pinus densiflora_HAN_2","autumn","HAN_2",11.85
"Pinus densiflora",24.37,0.288,688,25.90163934,4.58,1.44,980.1,1099,3,7,"Pinus densiflora_HAN_2","autumn","HAN_2",11.85
"Pinus densiflora",24.26,0.294,1050,28.90710383,4.55,1.41,1376,1100,3,7,"Pinus densiflora_HAN_2","autumn","HAN_2",11.85
"Pinus densiflora",24.31,0.291,1440,28.79781421,4.69,1.47,1775.9,1099,3,7,"Pinus densiflora_HAN_2","autumn","HAN_2",11.85
"Pinus densiflora",19.35,0.251,42.4,0.595628415,2.39,0.868,50.3,1099,3,8,"Pinus densiflora_HAN_2","autumn","HAN_2",11.85
"Pinus densiflora",19.44,0.272,69.2,2.584699454,2.58,0.866,99.1,1099,3,8,"Pinus densiflora_HAN_2","autumn","HAN_2",11.85
"Pinus densiflora",19.49,0.277,88.2,5.054644809,2.57,0.85,144.9,1099,3,8,"Pinus densiflora_HAN_2","autumn","HAN_2",11.85
"Pinus densiflora",19.46,0.29,116,7.322404372,2.69,0.849,194.8,1101,3,8,"Pinus densiflora_HAN_2","autumn","HAN_2",11.85
"Pinus densiflora",19.69,0.285,192,13.66120219,2.67,0.857,339.9,1100,3,8,"Pinus densiflora_HAN_2","autumn","HAN_2",11.85
"Pinus densiflora",19.44,0.231,706,20.49180328,2.27,0.893,985.3,1100,3,8,"Pinus densiflora_HAN_2","autumn","HAN_2",11.85
"Pinus densiflora",19.44,0.237,1060,24.20765027,2.26,0.87,1380.9,1100,3,8,"Pinus densiflora_HAN_2","autumn","HAN_2",11.85
"Pinus densiflora",19.45,0.24,1440,25.51912568,2.33,0.883,1780.4,1100,3,8,"Pinus densiflora_HAN_2","autumn","HAN_2",11.85
"Pinus densiflora",11.74,0.206,40.9,0.56284153,1.82,0.811,49.7,1100,3,9,"Pinus densiflora_HAN_2","autumn","HAN_2",11.85
"Pinus densiflora",11.74,0.202,59.9,2.486338798,1.8,0.816,97.8,1100,3,9,"Pinus densiflora_HAN_2","autumn","HAN_2",11.85
"Pinus densiflora",12.01,0.197,86,3.907103825,1.83,0.849,146.8,1101,3,9,"Pinus densiflora_HAN_2","autumn","HAN_2",11.85
"Pinus densiflora",12.22,0.193,113,5.25136612,1.84,0.876,196.7,1100,3,9,"Pinus densiflora_HAN_2","autumn","HAN_2",11.85
"Pinus densiflora",12.22,0.193,193,9.398907104,1.87,0.883,342,1101,3,9,"Pinus densiflora_HAN_2","autumn","HAN_2",11.85
"Pinus densiflora",11.86,0.205,802,12.07650273,1.81,0.811,990.7,1100,3,9,"Pinus densiflora_HAN_2","autumn","HAN_2",11.85
"Pinus densiflora",11.92,0.207,1140,15.90163934,1.83,0.807,1388.7,1100,3,9,"Pinus densiflora_HAN_2","autumn","HAN_2",11.85
"Pinus densiflora",12.02,0.208,1510,17.43169399,1.83,0.806,1785.7,1100,3,9,"Pinus densiflora_HAN_2","autumn","HAN_2",11.85
"Pinus densiflora",15.46,0.222,42.6,0.419125683,2.27,0.934,49,1101,3,10,"Pinus densiflora_HAN_2","autumn","HAN_2",11.85
"Pinus densiflora",15.6,0.222,66.6,2.284153005,2.3,0.946,98.7,1101,3,10,"Pinus densiflora_HAN_2","autumn","HAN_2",11.85
"Pinus densiflora",15.58,0.22,91,3.87431694,2.26,0.941,145.7,1101,3,10,"Pinus densiflora_HAN_2","autumn","HAN_2",11.85
"Pinus densiflora",15.6,0.219,118,5.459016393,2.25,0.942,195.8,1101,3,10,"Pinus densiflora_HAN_2","autumn","HAN_2",11.85
"Pinus densiflora",15.67,0.216,199,10.05464481,2.25,0.951,342.4,1099,3,10,"Pinus densiflora_HAN_2","autumn","HAN_2",11.85
"Pinus densiflora",15.95,0.224,208,9.672131148,2.47,1,342.5,1100,3,10,"Pinus densiflora_HAN_2","autumn","HAN_2",11.85
"Pinus densiflora",15.4,0.222,790,13.71584699,2.27,0.935,989.4,1100,3,10,"Pinus densiflora_HAN_2","autumn","HAN_2",11.85
"Pinus densiflora",15.35,0.227,1110,19.12568306,2.32,0.933,1385,1100,3,10,"Pinus densiflora_HAN_2","autumn","HAN_2",11.85
"Pinus densiflora",15.58,0.227,1480,21.14754098,2.39,0.962,1783.2,1099,3,10,"Pinus densiflora_HAN_2","autumn","HAN_2",11.85
