fname,season
A184BBL4.csv,rainy
AR4BBL4A and AR4BBL4B and ARV4BBL4.csv,rainy
arv 186/ arv 186 c/ a186bbl4c.csv,rainy
ARV1.csv,rainy
arv110 ut3 A-Ci-T edgard.csv,dry
arv113 louro aritu ut3 23-11-01 23m.csv,dry
arv114 caqui bravo ut3 18m.csv,dry
arv170 taxi verm ut4 27-11-01 19m.csv,dry
arv2 quaruba ut1 21-11-01 27m.csv,dry
arv25 22-11-01.csv,dry
ARV2B4.csv,rainy
ARV3BBL4.csv,rainy
ARV4ACI calcs w negative conductance at 28C.csv,dry
arv579 Licania micheli ut1 21-11-01 23m.csv,dry
ARV5BBL4.csv,rainy
ARV6BBL4.csv,rainy
ARV7BBL4.csv,rainy
ARV8BBL4.csv,rainy
AV1B4.csv,rainy
avr76 muiratinga ut3 24-11-01 23m.csv,dry
castanha LBA83 A-Ci-T edgard.csv,dry
cipo3 P11-11.csv,dry
Crysophillum LBA83 A-Ci-T edgard1.csv,dry
Manaus LBA tower km14 cipo01 07jun2001 A-Ci-T.csv,rainy
Manaus LBA tower km14 cipo02 18aug2001 A-Ci-T.csv,dry
Manaus LBA tower km14 cipo03 18aug2001 A-Ci-T.csv,dry
Manaus LBA tower km14 tree01 07jun2001 A-Ci-T.csv,rainy
Manaus LBA tower km14 tree02 07jun2001 A-Ci-T.csv,rainy
Manaus LBA tower km14 tree03 07jun2001 A-Ci-T.csv,rainy
Manaus LBA tower km14 tree04 18aug2001 A-Ci-T.csv,dry
Manaus LBA tower km14 tree07 07jun2001 A-Ci-T.csv,rainy
Manaus LBA tower km34 tree01 14aug2001 A-Ci-T.csv,dry
Manaus LBA tower km34 tree01 16may2001 A-Ci-T.csv,rainy
Manaus LBA tower km34 tree02 14aug2001 A-Ci-T.csv,dry
Manaus LBA tower km34 tree02 16may2001 A-Ci-T.csv,rainy
Manaus LBA tower km34 tree05 15aug2001 A-Ci-T.csv,dry
papa terra Arv52 UT2 A-Ci-T edgard.csv,dry
taxi preto arv27 ut1 27m1.csv,dry
Torre NS abiurana abiu 567 A-Ci-T edgard.csv,dry
Torre N-S Abiurana olho de viado A-Ci-T edgard.csv,dry
Torre N-S Angelim A-Ci-T edgard.csv,rainy
Torre NS Pajurazinho A-Ci-T edgard.csv,rainy
Torre NS RB A-Ci-T edgard.csv,rainy
,
,
,
,
,
,
,
,
,
,
,
,
,
,
,
,
,
,
,
,
,
,
,
,
,
,
,
,
,
,
,
,
,
,
,
,
,
,
,
,
,
,
,
,
,
,
,
,
,
,
,
,
,
,
,
,
,
,
,
,
,
,
,
,
,
,
,
,
,
,
,
,
,
,
,
,
,
,
,
,
,
,
,
,
,
,
,
,
,
,
,
,
,
,
,
,
,
,
,
,
,
,
,
,
,
,
,
,
,
,
,
,
,
,
,
,
,
,
,
,
,
,
,
,
,
,
,
,
,
,
,
,
,
,
,
,
,
,
,
,
,
,
,
,
,
,
,
,
,
,
,
,
,
,
,
,
,
,
,
,
,
,
,
,
,
,
,
,
,
,
,
,
,
,
,
,
,
,
,
,
,
,
,
,
,
,
,
,
,
,
,
,
,
,
,
,
,
,
,
,
,
,
,
,
,
,
,
,
,
,
,
,
,
,
,
,
,
,
,
,
,
,
,
,
,
,
,
,
,
,
,
,
,
,
,
,
,
,
,
,
,
,
,
,
,
,
,
,
,
,
,
,
,
,
,
,
,
,
,
,
,
,
,
,
,
,
,
,
,
,
,
,
,
,
,
,
,
,
,
,
,
,
,
,
,
,
,
,
,
,
,
,
,
,
,
,
,
,
,
,
,
,
,
,
,
,
,
,
