time,latitude[unit="degrees_north"],longitude[unit="degrees_east"],air_temperature[unit="C"]
1970-01-01T00:00:00Z,-30.4335,152.0421,12.167067527770996
1970-02-01T00:00:00Z,-30.4335,152.0421,12.363972663879395
1970-03-01T00:00:00Z,-30.4335,152.0421,9.80528450012207
1970-04-01T00:00:00Z,-30.4335,152.0421,7.331296920776367
1970-05-01T00:00:00Z,-30.4335,152.0421,1.630574345588684
1970-06-01T00:00:00Z,-30.4335,152.0421,0.8799256086349487
1970-07-01T00:00:00Z,-30.4335,152.0421,-2.718655586242676
1970-08-01T00:00:00Z,-30.4335,152.0421,-0.3011133670806885
1970-09-01T00:00:00Z,-30.4335,152.0421,3.0450587272644043
1970-10-01T00:00:00Z,-30.4335,152.0421,7.076045036315918
1970-11-01T00:00:00Z,-30.4335,152.0421,9.167766571044922
1970-12-01T00:00:00Z,-30.4335,152.0421,12.363847732543945
1971-01-01T00:00:00Z,-30.4335,152.0421,12.396709442138672
1971-02-01T00:00:00Z,-30.4335,152.0421,13.82992935180664
1971-03-01T00:00:00Z,-30.4335,152.0421,10.886811256408691
1971-04-01T00:00:00Z,-30.4335,152.0421,6.096651554107666
1971-05-01T00:00:00Z,-30.4335,152.0421,2.457906484603882
1971-06-01T00:00:00Z,-30.4335,152.0421,0.3599879741668701
1971-07-01T00:00:00Z,-30.4335,152.0421,-0.6077855229377747
1971-08-01T00:00:00Z,-30.4335,152.0421,2.008894681930542
1971-09-01T00:00:00Z,-30.4335,152.0421,4.293844699859619
1971-10-01T00:00:00Z,-30.4335,152.0421,6.2034735679626465
1971-11-01T00:00:00Z,-30.4335,152.0421,7.304110527038574
1971-12-01T00:00:00Z,-30.4335,152.0421,11.16031265258789
1972-01-01T00:00:00Z,-30.4335,152.0421,11.308926582336426
1972-02-01T00:00:00Z,-30.4335,152.0421,11.543900489807129
1972-03-01T00:00:00Z,-30.4335,152.0421,9.97999095916748
1972-04-01T00:00:00Z,-30.4335,152.0421,5.814875602722168
1972-05-01T00:00:00Z,-30.4335,152.0421,5.421812057495117
1972-06-01T00:00:00Z,-30.4335,152.0421,1.8065651655197144
1972-07-01T00:00:00Z,-30.4335,152.0421,-1.3965693712234497
1972-08-01T00:00:00Z,-30.4335,152.0421,1.9028494358062744
1972-09-01T00:00:00Z,-30.4335,152.0421,4.137087821960449
1972-10-01T00:00:00Z,-30.4335,152.0421,7.430408954620361
1972-11-01T00:00:00Z,-30.4335,152.0421,9.514046669006348
1972-12-01T00:00:00Z,-30.4335,152.0421,11.682161331176758
1973-01-01T00:00:00Z,-30.4335,152.0421,14.239214897155762
1973-02-01T00:00:00Z,-30.4335,152.0421,14.26803970336914
1973-03-01T00:00:00Z,-30.4335,152.0421,11.529706001281738
1973-04-01T00:00:00Z,-30.4335,152.0421,8.224541664123535
1973-05-01T00:00:00Z,-30.4335,152.0421,3.8404507637023926
1973-06-01T00:00:00Z,-30.4335,152.0421,3.3035426139831543
1973-07-01T00:00:00Z,-30.4335,152.0421,4.750438213348389
1973-08-01T00:00:00Z,-30.4335,152.0421,3.1492276191711426
1973-09-01T00:00:00Z,-30.4335,152.0421,5.479976654052734
1973-10-01T00:00:00Z,-30.4335,152.0421,8.72808837890625
1973-11-01T00:00:00Z,-30.4335,152.0421,9.918828010559082
1973-12-01T00:00:00Z,-30.4335,152.0421,12.310773849487305
1974-01-01T00:00:00Z,-30.4335,152.0421,13.788345336914062
1974-02-01T00:00:00Z,-30.4335,152.0421,12.32158088684082
1974-03-01T00:00:00Z,-30.4335,152.0421,11.50834846496582
1974-04-01T00:00:00Z,-30.4335,152.0421,9.968622207641602
1974-05-01T00:00:00Z,-30.4335,152.0421,5.227229595184326
1974-06-01T00:00:00Z,-30.4335,152.0421,2.0280606746673584
1974-07-01T00:00:00Z,-30.4335,152.0421,0.8808155655860901
1974-08-01T00:00:00Z,-30.4335,152.0421,0.99853515625
1974-09-01T00:00:00Z,-30.4335,152.0421,2.3989527225494385
1974-10-01T00:00:00Z,-30.4335,152.0421,6.517331600189209
1974-11-01T00:00:00Z,-30.4335,152.0421,7.749448776245117
1974-12-01T00:00:00Z,-30.4335,152.0421,10.515999794006348
1975-01-01T00:00:00Z,-30.4335,152.0421,12.114731788635254
1975-02-01T00:00:00Z,-30.4335,152.0421,12.283519744873047
1975-03-01T00:00:00Z,-30.4335,152.0421,11.238118171691895
1975-04-01T00:00:00Z,-30.4335,152.0421,6.8315324783325195
1975-05-01T00:00:00Z,-30.4335,152.0421,2.6557586193084717
1975-06-01T00:00:00Z,-30.4335,152.0421,1.8760250806808472
1975-07-01T00:00:00Z,-30.4335,152.0421,1.0299073457717896
1975-08-01T00:00:00Z,-30.4335,152.0421,2.6273272037506104
1975-09-01T00:00:00Z,-30.4335,152.0421,5.886166572570801
1975-10-01T00:00:00Z,-30.4335,152.0421,7.148313522338867
1975-11-01T00:00:00Z,-30.4335,152.0421,10.035263061523438
1975-12-01T00:00:00Z,-30.4335,152.0421,12.400991439819336
1976-01-01T00:00:00Z,-30.4335,152.0421,12.892038345336914
1976-02-01T00:00:00Z,-30.4335,152.0421,13.203882217407227
1976-03-01T00:00:00Z,-30.4335,152.0421,12.207558631896973
1976-04-01T00:00:00Z,-30.4335,152.0421,7.245863437652588
1976-05-01T00:00:00Z,-30.4335,152.0421,4.7374067306518555
1976-06-01T00:00:00Z,-30.4335,152.0421,2.7870795726776123
1976-07-01T00:00:00Z,-30.4335,152.0421,1.9530353546142578
1976-08-01T00:00:00Z,-30.4335,152.0421,0.8998298048973083
1976-09-01T00:00:00Z,-30.4335,152.0421,2.865600824356079
1976-10-01T00:00:00Z,-30.4335,152.0421,6.52398157119751
1976-11-01T00:00:00Z,-30.4335,152.0421,8.976722717285156
1976-12-01T00:00:00Z,-30.4335,152.0421,11.43701171875
1977-01-01T00:00:00Z,-30.4335,152.0421,12.21784782409668
1977-02-01T00:00:00Z,-30.4335,152.0421,13.404385566711426
1977-03-01T00:00:00Z,-30.4335,152.0421,12.437911987304688
1977-04-01T00:00:00Z,-30.4335,152.0421,8.053315162658691
1977-05-01T00:00:00Z,-30.4335,152.0421,5.41688346862793
1977-06-01T00:00:00Z,-30.4335,152.0421,2.060591697692871
1977-07-01T00:00:00Z,-30.4335,152.0421,0.13012820482254028
1977-08-01T00:00:00Z,-30.4335,152.0421,0.9845156073570251
1977-09-01T00:00:00Z,-30.4335,152.0421,3.857064962387085
1977-10-01T00:00:00Z,-30.4335,152.0421,7.436621189117432
1977-11-01T00:00:00Z,-30.4335,152.0421,10.659879684448242
1977-12-01T00:00:00Z,-30.4335,152.0421,11.925813674926758
1978-01-01T00:00:00Z,-30.4335,152.0421,14.452699661254883
1978-02-01T00:00:00Z,-30.4335,152.0421,12.800029754638672
1978-03-01T00:00:00Z,-30.4335,152.0421,11.873334884643555
1978-04-01T00:00:00Z,-30.4335,152.0421,6.989330291748047
1978-05-01T00:00:00Z,-30.4335,152.0421,5.184553623199463
1978-06-01T00:00:00Z,-30.4335,152.0421,3.152905225753784
1978-07-01T00:00:00Z,-30.4335,152.0421,0.7970067262649536
1978-08-01T00:00:00Z,-30.4335,152.0421,1.6922277212142944
1978-09-01T00:00:00Z,-30.4335,152.0421,4.778269290924072
1978-10-01T00:00:00Z,-30.4335,152.0421,6.382022857666016
1978-11-01T00:00:00Z,-30.4335,152.0421,9.225909233093262
1978-12-01T00:00:00Z,-30.4335,152.0421,10.892428398132324
1979-01-01T00:00:00Z,-30.4335,152.0421,13.878446578979492
1979-02-01T00:00:00Z,-30.4335,152.0421,12.685855865478516
1979-03-01T00:00:00Z,-30.4335,152.0421,11.009193420410156
1979-04-01T00:00:00Z,-30.4335,152.0421,8.80064582824707
1979-05-01T00:00:00Z,-30.4335,152.0421,3.882312297821045
1979-06-01T00:00:00Z,-30.4335,152.0421,3.3475749492645264
1979-07-01T00:00:00Z,-30.4335,152.0421,0.20580920577049255
1979-08-01T00:00:00Z,-30.4335,152.0421,1.2453176975250244
1979-09-01T00:00:00Z,-30.4335,152.0421,4.458303451538086
1979-10-01T00:00:00Z,-30.4335,152.0421,7.064690589904785
1979-11-01T00:00:00Z,-30.4335,152.0421,10.706402778625488
1979-12-01T00:00:00Z,-30.4335,152.0421,12.918667793273926
1980-01-01T00:00:00Z,-30.4335,152.0421,13.180658340454102
1980-02-01T00:00:00Z,-30.4335,152.0421,13.422481536865234
1980-03-01T00:00:00Z,-30.4335,152.0421,10.931233406066895
1980-04-01T00:00:00Z,-30.4335,152.0421,7.770218849182129
1980-05-01T00:00:00Z,-30.4335,152.0421,6.617176532745361
1980-06-01T00:00:00Z,-30.4335,152.0421,2.569952964782715
1980-07-01T00:00:00Z,-30.4335,152.0421,0.9738422632217407
1980-08-01T00:00:00Z,-30.4335,152.0421,1.8576866388320923
1980-09-01T00:00:00Z,-30.4335,152.0421,3.6525750160217285
1980-10-01T00:00:00Z,-30.4335,152.0421,9.178380012512207
1980-11-01T00:00:00Z,-30.4335,152.0421,10.351153373718262
1980-12-01T00:00:00Z,-30.4335,152.0421,11.738015174865723
1981-01-01T00:00:00Z,-30.4335,152.0421,13.771279335021973
1981-02-01T00:00:00Z,-30.4335,152.0421,15.353116989135742
1981-03-01T00:00:00Z,-30.4335,152.0421,10.956857681274414
1981-04-01T00:00:00Z,-30.4335,152.0421,8.468027114868164
1981-05-01T00:00:00Z,-30.4335,152.0421,5.482958793640137
1981-06-01T00:00:00Z,-30.4335,152.0421,2.880847454071045
1981-07-01T00:00:00Z,-30.4335,152.0421,2.0914502143859863
1981-08-01T00:00:00Z,-30.4335,152.0421,2.0259571075439453
1981-09-01T00:00:00Z,-30.4335,152.0421,4.869612216949463
1981-10-01T00:00:00Z,-30.4335,152.0421,6.977997779846191
1981-11-01T00:00:00Z,-30.4335,152.0421,8.88758659362793
1981-12-01T00:00:00Z,-30.4335,152.0421,12.354930877685547
1982-01-01T00:00:00Z,-30.4335,152.0421,14.139486312866211
1982-02-01T00:00:00Z,-30.4335,152.0421,12.853227615356445
1982-03-01T00:00:00Z,-30.4335,152.0421,12.451455116271973
1982-04-01T00:00:00Z,-30.4335,152.0421,7.699187755584717
1982-05-01T00:00:00Z,-30.4335,152.0421,3.13667631149292
1982-06-01T00:00:00Z,-30.4335,152.0421,0.120411217212677
1982-07-01T00:00:00Z,-30.4335,152.0421,-0.6990388035774231
1982-08-01T00:00:00Z,-30.4335,152.0421,2.392390251159668
1982-09-01T00:00:00Z,-30.4335,152.0421,4.017564296722412
1982-10-01T00:00:00Z,-30.4335,152.0421,6.350080966949463
1982-11-01T00:00:00Z,-30.4335,152.0421,9.768475532531738
1982-12-01T00:00:00Z,-30.4335,152.0421,12.276968955993652
1983-01-01T00:00:00Z,-30.4335,152.0421,12.65202808380127
1983-02-01T00:00:00Z,-30.4335,152.0421,13.332032203674316
1983-03-01T00:00:00Z,-30.4335,152.0421,12.109763145446777
1983-04-01T00:00:00Z,-30.4335,152.0421,8.659324645996094
1983-05-01T00:00:00Z,-30.4335,152.0421,7.713383197784424
1983-06-01T00:00:00Z,-30.4335,152.0421,2.7828688621520996
1983-07-01T00:00:00Z,-30.4335,152.0421,2.4453508853912354
1983-08-01T00:00:00Z,-30.4335,152.0421,2.955446481704712
1983-09-01T00:00:00Z,-30.4335,152.0421,6.429574012756348
1983-10-01T00:00:00Z,-30.4335,152.0421,8.469473838806152
1983-11-01T00:00:00Z,-30.4335,152.0421,9.500300407409668
1983-12-01T00:00:00Z,-30.4335,152.0421,10.992267608642578
1984-01-01T00:00:00Z,-30.4335,152.0421,12.627439498901367
1984-02-01T00:00:00Z,-30.4335,152.0421,12.753215789794922
1984-03-01T00:00:00Z,-30.4335,152.0421,10.237257957458496
1984-04-01T00:00:00Z,-30.4335,152.0421,7.8012285232543945
1984-05-01T00:00:00Z,-30.4335,152.0421,3.284766435623169
1984-06-01T00:00:00Z,-30.4335,152.0421,3.2038049697875977
1984-07-01T00:00:00Z,-30.4335,152.0421,2.6446568965911865
1984-08-01T00:00:00Z,-30.4335,152.0421,1.8113574981689453
1984-09-01T00:00:00Z,-30.4335,152.0421,2.690747022628784
1984-10-01T00:00:00Z,-30.4335,152.0421,6.75694465637207
1984-11-01T00:00:00Z,-30.4335,152.0421,9.698200225830078
1984-12-01T00:00:00Z,-30.4335,152.0421,10.47651481628418
1985-01-01T00:00:00Z,-30.4335,152.0421,11.727128982543945
1985-02-01T00:00:00Z,-30.4335,152.0421,11.972460746765137
1985-03-01T00:00:00Z,-30.4335,152.0421,11.502324104309082
1985-04-01T00:00:00Z,-30.4335,152.0421,7.794386386871338
1985-05-01T00:00:00Z,-30.4335,152.0421,5.803455829620361
1985-06-01T00:00:00Z,-30.4335,152.0421,1.092466115951538
1985-07-01T00:00:00Z,-30.4335,152.0421,0.9911719560623169
1985-08-01T00:00:00Z,-30.4335,152.0421,2.092522382736206
1985-09-01T00:00:00Z,-30.4335,152.0421,3.6780741214752197
1985-10-01T00:00:00Z,-30.4335,152.0421,6.831442356109619
1985-11-01T00:00:00Z,-30.4335,152.0421,9.623620986938477
1985-12-01T00:00:00Z,-30.4335,152.0421,11.44395637512207
1986-01-01T00:00:00Z,-30.4335,152.0421,11.278467178344727
1986-02-01T00:00:00Z,-30.4335,152.0421,12.135828018188477
1986-03-01T00:00:00Z,-30.4335,152.0421,10.745102882385254
1986-04-01T00:00:00Z,-30.4335,152.0421,7.9143452644348145
1986-05-01T00:00:00Z,-30.4335,152.0421,6.197227478027344
1986-06-01T00:00:00Z,-30.4335,152.0421,1.1407520771026611
1986-07-01T00:00:00Z,-30.4335,152.0421,2.117621660232544
1986-08-01T00:00:00Z,-30.4335,152.0421,1.5912100076675415
1986-09-01T00:00:00Z,-30.4335,152.0421,4.825948238372803
1986-10-01T00:00:00Z,-30.4335,152.0421,6.158535480499268
1986-11-01T00:00:00Z,-30.4335,152.0421,8.982193946838379
1986-12-01T00:00:00Z,-30.4335,152.0421,10.149831771850586
1987-01-01T00:00:00Z,-30.4335,152.0421,14.439600944519043
1987-02-01T00:00:00Z,-30.4335,152.0421,13.681072235107422
1987-03-01T00:00:00Z,-30.4335,152.0421,10.637930870056152
1987-04-01T00:00:00Z,-30.4335,152.0421,8.24716854095459
1987-05-01T00:00:00Z,-30.4335,152.0421,5.854948043823242
1987-06-01T00:00:00Z,-30.4335,152.0421,3.9905905723571777
1987-07-01T00:00:00Z,-30.4335,152.0421,0.449749618768692
1987-08-01T00:00:00Z,-30.4335,152.0421,4.685497760772705
1987-09-01T00:00:00Z,-30.4335,152.0421,3.5862958431243896
1987-10-01T00:00:00Z,-30.4335,152.0421,6.8174309730529785
1987-11-01T00:00:00Z,-30.4335,152.0421,8.900202751159668
1987-12-01T00:00:00Z,-30.4335,152.0421,11.79676628112793
1988-01-01T00:00:00Z,-30.4335,152.0421,13.14594554901123
1988-02-01T00:00:00Z,-30.4335,152.0421,10.92745590209961
1988-03-01T00:00:00Z,-30.4335,152.0421,9.470623970031738
1988-04-01T00:00:00Z,-30.4335,152.0421,9.831591606140137
1988-05-01T00:00:00Z,-30.4335,152.0421,6.0178141593933105
1988-06-01T00:00:00Z,-30.4335,152.0421,2.5448052883148193
1988-07-01T00:00:00Z,-30.4335,152.0421,3.1833181381225586
1988-08-01T00:00:00Z,-30.4335,152.0421,2.839850664138794
1988-09-01T00:00:00Z,-30.4335,152.0421,6.31593132019043
1988-10-01T00:00:00Z,-30.4335,152.0421,8.583000183105469
1988-11-01T00:00:00Z,-30.4335,152.0421,9.00146770477295
1988-12-01T00:00:00Z,-30.4335,152.0421,13.186063766479492
1989-01-01T00:00:00Z,-30.4335,152.0421,11.533551216125488
1989-02-01T00:00:00Z,-30.4335,152.0421,11.703222274780273
1989-03-01T00:00:00Z,-30.4335,152.0421,12.550731658935547
1989-04-01T00:00:00Z,-30.4335,152.0421,10.599390983581543
1989-05-01T00:00:00Z,-30.4335,152.0421,8.065230369567871
1989-06-01T00:00:00Z,-30.4335,152.0421,3.3684253692626953
1989-07-01T00:00:00Z,-30.4335,152.0421,1.807752013206482
1989-08-01T00:00:00Z,-30.4335,152.0421,0.5106547474861145
1989-09-01T00:00:00Z,-30.4335,152.0421,2.9774067401885986
1989-10-01T00:00:00Z,-30.4335,152.0421,6.961071491241455
1989-11-01T00:00:00Z,-30.4335,152.0421,9.55643081665039
1989-12-01T00:00:00Z,-30.4335,152.0421,11.279648780822754
1990-01-01T00:00:00Z,-30.4335,152.0421,13.309433937072754
1990-02-01T00:00:00Z,-30.4335,152.0421,13.036423683166504
1990-03-01T00:00:00Z,-30.4335,152.0421,11.206665992736816
1990-04-01T00:00:00Z,-30.4335,152.0421,10.629427909851074
1990-05-01T00:00:00Z,-30.4335,152.0421,6.1296539306640625
1990-06-01T00:00:00Z,-30.4335,152.0421,2.4464166164398193
1990-07-01T00:00:00Z,-30.4335,152.0421,1.9108836650848389
1990-08-01T00:00:00Z,-30.4335,152.0421,1.8965177536010742
1990-09-01T00:00:00Z,-30.4335,152.0421,4.328808307647705
1990-10-01T00:00:00Z,-30.4335,152.0421,6.917694091796875
1990-11-01T00:00:00Z,-30.4335,152.0421,9.418814659118652
1990-12-01T00:00:00Z,-30.4335,152.0421,13.528717994689941
1991-01-01T00:00:00Z,-30.4335,152.0421,14.072190284729004
1991-02-01T00:00:00Z,-30.4335,152.0421,13.608111381530762
1991-03-01T00:00:00Z,-30.4335,152.0421,10.165188789367676
1991-04-01T00:00:00Z,-30.4335,152.0421,6.63068962097168
1991-05-01T00:00:00Z,-30.4335,152.0421,6.798248291015625
1991-06-01T00:00:00Z,-30.4335,152.0421,4.351653575897217
1991-07-01T00:00:00Z,-30.4335,152.0421,0.8133617639541626
1991-08-01T00:00:00Z,-30.4335,152.0421,1.1663415431976318
1991-09-01T00:00:00Z,-30.4335,152.0421,3.270040512084961
1991-10-01T00:00:00Z,-30.4335,152.0421,7.878795146942139
1991-11-01T00:00:00Z,-30.4335,152.0421,9.833361625671387
1991-12-01T00:00:00Z,-30.4335,152.0421,10.992487907409668
1992-01-01T00:00:00Z,-30.4335,152.0421,13.036884307861328
1992-02-01T00:00:00Z,-30.4335,152.0421,13.905644416809082
1992-03-01T00:00:00Z,-30.4335,152.0421,11.171297073364258
1992-04-01T00:00:00Z,-30.4335,152.0421,8.93059253692627
1992-05-01T00:00:00Z,-30.4335,152.0421,6.1189656257629395
1992-06-01T00:00:00Z,-30.4335,152.0421,1.4605751037597656
1992-07-01T00:00:00Z,-30.4335,152.0421,0.7993252277374268
1992-08-01T00:00:00Z,-30.4335,152.0421,1.6524910926818848
1992-09-01T00:00:00Z,-30.4335,152.0421,3.395307779312134
1992-10-01T00:00:00Z,-30.4335,152.0421,6.374387264251709
1992-11-01T00:00:00Z,-30.4335,152.0421,8.337601661682129
1992-12-01T00:00:00Z,-30.4335,152.0421,10.975521087646484
1993-01-01T00:00:00Z,-30.4335,152.0421,14.320143699645996
1993-02-01T00:00:00Z,-30.4335,152.0421,12.689946174621582
1993-03-01T00:00:00Z,-30.4335,152.0421,10.188395500183105
1993-04-01T00:00:00Z,-30.4335,152.0421,7.662705898284912
1993-05-01T00:00:00Z,-30.4335,152.0421,5.309966564178467
1993-06-01T00:00:00Z,-30.4335,152.0421,1.5331671237945557
1993-07-01T00:00:00Z,-30.4335,152.0421,4.759128093719482
1993-08-01T00:00:00Z,-30.4335,152.0421,2.523831844329834
1993-09-01T00:00:00Z,-30.4335,152.0421,4.337525367736816
1993-10-01T00:00:00Z,-30.4335,152.0421,7.248178958892822
1993-11-01T00:00:00Z,-30.4335,152.0421,9.52283763885498
1993-12-01T00:00:00Z,-30.4335,152.0421,11.135342597961426
1994-01-01T00:00:00Z,-30.4335,152.0421,13.295534133911133
1994-02-01T00:00:00Z,-30.4335,152.0421,12.713286399841309
1994-03-01T00:00:00Z,-30.4335,152.0421,9.735084533691406
1994-04-01T00:00:00Z,-30.4335,152.0421,7.257233142852783
1994-05-01T00:00:00Z,-30.4335,152.0421,2.850268840789795
1994-06-01T00:00:00Z,-30.4335,152.0421,1.599619746208191
1994-07-01T00:00:00Z,-30.4335,152.0421,-0.10480120778083801
1994-08-01T00:00:00Z,-30.4335,152.0421,0.24283567070960999
1994-09-01T00:00:00Z,-30.4335,152.0421,2.942065477371216
1994-10-01T00:00:00Z,-30.4335,152.0421,6.3060302734375
1994-11-01T00:00:00Z,-30.4335,152.0421,10.95719051361084
1994-12-01T00:00:00Z,-30.4335,152.0421,12.320418357849121
1995-01-01T00:00:00Z,-30.4335,152.0421,12.417633056640625
1995-02-01T00:00:00Z,-30.4335,152.0421,12.286530494689941
1995-03-01T00:00:00Z,-30.4335,152.0421,10.623661041259766
1995-04-01T00:00:00Z,-30.4335,152.0421,5.801261901855469
1995-05-01T00:00:00Z,-30.4335,152.0421,6.57568359375
1995-06-01T00:00:00Z,-30.4335,152.0421,2.9826102256774902
1995-07-01T00:00:00Z,-30.4335,152.0421,0.8516194820404053
1995-08-01T00:00:00Z,-30.4335,152.0421,2.560343027114868
1995-09-01T00:00:00Z,-30.4335,152.0421,5.120298862457275
1995-10-01T00:00:00Z,-30.4335,152.0421,7.517291069030762
1995-11-01T00:00:00Z,-30.4335,152.0421,11.12398624420166
1995-12-01T00:00:00Z,-30.4335,152.0421,10.768564224243164
1996-01-01T00:00:00Z,-30.4335,152.0421,13.890542030334473
1996-02-01T00:00:00Z,-30.4335,152.0421,11.27082633972168
1996-03-01T00:00:00Z,-30.4335,152.0421,10.335490226745605
1996-04-01T00:00:00Z,-30.4335,152.0421,5.7296648025512695
1996-05-01T00:00:00Z,-30.4335,152.0421,6.329092502593994
1996-06-01T00:00:00Z,-30.4335,152.0421,4.237608909606934
1996-07-01T00:00:00Z,-30.4335,152.0421,1.2001283168792725
1996-08-01T00:00:00Z,-30.4335,152.0421,2.1390016078948975
1996-09-01T00:00:00Z,-30.4335,152.0421,4.589901447296143
1996-10-01T00:00:00Z,-30.4335,152.0421,7.489562034606934
1996-11-01T00:00:00Z,-30.4335,152.0421,8.704976081848145
1996-12-01T00:00:00Z,-30.4335,152.0421,11.127276420593262
1997-01-01T00:00:00Z,-30.4335,152.0421,11.13492488861084
1997-02-01T00:00:00Z,-30.4335,152.0421,14.18193531036377
1997-03-01T00:00:00Z,-30.4335,152.0421,11.295742988586426
1997-04-01T00:00:00Z,-30.4335,152.0421,6.26944637298584
1997-05-01T00:00:00Z,-30.4335,152.0421,5.9391303062438965
1997-06-01T00:00:00Z,-30.4335,152.0421,1.8166965246200562
1997-07-01T00:00:00Z,-30.4335,152.0421,0.9086354970932007
1997-08-01T00:00:00Z,-30.4335,152.0421,0.2608918845653534
1997-09-01T00:00:00Z,-30.4335,152.0421,4.751358985900879
1997-10-01T00:00:00Z,-30.4335,152.0421,7.001382827758789
1997-11-01T00:00:00Z,-30.4335,152.0421,11.714856147766113
1997-12-01T00:00:00Z,-30.4335,152.0421,13.196362495422363
1998-01-01T00:00:00Z,-30.4335,152.0421,13.528142929077148
1998-02-01T00:00:00Z,-30.4335,152.0421,13.537871360778809
1998-03-01T00:00:00Z,-30.4335,152.0421,11.51684856414795
1998-04-01T00:00:00Z,-30.4335,152.0421,9.488555908203125
1998-05-01T00:00:00Z,-30.4335,152.0421,5.248802185058594
1998-06-01T00:00:00Z,-30.4335,152.0421,3.535940647125244
1998-07-01T00:00:00Z,-30.4335,152.0421,3.641897201538086
1998-08-01T00:00:00Z,-30.4335,152.0421,4.735314846038818
1998-09-01T00:00:00Z,-30.4335,152.0421,7.055318832397461
1998-10-01T00:00:00Z,-30.4335,152.0421,6.59986686706543
1998-11-01T00:00:00Z,-30.4335,152.0421,8.552101135253906
1998-12-01T00:00:00Z,-30.4335,152.0421,11.626364707946777
1999-01-01T00:00:00Z,-30.4335,152.0421,13.351502418518066
1999-02-01T00:00:00Z,-30.4335,152.0421,12.349292755126953
1999-03-01T00:00:00Z,-30.4335,152.0421,11.872465133666992
1999-04-01T00:00:00Z,-30.4335,152.0421,7.1871657371521
1999-05-01T00:00:00Z,-30.4335,152.0421,6.311258792877197
1999-06-01T00:00:00Z,-30.4335,152.0421,2.681907892227173
1999-07-01T00:00:00Z,-30.4335,152.0421,3.549386739730835
1999-08-01T00:00:00Z,-30.4335,152.0421,2.5054235458374023
1999-09-01T00:00:00Z,-30.4335,152.0421,4.956404685974121
1999-10-01T00:00:00Z,-30.4335,152.0421,8.864728927612305
1999-11-01T00:00:00Z,-30.4335,152.0421,7.723538398742676
1999-12-01T00:00:00Z,-30.4335,152.0421,9.989890098571777
2000-01-01T00:00:00Z,-30.4335,152.0421,11.17167854309082
2000-02-01T00:00:00Z,-30.4335,152.0421,11.073850631713867
2000-03-01T00:00:00Z,-30.4335,152.0421,12.752432823181152
2000-04-01T00:00:00Z,-30.4335,152.0421,9.118305206298828
2000-05-01T00:00:00Z,-30.4335,152.0421,4.804049968719482
2000-06-01T00:00:00Z,-30.4335,152.0421,1.2111958265304565
2000-07-01T00:00:00Z,-30.4335,152.0421,1.3670270442962646
2000-08-01T00:00:00Z,-30.4335,152.0421,1.9342862367630005
2000-09-01T00:00:00Z,-30.4335,152.0421,5.338261604309082
2000-10-01T00:00:00Z,-30.4335,152.0421,7.317027568817139
2000-11-01T00:00:00Z,-30.4335,152.0421,10.460853576660156
2000-12-01T00:00:00Z,-30.4335,152.0421,11.928671836853027
2001-01-01T00:00:00Z,-30.4335,152.0421,13.035445213317871
2001-02-01T00:00:00Z,-30.4335,152.0421,13.048835754394531
2001-03-01T00:00:00Z,-30.4335,152.0421,11.613724708557129
2001-04-01T00:00:00Z,-30.4335,152.0421,7.92259407043457
2001-05-01T00:00:00Z,-30.4335,152.0421,4.155406475067139
2001-06-01T00:00:00Z,-30.4335,152.0421,2.254272937774658
2001-07-01T00:00:00Z,-30.4335,152.0421,2.0314388275146484
2001-08-01T00:00:00Z,-30.4335,152.0421,1.1681554317474365
2001-09-01T00:00:00Z,-30.4335,152.0421,4.685303688049316
2001-10-01T00:00:00Z,-30.4335,152.0421,6.230391502380371
2001-11-01T00:00:00Z,-30.4335,152.0421,8.989975929260254
2001-12-01T00:00:00Z,-30.4335,152.0421,11.897499084472656
2002-01-01T00:00:00Z,-30.4335,152.0421,12.211316108703613
2002-02-01T00:00:00Z,-30.4335,152.0421,13.148504257202148
2002-03-01T00:00:00Z,-30.4335,152.0421,10.685883522033691
2002-04-01T00:00:00Z,-30.4335,152.0421,8.408260345458984
2002-05-01T00:00:00Z,-30.4335,152.0421,3.693700075149536
2002-06-01T00:00:00Z,-30.4335,152.0421,1.8054358959197998
2002-07-01T00:00:00Z,-30.4335,152.0421,-1.3540253639221191
2002-08-01T00:00:00Z,-30.4335,152.0421,1.66780424118042
2002-09-01T00:00:00Z,-30.4335,152.0421,4.362011909484863
2002-10-01T00:00:00Z,-30.4335,152.0421,7.036889553070068
2002-11-01T00:00:00Z,-30.4335,152.0421,11.17384147644043
2002-12-01T00:00:00Z,-30.4335,152.0421,10.841085433959961
2003-01-01T00:00:00Z,-30.4335,152.0421,12.067517280578613
2003-02-01T00:00:00Z,-30.4335,152.0421,13.739434242248535
2003-03-01T00:00:00Z,-30.4335,152.0421,10.304413795471191
2003-04-01T00:00:00Z,-30.4335,152.0421,8.09373950958252
2003-05-01T00:00:00Z,-30.4335,152.0421,5.24086856842041
2003-06-01T00:00:00Z,-30.4335,152.0421,2.8288118839263916
2003-07-01T00:00:00Z,-30.4335,152.0421,1.218799352645874
2003-08-01T00:00:00Z,-30.4335,152.0421,2.057068109512329
2003-09-01T00:00:00Z,-30.4335,152.0421,3.7826523780822754
2003-10-01T00:00:00Z,-30.4335,152.0421,6.037594795227051
2003-11-01T00:00:00Z,-30.4335,152.0421,8.303866386413574
2003-12-01T00:00:00Z,-30.4335,152.0421,12.798406600952148
2004-01-01T00:00:00Z,-30.4335,152.0421,13.866713523864746
2004-02-01T00:00:00Z,-30.4335,152.0421,13.562966346740723
2004-03-01T00:00:00Z,-30.4335,152.0421,11.696277618408203
2004-04-01T00:00:00Z,-30.4335,152.0421,8.481940269470215
2004-05-01T00:00:00Z,-30.4335,152.0421,2.7656025886535645
2004-06-01T00:00:00Z,-30.4335,152.0421,0.3615134656429291
2004-07-01T00:00:00Z,-30.4335,152.0421,0.8073750138282776
2004-08-01T00:00:00Z,-30.4335,152.0421,1.4988913536071777
2004-09-01T00:00:00Z,-30.4335,152.0421,3.847649097442627
2004-10-01T00:00:00Z,-30.4335,152.0421,7.948584079742432
2004-11-01T00:00:00Z,-30.4335,152.0421,9.413644790649414
2004-12-01T00:00:00Z,-30.4335,152.0421,11.724064826965332
2005-01-01T00:00:00Z,-30.4335,152.0421,12.85460090637207
2005-02-01T00:00:00Z,-30.4335,152.0421,12.575196266174316
2005-03-01T00:00:00Z,-30.4335,152.0421,9.742831230163574
2005-04-01T00:00:00Z,-30.4335,152.0421,9.03583812713623
2005-05-01T00:00:00Z,-30.4335,152.0421,4.05980110168457
2005-06-01T00:00:00Z,-30.4335,152.0421,4.015121936798096
2005-07-01T00:00:00Z,-30.4335,152.0421,2.180447578430176
2005-08-01T00:00:00Z,-30.4335,152.0421,0.6706109642982483
2005-09-01T00:00:00Z,-30.4335,152.0421,5.563070774078369
2005-10-01T00:00:00Z,-30.4335,152.0421,8.741218566894531
2005-11-01T00:00:00Z,-30.4335,152.0421,10.856440544128418
2005-12-01T00:00:00Z,-30.4335,152.0421,12.381103515625
2006-01-01T00:00:00Z,-30.4335,152.0421,14.776001930236816
2006-02-01T00:00:00Z,-30.4335,152.0421,14.171908378601074
2006-03-01T00:00:00Z,-30.4335,152.0421,11.70573902130127
2006-04-01T00:00:00Z,-30.4335,152.0421,6.144793510437012
2006-05-01T00:00:00Z,-30.4335,152.0421,1.3953533172607422
2006-06-01T00:00:00Z,-30.4335,152.0421,1.1580191850662231
2006-07-01T00:00:00Z,-30.4335,152.0421,1.3309242725372314
2006-08-01T00:00:00Z,-30.4335,152.0421,1.7247586250305176
2006-09-01T00:00:00Z,-30.4335,152.0421,5.8042097091674805
2006-10-01T00:00:00Z,-30.4335,152.0421,7.739880084991455
2006-11-01T00:00:00Z,-30.4335,152.0421,9.602885246276855
2006-12-01T00:00:00Z,-30.4335,152.0421,10.447569847106934
2007-01-01T00:00:00Z,-30.4335,152.0421,12.799429893493652
2007-02-01T00:00:00Z,-30.4335,152.0421,12.806715965270996
2007-03-01T00:00:00Z,-30.4335,152.0421,11.711952209472656
2007-04-01T00:00:00Z,-30.4335,152.0421,8.251741409301758
2007-05-01T00:00:00Z,-30.4335,152.0421,5.602614879608154
2007-06-01T00:00:00Z,-30.4335,152.0421,1.8862345218658447
2007-07-01T00:00:00Z,-30.4335,152.0421,-0.059475257992744446
2007-08-01T00:00:00Z,-30.4335,152.0421,4.020973205566406
2007-09-01T00:00:00Z,-30.4335,152.0421,4.30174446105957
2007-10-01T00:00:00Z,-30.4335,152.0421,8.091165542602539
2007-11-01T00:00:00Z,-30.4335,152.0421,10.164945602416992
2007-12-01T00:00:00Z,-30.4335,152.0421,12.353337287902832
2008-01-01T00:00:00Z,-30.4335,152.0421,13.165263175964355
2008-02-01T00:00:00Z,-30.4335,152.0421,11.798848152160645
2008-03-01T00:00:00Z,-30.4335,152.0421,8.991466522216797
2008-04-01T00:00:00Z,-30.4335,152.0421,6.282435894012451
2008-05-01T00:00:00Z,-30.4335,152.0421,2.9042744636535645
2008-06-01T00:00:00Z,-30.4335,152.0421,3.8402469158172607
2008-07-01T00:00:00Z,-30.4335,152.0421,1.2432053089141846
2008-08-01T00:00:00Z,-30.4335,152.0421,-0.22193798422813416
2008-09-01T00:00:00Z,-30.4335,152.0421,5.931467056274414
2008-10-01T00:00:00Z,-30.4335,152.0421,7.797304153442383
2008-11-01T00:00:00Z,-30.4335,152.0421,10.385329246520996
2008-12-01T00:00:00Z,-30.4335,152.0421,11.296006202697754
2009-01-01T00:00:00Z,-30.4335,152.0421,13.20256233215332
2009-02-01T00:00:00Z,-30.4335,152.0421,12.613465309143066
2009-03-01T00:00:00Z,-30.4335,152.0421,10.733097076416016
2009-04-01T00:00:00Z,-30.4335,152.0421,8.960165023803711
2009-05-01T00:00:00Z,-30.4335,152.0421,4.612309455871582
2009-06-01T00:00:00Z,-30.4335,152.0421,3.5227668285369873
2009-07-01T00:00:00Z,-30.4335,152.0421,1.430311679840088
2009-08-01T00:00:00Z,-30.4335,152.0421,2.6264054775238037
2009-09-01T00:00:00Z,-30.4335,152.0421,4.5057549476623535
2009-10-01T00:00:00Z,-30.4335,152.0421,6.825668811798096
2009-11-01T00:00:00Z,-30.4335,152.0421,12.212409973144531
2009-12-01T00:00:00Z,-30.4335,152.0421,13.172137260437012
2010-01-01T00:00:00Z,-30.4335,152.0421,13.666790962219238
2010-02-01T00:00:00Z,-30.4335,152.0421,13.769109725952148
2010-03-01T00:00:00Z,-30.4335,152.0421,11.574018478393555
2010-04-01T00:00:00Z,-30.4335,152.0421,8.398771286010742
2010-05-01T00:00:00Z,-30.4335,152.0421,4.301138401031494
2010-06-01T00:00:00Z,-30.4335,152.0421,2.432249069213867
2010-07-01T00:00:00Z,-30.4335,152.0421,3.1409289836883545
2010-08-01T00:00:00Z,-30.4335,152.0421,2.090353488922119
2010-09-01T00:00:00Z,-30.4335,152.0421,6.220890045166016
2010-10-01T00:00:00Z,-30.4335,152.0421,8.361959457397461
2010-11-01T00:00:00Z,-30.4335,152.0421,10.305541038513184
2010-12-01T00:00:00Z,-30.4335,152.0421,12.269240379333496
2011-01-01T00:00:00Z,-30.4335,152.0421,13.95427417755127
2011-02-01T00:00:00Z,-30.4335,152.0421,13.83559513092041
2011-03-01T00:00:00Z,-30.4335,152.0421,12.108643531799316
2011-04-01T00:00:00Z,-30.4335,152.0421,7.983962059020996
2011-05-01T00:00:00Z,-30.4335,152.0421,2.883549928665161
2011-06-01T00:00:00Z,-30.4335,152.0421,2.0130486488342285
2011-07-01T00:00:00Z,-30.4335,152.0421,0.8109491467475891
2011-08-01T00:00:00Z,-30.4335,152.0421,2.8742451667785645
2011-09-01T00:00:00Z,-30.4335,152.0421,4.1050028800964355
2011-10-01T00:00:00Z,-30.4335,152.0421,6.853982925415039
2011-11-01T00:00:00Z,-30.4335,152.0421,12.082494735717773
2011-12-01T00:00:00Z,-30.4335,152.0421,10.080545425415039
2012-01-01T00:00:00Z,-30.4335,152.0421,12.548337936401367
2012-02-01T00:00:00Z,-30.4335,152.0421,12.5477876663208
2012-03-01T00:00:00Z,-30.4335,152.0421,10.785351753234863
2012-04-01T00:00:00Z,-30.4335,152.0421,8.622858047485352
2012-05-01T00:00:00Z,-30.4335,152.0421,2.71523118019104
2012-06-01T00:00:00Z,-30.4335,152.0421,2.578343391418457
2012-07-01T00:00:00Z,-30.4335,152.0421,2.0367748737335205
2012-08-01T00:00:00Z,-30.4335,152.0421,0.8029069900512695
2012-09-01T00:00:00Z,-30.4335,152.0421,3.573023557662964
2012-10-01T00:00:00Z,-30.4335,152.0421,5.804213523864746
2012-11-01T00:00:00Z,-30.4335,152.0421,10.626581192016602
2012-12-01T00:00:00Z,-30.4335,152.0421,12.766881942749023
