"DataSet","Season","Species","Treatment","Vcmax_opt_PA","Topt_vcmax_PA","Ea_vcmax_PA","Vcmax_opt_SE_PA","Topt_vcmax_SE_PA","Ea_vcmax_SE_PA","RMSE_vcmax_PA","AICc_vcmax_PA","BIC_vcmax_PA","Jmax_opt_PA","Topt_jmax_PA","Ea_jmax_PA","Jmax_opt_SE_PA","Topt_Jmax_SE_PA","Ea_Jmax_SE_PA","RMSE_jmax_PA","AICc_jmax_PA","BIC_jmax_PA"
"Alida Mao","No_Seasonal_Measurements","Puerto_Rico_Tropical_Spp_2","No_Temperature_Treatments",109.535284456675,41.843222541185,97.1561732016707,115.620897842106,12.916369646465,47.2763567798427,11.038091056988,126.60871942794,125.440920232349,128.107689674858,41.580947934415,75.5864992966774,147.607265023252,17.8200831513493,43.5336555665935,13.5795677114111,125.214579462966,123.326364336982
"ANNA","10","Picea mariana","No_Temperature_Treatments",44.3037000568938,31.2843014545928,47.5810807114758,1.74690125212286,0.557179270585031,6.62532258398686,7.56199204546293,477.136112120036,490.670655371027,94.9090799195434,27.8055131537661,28.5523822697001,2.75830564848624,0.39416844010365,3.75904403182719,12.2605561263243,526.257264998973,539.51306360754
"ANNA","8","Picea mariana","No_Temperature_Treatments",187.765510822357,46.0659294151121,51.5595465486556,4.8949739995462,0.714310735164677,2.55490784527395,14.5360855470798,793.446179200906,810.035961120271,136.27365484371,43.4171234013676,15.8716635028413,4.78586656703886,2.46263712371306,4.30941601500533,18.8959156348381,721.32588220723,736.444513094392
"ARCTIC","No_Seasonal_Measurements","Arctic spp","No_Temperature_Treatments",73.8785770815289,26.693325755068,59.9930283181275,5.52557827426417,2.1533586033823,4.06357687967514,7.66189497353103,2151.64648304437,2177.31156110352,197.820764065517,24.4411796835764,62.198220572812,7.80493773310719,2.28955335320445,11.2422883477046,22.7245497030973,1738.97350958516,1760.92452281801
"DILLAWAY","Illinois","Betulapapyrifera","No_Temperature_Treatments",218.695889672156,39.4166576522295,75.3908380056267,31.0290336423181,3.20858484891491,19.9117616589872,16.4121398394697,204.202374324514,206.522128966008,310.173442498154,39.1659877215928,32.8215809608553,57.4187066152821,8.78732762841466,17.819100762181,29.8766928014659,212.772722595789,214.450812346683
"DILLAWAY","Illinois","Liquidambarstyraciflua","No_Temperature_Treatments",170.67582499659,36.804444993396,120.430799899666,14.6226393556029,1.58476393362105,67.0761898449498,22.4113524587574,174.103145192506,174.587709147168,268.607883270231,47.3728244278408,32.1284459098237,670.472968642718,74.9596628954336,17.6287233356352,18.2315247021576,166.67219027055,167.156754225212
"DILLAWAY","Illinois","Populusdeltoides","No_Temperature_Treatments",356.060303593144,40.4659540020393,57.8809990025462,143.665142685277,8.57564903954859,19.0298861299451,28.162283938635,238.437527172983,241.04447933648,NA,NA,NA,NA,NA,NA,NA,NA,NA
"DILLAWAY","Illinois","Populustremuloides","No_Temperature_Treatments",188.895646242445,36.2004190804803,113.063454008576,12.2953921723466,1.41870818756924,62.1451392899171,26.7597631003423,208.145192458265,209.823282209159,237.173903542786,34.6111448655114,86.2567922244258,15.265045236707,1.80401331777618,59.8255632627544,43.0062502734425,228.071927728324,229.750017479218
"DILLAWAY","northernWisconsin","Betulapapyrifera","No_Temperature_Treatments",218.22364981863,38.8120943300449,79.8537504690592,60.4375543674145,4.39448368238587,14.6982401383597,10.7941586077137,192.406558422981,195.013510586478,310.77091685418,37.295246270592,53.3196513442757,84.1217986305017,6.91875695251735,17.8378855685545,27.5212493577357,237.332316441713,239.93926860521
"DILLAWAY","northernWisconsin","Liquidambarstyraciflua","No_Temperature_Treatments",175.689284969528,35.5483931129854,107.638367566793,22.0418974375563,2.38838471487195,36.7791681360213,17.5069136289318,165.212161499498,165.69672545416,NA,NA,NA,NA,NA,NA,NA,NA,NA
"DILLAWAY","northernWisconsin","Populusdeltoides","No_Temperature_Treatments",240.635675877042,36.1311793682023,71.458148176532,54.5474382469163,5.08723791040689,24.1086644455362,22.4308389115684,191.841677960892,193.157940388441,350.91350488066,36.0895407728477,52.6819723725377,111.948258200653,9.08155490108853,27.1629820673561,42.3806930969069,207.151137586664,208.071750646187
"DILLAWAY","northernWisconsin","Populustremuloides","No_Temperature_Treatments",NA,NA,NA,NA,NA,NA,NA,NA,NA,362.017902392263,37.7397187499755,58.5632617594796,112.858789803809,7.31289477152965,21.001579818228,37.0081143137081,251.548898081773,254.15585024527
"DILLAWAY","southernWisconsin","Betulapapyrifera","No_Temperature_Treatments",176.313706039099,35.7040547396749,56.84677453129,10.0177656815679,1.87860277267575,11.9284576787775,9.49300137703799,186.240944589698,188.847896753195,273.566138663492,31.721242120331,48.5870315421157,9.84992869263256,1.46231226366932,28.3465835064653,32.507102812553,245.324326201451,247.931278364949
"DILLAWAY","southernWisconsin","Liquidambarstyraciflua","No_Temperature_Treatments",209.857599199108,37.3221027803157,82.9298427203351,16.9940020009746,2.05008230851869,21.749629491449,16.9499255178266,214.066957851957,216.673910015454,255.310897111301,35.9445516963138,35.768001797117,10.4665881909603,2.66036758275299,12.3469283465443,18.416364386165,218.049815384078,220.656767547575
"DILLAWAY","southernWisconsin","Populusdeltoides","No_Temperature_Treatments",246.925648466977,34.7871283211412,76.6273768774468,14.5711880901914,1.59941181765331,17.3714502096282,15.7572115963043,194.107354780202,196.118583417165,386.782126062588,37.6095341214285,43.0583840054026,73.5826196876679,6.14548240499175,15.0080360074329,34.1657291411938,247.713020100388,250.319972263885
"DILLAWAY","southernWisconsin","Populustremuloides","No_Temperature_Treatments",281.042049998717,39.5113404445206,79.3289877651057,48.9970133639098,3.03987933525917,14.3314423569064,16.7314535162821,213.444251570339,216.051203733836,338.773680178095,37.1465992822042,56.2660700446323,49.1608435096145,4.38178125436817,21.3479440266231,40.2037000912951,245.415510288861,247.735264930355
"DREYER","No_Seasonal_Measurements","Acer_pseudoplatanus","No_Temperature_Treatments",135.063336023409,34.9929417081186,72.4067489196947,7.47754524168253,1.07664615018182,15.5212050047552,22.020454136524,244.47209688632,247.599721133644,172.68621843298,31.8611728971479,41.9894575978958,9.22699507563807,0.811476048748705,7.61999586106953,23.9916415553836,239.832201718368,242.707705017841
"DREYER","No_Seasonal_Measurements","Betula_pendula","No_Temperature_Treatments",174.678823016881,39.4803421679028,72.5155361971973,10.0597742679409,1.77251386946139,16.4511840990077,22.5958639042138,201.041627205136,202.719716956029,179.044307888686,36.3552261411373,42.2286368583375,6.10194912794359,0.757977306856429,5.43926737741152,15.0441376158699,183.956930695835,185.635020446729
"DREYER","No_Seasonal_Measurements","Fagus_sylvatica","No_Temperature_Treatments",130.594541037908,37.1974265101903,71.7575880578961,4.5568570639417,0.697703128889939,8.96250890781055,10.519588111812,168.931458648883,170.609548399776,176.175646875094,35.1746884766598,46.1244345761083,6.93037413342181,0.714349167846425,6.44734479109396,16.7140494712747,188.3779037553,190.055993506193
"DREYER","No_Seasonal_Measurements","Fraxinus_excelsior","No_Temperature_Treatments",203.091681173807,41.5365271872178,60.1918281942659,13.0679580635578,1.87723507478976,7.71443863135538,16.190108127936,211.865534176703,214.4724863402,192.67348844613,33.3162784769558,47.2607279185237,7.43946226573647,0.609068325789806,7.1256692581781,19.6170251238726,221.081408014079,223.688360177576
"DREYER","No_Seasonal_Measurements","Juglans_regia","No_Temperature_Treatments",142.156863404739,36.0217627871957,105.688851213825,5.63225075162176,0.737971360302924,22.1840901335607,14.9448665253475,183.678868709419,185.356958460313,169.207687594013,35.5153835244836,56.9226727751788,9.08080399693128,0.901937437761026,12.6497892843292,21.2210170338741,172.138424436543,172.622988391205
"DREYER","No_Seasonal_Measurements","Quercus_petraea","No_Temperature_Treatments",220.98202268873,41.6095990699436,65.7203203003281,14.1004318672471,1.55805294399208,7.06554310027599,14.5077101797898,190.472167401723,192.483396038686,218.776236538159,36.2865047061219,40.9945250809614,5.82184484185862,0.819643476634165,4.52304581325633,16.1542197065215,170.499696430684,171.420309490207
"DREYER","No_Seasonal_Measurements","Quercus_robur","No_Temperature_Treatments",263.898983502414,44.0872828319829,59.5506256227863,50.0253249722508,4.25490047016432,9.76588108969923,26.2053767347323,272.09370637559,275.683393981508,213.62893964512,36.5656993604458,37.3675429617455,9.12992507267126,1.37438202801454,6.43297440811166,30.5144883379354,271.023748919263,274.388914565098
"ELLSWORTH","summer","Pinus taeda","No_Temperature_Treatments",51.5835202147529,39.7896601130576,60.5739729962895,15.3285932367377,6.46845176632841,14.7751819744217,4.42249732570736,104.616942054115,104.070933306711,56.4653815971395,35.2539375159687,40.6716788393192,3.43764145127417,2.81522675498396,10.1985860902732,6.49986271890831,116.939390507253,116.393381759848
"HAN_2","No_Seasonal_Measurements","Pinus densiflora","No_Temperature_Treatments",76.0744186822749,28.3683095896521,78.2776550793025,6.49416721656678,1.9992404714152,26.5832818692622,7.11741481102699,75.4370630030473,62.4214958364333,123.34824637131,24.5356567958996,39.2786527851143,14.3177060861817,2.81653313310315,33.5791574217715,22.6171635148046,93.9356949142336,80.9201277476196
"HAN_ET_AL_A","Apr","Chamaecyparis obtusa","No_Temperature_Treatments",43.8705500282466,30.7807791979844,36.2809133543225,1.51821896868905,1.61763268622692,4.6896702303746,0.377658069676559,-28.4386202968825,9.1065571475971,113.648778589123,24.2456444647518,19.2549276213028,0.6609699971783,0.129242869397793,1.65523020648365,0.386973694111752,-28.2436802314356,9.30149721304393
"HAN_ET_AL_A","Oct","Chamaecyparis obtusa","No_Temperature_Treatments",48.5541431066249,30.7742759491034,38.7728747305638,8.17323835651846,6.78163901262949,17.5502635721118,1.72463667452087,-16.2883604956992,21.2568169487803,97.6627486435974,24.7903412485286,15.6481407027998,8.65720349268286,3.07580022934874,20.5166245869483,5.27469632382449,-7.34512286426862,30.2000545802109
"Hikosaka","August","Quercus crispula","No_Temperature_Treatments",65.6839170184065,28.3679036782773,56.1095424177766,4.63274499931372,2.12256329610249,19.0025776984933,14.4996267728623,320.748613811069,328.162970234062,123.31092872922,26.2002131314432,37.5465472608032,8.55632278865424,1.69597360183926,19.5766105929025,31.1672589853513,320.413109355286,324.794571485003
"Hikosaka","June","Quercus crispula","No_Temperature_Treatments",46.202065266026,25.2335483486826,115.013593515296,4.34621179741307,2.45813017047643,101.657657249773,15.3808660826018,244.106126051741,247.282247271667,78.8439089230595,27.7257926494743,38.2578795794026,5.84202649253857,2.67620326579109,15.1654925185704,16.0728783883181,203.241525599695,205.56128024119
"Hikosaka","September","Quercus crispula","No_Temperature_Treatments",39.6846721790516,26.6200090537619,49.2394729339618,1.55777688574571,1.21757770854985,9.39592784827315,5.67037373186548,307.133173230641,316.986294585012,104.509013175795,23.2369749475361,41.191163814495,5.4153405923966,0.909699644052325,17.2114118728262,19.415654164075,298.83977193996,303.397230757255
"Kelsey_Cater","No_Seasonal_Measurements","Puerto_Rico_Tropical_Spp_1","No_Temperature_Treatments",91.6929606668569,41.2807202921963,109.113844187251,6.8262026235671,1.37907428908471,20.0154818668834,20.2057798767859,1023.93544908227,1042.03223444744,89.4252816393768,37.140722686641,71.2165557262665,3.9587748902828,1.08970151834868,15.1131491518067,23.7747690706311,990.130730555633,1000.42988903074
"Martijn_Slot","No_Seasonal_Measurements","Panama Rainforest Spp","No_Temperature_Treatments",288.24523234085,44.187141280846,77.2577563054827,58.7961559816606,3.36246341075129,12.9620691017275,19.1851778999915,385.137213135691,391.129382019518,194.873760849311,36.7085844979985,96.7171868329491,6.90522425009974,1.11752746601901,44.585925559985,24.6152850898551,397.354795858625,403.224393250677
"MEDLYN","AugSept","Pinus pinaster_L","No_Temperature_Treatments",82.0548111410614,38.2163490059007,74.4657462992823,5.75722694836281,1.36204975051727,5.90811544698155,2.46183680729916,81.5953882249099,80.4275890293187,87.8966675094184,36.7372092605417,35.8052164853898,6.73121436481515,3.02888327362355,5.52223366348629,4.72718471362985,95.6679585396708,93.7797434136874
"MEDLYN","AugSept","Pinus pinaster_T","No_Temperature_Treatments",68.0652994872522,35.3624220623302,73.4001879568467,5.80770077023443,2.25881857782025,21.0524705113335,9.83538490819145,144.454227427612,144.938791382274,78.5384237321087,32.2702641728741,40.922840158081,4.75861305626049,1.7329670028837,13.6231916420871,11.8031595148815,151.019931312969,151.504495267631
"MEDLYN","Jan","Pinus pinaster_L","No_Temperature_Treatments",162.067943904919,36.0131487571999,79.6718320073854,24.564304102016,4.38384896626079,46.1060203844106,42.5713775479741,177.080225144092,176.534216396688,121.199567814303,35.2043645163482,37.9103759346069,8.21873667170909,3.4317466133866,16.0071287782211,16.9156007194846,123.426546069244,120.68634349909
"MEDLYN","Jan","Pinus pinaster_T","No_Temperature_Treatments",131.916004472954,39.6941446618516,52.0518976937133,50.030697013238,9.53442599153662,18.0908743817086,16.6465714897818,138.934284356934,137.766485161342,107.345450694047,32.9201621861322,34.5655493419258,6.61794883522476,2.31513264519877,12.4237952673442,12.2514496817947,101.007488367088,95.932402791615
"MEDLYN","Jul","Pinus pinaster_L","No_Temperature_Treatments",NA,NA,NA,NA,NA,NA,NA,NA,NA,119.49791937531,28.1279261131313,126.644143616963,26.6647479469709,2.60731835319046,567.313558168115,9.15643325302035,Inf,42.7717041817712
"MEDLYN","Jul","Pinus pinaster_T","No_Temperature_Treatments",NA,NA,NA,NA,NA,NA,NA,NA,NA,129.106681782757,37.9132120798509,49.0709737334834,66.2326205680028,13.5751835071914,27.1255039762554,12.7322001673463,84.7424975588667,71.7269303922527
"MEDLYN","Jun","Pinus pinaster_L","No_Temperature_Treatments",111.020772967006,33.8892515246055,71.6919321868831,5.08261559746382,1.27141538242604,14.6760716153079,10.7601841515578,133.069682108329,132.523673360924,NA,NA,NA,NA,NA,NA,NA,NA,NA
"MEDLYN","Jun","Pinus pinaster_T","No_Temperature_Treatments",167.945308946657,34.6973881020504,80.5159668945673,11.8765000973538,1.87726917105637,21.1420248934448,19.4451704060304,143.596117927869,142.428318732278,112.798762368362,33.8496953959034,29.7782451671773,5.14306682691837,2.60410135457995,9.36428912699593,10.2020854522383,110.279797906158,107.539595336004
"MEDLYN","Mar","Pinus pinaster_L","No_Temperature_Treatments",156.888274898513,40.984209880566,67.9375301035559,73.0711062028732,8.65500386955747,20.8684397495708,15.8947695623943,129.622446083666,127.734230957683,141.186310732309,34.5935154076688,56.109033839284,6.39030781576444,1.5918734232035,16.0230146936015,11.8865627573791,93.8869423053172,87.0972826772934
"MEDLYN","Mar","Pinus pinaster_T","No_Temperature_Treatments",182.129474734084,36.6704244706424,103.788215476797,13.409773324813,2.05589132453019,29.9990088697485,17.3260879331962,132.036696856971,130.148481730988,159.405292871012,32.5955056413271,95.0361367610918,7.78573005568377,1.03869240106218,34.8343969275007,13.1919836039933,89.973861760552,80.7627600698968
"MEDLYN","Nov","Pinus pinaster_L","No_Temperature_Treatments",218.301081931533,44.991236076492,62.1824153955293,233.452197034146,17.1932693466805,11.6164162681196,11.6770084851805,128.296810648667,127.129011453076,118.215199094871,35.1603514640252,32.1349471304168,5.74866290646851,2.33819081132554,7.00210764444494,8.52256909029638,99.1940384745903,95.4193793594566
"MEDLYN","Nov","Pinus pinaster_T","No_Temperature_Treatments",154.297073186039,41.6333722446699,60.560661587429,52.2245936781001,6.24187863923231,8.24705963694129,7.01685602417821,125.819962231398,125.81948227429,128.937681465616,36.761921177294,37.3221523362227,11.1586810042203,3.57076197071057,7.86509833224899,9.60386051120558,129.431681634032,128.885672886627
"MEDLYN","Oct","Pinus pinaster_L","No_Temperature_Treatments",84.4336140886626,33.4170708227157,100.947561358746,8.79138344923769,2.17856621437522,54.991365810765,17.8252924349624,132.832037791695,130.943822665712,66.2897046671952,34.0533611249625,31.2101549412369,3.63327246731496,2.08644534715669,9.89277093881315,7.24575446250003,101.383210218325,98.6430076481713
"MEDLYN","Oct","Pinus pinaster_T","No_Temperature_Treatments",136.431806931979,41.4331318181227,60.344149145103,29.113751542939,4.20869547090637,6.96490543545327,4.21926495773878,82.320672885104,78.5460137699703,96.9512248046401,34.3346534165698,36.3638158635208,4.18360997462578,1.86358890804581,8.84015568552723,7.06454750053877,94.6909456960865,90.9162865809528
"RF_AMZ","dry","Amazon spp","No_Temperature_Treatments",118.958867499914,42.9918691212878,69.393938701287,5.44640855249177,1.20388765080635,9.22462668244941,6.48519735160284,116.867108677094,116.321099929689,116.315634775631,41.001008418527,44.5076504277887,6.20237822721999,1.9195272566356,11.8970986816861,11.5569259981042,135.355513843329,134.809505095924
"RF_AMZ","wet","Amazon spp","No_Temperature_Treatments",129.788529347041,42.8265362930408,74.4601492446271,33.5592977531673,4.83756188025871,19.6844709124701,17.8368928602711,430.329423769019,436.987614052371,124.325739046492,41.0471125560811,46.4296345413226,21.9983706283944,5.72792585245375,17.3277058163883,21.5304675421326,448.77303180768,455.431222091031
"RF_MON","No_Seasonal_Measurements","C_g","No_Temperature_Treatments",144.290585284393,42.9232084621231,87.7694956292958,31.428102552642,3.32753161794136,15.6328820002317,10.2041705764089,145.77938487571,146.263948830372,95.0113252276946,34.4163688556144,25.7435223989063,9.08503210114255,3.45845157147066,23.144174123704,18.3421973638423,125.531712942932,122.791510372778
"RF_MON","No_Seasonal_Measurements","C_s","No_Temperature_Treatments",103.392592240453,33.3711334404014,82.5521878288024,6.15654510764118,1.23334181118052,40.6200368033502,17.684050433225,190.747269765249,192.425359516142,165.491920524015,31.3172300544383,70.2192230662238,11.2389507819871,1.14261291536023,45.309214821128,28.966396229686,202.069664291467,203.385926719016
"RF_MON","No_Seasonal_Measurements","E_e","No_Temperature_Treatments",54.1618826236419,36.3289344591476,82.3595367907026,3.60072791947106,1.48631207591713,25.4341495599623,9.30638607949219,178.105633376751,180.425388018246,79.3133326880243,32.1841664922843,69.1503501239115,2.3299191660542,1.52391235169401,11.4615488501812,4.90850035068245,157.633845293433,154.06309996578
"RF_MON","No_Seasonal_Measurements","E_i","No_Temperature_Treatments",195.186681238633,42.6048745703325,51.724410400126,13.6999938286824,2.29567076966321,7.33954117193393,12.7854132425231,216.201422026285,219.329046273609,257.73438518761,37.0743143889143,48.3355141614176,5.36805096187328,0.630787145102787,6.08720095041477,15.4693681394122,242.464006075016,245.048459618944
"RF_MON","No_Seasonal_Measurements","E_m","No_Temperature_Treatments",180.995766833755,39.1580403614551,62.8872899474778,12.1716380662024,2.29308619598174,18.632447705773,26.5145225308708,217.00471116582,219.015939802782,226.154934515954,39.4342152883712,36.0419561968228,4.45428589466754,3.0067648825478,5.31987536285034,8.62215022809637,195.09586725028,193.792139698959
"RF_MON","No_Seasonal_Measurements","H_a","No_Temperature_Treatments",111.694909837909,35.1083115691969,70.624844868237,6.64891654080411,1.22900521182466,23.6782582238107,22.1160912339418,262.592793702186,266.182481308104,182.553643274259,30.1131541378903,37.7490190275232,10.2190144921564,0.683611478844898,16.7045174731733,28.7665478251566,287.176474818579,290.901906389805
"STRASSEMEYER_ET_AL","No_Seasonal_Measurements","Fagus sylvatica","No_Temperature_Treatments",47.5367605875346,34.9211004338989,76.8182635893304,2.39133411390232,1.10178340339013,11.6485876081721,3.91286470328686,160.111429997894,163.47659564373,52.7646576245229,31.0275779814032,43.6579150211535,2.25325545292028,1.19477356568429,13.3316695906218,6.96208087538621,191.226696535796,194.591862181631
"STRASSEMEYER_ET_AL","No_Seasonal_Measurements","Quercus robur","No_Temperature_Treatments",71.1984194975557,37.9506416599381,49.8418513321978,11.2362281146902,5.11459580134448,16.5113964986558,14.7316663410266,247.98506387746,251.787580530739,78.3271748722894,30.6024210284466,25.4907968111044,5.92665267310681,1.63646142156899,14.8351005877528,17.0586884804182,180.890594483967,182.206856911516
"TARVAINEN","No_Seasonal_Measurements","Picea abies","No_Temperature_Treatments",96.070579073616,33.748456485371,50.9766407637526,3.88344677585353,1.44021275072286,6.98508634249828,3.96661131165692,109.124401071809,84.5187476203247,180.673851930571,29.916326804505,38.5474218152642,3.73540194623235,0.639789800181277,6.32581253745611,7.14282533401314,124.264562751122,99.6589092996379
"TARVAINEN_B","No_Seasonal_Measurements","Pinus sylvestris","No_Temperature_Treatments",149.835150747791,36.5542089031449,52.4214799908551,9.00398987597422,2.18641585442289,7.09297541795043,16.1093729085844,355.539683465727,363.571711762828,216.718327221695,32.4128487743932,45.1112608181078,5.37545803986618,0.90122577491932,6.25047537815106,19.694902167279,356.999065198046,364.728834982798
"WALCROFT_ET_AL_2","No_Seasonal_Measurements","Prunus persica","No_Temperature_Treatments",166.875922651953,37.8247469394748,97.8239083752166,6.82291892065595,1.05958812671528,19.647543366013,9.45853522855744,101.694831294947,97.9201721798131,159.057760917125,34.4336664176513,64.7670881243935,5.27106808152959,0.874091230938641,17.9264077903576,11.1924974131957,105.734658831522,101.959999716389
"WANG_ET_AL","No_Seasonal_Measurements","Betula pendula","No_Temperature_Treatments",135.271833405188,31.1042124949568,65.786232818164,6.2832354355427,1.19299691520978,10.9500110818124,13.7694815385793,184.989061286366,182.625853867911,123.111025151874,23.6730037444987,40.9368118380279,3.70355580953878,0.451116554476169,4.33913457025026,9.01151426730604,168.030998849717,165.667791431262
"WANG_ET_AL","No_Seasonal_Measurements","Pinus sylvestris","No_Temperature_Treatments",104.665356289504,27.8074884661293,74.7812284193309,5.98023619041317,1.04213028678444,16.4442988527346,14.5627995197601,179.883546059072,176.312800731419,98.7351299784572,23.4975131177601,40.8336476925721,3.13818601464066,0.431354512563157,4.4637057318211,7.06696230210339,152.40782988117,148.837084553517
"WAY_ET_AL","No_Seasonal_Measurements","Picea mariana","Cool",43.9572049728103,42.1192476701693,39.0876730056439,5.88239280405221,6.01998711012216,11.8055588146364,8.93815542455469,183.350116249985,185.957068413482,40.3316683370802,32.1391862558621,24.969782203014,2.75979431402286,0.97005305356509,6.33749065781748,6.90756984851682,170.97997145955,173.586923623047
"WAY_ET_AL","No_Seasonal_Measurements","Picea mariana","warm",36.4436732796611,39.7822290123244,56.9307489750619,3.23504636004341,3.24115142158314,17.9803501798244,7.22545694111269,166.46347666603,168.783231307524,30.7788319656844,34.7268447227014,26.083172475645,1.8451896422596,1.19589148640647,5.73037499108597,4.55498644778648,145.239632301189,147.559386942684
