"DataSet","Season","Species","Treatment","Vcmax25","EaV","delsV","Vcmax25.se","EaV.se","delsV.se","ToptV","Tavg_30","prob_V","Rday_25","Ea_Rday","Q10","Rday_25_SE","Ea_Rday_SE","Jmax25","EaJ","delsJ","Jmax25.se","EaJ.se","delsJ.se","ToptJ","Photo_275","Rday","Photo_275_SE","Rday_SE","prob_J","JVr","JVr_SE","A_ratio","A_ratio_SE","Photo_800","Photo_800_SE","Vc","Vj","Vc_SE","Vj_SE","nVcmax","nTPU"
"Alida Mao","No_Seasonal_Measurements","Puerto_Rico_Tropical_Spp_2","No_Temperature_Treatments",25.8677021370763,97.156639109712,0.634461579080802,4.69126827959302,47.276568282094,0.0333163559895061,41.8431210376858,NA,0.773224041124785,0.826038123350624,63.9846143223758,2.37680415962084,0.254063614987817,33.8141560645228,40.9559684297124,75.5863156113212,0.631320100822235,6.5691132890626,43.5335878283888,0.0431574249340994,41.5810130863476,4.36881431351815,1.13028155467063,0.794670362600825,0.603109997351057,0.834423585629994,1.41945048013096,0.134202826646236,1.46970014643885,0.13375805258293,6.55674470974396,1.36192886676255,27.0443667357856,38.350755153393,6.87083649006887,9.1461949272166,15,4
"ANNA","10","Picea mariana","No_Temperature_Treatments",36.9355015224941,47.5839603354573,0.647277857509412,1.49061331387888,6.62562565246815,0.00231614600105418,31.284235737368,5.33828025333635,1.85280967055856e-12,2.02070038108094,-9.64957932446426,0.877598930010903,0.101548011777146,3.52225714407183,92.2003326213968,28.5444806670558,0.64964282859552,2.64205664494463,3.75847735303887,0.00158592185538714,27.806136629095,8.64790440886642,1.3541215549211,0.877467984615867,0.151337636216341,1.07230769187764e-20,2.17069578768532,0.146128707417291,2.17036549047119,0.186905006073536,18.6051101349033,0.288089606741044,45.6407000404388,98.5875998224129,3.31540264017585,0.52731404298089,67,3
"ANNA","8","Picea mariana","No_Temperature_Treatments",64.0061432010311,51.5603301073253,0.617743953297259,2.06781983966945,2.55495100720876,0.00180154168903577,46.0658050930302,17.5231180887372,4.07946356031762e-08,1.86698568635119,-27.1555526919508,0.692509231197605,0.152655741669939,3.57290564049858,101.962453423548,16.2568722635207,0.613426346261191,11.1316445229496,4.64273957207907,0.00332693862103723,42.5125503108719,11.8771960602674,2.6407061233725,0.906871947071979,0.302151200737132,4.65230967824559e-11,2.09341362067182,0.0644151572273335,1.80018377127819,0.077811371851662,21.2951052172985,1.57895714888402,57.4133887668115,125.064855097294,4.43634401663947,7.58661886505905,95,23
"ARCTIC","No_Seasonal_Measurements","Arctic spp","No_Temperature_Treatments",78.3006062100312,55.9250742993324,0.657478798402068,12.7415318345129,4.82264440754652,0.00570070721879856,27.445250023823,NA,0.411663513458833,2.55372439291217,-4.9208027062144,0.935586270820582,0.223344303743722,4.54452032866906,173.021689531149,57.3360159634217,0.668895928060571,16.1971735421457,7.38498098480905,0.00363340626040403,22.5003926540646,17.9122619293496,2.37429275759073,0.843317300783024,0.288790980587036,0.000111235752335273,2.65588252354039,0.260736793513201,2.01116750726353,0.0803313981174284,35.9530030924702,2.16148697781315,75.9478111881226,194.930487261406,4.13649626300767,16.8063411946605,NA,NA
"DILLAWAY","Illinois","Betulapapyrifera","No_Temperature_Treatments",85.0706438174409,75.3909657825625,0.635685823881664,7.12900449280077,19.9117873453052,0.00990132028781693,39.4166371746863,30.6,0.312321397526118,0.837932384966066,2.33604823797357,1.03211322403671,0.361272917778598,46.7468856380045,202.506172046345,32.8218919865532,0.626842536783652,14.7004701539858,17.8191452599844,0.0230922144636755,39.1658167682228,19.6014427639021,1.12460397080647,0.844707776884111,0.292666973284644,0.706922897364576,2.15810790565832,0.0930163654068423,1.91995386024676,0.0748390906883913,37.423383627779,1.43783518992094,94.8638217831383,203.400373876864,4.86169755012923,9.44553961879043,23,2
"DILLAWAY","Illinois","Liquidambarstyraciflua","No_Temperature_Treatments",63.0195206671574,120.430914814977,0.648701858834045,12.5061963301057,67.0764257440911,0.0141279993640379,36.8044428042564,30.6,0.205948759083802,1.08746492647113,-10.3676026366445,0.86911402417977,0.264944402340479,27.2032298016325,128.022111908703,36.6507266279944,0.629047738860026,12.3246838207106,19.8733610902127,0.0193550935994043,38.6325795260754,15.2331101984692,1.15549937599569,1.36640850198073,0.243478255648827,0.650360590945726,1.91229119844251,0.147027378102542,1.82037486909729,0.144935542670283,26.9164058675629,1.58892794212637,77.3171711846648,144.056483320805,6.32939437115652,7.56382432237663,20,13
"DILLAWAY","Illinois","Populusdeltoides","No_Temperature_Treatments",157.220005349516,57.8819001599923,0.630255531007548,11.747193634269,19.0300676624062,0.0210199676779702,40.4654851870776,30.6,0.701287236323637,1.64766782631834,-182.489357912493,0.084651770755403,0.267934721762835,58.1693359165611,NA,NA,NA,NA,NA,NA,NA,NA,NA,NA,NA,NA,NA,NA,NA,NA,NA,NA,NA,NA,NA,NA,NA,NA
"DILLAWAY","Illinois","Populustremuloides","No_Temperature_Treatments",77.8817715656814,113.062965621043,0.648700589020101,13.7512794960913,62.1445820149874,0.0128991774708891,36.2004278901317,30.6,0.0363286847843848,1.19044302021368,30.6361074732095,1.51365622144868,0.256796328050759,20.7867229345492,132.584777760073,86.2564658506865,0.647554788191141,22.8037594358932,59.8254088675417,0.0133290750406717,34.611143538865,17.8741556314796,1.52054537215188,1.46984899140739,0.280865396373773,0.0666741987401771,1.70524628330812,0.102088718857818,1.63366662879973,0.121477362864256,28.2440328074395,1.76295507221364,97.5597268918131,160.306898662487,10.257394163291,10.1707585216976,21,11
"DILLAWAY","northernWisconsin","Betulapapyrifera","No_Temperature_Treatments",85.6558796334531,79.8537749689212,0.637707177817632,3.0592539387473,14.6982451049007,0.0114421857340174,38.8120848212669,18.7,0.415994038169812,2.23314690024965,24.4730103774355,1.39255059788117,0.164750792497533,10.0310641308178,178.115323647842,53.319896974876,0.635822899272594,7.72346553680588,17.8379223962732,0.0179257715109208,37.2951414411165,19.5992282898653,2.39201381198396,1.15369420620919,0.279404862663921,0.584226549122518,1.88266835656219,0.0439947259848956,1.89057199815736,0.0524951642889705,36.8909791393796,1.81824534061181,111.280520751116,209.636773129984,4.67848461521014,10.6602668522144,24,4
"DILLAWAY","northernWisconsin","Liquidambarstyraciflua","No_Temperature_Treatments",80.3308225954066,107.637748163052,0.649153968482235,5.74945930845989,36.7789270586052,0.0108096464415249,35.5484340107017,18.7,0.211357515293178,2.68505467783092,41.6565357575538,1.7570604288563,0.353179792711683,17.0545688862778,167.230713510342,55.5921842333132,0.640557373475018,10.5998271959003,8.00807450722367,0.00542736263721363,35.2569067444547,17.498372595021,4.31889869880678,2.36969887496163,0.732605810449183,0.0674965259927457,1.9693591676521,0.0577908707650502,2.08314902556696,0.0647512521969728,36.0411412513014,3.96725603607462,110.268857993537,218.033728774454,11.3002377338387,25.4559837154015,18,0
"DILLAWAY","northernWisconsin","Populusdeltoides","No_Temperature_Treatments",128.742682598059,71.4582674376197,0.641779330901881,7.85198240215754,24.1086987879413,0.0147677194198501,36.1311501677517,18.7,0.504149012713989,2.01310460236355,17.5168116057864,1.26745983864878,0.344221013379195,23.263178650589,218.002878778742,52.6823107943029,0.638198703049899,14.4564436013368,27.1630560246865,0.0245099662772018,36.0894152479431,23.2929099768442,2.13311479784106,2.72620043962191,0.488850312267659,0.69347476296111,1.86369281609753,0.0579164527196046,1.80716637097246,0.0663743916334802,40.8685591977782,3.19026171292428,128.761011687766,236.424190295082,13.4765255748782,19.8909077851418,24,4
"DILLAWAY","northernWisconsin","Populustremuloides","No_Temperature_Treatments",NA,NA,NA,NA,NA,NA,NA,NA,NA,NA,NA,NA,NA,NA,191.514848950459,58.5628799647197,0.635983713134971,10.1138217345782,21.0014976854134,0.0190934927179413,37.7398734332061,22.3144430557912,1.48566058795275,0.958770026183245,0.31996176785611,0.65116214016212,1.96309686011061,0.106546033814563,1.86091977129467,0.0836539959326246,41.3006750211199,2.12563480065932,119.199463241454,233.023094756108,4.59504626654773,13.8964347617551,24,7
"DILLAWAY","southernWisconsin","Betulapapyrifera","No_Temperature_Treatments",108.627090807602,56.8470109225702,0.639876729003219,3.52980964621429,11.9285003742116,0.0062045521705106,35.7040140936763,22.5,0.132279518784958,2.47753111516544,-45.2145539303882,0.542382022102633,0.359626510011201,24.9237951611523,222.50751239158,48.5872347491948,0.646564568195044,12.200047647202,28.3466942926581,0.00901141125267524,31.7212326567066,23.0801918545885,2.24458522565207,0.782356903229326,0.288020790836671,0.150725923329897,2.07824879335791,0.0929569619433179,1.73238847309896,0.0663500751144029,39.9157946426542,1.86792720057091,107.581786369918,223.202691279848,3.13082005619183,11.0358461411624,24,2
"DILLAWAY","southernWisconsin","Liquidambarstyraciflua","No_Temperature_Treatments",92.368083308683,82.9301749309994,0.641313899213635,6.69749072818929,21.7497159402334,0.00776415853800122,37.322069210757,22.5,0.210616523716157,2.40196460739349,-35.2114082801455,0.620993230604793,0.362058803052103,21.4960217324008,184.225679578887,35.7678044042841,0.634378626586405,7.40247213084743,12.3469072819225,0.00881793484599309,35.9445983476627,19.4273226639926,2.11621067061171,1.11562351886427,0.375628556022929,0.313512390242074,2.01107521932793,0.0785051941584702,1.78246038905795,0.0783681138255123,34.0607134792034,0.914003059181406,93.9206740566613,186.507966857835,5.09039357273139,6.02553614242679,24,12
"DILLAWAY","southernWisconsin","Populusdeltoides","No_Temperature_Treatments",143.021928989427,76.6271435737008,0.645523562446411,5.33609858215344,17.3714091671136,0.00622561007871195,34.7871480237974,22.5,0.0733954333067181,1.96580759085189,-27.1865727998188,0.692218629541873,0.324519893299457,28.4745686653107,241.081764635616,43.0586729550693,0.632832149916982,11.3325736773214,15.0080990292648,0.0161000540014411,37.6093999244391,31.5461108449124,1.79978376825408,0.947703070361992,0.267380447091486,0.543137341464649,1.66564709346589,0.0804901741934361,1.3796364386448,0.0352663327955388,43.57094244465,2.02733366162733,146.131694658081,243.324068986689,3.88422510174352,13.3618732364846,24,12
"DILLAWAY","southernWisconsin","Populustremuloides","No_Temperature_Treatments",103.856425040581,79.3290134649926,0.63618234016859,5.92010284392971,14.3314510725359,0.00849618090022921,39.511332207791,22.5,0.243779619795919,2.03603935546394,17.4742335170712,1.26672985080684,0.404502561737217,23.1391615524196,190.688831237719,56.2657520525433,0.636746930848477,14.2726331682056,21.347866907001,0.0131007392714424,37.1466679013427,21.4617300586304,1.87320762376712,1.28910875623469,0.374481453896608,0.424645932568933,1.89124354522592,0.104944412461871,1.60487998534197,0.0658373916904133,34.2876416403505,2.13986050499148,99.1816588509034,185.907475094418,5.44400316408813,11.8009692808537,24,9
"DREYER","No_Seasonal_Measurements","Acer_pseudoplatanus","No_Temperature_Treatments",78.8853055532461,73.5435511559825,0.644730575542877,7.34997962423231,14.3889361530536,0.00407352995938403,34.9039480758071,17.3,1.4025041991357e-05,1.41879434027632,-25.6206455383537,0.707041908475045,0.205888212629201,9.00079887184559,142.317039245634,42.0752724753186,0.644436944165593,8.43161385141336,7.34491427191278,0.00267673405414906,31.9915472356849,16.2544168255669,0.690081927412143,1.43210154431959,0.724145483008566,1.62086246063594e-06,2.05553875138111,0.211476897007076,1.83692152127084,0.133525813774719,29.4862825239024,2.30337888798217,72.2516207810708,163.044531676709,7.78705373299788,11.3882721063094,26,12
"DREYER","No_Seasonal_Measurements","Betula_pendula","No_Temperature_Treatments",67.5246821657593,78.4032289563032,0.63682878749695,7.01623341390454,9.65297845639904,0.00316314113509427,39.1170939550038,17.3,0.00114400969834884,0.961958903719804,-29.0908653728381,0.67461045977617,0.149868557102521,11.6965734946134,118.410604072396,42.0695147947963,0.63479671862631,7.16394661430423,2.6527217639303,0.00122824994582527,36.545925701469,15.8570942679527,1.04474683972367,0.822983922047941,0.0881942191716467,1.74795754617255e-08,1.8390691481025,0.0426453898504983,1.61257751657538,0.0348755153732405,25.5741887409896,1.46376803879069,72.4512201962794,133.224928849335,3.22712428829811,6.60090191844202,21,8
"DREYER","No_Seasonal_Measurements","Fagus_sylvatica","No_Temperature_Treatments",63.4856014480747,72.6472341794494,0.639842407387599,2.77844724317014,7.93477901746075,0.00228141063090796,37.1635334078971,17.3,2.29061275994626e-06,0.789148908196774,-32.8085703571441,0.64151480769037,0.10314595619838,9.30979780669812,120.830786215232,45.1145018013276,0.637643306470358,6.57636748130724,4.39521485459818,0.00188616073036697,35.5403372814005,13.7206433785981,0.963580979650929,0.54112552309816,0.216914413121714,7.90986060059389e-07,2.01884791329591,0.119862482699613,1.80187972775714,0.110777124784195,24.6359428138802,1.48275176149243,63.0114209966785,127.077919742077,1.9581875263598,8.04346791983832,21,6
"DREYER","No_Seasonal_Measurements","Fraxinus_excelsior","No_Temperature_Treatments",79.5776421843071,60.7426088206257,0.628340184816525,6.0847579973961,7.17344109576135,0.00462935146999401,41.6925603651151,17.3,0.0377702822052042,1.06758257619993,-29.7411112339858,0.668701080055781,0.12666820238307,8.35893954523532,144.489628604137,47.9098749557717,0.643019561911813,8.1858828220831,5.12595065460051,0.0017996441961484,33.3054100081371,19.8894438674227,1.17686311217158,1.00201538712235,0.255864010668832,5.39250752042581e-09,1.7993681031252,0.0489500361637029,1.54717848988379,0.0395345714875995,30.7693740467271,1.67263199555711,89.7086409465964,161.578298938577,3.74113591564996,8.77676473086018,24,19
"DREYER","No_Seasonal_Measurements","Juglans_regia","No_Temperature_Treatments",61.6042788206119,107.77005222179,0.648278440008606,4.3948767812182,12.8301668079087,0.00274909363722333,35.9767384321748,17.3,2.96509876996942e-09,0.855063106935593,-25.7253443842305,0.706040987435685,0.11169997698295,8.61669510755517,105.072134633064,57.3325345214134,0.640488045186192,5.70322123186102,6.86974665523439,0.00195093514043547,35.4598338120729,11.9248590783445,1.18140141118733,0.86229117987295,0.244443633868619,1.24097286431196e-06,1.74763294714089,0.0423136922527074,1.59079075458707,0.0493397196955164,18.8691771274953,0.904368414305055,56.2123207885916,97.8777060042533,4.02321522238386,5.31918360859253,21,5
"DREYER","No_Seasonal_Measurements","Quercus_petraea","No_Temperature_Treatments",80.752064530604,65.9818252318282,0.62843027689954,5.87074670687607,3.81708466433605,0.00210922046240876,42.1475042867053,17.3,0.000178069785837852,1.24719484304451,-45.3332726950164,0.541511467051562,0.364920052417422,15.9348979243484,147.546798223184,40.080007158614,0.633772029662651,5.02552146891021,2.16125690683291,0.000951516738227543,36.7944548481287,17.1006297398859,1.18104567459641,NA,NA,8.51775033458161e-10,2.01958192789156,NA,1.75106050310897,NA,29.9442373158047,NA,77.6227674503482,156.765538335652,NA,NA,22,13
"DREYER","No_Seasonal_Measurements","Quercus_robur","No_Temperature_Treatments",86.8659570070266,60.5378348581373,0.623557146648324,6.10321949194303,7.63527384202857,0.0071953007644245,44.0608860314555,17.3,0.182682561218097,0.817918495557118,-52.1209763452446,0.493993244705536,0.224730438029415,14.855678696852,146.6512728575,36.4600284952001,0.632735321754448,8.43174426439368,4.3061670315126,0.00253795159457169,36.8250051855031,18.4300973831685,1.49855009581054,1.57624822004346,0.470438162205878,0.000108144474219004,1.87241786330212,0.000811729117981441,1.79045427621009,0.176405849172796,32.6344553412584,2.27768562453422,84.7261581291647,168.055957162349,8.59058553606304,22.5063425845181,28,21
"ELLSWORTH","summer","Pinus taeda","No_Temperature_Treatments",23.0935606299093,60.5740119135114,0.632169861020275,1.6986783882318,14.7751912651034,0.0157636764397803,39.7895938790341,26.4036006451613,0.57342825662158,0.547025277756103,1.28611221889586,1.01755429908273,0.0564256592629328,9.46621725938046,40.3722363511089,40.6715068501089,0.637147774566317,2.53933026200697,10.1985701885821,0.00801834941579895,35.253987763605,5.20334289379021,0.115891332999455,NA,NA,0.255281491456351,1.34628364253632,NA,1.12908130435051,NA,5.87499718150361,NA,25.9115660549704,34.8843175323059,NA,NA,17,4
"ELLSWORTH","winter","Pinus taeda","No_Temperature_Treatments",30.9596944827658,50.8074411205525,NA,3.00573804490581,14.1251047420141,NA,NA,11.8571193548387,NA,NA,NA,NA,NA,NA,55.9758448198311,34.0901718074891,NA,2.31143829463045,4.55530659225358,NA,NA,NA,NA,NA,NA,NA,NA,NA,NA,NA,NA,NA,NA,NA,NA,NA,NA,NA
"HAN_2","No_Seasonal_Measurements","Pinus densiflora","No_Temperature_Treatments",69.6529889437253,78.2785592250511,0.659639523026517,4.78945934021063,26.5837201435178,0.0082753893928956,28.3682196248757,11.85,0.157324736907772,1.02478339438847,63.0286278255707,2.34625778309513,0.272146637561173,47.7318354052237,123.190251524147,39.2785819897807,0.66013521436969,14.057033157036,33.5790865477256,0.0131080315139285,24.5356798156557,13.8017091358593,1.21908880953098,1.97180877843449,0.398646266020473,0.320744426267968,1.83439137588054,0.279993536431251,1.60149736210596,0.140754468451383,22.3887852449191,4.20061273497794,66.5654522902527,124.376080351398,4.28245647243146,24.9983887928695,NA,NA
"HAN_ET_AL_A","Apr","Chamaecyparis obtusa","No_Temperature_Treatments",38.7203345520811,36.2809155318614,0.64551654203669,0.659787413210185,4.68967084438758,0.00468669656392823,30.780777286271,12,0.29647061634234,1.9655295533264,-42.2791496085391,0.564357927951761,0.0811643083114291,4.81932926572019,113.430156584874,19.2549173739193,0.653887088164018,0.644473209831439,1.65523053032747,0.00083392212812112,24.2456448746336,6.99456856337593,2.05172963756937,NA,NA,0.0482477231880983,2.8520075364908,NA,2.49487927548246,NA,17.4506041497077,NA,39.7910345041998,113.484330290743,NA,NA,4,0
"HAN_ET_AL_A","Oct","Chamaecyparis obtusa","No_Temperature_Treatments",42.5375109836137,38.7728785592803,0.646210376931499,2.99309735429106,17.5502645801592,0.0188351906440375,30.7743006473355,15.2,0.715450207392222,1.14069888821385,-0.351369830923982,0.995257002975424,0.189255973074615,20.271529796806,97.6512915874738,15.648392264015,0.650769141021402,8.54434156727627,20.516686586442,0.0158728948476224,24.7902964178317,8.49221614146545,1.097129642969,NA,NA,0.65998994579624,2.23066423197181,NA,2.01423368536651,NA,17.1053078155529,NA,40.963841358941,91.3765757235571,NA,NA,4,2
"Hikosaka","August","Quercus crispula","No_Temperature_Treatments",61.2026893959239,56.065692897476,0.655459519674024,3.77504823920209,18.9905689463534,0.00790315468474336,28.3734930817663,17.5,0.0862365037846158,1.30790400259112,-51.2470260233569,0.499869470034752,0.229582490888009,16.5343240967912,120.038002760731,35.5651584939311,0.655675907284072,10.6495771906276,19.8511271490328,0.00781853493983035,26.0693944325462,12.0530173249008,1.46315479614481,0.984438837233904,0.307585862514114,0.107534789906275,1.82982828431113,0.154316289659541,1.54964804858345,0.0929712254303883,18.4485026975275,1.77894409607519,60.7977137269934,121.114095025276,5.07358153164469,13.0152710241875,40,20
"Hikosaka","June","Quercus crispula","No_Temperature_Treatments",46.1789156841928,115.076948339338,0.672806784131041,4.21093345186193,101.788444536453,0.0218745588901921,25.2325295070371,12.35,0.022240534654303,3.39190763445361,18.5715474098498,1.28567784758664,0.403839728944069,14.2519546695516,74.5463504177605,41.4756872092475,0.659107483660933,6.44996285397765,21.2208280262487,0.00652441765675592,25.2439395608034,5.75524377176604,3.57331209269786,1.01566498803421,0.883184793631547,0.0737405634112764,1.61464125280883,0.224078214617244,2.02343252703937,0.347947202759844,9.01899841334357,0.758642085936255,47.0231351530073,75.412812523945,7.82123823933049,8.67693430499221,27,11
"Hikosaka","September","Quercus crispula","No_Temperature_Treatments",39.043042798262,49.2571368823473,0.657884136291254,1.38339750094554,9.39909389984227,0.00442253088743838,26.6175953945287,12.9,0.00362173808370454,1.25251753381143,-43.1637602275201,0.557643166311877,0.197078479364443,11.5284832553229,102.091180020059,38.8096659329239,0.662912346056806,5.12550892845791,16.8364473421171,0.00545087176071039,23.2557301379128,7.92419541109131,1.16137924723328,0.464887805877131,0.33977535154597,0.00963034443659088,2.52054365047778,0.0625091274719487,2.25294291167476,0.0638275196620987,17.6491532167942,0.819939166976496,39.1099826777913,101.141687063273,2.12293809400378,6.30941908892228,48,18
"Kelsey_Cater","No_Seasonal_Measurements","Puerto_Rico_Tropical_Spp_1","No_Temperature_Treatments",20.1382656944941,103.830014825973,0.634995178446116,2.84594159734519,17.3459665199549,0.00579110273916331,42.1293789098154,NA,0.0817309571516318,2.21342707718488,26.4212170293536,1.42974718253352,0.227201511542896,8.29466697333141,53.5754645922406,68.6208202049436,0.637781218358891,8.97415708195348,12.8367805732769,0.00429257307989772,37.8044146995044,2.55482904092176,1.68638371210758,0.277019438151485,0.132162065829646,0.0031568966332586,2.31807762295307,0.0991904218808446,2.97240586822121,0.302582648582854,6.05276245349014,0.422492897347636,18.0674788622862,39.6273994530704,1.46560609641052,2.38629793201823,114,20
"Martijn_Slot","No_Seasonal_Measurements","Panama Rainforest Spp","No_Temperature_Treatments",71.0088107749173,77.2579551589495,0.626395795035125,7.69694966146876,12.9621079179024,0.00869386000106957,44.1870913468044,NA,0.234408331621729,-0.558525858414858,34.2396990231467,1.58928970310963,0.14170292556758,20.4676130594741,82.7149625457563,96.7185179757561,0.64490994832833,17.0134926699042,44.5875392982526,0.00937913478697658,36.7085578835608,NA,NA,NA,NA,0.000270225111304459,NA,NA,NA,NA,NA,NA,NA,NA,NA,NA,NA,NA
"MEDLYN","AugSept","Pinus pinaster_L","No_Temperature_Treatments",35.6943361513822,74.429628041341,0.637512509099285,0.965861795184387,4.18171750651203,0.00280882015718976,38.4440243533364,20.96285185,0.00119939687026497,0.294090502842559,34.0866654473164,1.58600224225942,0.0902390848280198,34.497171993368,61.3206969773059,35.8052310710783,0.632734289625878,1.82169544123595,5.52223540557532,0.00759704667676367,36.7371796836231,8.02668268672568,0.400548242132026,0.293238185070309,0.254803291693146,0.256412586481159,1.66234094964688,0.0938165217125976,1.57562754668889,0.0554346372202481,12.686693101274,0.853647079641528,38.4595751016088,64.1381460786455,0.283671695698625,4.21585645461209,15,1
"MEDLYN","AugSept","Pinus pinaster_T","No_Temperature_Treatments",37.4629144828289,61.6951891128608,0.629403343001849,2.92833422962047,9.11311834750541,0.00722296754511708,41.258630696704,20.96285185,0.174646217198716,0.0412035896427532,197.860399697737,14.5441703341831,0.079148410278071,143.628057445899,64.2341256175453,40.922962869769,0.643547538946062,4.04301578648764,13.6232192184085,0.00644358143510179,32.2702470588436,8.06903605742081,0.0904358983851111,0.790682091630658,0.310653417963,0.0673585811685147,1.73879591931495,0.130640309415346,1.66021861716313,0.142068159984836,13.1952923697622,0.973061836034298,37.042279395926,64.2615037816689,2.19882743090319,5.41560018934869,18,0
"MEDLYN","Jan","Pinus pinaster_L","No_Temperature_Treatments",80.1310512058282,180.59088004038,0.664509678952217,30.1924386518567,88.3734915927434,0.0183281874962389,36.464117735297,6.688652802,0.0191305815190264,0.287381096869749,-47.7970881854298,0.523756607918865,0.183722233367458,66.2033317450363,88.7145903411812,37.9100795225791,0.636524534781567,7.19810308095212,16.0070790952819,0.0107792469794387,35.2044491194996,13.5822769519285,0.195026812641183,1.57587615503366,0.377168443367691,0.388208013776308,1.23855722651634,0.350939344153616,1.43817181059373,0.0280044463502581,19.5929879174236,2.55993025205354,96.358922784979,97.4643661760072,31.9410616604937,12.1062067918387,16,3
"MEDLYN","Jan","Pinus pinaster_T","No_Temperature_Treatments",65.766995228865,52.4127388632272,0.630647813072575,6.14014665113364,15.9183997828514,0.0197800640481443,39.7141703322211,6.688652802,0.589108372286975,0.10048943919617,-159.54413027911,0.115470037524619,0.577733021219171,502.831870695886,88.1806748350548,34.5654884527638,0.640427537496277,5.95621409413973,12.4237895347247,0.00779914064017329,32.9201683491721,15.5930462832419,-0.0374350770854882,2.78644389560279,0.996881840341756,0.202585733107986,1.28884060485025,0.192481275587656,1.35540759014994,0.0281890760296519,21.138816350812,3.86777603408493,77.309627138593,114.755221102704,12.4248560456306,34.0054901579599,15,5
"MEDLYN","Jul","Pinus pinaster_T","No_Temperature_Treatments",40.7398502318588,95.2441938791834,0.647950854694628,3.43090896477143,9.67399525906333,0.0024584555327028,35.138847966888,18.36879861,0.0014509146603771,0.209633455530501,-10.3784413002623,0.86898657383841,0.0679041926163158,46.7068215205477,74.3660218773426,49.0709059435942,0.6336149079517,7.42583842209265,27.1254801536098,0.0335235453516944,37.9132516120308,11.3160725084072,0.450428851710424,NA,NA,0.809419211213714,1.64964759607863,NA,1.50174284105301,NA,16.9938308783373,NA,51.3630225819948,84.7308867297201,NA,NA,8,0
"MEDLYN","Jun","Pinus pinaster_L","No_Temperature_Treatments",71.0639190450302,71.6855031345525,0.646538924346489,4.03705181864186,14.674440049793,0.00492036512419475,33.8907673990985,18.9482338,0.00873612011002397,-1.05822457105214,37.6714829616004,1.66482770416726,0.219168131186153,21.2031213427604,NA,NA,NA,NA,NA,NA,NA,NA,NA,NA,NA,NA,NA,NA,NA,NA,NA,NA,NA,NA,NA,NA,NA,NA
"MEDLYN","Jun","Pinus pinaster_T","No_Temperature_Treatments",96.6677984701628,84.0985505067078,0.647961256610873,8.9889654931814,6.0023702876985,0.00173899080372587,34.2453260672087,18.9482338,7.28169693913585e-07,0.596492859251756,-36.3011472697791,0.611903901666415,0.280167069682959,51.6580943820296,92.1649243171416,29.778321251155,0.636972535720309,4.24548795308176,9.36429805864835,0.00802609937488282,33.8496664269713,14.5674735007677,0.66522554368497,1.00303021581182,0.580602817858355,0.270560367717474,0.976839068888633,0.0262929485485667,1.24065334533639,0.0860944283947692,17.9010411852031,0.137992206762364,103.81520448981,100.908969064718,13.4951199772795,11.1237618106381,15,8
"MEDLYN","Mar","Pinus pinaster_L","No_Temperature_Treatments",56.9815217218334,66.3547178387317,0.626251915888196,4.88129039618179,10.9624334080007,0.0137632432857452,43.2690652690203,10.08874537,0.49120722680946,-1.14727876293448,26.1221680698264,1.42397362441747,0.164002706195818,13.8988794182858,93.9416450960944,56.1090857260997,0.642062081212323,6.50343428021058,16.0230300600845,0.00608957801184334,34.5935091696797,14.2541784813728,-1.27365439244938,1.04424381130553,0.62251106019204,0.078941400818346,1.61308064043732,0.0319926316173431,1.40045603418257,0.096642162315032,19.7716440333375,0.471210342472764,61.0419951501066,89.5500889343618,6.13867254831591,8.72091847671638,14,4
"MEDLYN","Mar","Pinus pinaster_T","No_Temperature_Treatments",71.1974681720764,90.8728994124157,0.640725242236629,7.35134458736521,18.9552958929045,0.00825892964865915,38.2566066719635,10.08874537,0.142176785531401,-1.12865181766115,57.5411751302264,2.17836051175161,0.307926558444463,22.6155162695734,104.437973493228,95.0361220023629,0.653312732380991,8.62076509917225,34.8344108039643,0.00756170185884666,32.5955061347324,17.374655897693,-1.09444715998686,0.702077934681301,0.296390495654144,0.0200227395396609,1.40544169130478,0.0514438218731621,1.34776544411594,0.0139352445888722,23.4230425136393,1.03730929623674,77.2838492432326,109.551400151062,6.59037464992266,11.7963516712003,14,7
"MEDLYN","Nov","Pinus pinaster_L","No_Temperature_Treatments",64.7789464161092,63.4409083307959,0.622339886433546,4.58836333451981,11.8523368347944,0.0310152538525704,44.959765142497,13.93527292,0.717134359696243,-0.231719002000369,45.764588663564,1.85749172828962,0.333008516158246,138.887314261302,90.6608467678208,32.1348901033864,0.634952045872164,3.53082158072058,7.00210271865055,0.00658170529241061,35.1603972354094,14.5545751958152,-0.202984148923513,1.69607565959368,1.14653731536761,0.177462673846304,1.28151017244231,0.2196152708826,1.38260650720782,0.026038517886671,20.0702671771678,2.14308255876275,80.8998567934113,98.354452774734,12.1532511314385,4.98753808754441,15,10
"MEDLYN","Nov","Pinus pinaster_T","No_Temperature_Treatments",60.7512404016922,61.0789627483518,0.629593266996703,2.96775223071852,7.42376288651787,0.0110004653999197,41.105313139451,13.93527292,0.368848596671574,-0.317328490027135,55.3827658861975,2.11566194776432,0.200250767252523,61.8879003272687,88.5679067488796,37.3221804327341,0.6331049666095,3.34887082204746,7.8651015913518,0.00926624249495956,36.7618950768663,14.2533700256258,-0.54763686094389,1.14660334111005,0.364659226915722,0.341369406218079,1.51476617357041,0.0828487893170317,1.41237450963243,0.0481494225052481,20.1075984618374,1.61645953516893,63.8158589893287,96.1949207229709,4.7521489665418,6.53409570821048,17,10
"MEDLYN","Oct","Pinus pinaster_L","No_Temperature_Treatments",47.351025104539,77.8395823989347,0.637047535734631,7.69500649703884,14.6940267278874,0.00525797045687262,38.962526500595,13.22915683,0.0454078478289416,-1.31536203063568,-3.27500069500414,0.956654419569238,0.119412008974257,10.2420786950085,53.2841836510093,31.2099709058592,0.637001166160891,2.82714580924271,9.89275423253168,0.00678724586137252,34.0533743934217,9.83519666759459,-1.19964259735456,0.560400860044337,0.0913873057184067,0.149379426753141,1.17752780090442,0.240545794899694,1.30193992528616,0.0066218707154161,12.8040080880104,0.723829253064805,50.0463051147714,55.6198103438627,7.14121866995824,3.62828381416796,14,3
"MEDLYN","Oct","Pinus pinaster_T","No_Temperature_Treatments",54.5017799820535,60.8825494165337,0.626019040738895,1.06921852557741,4.90513916152595,0.00689302783997737,42.8609322264438,13.22915683,0.157025629293009,-1.20474514963614,28.1179750740709,1.46295148753257,0.124351871392438,11.0229664350631,74.479573751406,36.3636993850415,0.63793396144323,2.90617899106014,8.84014386371787,0.00598377982887952,34.3347113719144,13.4966865621115,-1.25947984561704,0.533219101577299,0.272528660718942,0.126413405459917,1.31070646212391,0.079911427998827,1.34496198697977,0.0266546123973303,18.1778508955027,1.06217188592777,63.1794122111184,82.9880324028964,1.2521500532512,6.63239769227884,12,6
"OND","August","Fagus crenata","No_Temperature_Treatments",23.7331816653162,66.9680913526408,NA,3.41464110012091,14.0259633016031,NA,NA,25.3,NA,NA,NA,NA,NA,NA,44.1526321876187,42.9602789650387,NA,5.91204192170947,14.3217353035606,NA,NA,4.14985067602806,0.574884136156747,0.545850732852565,0.0780901012259282,NA,2.1204196693603,0.0774170492394894,2.03146523895358,0.0978528380788269,7.93610981974075,0.811831573226811,20.0511690231471,40.9011547981713,2.42611938445506,4.00852331642627,30,11
"OND","May","Fagus crenata","No_Temperature_Treatments",40.3265219705082,59.0538860692926,NA,2.67315299642689,11.6757376359451,NA,NA,15.9,NA,NA,NA,NA,NA,NA,76.55836530813,29.3936056579961,NA,4.46533780988656,8.70333742015486,NA,NA,6.80682211074268,1.02517221674519,0.621670817208257,0.110993165113514,NA,1.98566802088007,0.0987030691236088,1.76054429003189,0.0981147134395947,11.6094338940831,0.814049756243861,33.2474927169227,64.8699475778484,2.7838171955681,4.13878829947506,30,12
"RF_AMZ","dry","Amazon spp","No_Temperature_Treatments",35.7031743615558,75.2256013146143,0.630159146342744,2.79168192387064,8.43877861040816,0.00283757072119974,42.1253289630324,27.8,0.00179872151454005,0.973178036672006,11.753613860858,1.17237857484428,0.232214243573277,17.3639920084024,55.9055543160402,47.9616738243366,0.620233245806905,1.64536343151005,16.8727826784196,0.00289430562682637,44.3983436788134,6.55497074749305,1.02166774291484,0.353041752910538,0.486736019242037,0.00395050846078295,1.64230753227235,0.171146586770051,1.58992991368673,0.0833590067085271,10.4754382186147,1.05277307099448,34.2860965551064,55.4897943280542,2.39160406688304,2.31185578287441,16,6
"RF_AMZ","wet","Amazon spp","No_Temperature_Treatments",35.7898532824588,73.5990316160084,0.626345084161114,3.22151353400542,7.97623802692206,0.00638050470166335,43.8868356968025,25.8,0.505115534911876,0.57622363646776,16.8850164062032,1.2566709703523,0.134727466190738,21.3565429381595,58.71852936524,48.4427338239855,0.629972134312328,4.3830195240517,6.33178356411019,0.00391515268650278,39.6163761065362,8.68875702874877,0.61999182996819,1.33868972404494,0.147527631420055,0.0856097919824143,1.47773384683744,0.0856418637408361,1.41967315239572,0.0642658450502765,12.1006483388351,1.63202012762943,41.5580634051904,66.5885930943476,6.1215584724728,9.15996793986205,55,32
"RF_MON","No_Seasonal_Measurements","C_g","No_Temperature_Treatments",34.7056525416897,82.3629992743357,0.630174452225335,2.59545901061539,10.9441608084669,0.00742110236868433,42.7368392239646,19.38,0.160053132401423,0.927063005819351,17.7142848512453,1.27085095865791,0.136007159326303,15.6673551739986,81.8078584410898,75.7871996939377,0.655917460930577,4.94270929673979,54.058488434299,0.0112858189302913,29.8687642365583,7.59997733351518,0.902431846637299,0.369560347124842,0.151961747274329,0.00528431618379657,2.23411152783006,0.0396584936944993,2.08973631354276,0.0508694529155801,15.8203146035144,0.503366150379267,36.3560902177528,80.355111096687,1.40327209632105,3.05412318038288,18,7
"RF_MON","No_Seasonal_Measurements","C_s","No_Temperature_Treatments",64.4364756176851,86.9587196464719,0.65037307940055,6.34034091837418,37.8347256199507,0.00828157127241261,33.3380435067243,19.38,5.72218540699842e-05,1.15081688840418,-19.7458930856082,0.765538470815518,0.119147880021025,11.8737115017309,128.640076542925,70.2181037946141,0.65177823175085,10.0271206358208,45.3080293275955,0.0100884207073398,31.3172504214591,13.6818478195641,1.1225413862944,1.11767400143269,0.184817882129196,0.000481387885435434,1.93286748958356,0.152362840953368,1.765868711491,0.129661542867596,23.9233067739367,1.89772411501036,65.0795112838034,124.428799874097,5.09437425519627,9.45386938645265,21,1
"RF_MON","No_Seasonal_Measurements","E_e","No_Temperature_Treatments",25.9561515997876,89.2196281119537,0.644079892852632,3.01910194211212,15.1690790226916,0.00375795684785813,36.5053098466389,19.38,0.00035660635517872,1.11111363911951,-8.65357171594828,0.889506106877394,0.115460982303868,11.5050349058664,57.6260440418499,46.7634567879327,0.642854101498791,3.70006701988795,12.4102052460672,0.00320725667766514,33.2592413144134,5.14650861698723,1.14706796114426,0.395480832856365,0.209963590420241,0.000119881461740746,2.23075759723272,0.152148694552548,2.10401421218114,0.137779047472618,10.6316443849704,0.57223813584511,28.0251231831498,58.3953133941595,2.28607806711788,3.86456222237606,23,6
"RF_MON","No_Seasonal_Measurements","E_i","No_Temperature_Treatments",80.5220464201581,54.6643406790102,0.626676686802055,3.99897410689425,3.83852740028827,0.00243316804145182,41.9066841307773,19.38,0.00102951102686807,1.0415827036255,3.17797037045031,1.04393807476899,0.173073277046807,13.8852749544602,157.592971777945,46.8522201729232,0.634619948212654,5.82461753804777,5.52276039335222,0.00202122248017218,37.1839221338831,18.3427531611867,1.17019889566687,0.871604195189391,0.134931713830106,5.07462063407452e-06,1.93724945645102,0.0940171841588129,1.70015338119986,0.08345737923439,30.8420796899161,0.409094781999882,84.7040290304204,162.230032622705,4.20835839297916,2.55333174615059,26,0
"RF_MON","No_Seasonal_Measurements","E_m","No_Temperature_Treatments",83.2872667818618,58.0400880134422,0.631308967746638,4.46363688436366,10.1687142557846,0.00438099777168225,39.9639485302785,19.38,0.0146094385331643,1.18380576347882,-52.5014503413605,0.49145666256463,0.106037157450188,12.3197112624522,144.437048245175,38.3181548921974,0.634304908656581,11.4892309709577,9.63117866292531,0.00317534924824514,36.3159618522358,17.8853500515022,1.20703467064992,1.28372757285748,0.131841605859856,0.00510435091345823,1.81437961806821,0.013900456452292,1.58839165714854,0.0191815152667214,28.3893156425817,1.98586518006575,81.9401560324093,148.933209861436,5.92984878057131,11.8339139714715,22,4
"RF_MON","No_Seasonal_Measurements","H_a","No_Temperature_Treatments",65.6272304253993,67.5072338649984,0.643130681151717,4.79378547341631,17.7572587953971,0.00457670738862156,35.141457650557,19.38,0.000121067879807109,0.848725433024698,-26.6828300164984,0.696952903526291,0.0973000945119626,12.9751362420823,165.989986752428,35.9033176700182,0.647511811510441,5.69212386943466,13.4088484184059,0.00312328999491405,29.8132918197473,15.0933973842294,0.951070893254534,0.625768617052629,0.120362439234373,1.06705318388533e-07,2.42532893695262,0.0529218983532763,2.1102876564436,0.0752461921332792,31.7397836674733,1.11492602899767,68.9902863854249,167.15760026754,2.89875364615314,7.11828856521098,28,1
"STRASSEMEYER_ET_AL","No_Seasonal_Measurements","Fagus sylvatica","No_Temperature_Treatments",26.7308827470775,65.115283828616,0.631858828353536,1.22086652868195,4.99923247089952,0.00625160571375678,40.3720860847539,20,0.175132779674112,0.719218246835402,15.3608738200923,1.2310203978718,0.0714132409587886,14.6347526218028,45.0690731167091,43.6579710774946,0.646904834988843,1.70353915008452,13.3316905268941,0.00514770219863613,31.0275713882708,5.32609493721136,0.736872377568645,0.236015349406204,0.0805136985602343,0.00987147173089544,1.68284838843903,0.0655205054102864,1.56774587362743,0.0447636965688394,8.39659172987486,0.492889825963111,26.2289427582266,43.7608476226124,1.44316183012607,2.42789987577702,27,7
"STRASSEMEYER_ET_AL","No_Seasonal_Measurements","Quercus robur","No_Temperature_Treatments",44.3741200721083,52.5469222502791,0.633359435629043,5.34708943633925,5.21107752146768,0.00368880910997911,38.4066406819232,20,0.0138271512438638,1.15015881021998,-9.13316149688456,0.883752623533846,0.09931249567441,8.90962294149821,71.8885159382534,25.4910812767346,0.642437770395083,5.36257697665392,14.8351590780817,0.00672655743966384,30.6024176443497,7.427731322001,1.25026862405704,0.822545085535446,0.277786267605725,0.0796775995076039,1.54506468131915,0.0631885762633181,1.44344664359928,0.103708773394701,10.651297774428,1.26324066322489,42.3942044748142,70.0124401341071,5.35635672027438,5.43202225333661,29,27
"TARVAINEN","No_Seasonal_Measurements","Picea abies","No_Temperature_Treatments",69.3527031217359,50.4693525759977,0.642372821943546,1.77532485621631,6.97194626217417,0.00446758652747613,33.8796200824547,NA,0.0205352342651167,1.12686590309903,-31.7161271996398,0.651067803945539,0.121617968145957,14.8964580767907,163.189105199097,36.5789289119805,0.64701220109188,3.53692085846144,5.91654766034345,0.0025831859901358,30.1297843993067,14.5480861026271,1.18200167950714,0.389603470224581,0.0793379076425701,0.000167780985037811,2.41517761194052,0.137871197006837,1.86262199515308,0.0656567522302909,27.0604508701048,0.67062910179738,63.7814874323826,153.274078517731,3.12445978866262,4.21854394362904,12,0
"TARVAINEN_B","No_Seasonal_Measurements","Pinus sylvestris","No_Temperature_Treatments",92.9857966793618,56.378817846411,0.642068194928543,6.82412815155734,9.15104140813642,0.00494235971070253,34.616883440817,15.4,0.0224651496343703,2.23415930095135,-10.6640150932651,0.865635276365624,0.265249345990956,12.9351618097564,173.174840812246,45.6452303713233,0.644666015938317,7.90117213220264,5.09825399424942,0.00250923919834332,32.2889130685531,19.2616849738719,1.98201763443038,1.04674340223375,0.297523348599594,2.26029538687397e-05,1.92480439025621,0.0452409235124129,1.6103274772245,0.0456311723164095,30.7316641455441,1.06600159392305,88.966777361546,170.16171200252,4.70495959938668,6.92137113583346,39,5
"WALCROFT","No_Seasonal_Measurements","Pinus radiata","No_Temperature_Treatments",30.4578612123323,57.0290159131952,NA,0.911275231855368,4.41271565598189,NA,NA,23.7,NA,NA,NA,NA,NA,NA,50.6845261988411,41.5233406606189,0.648482400752583,3.58806268416054,5.26851093459489,0.00453114781093239,30.0559005063345,5.84781213988089,1.43491117375813,0.337647874269274,0.103972562140191,0.0309397769112566,1.8150548258995,0.0634097707330527,1.68156417446279,0.0853937212113103,9.76237915959188,0.503466489034993,30.0898110248694,54.270985006441,1.75498323048481,2.16332685307222,26,23
"WALCROFT_ET_AL_2","No_Seasonal_Measurements","Prunus persica","No_Temperature_Treatments",62.0276225330543,97.8239056097562,0.64277714102345,5.48661656598854,19.647552534164,0.00514953241324094,37.8247470321643,19,0.0232407445190661,44.6995391114231,-66164.7640793388,0,619.532216739647,202103.785872839,101.463070373762,64.7670037621603,0.644108786254391,6.51306429231164,17.9263969094294,0.00487691657302412,34.4336704170324,14.0368953698257,0.276420099096604,1.32849085222062,0.247361110350015,0.0134021229270372,1.67207237233132,0.114231661403521,1.48831232300334,0.0834773053362064,20.5607421450653,0.82047417890283,62.4684832960686,101.90775594172,7.47583751591696,5.46284594737941,12,11
"WANG_ET_AL","No_Seasonal_Measurements","Betula pendula","No_Temperature_Treatments",107.716704064529,65.8279260304841,0.651415882515822,5.79076089924293,9.11271138918904,0.00313708199476184,31.1083510750786,14,0.000541771020149187,2.66963044025422,19.936329233971,1.30964033261171,0.293835789552719,9.19609183919501,121.723727894002,40.9406466944481,0.662520771787617,3.39182464820031,4.339591206707,0.00176005410000107,23.6721549838588,14.4784142412775,2.8315805613233,0.485291002892064,0.435030992866182,1.66292486485709e-10,1.01127408496991,0.0882578923925136,1.38407996191439,0.0298281584567888,20.007871611381,0.481326869583157,116.684323389424,115.162790791544,10.8832863594945,1.20038606440305,20,6
"WANG_ET_AL","No_Seasonal_Measurements","Pinus sylvestris","No_Temperature_Treatments",95.2572222047199,70.0633595152271,0.659163098681523,8.27476620596701,10.0247426016504,0.00236590470444737,27.9196028919492,14,1.19707877426693e-06,3.52232725045914,16.0675973511089,1.242848451127,0.279091641722308,6.07761040467611,97.3028391763613,40.8517159782044,0.662900226876969,2.86488910757815,4.46522963813556,0.00175208836453927,23.4950929500745,9.09957916317709,4.22761427053647,0.52972481908178,0.141392257275212,1.92356983623599e-09,0.796858151454322,0.0553909419048002,1.5087131293142,0.00574732363465495,13.7232322528473,0.755940831202926,110.574067620483,87.7860911142561,4.46535830596597,4.40635483951374,19,8
"WAY_ET_AL","No_Seasonal_Measurements","Picea mariana","Cool",23.3973187690488,43.8488428022276,0.629053301290745,2.13895383606939,7.02698219639309,0.00398063628339911,39.5392187338048,18,0.0211257924739252,1.12590792752273,41.6270025586052,1.75635843910569,0.166218992542597,8.59834642394991,35.4477583211704,24.1480467469711,0.638313611514925,2.95987495646354,3.77229821568767,0.00198067673442049,32.2771886574297,NA,NA,NA,NA,1.27383653163341e-06,NA,NA,NA,NA,NA,NA,NA,NA,NA,NA,NA,NA
"WAY_ET_AL","No_Seasonal_Measurements","Picea mariana","warm",16.829160910119,55.9601075854019,0.624027795338351,2.3101519537266,5.80935024541751,0.00396968855703464,43.3616482615412,26,0.0224342175429517,0.672133125775518,23.1019950741774,1.36695580549612,0.068141694997606,6.68883376971983,24.9803938212703,25.4364656206098,0.632528034012387,1.96081161443697,2.29461705995533,0.00142914456274936,35.2341933747549,NA,NA,NA,NA,8.38387283213992e-07,NA,NA,NA,NA,NA,NA,NA,NA,NA,NA,NA,NA
NA,"Illinois","Populusdeltoides","No_Temperature_Treatments",NA,NA,NA,NA,NA,NA,NA,NA,NA,NA,NA,NA,NA,NA,NA,NA,NA,NA,NA,NA,NA,33.0625907997879,1.5893869980971,1.3420225711423,0.264721584782093,NA,1.6245194936149,0.0769846267705872,1.27722721256007,0.0629899815151508,41.8474007593305,1.36433285727758,162.769581570157,260.13076964212,12.5706425059706,13.2401691597082,24,20
