Species,species,DataSet,Seasonel_or_not,latitude,longitude,SS_location_source,Leafspan,Tregion,Type,Group,PFT,ind,Growth_Condition,Age_of_Plants
Betula papyrifera,Betula papyrifera_DIL,DILLAWAY,yes,45,-89,Dillaway et al,Deciduous,Temperate_N,Angiosperm,De_An,BDT_TE,1,outdoor,saplings
Liquidambar styraciflua,Liquidambar styraciflua_DIL,DILLAWAY,yes,38,-84,Dillaway et al,Deciduous,Temperate_N,Angiosperm,De_An,BDT_TE,1,outdoor,saplings
Populus deltoides,Populus deltoides_DIL,DILLAWAY,yes,43,-89,Dillaway et al,Deciduous,Temperate_N,Angiosperm,De_An,BDT_TE,1,outdoor,saplings
Populus tremuloides,Populus tremuloides_DIL,DILLAWAY,yes,43,-89,Dillaway et al,Deciduous,Temperate_N,Angiosperm,De_An,BDT_TE,1,outdoor,saplings
Acer pseudoplatanus,Acer pseudoplatanus_DRE,DREYER,no,46.37,5.96,App_Dreyer et al,Deciduous,Temperate_N,Angiosperm,De_An,BDT_TE,2,glass_house,seedlings
Betula pendula,Betula pendula_DRE,DREYER,no,52.5,7.23,App_Dreyer et al,Deciduous,Temperate_N,Angiosperm,De_An,BDT_TE,2,glass_house,seedlings
Fagus sylvatica,Fagus sylvatica_DRE,DREYER,no,50.24,5.05,App_Dreyer et al,Deciduous,Temperate_N,Angiosperm,De_An,BDT_TE,2,glass_house,seedlings
Fraxinus excelsior,Fraxinus excelsior_DRE,DREYER,no,50.2,3.72,App_Dreyer et al,Deciduous,Temperate_N,Angiosperm,De_An,BDT_TE,2,glass_house,seedlings
Juglans regia,Juglans regia_DRE,DREYER,no,47.02,6.74,App_Dreyer et al,Deciduous,Temperate_N,Angiosperm,De_An,BDT_TE,2,glass_house,seedlings
Quercus petraea,Quercus petraea_DRE,DREYER,no,48.55,0.08,App_Dreyer et al,Deciduous,Temperate_N,Angiosperm,De_An,BDT_TE,2,glass_house,seedlings
Quercus robur,Quercus robur_DRE,DREYER,no,48.55,0.08,App_Dreyer et al,Deciduous,Temperate_N,Angiosperm,De_An,BDT_TE,2,glass_house,seedlings
Quercus crispula,Quercus crispula,Hikosaka,yes,42.66,141.6,Hikosaka et al,Deciduous,Temperate,Angiosperm,De_An,BDT_TE,3,outdoor,mature
Fagus crenata,Fagus crenata_OND,OND,no,40.63,140.85,Onoda et al,Deciduous,Temperate_N,Angiosperm,De_An,BDT_TE,3,glass_house,seedlings
Fagus sylvatica,Fagus sylvatica_STR,STRASSEMEYER_ET_AL,no,50.24,5.05,Range,Deciduous,Temperate_N,Angiosperm,De_An,BDT_TE,4,glass_house,saplings
Quercus robur,Quercus robur_STR,STRASSEMEYER_ET_AL,no,52.65,6.89,Range,Deciduous,Temperate_N,Angiosperm,De_An,BDT_TE,4,glass_house,saplings
Prunus persica,Prunus persica_WAL,WALCROFT_ET_AL_2,no,43.74,4.87,Range,Deciduous,Temperate_N,Angiosperm,De_An,BDT_TE,5,glass_house,saplings
Betula pendula,Betula pendula_WANG,WANG_ET_AL,no,52.5,7.23,Range,Deciduous,Temperate_N,Angiosperm,De_An,BDT_TE,6,glass_house,seedlings
Eucalyptus tereticornis,Eucalyptus tereticornis_EucFace,EucFace,no,-33.62,150.74,Ellsworth et al,Evergreen,Temperate_S,Angiosperm,Ev_An,BET_TE,1,outdoor,mature
Eucalyptus tereticornis_C,Eucalyptus tereticornis_C,GREAT,no,-35.39,150.07,Drake et al,Evergreen,Temperate_S,Angiosperm,Ev_An,BET_TE,2,glass_house,seedlings
Eucalyptus tereticornis_Co,Eucalyptus tereticornis_Co,GREAT,no,-26.57,152.05,Drake et al,Evergreen,Temperate_S,Angiosperm,Ev_An,BET_TE,2,glass_house,seedlings
Eucalyptus tereticornis_W,Eucalyptus tereticornis_W,GREAT,no,-15.5,145.14,Drake et al,Evergreen,Temperate_S,Angiosperm,Ev_An,BET_TE,2,glass_house,seedlings
ASAW spp,ASAW spp,GWW,no,-30.19,120.65,Henrique et al,Evergreen,Temperate_S,Angiosperm,Ev_An,BET_TE,3,outdoor,mature
Eucalyptus cladocalyx,Eucalyptus cladocalyx_HFE,HFE_CG,yes,-33.03,138.75,Lin et al,Evergreen,Temperate_S,Angiosperm,Ev_An,BET_TE,4,outdoor,saplings
Eucalyptus crebra,Eucalyptus crebra_HFE,HFE_CG,yes,-33.61,150.81,Lin et al,Evergreen,Temperate_S,Angiosperm,Ev_An,BET_TE,4,outdoor,saplings
Eucalyptus dunnii,Eucalyptus dunnii_HFE,HFE_CG,yes,-28.41,153.02,Lin et al,Evergreen,Temperate_S,Angiosperm,Ev_An,BET_TE,4,outdoor,saplings
Eucalyptus melliodora,Eucalyptus melliodora_HFE,HFE_CG,yes,-35.11,147.37,Lin et al,Evergreen,Temperate_S,Angiosperm,Ev_An,BET_TE,4,outdoor,saplings
Eucalyptus saligna,Eucalyptus saligna_HFE,HFE_CG,yes,-30.37,152.1,Lin et al,Evergreen,Temperate_S,Angiosperm,Ev_An,BET_TE,4,outdoor,saplings
Eucalyptus tereticornis,Eucalyptus tereticornis_HFE,HFE_CG,yes,-30.04,150.73,Lin et al,Evergreen,Temperate_S,Angiosperm,Ev_An,BET_TE,4,outdoor,saplings
Corymbia calophylla_CW,Corymbia calophylla_CW,MIKE_ASPINWALL,yes,-34.73,116.21,Aspinwall et al,Evergreen,Temperate_S,Angiosperm,Ev_An,BET_TE,5,glass_house,seedlings
Corymbia calophylla_CD,Corymbia calophylla_CD,MIKE_ASPINWALL,yes,-34.6,118.74,Aspinwall et al,Evergreen,Temperate_S,Angiosperm,Ev_An,BET_TE,5,glass_house,seedlings
Corymbia calophylla_WW,Corymbia calophylla_WW,MIKE_ASPINWALL,yes,-31.34,115.89,Aspinwall et al,Evergreen,Temperate_S,Angiosperm,Ev_An,BET_TE,5,glass_house,seedlings
Corymbia calophylla_WD,Corymbia calophylla_WD,MIKE_ASPINWALL,yes,-31.1,116.05,Aspinwall et al,Evergreen,Temperate_S,Angiosperm,Ev_An,BET_TE,5,glass_house,seedlings
Eucalyptus globulus,Eucalyptus globulus_RFR,RF_MON,no,-36.56,149.65,Range,Evergreen,Temperate_S,Angiosperm,Ev_An,BET_TE,6,outdoor,saplings
Eucalyptus microcorys,Eucalyptus microcorys_RFR,RF_MON,no,-30.58,152.62,Range,Evergreen,Temperate_S,Angiosperm,Ev_An,BET_TE,6,outdoor,saplings
Eucalyptus saligna,Eucalyptus saligna_S30,S30,yes,-30.57,152.15,Ghannoum et al,Evergreen,Temperate_S,Angiosperm,Ev_An,BET_TE,7,glass_house,seedlings
Eucalyptus sideroxylon,Eucalyptus sideroxylon_S30,S30,yes,-32.99,147.89,Ghannoum et al,Evergreen,Temperate_S,Angiosperm,Ev_An,BET_TE,7,glass_house,seedlings
Eucalyptus tetrodonta,Eucalyptus tetrodonta_SAV,SAVANNA,no,-14.16,131.39,Cernussac et al,Evergreen,Temperate_S,Angiosperm,Ev_An,BET_TE,8,outdoor,mature
Eucalyptus globulus,Eucalyptus globulus_TAS,TASMANIA,no,-42.81,146.61,App_Battaglia et al ,Evergreen,Temperate_S,Angiosperm,Ev_An,BET_TE,9,outdoor,saplings
Eucalyptus delegatensis,Eucalyptus delegatensis_TMB,TMB,yes,-35.66,148.15,Medlyn et al,Evergreen,Temperate_S,Angiosperm,Ev_An,BET_TE,10,outdoor,mature
Eucalyptus saligna,Eucalyptus saligna_WTC1,WTC1,yes,-30.43,152.04,Barton et al,Evergreen,Temperate_S,Angiosperm,Ev_An,BET_TE,11,wtc,saplings
Eucalyptus globulus,Eucalyptus globulus_WTC2,WTC2,yes,-38.8,143.59,Crous et al,Evergreen,Temperate_S,Angiosperm,Ev_An,BET_TE,12,wtc,saplings
Eucalyptus tereticornis,Eucalyptus tereticornis_WTC3,WTC3,yes,-33.62,150.74,App,Evergreen,Temperate_S,Angiosperm,Ev_An,BET_TE,13,wtc,saplings
Eucalyptus parramattensis,Eucalyptus parramattensis_WTC4,WTC4,yes,-33.62,150.74,App,Evergreen,Temperate_S,Angiosperm,Ev_An,BET_TE,14,wtc,saplings
Picea mariana,Picea mariana_ANNA,ANNA,yes,47.5,-93.45,Jasen et al,Evergreen,Boreal,Gymnosperm,Ev_Gy,NET_B,1,outdoor,mature
Pinus sylvestris_POL1,Pinus sylvestris_POL1,MARK_TJ,no,53.2,23.36,Tjoelker et al,Evergreen,Boreal,Gymnosperm,Ev_Gy,NET_B,2,glass_house,seedlings
Pinus sylvestris_POL2,Pinus sylvestris_POL2,MARK_TJ,no,51.61,20.2,Tjoelker et al,Evergreen,Boreal,Gymnosperm,Ev_Gy,NET_B,2,glass_house,seedlings
Pinus sylvestris_SWE,Pinus sylvestris_SWE,MARK_TJ,no,60.18,15.86,Tjoelker et al,Evergreen,Boreal,Gymnosperm,Ev_Gy,NET_B,2,glass_house,seedlings
Pinus sylvestris_USS,Pinus sylvestris_USS,MARK_TJ,no,57.83,28.15,Tjoelker et al,Evergreen,Boreal,Gymnosperm,Ev_Gy,NET_B,2,glass_house,seedlings
Picea abies,Picea abies_TAR,TARVAINEN,no,58.38,12.15,Tarvainen et al,Evergreen,Boreal,Gymnosperm,Ev_Gy,NET_B,3,outdoor,mature
Pinus sylvestris,Pinus sylvestris_TAR,TARVAINEN_B,no,64.16,19.75,Tarvainen et al,Evergreen,Boreal,Gymnosperm,Ev_Gy,NET_B,4,outdoor,mature
Pinus sylvestris,Pinus sylvestris_WANG,WANG_ET_AL,no,62.78,30.96,Wang et al,Evergreen,Boreal,Gymnosperm,Ev_Gy,NET_B,5,glass_house,seedlings
Picea mariana,Picea mariana_WAY,WAY_ET_AL,yes,49.11,-74.61,App_ Way et al,Evergreen,Boreal,Gymnosperm,Ev_Gy,NET_B,6,glass_house,seedlings
Pinus taeda,Pinus taeda_ELL,ELLSWORTH,yes,35.96,-79.08,Ellsworth et al,Evergreen,Temperate_N,Gymnosperm,Ev_Gy,NET_TE,1,outdoor,mature
Pinus densiflora,Pinus densiflora_HAN_2,HAN_2,no,35.45,138.8,Han et al,Evergreen,Temperate_N,Gymnosperm,Ev_Gy,NET_TE,2,outdoor,mature
Chamaecyparis obtusa,Chamaecyparis obtusa_HAN,HAN_ET_AL_A,yes,36.05,140.11,Han et al,Evergreen,Temperate_N,Gymnosperm,Ev_Gy,NET_TE,3,glass_house,seedlings
Pinus sylvestris_FRC,Pinus sylvestris_FRC,MARK_TJ,no,48.81,7.78,Tjoelker et al,Evergreen,Temperate_N,Gymnosperm,Ev_Gy,NET_TE,4,glass_house,seedlings
Pinus sylvestris_YUG,Pinus sylvestris_YUG,MARK_TJ,no,44.08,17.35,Tjoelker et al,Evergreen,Temperate_N,Gymnosperm,Ev_Gy,NET_TE,4,glass_house,seedlings
Pinus pinaster_L,Pinus pinaster_L,MEDLYN,yes,44,0.58,App_Medlyn et al,Evergreen,Temperate_N,Gymnosperm,Ev_Gy,NET_TE,5,outdoor,mature
Pinus pinaster_T,Pinus pinaster_T,MEDLYN,yes,35.14,5.25,App_Medlyn et al,Evergreen,Temperate_N,Gymnosperm,Ev_Gy,NET_TE,5,outdoor,mature
Pinus radiata,Pinus radiata_WAL,WALCROFT,no,-42.52,172.45,Walcroft et al,Evergreen,Temperate_S,Gymnosperm,Ev_Gy,NET_TE,6,glass_house,seedlings
Puerto_Rico_Tropical_Spp_2,Puerto_Rico_Tropical_Spp_2,Alida Mao,no,18.31,-65.73,Alida Mao,Evergreen,Tropical,Angiosperm,Ev_An,TET_TE,1,outdoor,mature
Puerto_Rico_Tropical_Spp_1,Puerto_Rico_Tropical_Spp_1,Kelsey_Cater,no,18.31,-65.73,Kelsey_Cater,Evergreen,Tropical,Angiosperm,Ev_An,TET_TE,2,outdoor,mature
Panama Rainforest Spp,Panama Rainforest Spp,Martijn_Slot,no,8.99,-79.54,Slot et al,Evergreen,Tropical,Angiosperm,Ev_An,TET_TE,3,outdoor,mature
Amazon spp,Amazon spp_AMZ,RF_AMZ,yes,-2.63,-60.12,App,Evergreen,Tropical,Angiosperm,Ev_An,TET_TE,4,outdoor,mature
RF_AUSTRALIA,RF_AUSTRALIA,RF_AUS,yes,-16.1,145.44,Kelly_Thesis,Evergreen,Tropical,Angiosperm,Ev_An,TET_TE,5,outdoor,mature
Carapa procera,Carapa procera_RFR,RF_MON,no,-2.47,29.2,Varhammar et al,Evergreen,Tropical,Angiosperm,Ev_An,TET_TE,6,outdoor,saplings
Entandrophragma excelsum,Entandrophragma excelsum_RFR,RF_MON,no,-2.47,29.2,Varhammar et al,Evergreen,Tropical,Angiosperm,Ev_An,TET_TE,6,outdoor,saplings
Hagenia abyssinica,Hagenia abyssinica_RFR,RF_MON,no,-2.47,29.2,Varhammar et al,Evergreen,Tropical,Angiosperm,Ev_An,TET_TE,6,outdoor,saplings
Toona sinensis,Toona sinensis_RFR,RF_MON,no,34.08,73.47,Range,Evergreen,Tropical,Angiosperm,Ev_An,TET_TE,6,outdoor,saplings
Arctic spp,Arctic spp,ARCTIC,no,71.28,-156.65,Rogers et al,,Tundra,,,TUNDRA,1,outdoor,mature
Cedrela odorata,Cedrela odorata_NS,NICK_SMITH,no,14.63,-90.53,App,Evergreen,Tropical,Angiosperm,Ev_An,TET_TE,,glass_house,seedlings
Pinus nigra,Pinus nigra_NS,NICK_SMITH,no,41.74,-1.779,App,Evergreen,Temperate_N,Gymnosperm,Ev_Gy,NET_TE,,glass_house,seedlings
Pinus pinaster,Pinus pinaster_NS,NICK_SMITH,no,40.1,-1.875,App,Evergreen,Temperate_N,Gymnosperm,Ev_Gy,NET_TE,,glass_house,seedlings
Pinus pinea ,Pinus pinea_NS ,NICK_SMITH,no,40.1,-1.875,App,Evergreen,Temperate_N,Gymnosperm,Ev_Gy,NET_TE,,glass_house,seedlings
Pinus sylvestris,Pinus sylvestris_NS,NICK_SMITH,no,40.37,-1.737,App,Evergreen,Temperate_N,Gymnosperm,Ev_Gy,NET_TE,,glass_house,seedlings
Acer rubrum,Acer rubrum_PR,B4WARM,no,46.67,-92.52,App,Deciduous,,,,BDT_B,,,saplings
Betula papyrifera,Betula papyrifera_PR,B4WARM,no,46.67,-92.52,App,Deciduous,,,,BDT_B,,,saplings
Pinus banksiana,Pinus banksiana_PR,B4WARM,no,46.67,-92.52,App,Evergreen,,,,NET_B,,,saplings
Pinus strobus,Pinus strobus_PR,B4WARM,no,46.67,-92.52,App,Evergreen,,,,NET_B,,,saplings
