Species,Tleaf,Cond,Ci,Photo,Trmmol,VPD,CO2S,PARi,Leaf,Curve,Season
Chamaecyparis obtusa,15.16,0.438,43.3,0.47,2.71,0.674,49.81,1099,1,1,Oct
Chamaecyparis obtusa,14.99,0.412,68.2,2.22,2.6,0.685,98.97,1099,1,1,Oct
Chamaecyparis obtusa,14.73,0.413,95.6,3.69,2.6,0.684,146.41,1099,1,1,Oct
Chamaecyparis obtusa,14.59,0.418,133,4.65,2.68,0.696,196.91,1100,1,1,Oct
Chamaecyparis obtusa,14.4,0.398,160,6.08,2.65,0.721,246.1,1099,1,1,Oct
Chamaecyparis obtusa,15.29,0.436,224,9.21,2.66,0.663,344.1,1099,1,1,Oct
Chamaecyparis obtusa,14.19,0.419,228,8.65,2.82,0.731,345.61,1099,1,1,Oct
Chamaecyparis obtusa,15.44,0.433,596,14.6,2.62,0.657,789.47,1101,1,1,Oct
Chamaecyparis obtusa,15.54,0.423,959,16.81,2.52,0.648,1189.36,1101,1,1,Oct
Chamaecyparis obtusa,15.47,0.43,1.25E+03,17.24,2.47,0.624,1487.23,1100,1,1,Oct
Chamaecyparis obtusa,15.61,0.437,1.55E+03,17.18,2.51,0.625,1787.05,1100,1,1,Oct
Chamaecyparis obtusa,19.95,0.446,49.8,-0.05,4.57,1.11,50.08,1100,1,2,Oct
Chamaecyparis obtusa,19.95,0.443,80.1,1.38,4.54,1.11,98.93,1100,1,2,Oct
Chamaecyparis obtusa,19.92,0.426,106,3.01,4.35,1.11,146.95,1100,1,2,Oct
Chamaecyparis obtusa,19.92,0.414,135,4.4,4.23,1.1,196.98,1100,1,2,Oct
Chamaecyparis obtusa,20.07,0.403,161,5.89,4.21,1.13,245.84,1100,1,2,Oct
Chamaecyparis obtusa,20.34,0.413,219,8.93,4.46,1.17,343.79,1100,1,2,Oct
Chamaecyparis obtusa,19.88,0.457,229,9.02,4.64,1.11,343.86,1100,1,2,Oct
Chamaecyparis obtusa,20.04,0.453,565,17.15,4.7,1.13,787.76,1099,1,2,Oct
Chamaecyparis obtusa,20.09,0.431,919,19.44,4.52,1.14,1187.47,1099,1,2,Oct
Chamaecyparis obtusa,20.1,0.418,1.20E+03,20,4.4,1.14,1485.52,1099,1,2,Oct
Chamaecyparis obtusa,20.28,0.389,1.47E+03,20.25,4.22,1.17,1786.11,1099,1,2,Oct
Chamaecyparis obtusa,25.09,0.252,55.9,-0.34,4.14,1.71,50.14,1100,1,3,Oct
Chamaecyparis obtusa,25.03,0.241,79.3,0.81,3.96,1.71,99.83,1101,1,3,Oct
Chamaecyparis obtusa,24.95,0.233,106,1.68,3.82,1.7,148.05,1099,1,3,Oct
Chamaecyparis obtusa,24.97,0.226,125,2.9,3.72,1.7,198.1,1099,1,3,Oct
Chamaecyparis obtusa,25.02,0.22,152,3.69,3.63,1.71,247.19,1099,1,3,Oct
Chamaecyparis obtusa,24.98,0.222,188,6.26,3.64,1.7,345.99,1099,1,3,Oct
Chamaecyparis obtusa,25.11,0.251,203,6.29,4.13,1.72,345.67,1100,1,3,Oct
Chamaecyparis obtusa,25.19,0.236,469,13.33,3.94,1.73,790.31,1100,1,3,Oct
Chamaecyparis obtusa,25.18,0.214,752,16.4,3.61,1.75,1189.18,1100,1,3,Oct
Chamaecyparis obtusa,25.26,0.202,983,17.77,3.47,1.77,1487.34,1100,1,3,Oct
Chamaecyparis obtusa,25.24,0.199,1.25E+03,18.51,3.44,1.78,1787.51,1100,1,3,Oct
Chamaecyparis obtusa,28.64,0.179,62.4,-0.48,4.53,2.6,50.53,1100,1,4,Oct
Chamaecyparis obtusa,28.59,0.172,81.4,0.47,4.35,2.58,99.59,1101,1,4,Oct
Chamaecyparis obtusa,28.5,0.167,110,1.02,4.19,2.56,148.19,1101,1,4,Oct
Chamaecyparis obtusa,28.59,0.152,119,2.08,3.85,2.58,198.42,1101,1,4,Oct
Chamaecyparis obtusa,28.78,0.142,137,2.77,3.67,2.63,248.17,1101,1,4,Oct
Chamaecyparis obtusa,28.89,0.138,178,4.12,3.61,2.65,347.65,1100,1,4,Oct
Chamaecyparis obtusa,28.86,0.176,186,4.96,4.56,2.65,347.03,1100,1,4,Oct
Chamaecyparis obtusa,28.92,0.156,407,10.54,4.08,2.67,792.13,1100,1,4,Oct
Chamaecyparis obtusa,29.07,0.137,570,15.07,3.66,2.72,1190.57,1100,1,4,Oct
Chamaecyparis obtusa,29,0.133,787,16.37,3.54,2.71,1488.37,1100,1,4,Oct
Chamaecyparis obtusa,28.91,0.132,986,18.45,3.49,2.69,1787.14,1100,1,4,Oct
Chamaecyparis obtusa,16.89,0.346,46.9,0.22,2.03,0.622,51.29,1099,2,5,Apr
Chamaecyparis obtusa,16.69,0.349,79.5,1.13,2.05,0.624,100.44,1100,2,5,Apr
Chamaecyparis obtusa,16.45,0.334,112,1.94,1.97,0.625,149.48,1099,2,5,Apr
Chamaecyparis obtusa,16.28,0.325,142,2.87,1.95,0.634,197.72,1099,2,5,Apr
Chamaecyparis obtusa,16.07,0.331,171,3.99,2,0.64,248.19,1099,2,5,Apr
Chamaecyparis obtusa,15.37,0.299,225,5.73,1.91,0.672,346.15,1099,2,5,Apr
Chamaecyparis obtusa,15.62,0.3,226,5.65,1.88,0.661,345.38,1099,2,5,Apr
Chamaecyparis obtusa,15.85,0.309,229,5.68,1.9,0.65,345.28,1099,2,5,Apr
Chamaecyparis obtusa,18.6,0.501,281,4.83,3.09,0.673,345.17,1099,2,5,Apr
Chamaecyparis obtusa,17.07,0.365,562,13.02,2.1,0.612,790.14,1099,2,5,Apr
Chamaecyparis obtusa,17.18,0.355,902,15.81,2.01,0.601,1188.55,1100,2,5,Apr
Chamaecyparis obtusa,17.32,0.386,1.18E+03,18.32,2.13,0.59,1485.87,1099,2,5,Apr
Chamaecyparis obtusa,17.47,0.354,1.44E+03,18.92,1.96,0.586,1785.25,1099,2,5,Apr
Chamaecyparis obtusa,20.88,0.327,54.3,-0.28,2.37,0.762,49.67,1099,2,6,Apr
Chamaecyparis obtusa,20.97,0.338,87.9,0.55,2.51,0.783,99.15,1099,2,6,Apr
Chamaecyparis obtusa,20.91,0.341,119,1.58,2.53,0.783,149.77,1099,2,6,Apr
Chamaecyparis obtusa,20.82,0.331,145,2.66,2.45,0.78,196.94,1099,2,6,Apr
Chamaecyparis obtusa,20.73,0.328,173,3.77,2.41,0.775,246.97,1099,2,6,Apr
Chamaecyparis obtusa,20.71,0.317,227,5.9,2.4,0.795,345.68,1099,2,6,Apr
Chamaecyparis obtusa,20.75,0.313,227,5.84,2.35,0.788,345.62,1099,2,6,Apr
Chamaecyparis obtusa,21.11,0.32,235,5.49,2.38,0.78,344.78,1099,2,6,Apr
Chamaecyparis obtusa,20.81,0.337,531,13.62,2.36,0.74,789.39,1099,2,6,Apr
Chamaecyparis obtusa,20.74,0.348,875,16.85,2.4,0.727,1186.95,1099,2,6,Apr
Chamaecyparis obtusa,20.89,0.346,1.12E+03,19.28,2.44,0.746,1486.3,1099,2,6,Apr
Chamaecyparis obtusa,21,0.324,1.37E+03,20.8,2.36,0.764,1783.65,1099,2,6,Apr
Chamaecyparis obtusa,25.52,0.208,60.2,-0.4,2.81,1.38,49.96,1099,2,7,Apr
Chamaecyparis obtusa,25.57,0.194,88.3,0.29,2.61,1.37,99.46,1099,2,7,Apr
Chamaecyparis obtusa,25.62,0.191,114,1.02,2.61,1.39,148.81,1099,2,7,Apr
Chamaecyparis obtusa,25.65,0.181,128,1.95,2.52,1.42,197.33,1100,2,7,Apr
Chamaecyparis obtusa,25.72,0.188,150,2.89,2.67,1.44,247.5,1100,2,7,Apr
Chamaecyparis obtusa,25.6,0.191,201,4.4,2.69,1.43,346.91,1099,2,7,Apr
Chamaecyparis obtusa,25.46,0.183,210,3.93,2.56,1.43,345.94,1100,2,7,Apr
Chamaecyparis obtusa,25.5,0.201,212,4.26,2.8,1.42,346.98,1099,2,7,Apr
Chamaecyparis obtusa,25.19,0.211,449,11.41,2.74,1.33,791.22,1100,2,7,Apr
Chamaecyparis obtusa,25.47,0.208,695,16.16,2.82,1.39,1188.13,1099,2,7,Apr
Chamaecyparis obtusa,25.25,0.198,874,19.17,2.64,1.36,1486.1,1100,2,7,Apr
Chamaecyparis obtusa,25.44,0.189,1.08E+03,20.91,2.62,1.41,1784.34,1100,2,7,Apr
Chamaecyparis obtusa,29.09,0.149,65.8,-0.45,4.02,2.73,50.08,1099,2,8,Apr
Chamaecyparis obtusa,29.14,0.14,86.1,0.22,3.8,2.73,99.85,1099,2,8,Apr
Chamaecyparis obtusa,29.16,0.132,109,0.76,3.57,2.72,149.58,1099,2,8,Apr
Chamaecyparis obtusa,29.22,0.125,125,1.36,3.37,2.72,197.72,1100,2,8,Apr
Chamaecyparis obtusa,29.33,0.117,145,1.85,3.18,2.73,248.18,1100,2,8,Apr
Chamaecyparis obtusa,29.68,0.118,181,3.06,3.25,2.75,347.31,1099,2,8,Apr
Chamaecyparis obtusa,29.61,0.115,181,2.98,3.15,2.75,347.42,1099,2,8,Apr
Chamaecyparis obtusa,29.7,0.123,183,3.11,3.36,2.74,347.15,1099,2,8,Apr
Chamaecyparis obtusa,28.89,0.127,191,3.03,3.46,2.75,347.23,1099,2,8,Apr
Chamaecyparis obtusa,29.42,0.117,192,2.81,3.19,2.73,347.48,1100,2,8,Apr
Chamaecyparis obtusa,29.05,0.149,389,9.34,4.02,2.72,792.4,1099,2,8,Apr
Chamaecyparis obtusa,28.96,0.14,589,13.08,3.77,2.72,1189.62,1099,2,8,Apr
Chamaecyparis obtusa,28.83,0.133,726,15.81,3.56,2.7,1488.12,1099,2,8,Apr
Chamaecyparis obtusa,28.91,0.129,875,18.32,3.51,2.73,1784.61,1099,2,8,Apr
