DATE,Month,Year,Tleaf,Photo,Cond,E,Ci,SEP,SEG,SEE,SECI
802,February,1994,10,8.9529,1.53941,3.58235,323.906,0.30087,0.03568,0.03761,1.3776
802,February,1994,15,11.8438,0.8375,4.15625,300.863,0.28195,0.03761,0.1129,0.9783
802,February,1994,20,12.0412,0.95412,5.57059,296.341,0.30306,0.11063,0.25231,2.8401
802,February,1994,25,12.5533,0.638,6.48,285.813,0.44389,0.06247,0.14871,3.7558
802,February,1994,30,11.6875,0.56188,7.75,280.9,0.45414,0.03262,0.196,2.7116
802,February,1994,35,9.76,0.443,9.39,280.74,0.36612,0.00335,0.25053,2.0232
1404,April,1994,10,11.1,0.99933,2.94667,289.807,0.52445,0.13397,0.13623,7.7849
1404,April,1994,15,14.0867,0.564,3.52667,263.18,0.23581,0.05629,0.1529,6.2723
1404,April,1994,20,14.31,0.598,4.75,278.6,0.23259,0.03363,0.10567,3.2953
1404,April,1994,25,12.7467,2.86067,6.22667,270.72,0.76544,0.97372,0.56606,6.1398
1404,April,1994,30,11.8667,0.55533,7.3,270.94,0.65274,0.08976,0.38496,2.4644
1404,April,1994,35,6.38,0.48,7.42,288.593,1.13675,0.12472,0.90197,6.1254
2511,November,1993,10,10.2706,1.58176,2.7,298.547,0.43814,0.3571,0.26555,7.7031
2511,November,1993,15,14.3375,0.705,2.9375,257.738,0.43545,0.39649,0.36788,0.5051
2511,November,1993,20,14.75,0.76571,4.28571,255.829,0.59529,0.19842,0.39888,8.2119
2511,November,1993,25,12.9917,0.47417,5.6,265.5,0.73972,0.0852,0.44907,3.8734
2511,November,1993,30,10.6286,0.33857,6.72143,262.271,0.62304,0.04254,0.40778,3.0956
2511,November,1993,35,8.0545,0.33364,8.20909,277.864,0.59702,0.0446,0.60969,2.6888
12485,Dec,,5,8.04,3.382,3.3,353.16,0.28213,0.0102,0,0.3265
12485,Dec,,10,11.32,1.45327,3.56,328.953,0.34547,0.12762,0.14236,2.747
12485,Dec,,15,13.4467,0.552,3.35333,286.207,0.59055,0.06229,0.1704,6.3244
12485,Dec,,20,14.0714,0.38286,3.87143,270.493,0.4362,0.01454,0.03982,2.5772
12485,Dec,,25,12.68,0.38933,5,270.973,0.18701,0.013,0.04781,2.3162
12485,Dec,,30,10.1933,0.46867,7.28,279.98,0.43834,0.01014,0.09914,0.9823
12485,Dec,,35,7.5667,0.45333,9.01333,293.713,0.57235,0.02775,0.0435,0.5243
12590,Dec,,5,10.9067,0.502,1.93333,265.747,0.56362,0.02389,0.04543,2.22
12590,Dec,,10,13.9619,0.5,2.5619,264.748,0.23365,0.01696,0.03617,5.9085
12590,Dec,,15,14.2933,0.42133,3.18667,258.127,0.52431,0.02602,0.09455,3.1416
12590,Dec,,20,14,0.358,3.925,242.95,0.45207,0.019325,0.1194,2.83288
12590,Dec,,25,13.1,0.44563,5.50625,251.75,0.53471,0.04808,0.23496,4.22538
12590,Dec,,30,9.26,0.406,6.14667,272.04,1.46991,0.075048,0.61287,7.15467
12590,Dec,,35,5.4933,0.21533,6.24667,298.213,1.08419,0.028147,0.52995,7.24316
211293,December,1993,10,8.4733,1.016,3.17333,317.613,0.41798,0.095433,0.05297,3.27084
211293,December,1993,15,12.7467,0.37267,2.88,268.567,0.38171,0.021077,0.10337,1.68759
211293,December,1993,20,14.1,0.432,4.00667,263.713,0.48844,0.028821,0.12667,4.80635
211293,December,1993,25,12.4067,0.386,4.95333,264.16,0.22604,0.032817,0.2522,3.8914
211293,December,1993,30,12.1533,0.384,6.22667,262.927,0.2484,0.031559,0.26176,4.45917
211293,December,1993,35,8.06,0.348,7.81333,282.967,0.857,0.025731,0.31891,7.07796
281093,October,1993,10,11.7556,0.35778,2.18889,278,0.66815,0.011759,0.07536,4.29793
281093,October,1993,15,13.5222,0.27667,2.55556,255.222,1.19905,0.025658,0.07093,7.61354
281093,October,1993,20,13.9846,0.30462,3.5,249.231,0.80891,0.032158,0.26723,2.34016
281093,October,1993,25,13.0417,0.27417,4.2,240,0.38207,0.034934,0.28736,4.43642
281093,October,1993,30,9.6333,0.24333,5.26667,262.333,0.4223,0.024777,0.17951,3.01386
281093,October,1993,35,5.9667,0.18556,5.66667,279.556,0.52068,0.007658,0.17717,4.69666
