Species,Leaf,Curve,Photo,Cond,Ci,Trmmol,VpdL,CO2S,Tleaf,Season,fitgroup
Picea mariana,1,1,2.81,0.317,364,1.31,0.429,380.92,9.98,Cool,Cool
Picea mariana,1,1,2.68,0.299,264,1.29,0.448,280.57,10.08,Cool,Cool
Picea mariana,1,1,2.17,0.276,170,1.26,0.473,184.64,10.15,Cool,Cool
Picea mariana,1,1,1.11,0.255,83.8,1.22,0.494,91.68,10.14,Cool,Cool
Picea mariana,1,1,0.283,0.242,45.1,1.2,0.509,47.4,10.14,Cool,Cool
Picea mariana,1,1,2.73,0.237,359,1.19,0.518,381.07,10.22,Cool,Cool
Picea mariana,1,1,2.85,0.232,554,1.18,0.525,579.04,10.23,Cool,Cool
Picea mariana,1,1,2.98,0.229,749,1.18,0.53,776.77,10.25,Cool,Cool
Picea mariana,1,1,3.18,0.224,942,1.17,0.538,973.57,10.3,Cool,Cool
Picea mariana,2,2,3.96,0.217,324,0.821,0.504,363.81,10.06,Cool,Cool
Picea mariana,2,2,3.89,0.211,227,0.806,0.509,265.64,9.97,Cool,Cool
Picea mariana,2,2,3.09,0.199,142,0.809,0.513,172.49,10.04,Cool,Cool
Picea mariana,2,2,1.56,0.202,71.7,0.809,0.514,85.97,10.07,Cool,Cool
Picea mariana,2,2,0.311,0.203,41.8,0.811,0.51,45.55,10.03,Cool,Cool
Picea mariana,2,2,3.93,0.202,328,0.812,0.51,366.51,10.05,Cool,Cool
Picea mariana,2,2,4.16,0.203,527,0.817,0.502,565.09,10,Cool,Cool
Picea mariana,2,2,4.38,0.201,719,0.822,0.502,761.58,10.05,Cool,Cool
Picea mariana,2,2,4.55,0.202,913,0.826,0.497,958.61,10.05,Cool,Cool
Picea mariana,3,3,4.03,0.235,346,1.35,0.643,379.56,10.32,Cool,Cool
Picea mariana,3,3,3.78,0.24,247,1.33,0.651,280.16,10.33,Cool,Cool
Picea mariana,3,3,2.98,0.244,156,1.29,0.671,183.43,10.35,Cool,Cool
Picea mariana,3,3,1.37,0.243,77.9,1.3,0.668,91.53,10.36,Cool,Cool
Picea mariana,3,3,0.199,0.231,44.2,1.31,0.664,47.19,10.35,Cool,Cool
Picea mariana,3,3,4.21,0.218,345,1.3,0.665,380.38,10.33,Cool,Cool
Picea mariana,3,3,4.41,0.217,539,1.3,0.664,578.02,10.33,Cool,Cool
Picea mariana,3,3,4.61,0.199,732,1.29,0.668,775.74,10.34,Cool,Cool
Picea mariana,3,3,4.7,0.189,927,1.31,0.668,974.23,10.41,Cool,Cool
Picea mariana,4,4,3.8,0.167,341,1.64,0.515,371.77,10.68,Cool,Cool
Picea mariana,4,4,3.63,0.162,246,1.59,0.497,273.56,10.19,Cool,Cool
Picea mariana,4,4,2.87,0.161,156,1.56,0.509,178.68,10.21,Cool,Cool
Picea mariana,4,4,1.34,0.161,78.6,1.55,0.528,89.82,10.37,Cool,Cool
Picea mariana,4,4,0.337,0.163,43.1,1.53,0.53,46.71,10.28,Cool,Cool
Picea mariana,4,4,3.56,0.163,339,1.53,0.53,372.4,10.29,Cool,Cool
Picea mariana,4,4,3.47,0.167,535,1.51,0.543,571.37,10.36,Cool,Cool
Picea mariana,4,4,3.75,0.168,726,1.5,0.546,766.47,10.35,Cool,Cool
Picea mariana,4,4,3.95,0.17,920,1.5,0.549,964.56,10.34,Cool,Cool
Picea mariana,5,5,5.6,0.329,346,1.33,0.572,377.42,10.29,Cool,Cool
Picea mariana,5,5,5.08,0.331,250,1.34,0.566,278.71,10.35,Cool,Cool
Picea mariana,5,5,4.05,0.317,161,1.34,0.553,182.47,10.21,Cool,Cool
Picea mariana,5,5,1.91,0.304,81.6,1.32,0.551,91.67,10.16,Cool,Cool
Picea mariana,5,5,0.583,0.298,45.6,1.29,0.563,47.42,10.2,Cool,Cool
Picea mariana,5,5,5.41,0.297,342,1.24,0.576,377.13,10.17,Cool,Cool
Picea mariana,5,5,5.45,0.286,536,1.22,0.567,574.59,10.14,Cool,Cool
Picea mariana,5,5,5.78,0.283,727,1.15,0.582,771.96,10.2,Cool,Cool
Picea mariana,5,5,6.16,0.28,921,1.11,0.589,970.66,10.17,Cool,Cool
Picea mariana,6,6,2.58,0.16,351,0.958,0.598,380.49,10.21,Cool,Cool
Picea mariana,6,6,2.58,0.157,251,0.956,0.609,279.97,10.34,Cool,Cool
Picea mariana,6,6,1.91,0.151,162,0.94,0.621,184.57,10.35,Cool,Cool
Picea mariana,6,6,0.913,0.151,81.3,0.937,0.622,92.09,10.33,Cool,Cool
Picea mariana,6,6,0.156,0.149,45.6,0.937,0.627,47.77,10.39,Cool,Cool
Picea mariana,6,6,2.56,0.159,351,0.965,0.608,380.89,10.4,Cool,Cool
Picea mariana,6,6,2.75,0.155,544,0.959,0.616,578.07,10.45,Cool,Cool
Picea mariana,6,6,2.83,0.16,740,0.971,0.605,775.93,10.43,Cool,Cool
Picea mariana,6,6,2.81,0.15,935,0.945,0.628,975.41,10.49,Cool,Cool
Picea mariana,1,7,3.57,0.135,323,1.69,1.26,372.98,19.67,Cool,Cool
Picea mariana,1,7,2.89,0.12,234,1.64,1.37,278.96,20.19,Cool,Cool
Picea mariana,1,7,1.88,0.118,156,1.59,1.36,185.21,19.92,Cool,Cool
Picea mariana,1,7,0.526,0.11,85,1.56,1.42,94.82,20.42,Cool,Cool
Picea mariana,1,7,-0.234,0.108,51.8,1.55,1.44,49.44,20.43,Cool,Cool
Picea mariana,1,7,3.31,0.106,319,1.47,1.39,377.39,20.44,Cool,Cool
Picea mariana,1,7,4.06,0.104,495,1.46,1.42,570.79,20.46,Cool,Cool
Picea mariana,1,7,4.46,0.0997,678,1.41,1.41,766.56,20.48,Cool,Cool
Picea mariana,1,7,4.77,0.0975,862,1.39,1.43,962.64,20.5,Cool,Cool
Picea mariana,2,8,4.97,0.167,296,1.61,0.979,349.26,20.47,Cool,Cool
Picea mariana,2,8,4.06,0.167,216,1.63,0.991,259.87,20.67,Cool,Cool
Picea mariana,2,8,2.62,0.163,145,1.62,1.01,173.79,20.76,Cool,Cool
Picea mariana,2,8,0.841,0.16,80.3,1.6,1.02,90.25,20.68,Cool,Cool
Picea mariana,2,8,-0.215,0.157,51.6,1.59,1.03,50.17,20.7,Cool,Cool
Picea mariana,2,8,4.58,0.153,300,1.58,1.04,354.35,20.68,Cool,Cool
Picea mariana,2,8,5.34,0.152,479,1.57,1.05,545.21,20.68,Cool,Cool
Picea mariana,2,8,5.85,0.149,662,1.55,1.06,737.79,20.68,Cool,Cool
Picea mariana,2,8,6.07,0.146,851,1.53,1.06,933.84,20.58,Cool,Cool
Picea mariana,3,9,4.71,0.089,282,1.51,1.72,376.18,20.43,Cool,Cool
Picea mariana,3,9,3.82,0.099,211,1.63,1.66,280.26,20.41,Cool,Cool
Picea mariana,3,9,2.28,0.106,149,1.71,1.63,187.83,20.41,Cool,Cool
Picea mariana,3,9,0.403,0.118,88.9,1.83,1.57,96.72,20.35,Cool,Cool
Picea mariana,3,9,-0.695,0.13,59.8,1.94,1.51,52.5,20.32,Cool,Cool
Picea mariana,3,9,4.89,0.137,309,2,1.48,374.8,20.34,Cool,Cool
Picea mariana,3,9,6.22,0.134,479,1.98,1.5,566.68,20.35,Cool,Cool
Picea mariana,3,9,6.72,0.125,659,1.9,1.54,763.53,20.38,Cool,Cool
Picea mariana,3,9,6.93,0.117,843,1.82,1.57,961.77,20.37,Cool,Cool
Picea mariana,4,10,6.72,0.246,313,2.68,1.11,363.61,20.15,Cool,Cool
Picea mariana,4,10,5.68,0.265,230,2.77,1.06,269.42,20.17,Cool,Cool
Picea mariana,4,10,3.9,0.268,152,2.79,1.06,178.64,20.17,Cool,Cool
Picea mariana,4,10,1.51,0.28,80.9,2.83,1.03,91.27,20.13,Cool,Cool
Picea mariana,4,10,-0.024,0.279,47.4,2.82,1.03,48.1,20.15,Cool,Cool
Picea mariana,4,10,6.99,0.289,317,2.84,1,362.44,20.15,Cool,Cool
Picea mariana,4,10,8,0.278,498,2.77,1.02,554.6,20.18,Cool,Cool
Picea mariana,4,10,8.61,0.277,687,2.74,1.01,750.29,20.21,Cool,Cool
Picea mariana,4,10,9.08,0.276,876,2.64,0.975,945.27,20.25,Cool,Cool
Picea mariana,5,11,5.11,0.104,285,1.4,1.33,371.89,20.36,Cool,Cool
Picea mariana,5,11,4.17,0.103,206,1.38,1.33,276.89,20.34,Cool,Cool
Picea mariana,5,11,2.73,0.102,137,1.37,1.32,183.34,20.34,Cool,Cool
Picea mariana,5,11,0.946,0.103,77.4,1.37,1.31,94.16,20.33,Cool,Cool
Picea mariana,5,11,-0.12,0.103,50,1.37,1.31,49.14,20.33,Cool,Cool
Picea mariana,5,11,4.97,0.103,287,1.34,1.29,372.55,20.34,Cool,Cool
Picea mariana,5,11,5.78,0.1,463,1.32,1.3,567.59,20.37,Cool,Cool
Picea mariana,5,11,6.15,0.102,652,1.33,1.28,763.85,20.34,Cool,Cool
Picea mariana,5,11,6.21,0.102,845,1.32,1.28,962.5,20.39,Cool,Cool
Picea mariana,6,12,3.41,0.133,323,1.69,1.25,371.5,20.32,Cool,Cool
Picea mariana,6,12,2.86,0.151,240,1.8,1.18,276.11,20.36,Cool,Cool
Picea mariana,6,12,1.88,0.164,162,1.87,1.13,184.02,20.31,Cool,Cool
Picea mariana,6,12,0.53,0.154,87.3,1.82,1.17,94.73,20.36,Cool,Cool
Picea mariana,6,12,-0.374,0.153,53.6,1.81,1.17,50.61,20.33,Cool,Cool
Picea mariana,6,12,3.22,0.142,330,1.76,1.22,374.29,20.38,Cool,Cool
Picea mariana,6,12,3.95,0.14,510,1.74,1.23,566.71,20.37,Cool,Cool
Picea mariana,6,12,4.42,0.136,694,1.71,1.24,761.35,20.33,Cool,Cool
Picea mariana,6,12,4.75,0.129,877,1.67,1.28,956.72,20.44,Cool,Cool
Picea mariana,1,13,3.34,0.0629,280,1.23,1.92,376.11,30.68,Cool,Cool
Picea mariana,1,13,2.45,0.0694,217,1.34,1.89,281.96,30.7,Cool,Cool
Picea mariana,1,13,1.29,0.0713,155,1.38,1.9,189.57,30.75,Cool,Cool
Picea mariana,1,13,-0.163,0.0838,99.7,1.54,1.81,99.54,30.78,Cool,Cool
Picea mariana,1,13,-0.975,0.0984,69.3,1.71,1.71,55.03,30.91,Cool,Cool
Picea mariana,1,13,3.2,0.126,325,2.09,1.65,375.46,31.05,Cool,Cool
Picea mariana,1,13,4.7,0.131,491,2.13,1.61,563.65,31.21,Cool,Cool
Picea mariana,1,13,5.64,0.131,667,2.13,1.6,755.71,31.37,Cool,Cool
Picea mariana,1,13,6.13,0.125,848,2.06,1.62,950.93,31.48,Cool,Cool
Picea mariana,2,14,4.13,0.0978,280,1.68,1.7,357.24,30.49,Cool,Cool
Picea mariana,2,14,2.97,0.101,215,1.73,1.69,268.8,30.69,Cool,Cool
Picea mariana,2,14,1.54,0.107,154,1.77,1.64,181.91,30.68,Cool,Cool
Picea mariana,2,14,-0.141,0.112,98.3,1.83,1.62,98.9,30.71,Cool,Cool
Picea mariana,2,14,-1.08,0.113,71.5,1.89,1.65,57.81,30.9,Cool,Cool
Picea mariana,2,14,3.84,0.121,298,2.03,1.66,358.88,30.88,Cool,Cool
Picea mariana,2,14,5.22,0.124,461,2.09,1.67,542.81,30.83,Cool,Cool
Picea mariana,2,14,5.89,0.124,638,2.1,1.68,733.71,31.05,Cool,Cool
Picea mariana,2,14,6.25,0.126,820,2.14,1.68,924.8,31.05,Cool,Cool
Picea mariana,3,15,3.14,0.073,300,1.78,2.41,382.49,30.06,Cool,Cool
Picea mariana,3,15,1.9,0.0738,237,1.79,2.41,288.92,30.2,Cool,Cool
Picea mariana,3,15,0.475,0.075,178,1.78,2.36,195.07,30.27,Cool,Cool
Picea mariana,3,15,-1.18,0.078,124,1.76,2.24,103.9,30.33,Cool,Cool
Picea mariana,3,15,-2.1,0.0843,96.7,1.79,2.1,59.08,30.39,Cool,Cool
Picea mariana,3,15,3.15,0.0939,318,1.85,1.95,383.25,30.58,Cool,Cool
Picea mariana,3,15,4.57,0.0944,479,1.83,1.92,574.23,30.62,Cool,Cool
Picea mariana,3,15,5.41,0.0926,653,1.78,1.9,769.28,30.72,Cool,Cool
Picea mariana,3,15,5.89,0.0919,835,1.74,1.88,966.01,30.74,Cool,Cool
Picea mariana,4,16,6.18,0.148,288,2.67,1.77,365.17,30.37,Cool,Cool
Picea mariana,4,16,4.66,0.157,219,2.74,1.71,273.88,30.35,Cool,Cool
Picea mariana,4,16,2.83,0.202,156,2.79,1.37,183.11,29.15,Cool,Cool
Picea mariana,4,16,0.504,0.197,89.8,2.88,1.44,96.24,29.72,Cool,Cool
Picea mariana,4,16,-0.822,0.196,58,2.95,1.49,52.51,30.2,Cool,Cool
Picea mariana,4,16,5.86,0.197,311,2.97,1.49,367.79,30.33,Cool,Cool
Picea mariana,4,16,7.8,0.192,475,2.93,1.51,554.63,30.45,Cool,Cool
Picea mariana,4,16,8.98,0.188,651,2.93,1.53,747.04,30.63,Cool,Cool
Picea mariana,4,16,9.73,0.187,834,2.91,1.53,941.63,30.69,Cool,Cool
Picea mariana,5,17,4.34,0.0918,285,2.03,2.16,373.43,28.69,Cool,Cool
Picea mariana,5,17,3.27,0.0916,212,2.13,2.26,279.19,29.39,Cool,Cool
Picea mariana,5,17,1.77,0.0922,150,2.18,2.3,187.92,29.7,Cool,Cool
Picea mariana,5,17,0.138,0.0843,91.7,2.12,2.44,98.18,30.28,Cool,Cool
Picea mariana,5,17,-0.914,0.0875,67.7,2.19,2.43,53.22,30.4,Cool,Cool
Picea mariana,5,17,3.81,0.0838,290,2.13,2.46,376.8,30.45,Cool,Cool
Picea mariana,5,17,5.51,0.0834,438,2.13,2.47,565.92,30.51,Cool,Cool
Picea mariana,5,17,6.61,0.081,599,2.1,2.51,759.2,30.63,Cool,Cool
Picea mariana,5,17,7.08,0.0775,771,2.04,2.55,955.43,30.73,Cool,Cool
Picea mariana,6,18,2.84,0.0966,315,1.96,1.97,374.35,29.6,Cool,Cool
Picea mariana,6,18,1.92,0.0909,239,1.93,2.06,282.69,29.97,Cool,Cool
Picea mariana,6,18,0.891,0.0895,168,1.93,2.09,190.06,30.17,Cool,Cool
Picea mariana,6,18,-0.474,0.089,106,1.95,2.11,101.09,30.39,Cool,Cool
Picea mariana,6,18,-1.2,0.0915,75.6,1.99,2.1,56.72,30.49,Cool,Cool
Picea mariana,6,18,2.68,0.0908,316,1.99,2.11,376.02,30.69,Cool,Cool
Picea mariana,6,18,3.94,0.0893,476,1.97,2.12,565.91,30.75,Cool,Cool
Picea mariana,6,18,4.73,0.0888,646,1.97,2.14,757.55,30.85,Cool,Cool
Picea mariana,6,18,5.16,0.0884,825,1.97,2.15,951.48,30.91,Cool,Cool
Picea mariana,1,19,1.1,0.067,338,2.55,3.67,386.48,39.42,Cool,Cool
Picea mariana,1,19,0.139,0.0659,273,2.57,3.75,294.15,39.7,Cool,Cool
Picea mariana,1,19,-0.706,0.0651,205,2.57,3.8,200.25,39.84,Cool,Cool
Picea mariana,1,19,-1.54,0.0655,137,2.59,3.8,107.22,39.91,Cool,Cool
Picea mariana,1,19,-1.9,0.0653,102,2.6,3.82,60.36,40,Cool,Cool
Picea mariana,1,19,0.442,0.0669,357,2.65,3.81,391.1,40.04,Cool,Cool
Picea mariana,1,19,1.24,0.0681,519,2.7,3.81,583.1,40.09,Cool,Cool
Picea mariana,1,19,1.94,0.0686,683,2.74,3.84,775.18,40.2,Cool,Cool
Picea mariana,1,19,2.22,0.0696,859,2.8,3.86,969.9,40.27,Cool,Cool
Picea mariana,2,20,0.699,0.0499,344,1.69,3.23,386.68,40.1,Cool,Cool
Picea mariana,2,20,-0.0991,0.0536,283,1.78,3.17,295.46,40.17,Cool,Cool
Picea mariana,2,20,-0.911,0.0499,222,1.7,3.26,204.75,40.27,Cool,Cool
Picea mariana,2,20,-1.74,0.0465,166,1.63,3.34,113.18,40.37,Cool,Cool
Picea mariana,2,20,-2.15,0.0468,135,1.63,3.33,66.89,40.35,Cool,Cool
Picea mariana,2,20,0.064,0.0493,370,1.71,3.31,393.48,40.42,Cool,Cool
Picea mariana,2,20,0.813,0.0505,527,1.74,3.3,583.8,40.46,Cool,Cool
Picea mariana,2,20,1.46,0.0361,669,1.35,3.58,778.08,40.24,Cool,Cool
Picea mariana,2,20,2.06,0.0362,825,1.35,3.57,970.33,40.09,Cool,Cool
Picea mariana,3,21,-0.649,0.0885,384,3.4,3.72,396.45,39.71,Cool,Cool
Picea mariana,3,21,-1.66,0.0908,313,3.48,3.71,302.14,39.88,Cool,Cool
Picea mariana,3,21,-2.7,0.092,241,3.54,3.72,207.59,40.06,Cool,Cool
Picea mariana,3,21,-3.47,0.0907,166,3.5,3.73,113.11,40.1,Cool,Cool
Picea mariana,3,21,-3.85,0.0901,128,3.48,3.73,65.1,40.12,Cool,Cool
Picea mariana,3,21,-1.58,0.0888,405,3.44,3.74,401.52,40.16,Cool,Cool
Picea mariana,3,21,-0.856,0.0857,574,3.36,3.79,594.82,40.24,Cool,Cool
Picea mariana,3,21,-0.186,0.078,743,3.16,3.91,789.63,40.39,Cool,Cool
Picea mariana,3,21,0.343,0.0748,915,3.07,3.96,985.31,40.42,Cool,Cool
Picea mariana,4,22,3.05,0.0849,301,3.13,3.53,379.07,39.38,Cool,Cool
Picea mariana,4,22,1.68,0.0839,239,3.16,3.6,287.01,39.59,Cool,Cool
Picea mariana,4,22,0.248,0.0891,179,3.32,3.56,194.37,39.67,Cool,Cool
Picea mariana,4,22,-1.36,0.0952,120,3.49,3.51,103.63,39.77,Cool,Cool
Picea mariana,4,22,-2.1,0.0928,89.2,3.46,3.56,56.92,39.87,Cool,Cool
Picea mariana,4,22,2.43,0.0967,321,3.62,3.58,382.63,39.9,Cool,Cool
Picea mariana,4,22,4.04,0.0995,474,3.7,3.55,570.65,39.88,Cool,Cool
Picea mariana,4,22,5.09,0.1,638,3.76,3.58,762.71,39.97,Cool,Cool
Picea mariana,4,22,5.89,0.102,808,3.8,3.58,955.16,39.96,Cool,Cool
Picea mariana,5,23,0.828,0.0498,323,3.44,6.48,388.93,43.93,Cool,Cool
Picea mariana,5,23,0.0379,0.0519,262,3.55,6.41,294.26,43.91,Cool,Cool
Picea mariana,5,23,-0.812,0.0519,202,3.54,6.41,199.29,43.92,Cool,Cool
Picea mariana,5,23,-1.65,0.0514,144,3.52,6.42,105.78,43.93,Cool,Cool
Picea mariana,5,23,-2.06,0.0515,113,3.53,6.43,58.28,43.96,Cool,Cool
Picea mariana,5,23,0.925,0.0493,326,2.87,5.5,390.1,41.17,Cool,Cool
Picea mariana,5,23,2.12,0.0467,459,2.76,5.59,581.77,41.23,Cool,Cool
Picea mariana,5,23,2.92,0.0436,602,2.61,5.68,776.13,41.26,Cool,Cool
Picea mariana,5,23,3.61,0.0429,751,2.58,5.7,969.97,41.28,Cool,Cool
Picea mariana,6,24,0.125,0.0798,362,3.39,4.01,390.11,39.59,Cool,Cool
Picea mariana,6,24,-0.562,0.08,287,3.43,4.05,295.86,39.76,Cool,Cool
Picea mariana,6,24,-1.29,0.0802,215,3.46,4.07,203.82,39.87,Cool,Cool
Picea mariana,6,24,-1.93,0.0808,140,3.48,4.07,110.07,39.87,Cool,Cool
Picea mariana,6,24,-2.31,0.0809,103,3.49,4.07,62.92,39.91,Cool,Cool
Picea mariana,6,24,-0.307,0.0807,373,3.49,4.08,393.87,39.93,Cool,Cool
Picea mariana,6,24,0.452,0.0797,534,3.46,4.1,582.75,39.93,Cool,Cool
Picea mariana,6,24,1.15,0.0762,697,3.4,4.2,774.01,40.05,Cool,Cool
Picea mariana,6,24,1.67,0.0757,865,3.37,4.2,966.66,39.98,Cool,Cool
Picea mariana,7,25,3.01,0.114,327,0.718,0.641,373.1,10.07,warm,warm
Picea mariana,7,25,2.82,0.0999,226,0.67,0.684,274.81,10.1,warm,warm
Picea mariana,7,25,2.24,0.097,141,0.66,0.694,179.85,10.13,warm,warm
Picea mariana,7,25,0.953,0.0902,72.5,0.637,0.72,90.53,10.21,warm,warm
Picea mariana,7,25,0.216,0.0857,41.9,0.618,0.735,46.53,10.2,warm,warm
Picea mariana,7,25,2.92,0.0723,305,0.558,0.786,374.28,10.22,warm,warm
Picea mariana,7,25,3.21,0.0672,487,0.536,0.811,570.91,10.29,warm,warm
Picea mariana,7,25,3.34,0.0659,678,0.524,0.809,769.15,10.32,warm,warm
Picea mariana,7,25,3.45,0.0657,871,0.522,0.808,967.89,10.29,warm,warm
Picea mariana,8,26,1.52,0.0406,316,0.352,0.872,380.65,10.85,warm,warm
Picea mariana,8,26,1.4,0.0389,219,0.339,0.875,280.2,10.7,warm,warm
Picea mariana,8,26,1.02,0.0375,140,0.329,0.881,185.7,10.62,warm,warm
Picea mariana,8,26,0.42,0.0366,73.2,0.324,0.889,92.77,10.64,warm,warm
Picea mariana,8,26,0.0619,0.0351,44.7,0.315,0.9,48.2,10.63,warm,warm
Picea mariana,8,26,1.33,0.034,315,0.307,0.908,382.93,10.62,warm,warm
Picea mariana,8,26,1.45,0.0349,506,0.313,0.901,580.27,10.63,warm,warm
Picea mariana,8,26,1.61,0.0354,694,0.317,0.899,777.53,10.67,warm,warm
Picea mariana,8,26,1.77,0.0357,881,0.316,0.89,974.29,10.54,warm,warm
Picea mariana,9,27,2.89,0.183,337,0.758,0.421,365.47,10.08,warm,warm
Picea mariana,9,27,2.86,0.181,239,0.757,0.424,266.3,10.11,warm,warm
Picea mariana,9,27,2.37,0.175,149,0.75,0.435,171.91,10.16,warm,warm
Picea mariana,9,27,1.12,0.167,74.7,0.737,0.448,86.25,10.13,warm,warm
Picea mariana,9,27,0.234,0.155,42.7,0.72,0.469,45.48,10.15,warm,warm
Picea mariana,9,27,2.59,0.12,332,0.653,0.547,370.1,10.23,warm,warm
Picea mariana,9,27,2.83,0.117,522,0.645,0.555,565.64,10.23,warm,warm
Picea mariana,9,27,2.97,0.113,713,0.634,0.567,762.31,10.24,warm,warm
Picea mariana,9,27,2.99,0.109,909,0.625,0.578,961.96,10.25,warm,warm
Picea mariana,10,28,2.86,0.0397,257,0.414,1.04,377.55,11.39,warm,warm
Picea mariana,10,28,2.24,0.0378,182,0.377,0.994,281.13,10.56,warm,warm
Picea mariana,10,28,1.45,0.0364,121,0.364,0.996,187.47,10.48,warm,warm
Picea mariana,10,28,0.584,0.0368,67.8,0.367,0.99,94.53,10.42,warm,warm
Picea mariana,10,28,0.106,0.037,42.2,0.368,0.989,47.49,10.41,warm,warm
Picea mariana,10,28,2.54,0.0368,263,0.366,0.99,379.74,10.42,warm,warm
Picea mariana,10,28,2.83,0.0367,444,0.367,0.993,576.43,10.46,warm,warm
Picea mariana,10,28,3.14,0.0368,626,0.368,0.994,774.3,10.48,warm,warm
Picea mariana,10,28,3.35,0.0369,812,0.369,0.994,972.47,10.49,warm,warm
Picea mariana,11,29,2.54,0.0578,301,0.458,0.786,375.56,9.58,warm,warm
Picea mariana,11,29,2.21,0.0612,217,0.473,0.766,277.82,9.5,warm,warm
Picea mariana,11,29,1.63,0.0623,139,0.479,0.763,183.46,9.54,warm,warm
Picea mariana,11,29,0.697,0.064,73.7,0.488,0.757,92.32,9.56,warm,warm
Picea mariana,11,29,0.139,0.0657,43.2,0.495,0.748,47.18,9.52,warm,warm
Picea mariana,11,29,2.5,0.0683,312,0.507,0.737,375.61,9.53,warm,warm
Picea mariana,11,29,2.63,0.0701,507,0.517,0.732,573.67,9.57,warm,warm
Picea mariana,11,29,2.93,0.0703,693,0.532,0.751,769.26,9.99,warm,warm
Picea mariana,11,29,3.08,0.0712,886,0.534,0.744,966.48,9.93,warm,warm
Picea mariana,12,30,1.34,0.0144,236,0.155,1.08,390.87,9.64,warm,warm
Picea mariana,12,30,0.979,0.0143,180,0.153,1.07,293.42,9.63,warm,warm
Picea mariana,12,30,0.597,0.0144,126,0.153,1.06,194.89,9.65,warm,warm
Picea mariana,12,30,0.154,0.0147,79.8,0.152,1.04,98.2,9.57,warm,warm
Picea mariana,12,30,-0.0567,0.0149,54.2,0.151,1.02,48.94,9.6,warm,warm
Picea mariana,12,30,1.26,0.015,252,0.148,0.989,392.62,9.61,warm,warm
Picea mariana,12,30,1.72,0.0152,399,0.143,0.947,588.16,9.63,warm,warm
Picea mariana,12,30,2.04,0.0154,564,0.137,0.896,786.55,9.62,warm,warm
Picea mariana,12,30,2.31,0.0155,734,0.131,0.85,984.81,9.67,warm,warm
Picea mariana,7,31,3.93,0.0667,262,0.882,1.33,364.15,22.53,warm,warm
Picea mariana,7,31,3.03,0.0659,193,0.884,1.34,271.81,22.63,warm,warm
Picea mariana,7,31,1.96,0.0673,131,0.867,1.29,181.64,22.24,warm,warm
Picea mariana,7,31,0.666,0.0678,75.8,0.871,1.29,93.37,22.24,warm,warm
Picea mariana,7,31,-0.0672,0.0686,49.6,0.878,1.28,49.08,22.24,warm,warm
Picea mariana,7,31,4.06,0.0697,264,0.912,1.32,364.72,22.3,warm,warm
Picea mariana,7,31,5.24,0.0701,422,0.92,1.32,552.59,22.35,warm,warm
Picea mariana,7,31,5.88,0.069,595,0.915,1.33,746.4,22.39,warm,warm
Picea mariana,7,31,6.13,0.0679,778,0.91,1.35,942.59,22.43,warm,warm
Picea mariana,8,32,2,0.0372,278,0.562,1.51,372.56,20.43,warm,warm
Picea mariana,8,32,1.62,0.0391,204,0.599,1.53,276.64,20.81,warm,warm
Picea mariana,8,32,1.03,0.0405,141,0.625,1.54,185.4,21.04,warm,warm
Picea mariana,8,32,0.28,0.0421,82.4,0.641,1.52,95.23,21.01,warm,warm
Picea mariana,8,32,-0.152,0.0432,54.7,0.652,1.5,50.34,20.95,warm,warm
Picea mariana,8,32,2,0.0439,291,0.658,1.5,372.39,20.95,warm,warm
Picea mariana,8,32,2.42,0.0423,462,0.644,1.52,566.54,20.95,warm,warm
Picea mariana,8,32,2.94,0.0413,628,0.637,1.54,759.19,20.99,warm,warm
Picea mariana,8,32,3.18,0.0401,805,0.625,1.55,954.08,20.99,warm,warm
Picea mariana,9,33,3.36,0.0922,294,1.03,1.12,359.22,19.18,warm,warm
Picea mariana,9,33,2.8,0.0944,213,1.1,1.15,265.95,19.93,warm,warm
Picea mariana,9,33,1.79,0.0946,144,1.13,1.18,177.48,20.34,warm,warm
Picea mariana,9,33,0.506,0.0959,82.7,1.14,1.18,92.9,20.4,warm,warm
Picea mariana,9,33,-0.268,0.0956,54.3,1.15,1.2,50.75,20.61,warm,warm
Picea mariana,9,33,3.36,0.096,297,1.16,1.2,359.8,20.67,warm,warm
Picea mariana,9,33,3.99,0.0923,470,1.14,1.23,550,20.74,warm,warm
Picea mariana,9,33,4.46,0.0912,649,1.14,1.24,742.23,20.88,warm,warm
Picea mariana,9,33,4.73,0.0902,835,1.13,1.25,937.74,20.96,warm,warm
Picea mariana,10,34,3.1,0.0377,233,0.621,1.62,373.63,19.75,warm,warm
Picea mariana,10,34,2.42,0.0379,170,0.631,1.64,278.76,19.9,warm,warm
Picea mariana,10,34,1.52,0.0387,119,0.639,1.63,186.38,19.84,warm,warm
Picea mariana,10,34,0.479,0.0395,73.3,0.652,1.63,95.05,19.87,warm,warm
Picea mariana,10,34,-0.053,0.0402,49.5,0.663,1.63,48.67,19.88,warm,warm
Picea mariana,10,34,3.16,0.0408,242,0.673,1.63,374.68,19.92,warm,warm
Picea mariana,10,34,4.15,0.0409,390,0.676,1.63,565.55,19.93,warm,warm
Picea mariana,10,34,4.86,0.0405,548,0.672,1.64,758.71,19.94,warm,warm
Picea mariana,10,34,5.26,0.0401,722,0.668,1.65,955.23,19.97,warm,warm
Picea mariana,11,35,2.87,0.0521,273,0.814,1.54,369.94,20.51,warm,warm
Picea mariana,11,35,2.29,0.0547,203,0.845,1.52,276.18,20.54,warm,warm
Picea mariana,11,35,1.5,0.0573,137,0.874,1.5,183.58,20.57,warm,warm
Picea mariana,11,35,0.448,0.0631,80.6,0.933,1.45,94.09,20.56,warm,warm
Picea mariana,11,35,-0.161,0.0643,53,0.944,1.44,50.14,20.55,warm,warm
Picea mariana,11,35,2.93,0.0589,282,0.896,1.5,369.99,20.57,warm,warm
Picea mariana,11,35,3.68,0.0572,446,0.881,1.51,561.96,20.6,warm,warm
Picea mariana,11,35,4.03,0.0566,625,0.873,1.52,757.13,20.58,warm,warm
Picea mariana,11,35,4.29,0.0558,807,0.868,1.53,952.9,20.62,warm,warm
Picea mariana,12,36,1.57,0.0148,210,0.27,1.82,388.53,20.66,warm,warm
Picea mariana,12,36,1.15,0.0158,169,0.281,1.77,291.8,20.66,warm,warm
Picea mariana,12,36,0.597,0.0168,134,0.292,1.73,195.53,20.66,warm,warm
Picea mariana,12,36,0.0918,0.0178,88,0.302,1.69,98.79,20.69,warm,warm
Picea mariana,12,36,-0.228,0.0187,68.5,0.31,1.66,50.51,20.67,warm,warm
Picea mariana,12,36,1.64,0.0198,248,0.323,1.62,388.95,20.7,warm,warm
Picea mariana,12,36,2.48,0.02,373,0.319,1.59,583.53,20.72,warm,warm
Picea mariana,12,36,3.13,0.0203,515,0.317,1.55,778.42,20.73,warm,warm
Picea mariana,12,36,3.69,0.0202,662,0.308,1.52,975.01,20.7,warm,warm
Picea mariana,7,37,3.69,0.0569,249,1.36,2.37,364.95,30.98,warm,warm
Picea mariana,7,37,2.73,0.0577,189,1.37,2.35,273.99,31,warm,warm
Picea mariana,7,37,1.56,0.0589,135,1.38,2.32,183.69,30.96,warm,warm
Picea mariana,7,37,0.251,0.065,86.4,1.4,2.13,95.77,30.36,warm,warm
Picea mariana,7,37,-0.481,0.0653,61.9,1.41,2.13,51.99,30.44,warm,warm
Picea mariana,7,37,3.62,0.0631,262,1.4,2.2,366,30.82,warm,warm
Picea mariana,7,37,5.01,0.0597,400,1.39,2.3,552.47,31.19,warm,warm
Picea mariana,7,37,5.98,0.059,554,1.38,2.31,742.06,31.21,warm,warm
Picea mariana,7,37,6.5,0.058,724,1.36,2.32,936.15,31.2,warm,warm
Picea mariana,8,38,1.94,0.0396,282,0.832,2.06,371.95,30.07,warm,warm
Picea mariana,8,38,1.48,0.0406,211,0.866,2.09,278.2,30.45,warm,warm
Picea mariana,8,38,0.808,0.0423,151,0.896,2.08,187.06,30.56,warm,warm
Picea mariana,8,38,-0.0123,0.0443,95.7,0.931,2.06,98.57,30.69,warm,warm
Picea mariana,8,38,-0.472,0.0462,68.6,0.961,2.03,54.26,30.76,warm,warm
Picea mariana,8,38,2.13,0.0486,288,0.997,2.01,369.42,30.86,warm,warm
Picea mariana,8,38,2.98,0.05,444,1.02,1.99,556.16,30.91,warm,warm
Picea mariana,8,38,3.59,0.0511,611,1.04,1.99,746.48,30.98,warm,warm
Picea mariana,8,38,4.03,0.052,786,1.05,1.98,938.78,31.03,warm,warm
Picea mariana,9,39,2.9,0.0471,257,0.863,1.78,364.71,30.7,warm,warm
Picea mariana,9,39,2.2,0.0573,204,0.956,1.62,272.62,30.7,warm,warm
Picea mariana,9,39,1.16,0.0593,149,0.961,1.57,184.37,30.7,warm,warm
Picea mariana,9,39,-0.117,0.0611,100,0.971,1.54,99.85,30.71,warm,warm
Picea mariana,9,39,-0.877,0.0643,78.1,0.987,1.49,57.82,30.7,warm,warm
Picea mariana,9,39,3.12,0.0708,284,1.03,1.41,362.25,30.69,warm,warm
Picea mariana,9,39,4.36,0.0724,438,1.03,1.38,546.92,30.65,warm,warm
Picea mariana,9,39,5.09,0.0866,628,1.06,1.19,736.56,30.06,warm,warm
Picea mariana,9,39,5.37,0.0893,817,1.08,1.17,931,30.12,warm,warm
Picea mariana,10,40,3.02,0.0467,257,1.13,2.35,373.8,30.15,warm,warm
Picea mariana,10,40,2.17,0.0483,199,1.17,2.35,280.36,30.31,warm,warm
Picea mariana,10,40,1.18,0.0502,144,1.21,2.33,188.01,30.47,warm,warm
Picea mariana,10,40,0.0441,0.0529,93.2,1.25,2.3,98.18,30.57,warm,warm
Picea mariana,10,40,-0.6,0.055,68.1,1.29,2.28,52.83,30.69,warm,warm
Picea mariana,10,40,3.02,0.0572,277,1.32,2.23,374.01,30.68,warm,warm
Picea mariana,10,40,4.28,0.0579,424,1.33,2.23,561.04,30.78,warm,warm
Picea mariana,10,40,5.13,0.0587,588,1.34,2.22,753.52,30.85,warm,warm
Picea mariana,10,40,5.64,0.0593,763,1.35,2.21,947.29,30.92,warm,warm
Picea mariana,11,41,2.45,0.0497,282,1.15,2.24,373.62,29.62,warm,warm
Picea mariana,11,41,1.77,0.0496,213,1.18,2.3,280.12,29.95,warm,warm
Picea mariana,11,41,0.901,0.0503,154,1.2,2.31,188.98,30.15,warm,warm
Picea mariana,11,41,-0.106,0.052,98.3,1.24,2.31,98.87,30.41,warm,warm
Picea mariana,11,41,-0.69,0.0547,72.2,1.29,2.29,54.29,30.58,warm,warm
Picea mariana,11,41,2.44,0.0579,293,1.34,2.23,372.89,30.76,warm,warm
Picea mariana,11,41,3.44,0.0582,447,1.35,2.24,561.1,30.87,warm,warm
Picea mariana,11,41,3.98,0.0591,620,1.36,2.22,753.75,30.92,warm,warm
Picea mariana,11,41,4.4,0.06,797,1.38,2.22,947.55,31.04,warm,warm
Picea mariana,12,42,1.65,0.014,189,0.295,2.07,388.27,30.88,warm,warm
Picea mariana,12,42,1.15,0.0168,176,0.295,1.73,291.66,29.5,warm,warm
Picea mariana,12,42,0.622,0.0175,133,0.317,1.77,194.28,29.75,warm,warm
Picea mariana,12,42,-0.0649,0.0189,102,0.344,1.78,99.32,29.87,warm,warm
Picea mariana,12,42,-0.445,0.0199,85.4,0.363,1.79,51.47,29.94,warm,warm
Picea mariana,12,42,1.88,0.0214,237,0.389,1.78,387.41,29.96,warm,warm
Picea mariana,12,42,3,0.0226,353,0.41,1.78,579.4,30,warm,warm
Picea mariana,12,42,3.86,0.0239,496,0.432,1.77,772.97,30,warm,warm
Picea mariana,12,42,4.43,0.025,661,0.45,1.76,969.13,30.02,warm,warm
Picea mariana,7,43,2.4,0.0428,258,2.1,4.75,373.28,40.65,warm,warm
Picea mariana,7,43,1.56,0.0432,205,2.08,4.66,282.16,40.66,warm,warm
Picea mariana,7,43,0.617,0.0443,155,2.06,4.49,190.22,40.67,warm,warm
Picea mariana,7,43,-0.414,0.0455,108,2.06,4.38,101.37,40.68,warm,warm
Picea mariana,7,43,-0.967,0.0466,84.3,2.07,4.3,55.91,40.68,warm,warm
Picea mariana,7,43,2.37,0.0492,274,2.11,4.15,374.32,40.64,warm,warm
Picea mariana,7,43,3.67,0.0501,409,2.13,4.1,560.35,40.64,warm,warm
Picea mariana,7,43,4.71,0.0491,550,2.09,4.12,748.46,40.66,warm,warm
Picea mariana,7,43,5.52,0.0432,676,1.92,4.3,939.77,40.69,warm,warm
Picea mariana,8,44,0.963,0.0523,325,2.07,3.79,377.23,40.39,warm,warm
Picea mariana,8,44,0.485,0.0516,254,2.08,3.85,286.19,40.55,warm,warm
Picea mariana,8,44,-0.0926,0.0523,185,2.09,3.82,194.86,40.54,warm,warm
Picea mariana,8,44,-0.706,0.053,120,2.11,3.81,105.61,40.55,warm,warm
Picea mariana,8,44,-1.03,0.0536,86.4,2.12,3.79,60.18,40.55,warm,warm
Picea mariana,8,44,0.868,0.0542,331,2.14,3.77,379.68,40.57,warm,warm
Picea mariana,8,44,1.59,0.0547,483,2.16,3.78,563.57,40.62,warm,warm
Picea mariana,8,44,2.17,0.0554,644,2.18,3.77,751.8,40.64,warm,warm
Picea mariana,8,44,2.57,0.0507,804,2.07,3.9,942.79,40.61,warm,warm
Picea mariana,10,45,1.67,0.0616,311,2.62,4.05,378.12,39.63,warm,warm
Picea mariana,10,45,0.892,0.0628,245,2.71,4.09,286.52,39.91,warm,warm
Picea mariana,10,45,0.0513,0.0637,180,2.75,4.1,194.57,40,warm,warm
Picea mariana,10,45,-0.808,0.065,116,2.8,4.09,103.11,40.1,warm,warm
Picea mariana,10,45,-1.25,0.0659,83.1,2.84,4.08,57.33,40.13,warm,warm
Picea mariana,10,45,1.44,0.0669,322,2.88,4.09,380.94,40.24,warm,warm
Picea mariana,10,45,2.44,0.0683,475,2.91,4.04,568.54,40.17,warm,warm
Picea mariana,10,45,3.23,0.0688,634,2.96,4.08,758.61,40.33,warm,warm
Picea mariana,10,45,3.76,0.0697,802,2.98,4.05,949.52,40.31,warm,warm
Picea mariana,11,46,0.859,0.0607,337,2.49,3.88,383.28,39.4,warm,warm
Picea mariana,11,46,0.221,0.0652,266,2.67,3.87,290.21,39.8,warm,warm
Picea mariana,11,46,-0.46,0.0674,196,2.74,3.84,198.31,39.85,warm,warm
Picea mariana,11,46,-1.23,0.0697,128,2.79,3.79,107.61,39.85,warm,warm
Picea mariana,11,46,-1.64,0.0718,94.8,2.84,3.74,62.97,39.86,warm,warm
Picea mariana,11,46,0.744,0.0752,345,2.93,3.68,383.37,39.91,warm,warm
Picea mariana,11,46,1.65,0.0783,502,3.01,3.63,569.55,39.96,warm,warm
Picea mariana,11,46,2.32,0.0804,667,3.06,3.59,757.36,40,warm,warm
Picea mariana,11,46,2.72,0.0751,835,2.95,3.7,950.18,40,warm,warm
Picea mariana,12,47,1.79,0.0302,269,1.22,3.91,385.39,38.87,warm,warm
Picea mariana,12,47,0.984,0.0309,222,1.29,4.02,290.46,39.34,warm,warm
Picea mariana,12,47,0.21,0.0314,173,1.32,4.05,196.21,39.58,warm,warm
Picea mariana,12,47,-0.558,0.0318,123,1.34,4.07,102.26,39.79,warm,warm
Picea mariana,12,47,-0.958,0.0325,96.5,1.37,4.05,54.33,39.88,warm,warm
Picea mariana,12,47,1.58,0.0333,287,1.4,4.04,386.36,40,warm,warm
Picea mariana,12,47,2.66,0.0341,418,1.43,4.03,576.71,40.1,warm,warm
Picea mariana,12,47,3.56,0.0347,561,1.44,4,769.97,40.12,warm,warm
Picea mariana,12,47,4.35,0.0351,707,1.47,4.03,962.98,40.25,warm,warm
