obs,pop,rep,no,temptrt,Photo,temproom,Tleaf
1,6,9,1,C,46.4261,12,18.9
1,6,9,1,C,51.9785,17,22.3
1,6,9,1,C,60.9536,22,27.8
1,6,9,1,C,45.9026,27,29.4
1,6,9,1,C,33.8374,32,36.2
2,6,9,2,C,53.8847,12,19.5
2,6,9,2,C,58.8915,17,23.5
2,6,9,2,C,68.1063,22,28.3
2,6,9,2,C,55.4252,27,31
2,6,9,2,C,45.3,32,36.7
3,6,16,1,C,35.1622,12,15.1
3,6,16,1,C,49.0782,17,20
3,6,16,1,C,44.6509,22,24.6
3,6,16,1,C,44.2221,27,31.5
3,6,16,1,C,35.8966,32,35.9
4,6,18,1,C,45.3504,12,15.4
4,6,18,1,C,42.9881,17,20.3
4,6,18,1,C,50.1707,22,24.9
4,6,18,1,C,31.6334,27,30.5
4,6,18,1,C,25.2401,32,35
5,6,18,2,C,48.9723,12,16.3
5,6,18,2,C,56.9657,17,19.1
5,6,18,2,C,59.6183,22,25.6
5,6,18,2,C,41.611,27,30.7
5,6,18,2,C,20.5285,32,35.4
6,6,21,1,C,74.4198,12,17.4
6,6,21,1,C,77.5928,17,24
6,6,21,1,C,80.5854,22,27.2
6,6,21,1,C,55.9518,27,29.5
6,6,21,1,C,21.6497,32,35.5
7,6,5,1,W,68.2443,12,20.3
7,6,5,1,W,67.9572,17,23.4
7,6,5,1,W,67.2341,22,28.3
7,6,5,1,W,48.022,27,30.5
7,6,5,1,W,49.1835,32,36.7
8,6,10,1,W,66.4353,12,20
8,6,10,1,W,58.9598,17,20.5
8,6,10,1,W,80.7169,22,28.7
8,6,10,1,W,54.6896,27,30.8
8,6,10,1,W,50.3291,32,37.3
9,6,10,2,W,74.71,12,19.9
9,6,10,2,W,69.5688,17,20.9
9,6,10,2,W,76.1901,22,28.5
9,6,10,2,W,52.5926,27,31
9,6,10,2,W,52.9101,32,37.2
10,6,15,1,W,57.2102,12,15.7
10,6,15,1,W,65.4063,17,21.2
10,6,15,1,W,68.6901,22,25.9
10,6,15,1,W,62.0662,27,31.4
10,6,15,1,W,44.1145,32,36.1
11,6,24,1,W,57.3923,12,16.2
11,6,24,1,W,75.9782,17,24.4
11,6,24,1,W,76.0391,22,26.4
11,6,24,1,W,64.231,27,32
11,6,24,1,W,49.9492,32,35.6
12,6,24,2,W,52.9221,12,16.6
12,6,24,2,W,72.568,17,24.2
12,6,24,2,W,67.8152,22,26.6
12,6,24,2,W,61.3511,27,32.3
12,6,24,2,W,33.972,32,35.9
13,7,6,1,C,42.819,12,17.1
13,7,6,1,C,42.8971,17,21.8
13,7,6,1,C,45.8166,22,27
13,7,6,1,C,29.7711,27,30.9
13,7,6,1,C,34.4201,32,36.6
14,7,9,2,C,24.3803,12,17.5
14,7,9,2,C,39.3986,17,24.4
14,7,9,2,C,42.1705,22,27.8
14,7,9,2,C,23.5502,27,31.3
14,7,9,2,C,28.1334,32,36.9
15,7,9,3,C,77.6622,12,17.1
15,7,9,3,C,74.5632,17,24.3
15,7,9,3,C,90.1991,22,27.4
15,7,9,3,C,53.2929,27,31.4
15,7,9,3,C,35.0933,32,37.2
16,7,14,1,C,59.8954,12,20
16,7,14,1,C,48.5576,17,21.8
16,7,14,1,C,49.3092,22,27.5
16,7,14,1,C,36.4485,27,32.7
16,7,14,1,C,17.821,32,36
17,7,14,2,C,46.5051,12,20.3
17,7,14,2,C,33.2358,17,22
17,7,14,2,C,39.6956,22,28.2
17,7,14,2,C,37.2888,27,33
17,7,14,2,C,26.271,32,36
18,7,23,1,C,56.3737,12,20.5
18,7,23,1,C,57.1879,17,23.6
18,7,23,1,C,53.5217,22,28.2
18,7,23,1,C,51.1998,27,32.3
18,7,23,1,C,27.2825,32,36
19,7,1,1,W,75.7428,12,16.7
19,7,1,1,W,76.8148,17,24.4
19,7,1,1,W,88.6092,22,27.8
19,7,1,1,W,76.3932,27,31.9
19,7,1,1,W,61.3106,32,36.5
20,7,1,2,W,46.3358,12,16.7
20,7,1,2,W,23.2199,17,24
20,7,1,2,W,65.5181,22,27.1
20,7,1,2,W,65.8669,27,32.4
20,7,1,2,W,51.747,32,36.9
21,7,12,1,W,76.2287,12,20.2
21,7,12,1,W,78.3326,17,22
21,7,12,1,W,80.5096,22,27.4
21,7,12,1,W,65.9847,27,30.7
21,7,12,1,W,57.4111,32,36
22,7,12,2,W,59.408,12,20.3
22,7,12,2,W,64.0951,17,21.2
22,7,12,2,W,72.0965,22,28
22,7,12,2,W,64.7971,27,30.9
22,7,12,2,W,44.3997,32,36.1
23,7,13,1,W,67.3633,12,16.8
23,7,13,1,W,71.7856,17,20.9
23,7,13,1,W,76.5162,22,26.9
23,7,13,1,W,62.1431,27,31.2
23,7,13,1,W,50.0949,32,37.1
24,7,17,1,W,82.7197,12,20.3
24,7,17,1,W,78.8572,17,25.3
24,7,17,1,W,84.2596,22,28.2
24,7,17,1,W,78.5569,27,31.5
24,7,17,1,W,54.7796,32,35.8
25,14,8,1,C,41.4427,12,17.2
25,14,8,1,C,43.9249,17,22.1
25,14,8,1,C,45.9043,22,27.6
25,14,8,1,C,43.3362,27,33.2
25,14,8,1,C,38.7482,32,36.7
26,14,14,1,C,56.5776,12,20.5
26,14,14,1,C,51.9392,17,22.2
26,14,14,1,C,51.2063,22,27.4
26,14,14,1,C,44.6236,27,32.4
26,14,14,1,C,48.7658,32,35.9
27,14,14,2,C,52.9629,12,20.9
27,14,14,2,C,45.1533,17,22.3
27,14,14,2,C,45.1422,22,27.8
27,14,14,2,C,39.4197,27,32.7
27,14,14,2,C,31.2851,32,36.3
28,14,17,1,C,48.4429,12,17.2
28,14,17,1,C,53.7448,17,23.3
28,14,17,1,C,53.7815,22,26.7
28,14,17,1,C,35.796,27,30.6
28,14,17,1,C,30.7819,32,35.5
29,14,17,2,C,47.8493,12,17.2
29,14,17,2,C,53.8565,17,24.1
29,14,17,2,C,61.5982,22,27.4
29,14,17,2,C,45.3221,27,30.8
29,14,17,2,C,38.5146,32,35.8
30,14,21,1,C,55.4551,12,20.8
30,14,21,1,C,46.4672,17,24.1
30,14,21,1,C,48.43,22,27.7
30,14,21,1,C,34.088,27,30.3
30,14,21,1,C,30.1417,32,36.1
31,14,9,1,W,71.6119,12,20.8
31,14,9,1,W,62.5071,17,21.8
31,14,9,1,W,66.3703,22,27.3
31,14,9,1,W,58.1629,27,30.8
31,14,9,1,W,42.5607,32,35.8
32,14,9,2,W,71.3783,12,20.7
32,14,9,2,W,66.4052,17,21.1
32,14,9,2,W,68.3809,22,27.9
32,14,9,2,W,67.0071,27,30.9
32,14,9,2,W,49.0511,32,35.9
33,14,12,1,W,76.7367,12,20.5
33,14,12,1,W,77.469,17,24.3
33,14,12,1,W,63.9485,22,27.3
33,14,12,1,W,55.9514,27,30.6
33,14,12,1,W,45.7173,32,36.1
34,14,16,1,W,71.7246,12,16.9
34,14,16,1,W,67.8772,17,24.4
34,14,16,1,W,70.1615,22,27.4
34,14,16,1,W,65.6503,27,32.1
34,14,16,1,W,45.3469,32,36.5
35,14,16,2,W,67.043,12,17.1
35,14,16,2,W,61.0482,17,24.6
35,14,16,2,W,65.7115,22,27.8
35,14,16,2,W,56.5256,27,32.6
35,14,16,2,W,36.5528,32,36.8
36,14,18,1,W,61.7396,12,17.1
36,14,18,1,W,70.1104,17,21.8
36,14,18,1,W,75.8572,22,26.7
36,14,18,1,W,64.9319,27,31.8
36,14,18,1,W,43.4238,32,36.2
37,15,2,1,C,60.6831,12,20.8
37,15,2,1,C,56.0788,17,21.3
37,15,2,1,C,42.2808,22,26.7
37,15,2,1,C,38.2888,27,32
37,15,2,1,C,0.9396,32,36.1
38,15,3,1,C,70.5797,12,20.1
38,15,3,1,C,74.0878,17,21.5
38,15,3,1,C,75.9059,22,26.8
38,15,3,1,C,59.5024,27,32.1
38,15,3,1,C,36.7771,32,36.4
39,15,3,2,C,58.6991,12,20.2
39,15,3,2,C,52.0157,17,21.8
39,15,3,2,C,51.2269,22,27.7
39,15,3,2,C,44.5849,27,32.2
39,15,3,2,C,17.0895,32,36.7
40,15,8,1,C,69.0479,12,20.9
40,15,8,1,C,75.6053,17,23.3
40,15,8,1,C,79.2174,22,28.1
40,15,8,1,C,52.0933,27,31.5
40,15,8,1,C,40.0045,32,36.1
41,15,20,1,C,44.7217,12,20.5
41,15,20,1,C,44.4722,17,23.9
41,15,20,1,C,33.196,22,27.1
41,15,20,1,C,18.1706,27,31.6
41,15,20,1,C,11.8942,32,35.7
42,15,20,3,C,60.8431,12,21.2
42,15,20,3,C,55.3356,17,23.6
42,15,20,3,C,46.0581,22,27.5
42,15,20,3,C,33.2144,27,31.8
42,15,20,3,C,19.333,32,36
43,15,4,1,W,71.6778,12,20.2
43,15,4,1,W,71.9962,17,22.4
43,15,4,1,W,76.1778,22,27.2
43,15,4,1,W,64.1079,27,31.5
43,15,4,1,W,47.7148,32,36.2
44,15,4,2,W,82.5112,12,20.3
44,15,4,2,W,72.4599,17,22.1
44,15,4,2,W,74.783,22,27.7
44,15,4,2,W,64.0731,27,31.6
44,15,4,2,W,49.8723,32,36.6
45,15,9,1,W,67.1292,12,20.8
45,15,9,1,W,70.0919,17,23.9
45,15,9,1,W,67.2489,22,28.6
45,15,9,1,W,43.7863,27,30.6
45,15,9,1,W,38.8958,32,36.2
46,15,9,2,W,46.7208,12,20.3
46,15,9,2,W,49.7084,17,23.8
46,15,9,2,W,51.2643,22,28.3
46,15,9,2,W,37.4483,27,31.1
46,15,9,2,W,21.4184,32,36.4
47,15,15,1,W,67.7749,12,20.3
47,15,15,1,W,71.5323,17,22.2
47,15,15,1,W,72.6691,22,27.7
47,15,15,1,W,63.3936,27,31.3
47,15,15,1,W,50.5243,32,35.9
48,15,18,1,W,62.9908,12,20.3
48,15,18,1,W,64.3426,17,23.7
48,15,18,1,W,66.3865,22,27.1
48,15,18,1,W,49.4645,27,31.7
48,15,18,1,W,35.6586,32,36
49,19,3,1,C,61.6143,12,20.5
49,19,3,1,C,53.7859,17,21.6
49,19,3,1,C,61.0591,22,28.1
49,19,3,1,C,36.9797,27,32.4
49,19,3,1,C,40.2933,32,36.3
50,19,19,1,C,47.1097,12,20.4
50,19,19,1,C,50.4486,17,23.8
50,19,19,1,C,39.7524,22,27.2
50,19,19,1,C,34.5444,27,32.7
50,19,19,1,C,35.384,32,35.3
51,19,19,2,C,59.1666,12,20.6
51,19,19,2,C,57.6092,17,23.9
51,19,19,2,C,52.6245,22,26.4
51,19,19,2,C,52.3909,27,32.6
51,19,19,2,C,36.1101,32,35.9
52,19,20,1,C,56.8882,12,20.3
52,19,20,1,C,64.5484,17,24
52,19,20,1,C,57.7912,22,27.7
52,19,20,1,C,40.1217,27,32.4
52,19,20,1,C,42.3175,32,35.9
53,19,22,1,C,54.8065,12,20.3
53,19,22,1,C,46.2669,17,21.6
53,19,22,1,C,46.2088,22,27.1
53,19,22,1,C,36.3042,27,32.6
53,19,22,1,C,26.1792,32,35.5
54,19,22,2,C,59.064,12,20.4
54,19,22,2,C,52.1391,17,21.9
54,19,22,2,C,50.5088,22,27.6
54,19,22,2,C,37.3855,27,32.8
54,19,22,2,C,27.2971,32,35.8
55,19,4,1,W,67.7714,12,20.7
55,19,4,1,W,67.081,17,22.9
55,19,4,1,W,55.3456,22,26.9
55,19,4,1,W,52.2915,27,32
55,19,4,1,W,44.3954,32,36
56,19,17,1,W,62.6342,12,21.3
56,19,17,1,W,62.6855,17,23.5
56,19,17,1,W,53.693,22,28.1
56,19,17,1,W,42.7819,27,32.1
56,19,17,1,W,34.6437,32,35.8
57,19,17,2,W,69.9364,12,21.2
57,19,17,2,W,70.3275,17,24.5
57,19,17,2,W,70.3408,22,27.6
57,19,17,2,W,54.7139,27,32.4
57,19,17,2,W,44.0332,32,36
58,19,18,1,W,70.8396,12,20.7
58,19,18,1,W,67.4679,17,21.5
58,19,18,1,W,71.307,22,27.1
58,19,18,1,W,60.141,27,32.6
58,19,18,1,W,39.8933,32,35.9
59,19,24,1,W,79.1168,12,20.8
59,19,24,1,W,72.9514,17,21.7
59,19,24,1,W,73.8099,22,27.3
59,19,24,1,W,62.2993,27,32.1
59,19,24,1,W,45.1279,32,36.2
60,19,24,2,W,73.9476,12,20.7
60,19,24,2,W,66.037,17,22
60,19,24,2,W,58.2698,22,27.5
60,19,24,2,W,54.853,27,32.4
60,19,24,2,W,35.9733,32,36.5
61,26,5,1,C,69.6988,12,20.6
61,26,5,1,C,79.6763,17,21.5
61,26,5,1,C,68.2578,22,27.8
61,26,5,1,C,62.4935,27,32
61,26,5,1,C,59.0569,32,36.5
62,26,5,2,C,70.009,12,20.7
62,26,5,2,C,68.6335,17,21.6
62,26,5,2,C,71.0681,22,28
62,26,5,2,C,53.2582,27,32.1
62,26,5,2,C,47.9028,32,36.7
63,26,9,1,C,54.7016,12,16.2
63,26,9,1,C,67.8425,17,23.3
63,26,9,1,C,65.4949,22,26.8
63,26,9,1,C,52.6522,27,32.4
63,26,9,1,C,47.2484,32,36.3
64,26,9,2,C,57.0207,12,16.9
64,26,9,2,C,61.68,17,23.5
64,26,9,2,C,57.5253,22,27.4
64,26,9,2,C,44.3164,27,32.5
64,26,9,2,C,42.7801,32,36
65,26,10,1,C,67.4586,12,20.2
65,26,10,1,C,73.2812,17,23.5
65,26,10,1,C,74.102,22,27.1
65,26,10,1,C,33.9847,27,31.8
65,26,10,1,C,43.2328,32,36.2
66,26,19,1,C,52.3253,12,15.7
66,26,19,1,C,57.6419,17,21.6
66,26,19,1,C,60.0932,22,27.6
66,26,19,1,C,36.2187,27,32.2
66,26,19,1,C,25.1075,32,36.3
67,26,7,1,W,82.3619,12,20.1
67,26,7,1,W,80.4823,17,21.7
67,26,7,1,W,86.5075,22,27.4
67,26,7,1,W,65.6274,27,32.6
67,26,7,1,W,61.7677,32,35.8
68,26,7,2,W,67.0386,12,20.2
68,26,7,2,W,67.4433,17,21.7
68,26,7,2,W,71.1716,22,28
68,26,7,2,W,51.7418,27,32.6
68,26,7,2,W,48.3553,32,35.9
69,26,13,1,W,79.3126,12,20.4
69,26,13,1,W,86.7934,17,24.1
69,26,13,1,W,77.5915,22,26.9
69,26,13,1,W,52.977,27,32.1
69,26,13,1,W,31.224,32,35.9
70,26,13,2,W,89.211,12,20.3
70,26,13,2,W,97.2756,17,23.8
70,26,13,2,W,87.9873,22,27.5
70,26,13,2,W,72.5283,27,32.2
70,26,13,2,W,61.8918,32,36.3
71,26,17,1,W,74.6229,12,20.3
71,26,17,1,W,83.2664,17,23.5
71,26,17,1,W,82.2535,22,27.8
71,26,17,1,W,54.6874,27,31.9
71,26,17,1,W,54.2116,32,35.9
72,26,21,1,W,85.9169,12,20.3
72,26,21,1,W,71.1889,17,21.1
72,26,21,1,W,81.3214,22,28.5
72,26,21,1,W,55.2082,27,32.5
72,26,21,1,W,48.2569,32,35.8
