Ci,Photo,Tleaf,PPFD,Curve
298.3,10.5,11.38,999,110
298.7,10.5,11.35,1000,110
297.2,10.6,11.4,1000,110
1394.4,11.3,11.38,1000,110
1395.1,11.1,11.38,1000,110
1394.9,11.1,11.39,1000,110
1087.2,10.8,11.45,1001,110
780.8,10.8,11.4,1001,110
571.4,10.7,11.58,1001,110
369.4,9.7,11.7,1001,110
258.4,8,11.71,1000,110
161.3,5.2,11.6,999,110
127.4,3.9,11.52,1000,110
96.6,2.8,11.61,1001,110
68.2,1.5,11.65,1000,110
272.1,7.3,11.28,999,310
272.1,7.3,11.28,999,310
273.5,7.2,11.28,999,310
1376.4,7.8,11.16,1000,310
1376.8,7.8,11.14,1000,310
1374.8,7.9,11.19,1000,310
1078.5,7.8,11.09,1000,310
781.3,7.7,11.02,1000,310
577.1,7.7,11.05,1000,310
380.2,7.2,11.08,1000,310
271.6,6.3,11.09,1000,310
173,4.3,11.04,1000,310
134.6,3.4,11.1,1000,310
102.3,2.4,11.15,999,310
72.7,1.4,11.09,1000,310
267.2,9.2,12.78,1000,410
263.6,9.3,12.85,1000,410
263.3,9.4,12.82,1000,410
1327,11.9,12.88,1000,410
1325.8,11.9,12.93,999,410
1327.5,11.8,12.93,1000,410
1024.2,11.8,12.9,1001,410
717.5,11.7,12.86,1001,410
514.1,10.9,12.8,999,410
330.9,8.9,12.84,998,410
230.4,6.8,12.96,999,410
149.3,4.1,12.94,1000,410
118.1,2.9,12.88,1000,410
93,1.8,12.92,1000,410
69.3,1,12.91,999,410
224.6,11.9,20.16,999,120
226.3,11.8,20.12,999,120
225.5,11.8,20.14,999,120
1236.2,19.2,20.18,999,120
1238.2,19.2,20.11,999,120
1236.5,19.3,20.13,999,120
929.8,19.2,20.04,999,120
637,17.8,20.18,1001,120
453.1,16,20.11,1001,120
297,12.6,20.02,1000,120
214.3,10,20.18,999,120
142.8,6.6,20.09,1000,120
121.2,5.2,20.09,998,120
98.5,3.5,20.12,1000,120
72.7,1.9,20.06,1001,120
247.7,10.5,20.11,1000,220
247.8,10.5,20.12,999,220
1261.7,15.9,20.09,1000,220
1262.4,15.9,20.09,999,220
922.1,15.8,20.06,999,220
594.7,14.9,20.07,1001,220
398.1,12.7,20.02,1001,220
266.6,9.2,20.11,999,220
200.7,7,20.03,999,220
136.6,4.6,20.01,1000,220
114.2,3.7,20.09,999,220
91.4,2.8,20.03,1000,220
69.7,1.5,20.02,999,220
262.8,13.3,19.96,1000,320
262.2,13.3,19.99,1000,320
263.8,13.3,19.9,1000,320
1324.5,16.3,20.08,1000,320
1326.9,16.2,20.06,999,320
1326.7,16.3,20.01,1000,320
1004.4,15.6,19.9,1000,320
650.2,15.9,20.21,1000,320
435.4,13.4,19.85,999,320
276.1,9.3,20.02,1000,320
197.9,6.8,20.06,1000,320
134.5,4.3,20.28,1000,320
114.3,3.5,20.21,1001,320
95.8,2.6,19.99,1000,320
69.1,1.5,20.13,999,320
247,16.3,24.82,1001,125
249.3,16.3,24.75,1000,125
247.2,16.3,24.83,1000,125
1199.9,22,25.17,1000,125
1202,22.1,25.14,1000,125
1197.1,22,25.19,999,125
811.7,21.8,25.02,1000,125
514.3,20.2,25.01,1000,125
340.7,17.5,25.09,1000,125
228.5,13.6,25.25,999,125
175.7,11.1,25.11,999,125
127.7,7.3,25.12,999,125
112.2,6,25.08,1001,125
94.3,4.3,25.08,1000,125
72.1,2.3,25.06,1000,125
222.8,11.5,25.12,1000,225
222.6,11.4,25.17,1000,225
221.3,11.5,25.14,999,225
1128.4,20.5,25.19,1000,225
1117.4,20.6,25.23,1000,225
1115,20.4,25.21,1000,225
763.8,19.4,25.07,1000,225
495.6,16.1,25.14,1001,225
366,13.2,25.08,1000,225
247.4,9.9,25.13,999,225
194.8,8,25.08,1000,225
136.4,5.2,25.06,1000,225
117.4,4.2,25.11,997,225
94.7,3.2,25.05,999,225
75.5,1.5,25.02,1001,225
255.4,15.8,25.03,995,325
255.3,15.7,25.06,995,325
255.7,15.6,25.05,996,325
1262.1,21.8,25.05,999,325
1256.1,22.1,25.1,999,325
1256.6,22,25.13,999,325
943.1,22.5,25.1,999,325
648.1,21.6,25.1,1001,325
462.5,20,25.01,1000,325
309.7,16.2,25.01,999,325
229.8,13.2,25.01,1001,325
158.9,8.6,24.99,1000,325
130,6.9,25.05,1001,325
103.3,4.9,25.05,1000,325
77.5,2.4,25.08,1000,325
249.7,11,25,999,425
251.7,10.8,25.02,1000,425
252.5,10.8,25.01,1000,425
1149.3,19.9,25.05,1000,425
1147.7,19.8,25.09,1000,425
1149.3,19.8,25.06,1000,425
801.3,19.6,25.13,1001,425
540.5,17.7,25.26,999,425
396.8,15.4,25.13,1001,425
280,11.9,25.01,1001,425
216.5,9.7,25.04,1001,425
153,6.5,25.15,1000,425
129.8,5.2,25.06,1000,425
106.4,3.7,25.09,999,425
78.5,1.9,25.09,999,425
221.6,10.5,25.1,1000,525
223,10.5,25.05,1000,525
224.6,10.2,25.09,1000,525
1069.3,20,25.02,1000,525
1073,19.9,24.99,1000,525
1066.4,19.8,25.02,999,525
720.8,19.3,24.95,1000,525
486.2,15.8,25,999,525
341.2,13.2,25.05,999,525
234.5,9.9,25.12,1001,525
188.9,8,25.12,999,525
134.4,5.4,25.14,1000,525
115.7,4.5,25.07,1000,525
95.3,3.3,25.14,1000,525
74,1.8,25.03,1000,525
240.9,15.3,32.08,1002,132
239.7,15.4,32.11,1002,132
239.4,15.3,32.12,1000,132
1153.9,29.3,32.21,1000,132
1155.5,29.3,32.19,1000,132
1157.1,29.4,32.17,1000,132
843.2,29.8,32.1,1000,132
557.4,28,32.06,1000,132
399.7,24.8,32.01,1002,132
277,18.7,32.06,999,132
213.6,14.6,32.02,999,132
153.8,9.3,32.01,999,132
127.3,7.8,31.98,1000,132
107.1,4.9,32.02,999,132
81.4,2,32.06,999,132
258.7,16.8,32.08,1000,232
257.4,16.9,32.09,1000,232
258.5,16.9,32.06,1000,232
1229.2,29.6,32.1,999,232
1227.8,29.5,32.12,999,232
1228.1,29.3,32.13,999,232
924.9,29.2,32.12,999,232
637.5,27.3,32.08,999,232
458.4,24.8,31.98,1001,232
313.2,19.1,32,1001,232
236.6,14.8,31.97,999,232
163.7,9.3,32.01,1000,232
136.1,7,32.03,999,232
109,4.8,32.06,1000,232
82.1,2,32.02,1001,232
218.7,12.3,31.98,1000,332
218.9,12.4,31.95,1000,332
219.8,12.2,31.97,1000,332
1046.9,28.7,32.08,1000,332
1043,28.8,32.1,1000,332
1040.8,28.7,32.1,1000,332
747.3,26.4,32.06,1000,332
513.1,22.1,32.04,999,332
381.3,18.9,32.01,1002,332
272.8,14.2,32.04,1001,332
214.3,11.4,32.05,1000,332
153.9,7.3,32.09,999,332
131.1,5.7,32.13,1001,332
108,3.8,32.06,998,332
84.1,1.4,32.11,1000,332
1051.7,30.6,32.03,1000,332
1050.5,30.4,32.06,1000,332
1051.4,30.2,32.06,1000,332
219.8,15.1,32.03,1000,432
221.9,15,32.01,1000,432
219.6,15,32.04,1000,432
1070.1,29.8,32.2,1000,432
1072.8,29.7,32.17,1000,432
1077.7,29.4,32.15,1000,432
746,28.9,32.09,1000,432
485.5,25.6,32.08,1000,432
349.7,21.9,32.08,999,432
245.4,16.4,32.01,1001,432
198,13.2,32.06,999,432
140.5,8.6,32.05,1001,432
125.8,6.7,31.99,1000,432
103.6,4.6,32.02,1001,432
80.4,2,32.09,1001,432
236.5,15.1,32.02,1000,532
236.3,15.2,32.07,999,532
238.5,15.3,31.98,999,532
1199.9,26.2,32.16,999,532
1204.2,26.3,32.09,998,532
1204.2,26,32.11,1000,532
877.4,27.1,32.1,1000,532
581.1,25.7,32.13,999,532
419.8,22.8,32.12,999,532
288,17.8,32.14,999,532
223.3,13.8,32.11,999,532
158.3,8.6,32.09,1000,532
131.7,6.7,32.06,1000,532
108.3,4.4,32.08,1001,532
81.9,1.9,32.04,1000,532
276.6,15.7,37.09,1000,137
275.7,15.8,37.11,1000,137
277.2,15.8,37.05,1000,137
1306.6,26.8,36.99,1001,137
1308.8,26.5,36.98,1001,137
1306.7,26.8,36.97,1001,137
997.9,26.8,37.18,1001,137
997.2,27,37.16,1000,137
995.8,27.2,37.16,1000,137
706.3,26.5,37.09,1000,137
707.6,26.4,37.08,1000,137
706.1,26.4,37.1,1000,137
520.7,24.4,37.22,1001,137
521.6,24.5,37.18,1000,137
523.7,24.6,37.1,1000,137
362,19,37.02,1000,137
363.2,19,36.99,1000,137
362.9,19,37.01,1000,137
276.2,14.9,36.92,1000,137
274.3,15.1,36.92,1000,137
275.2,14.9,36.93,1000,137
186,9.3,37.13,999,137
185.3,9.3,37.16,999,137
185.8,9.3,37.18,999,137
154,6.8,36.97,1000,137
153.5,6.8,37.01,1000,137
153.2,6.9,36.98,1000,137
121.8,4.3,37.05,1000,137
121.7,4.3,37.08,1000,137
122,4.3,37.02,999,137
88.9,1.7,37.01,1000,137
88.1,1.8,37.08,999,137
87.6,1.9,37.02,999,137
227,14,37.02,1001,237
226.5,14,37.03,1000,237
227.3,13.9,37.02,1000,237
1166,25.3,37,1000,237
1166,25.3,36.97,1000,237
1162.8,25.7,37,1000,237
1055.8,30.2,37.01,999,237
1249.8,30,37.16,999,237
1248.9,30,37.17,999,237
1251.1,29.8,37.13,999,237
965.9,29.2,37.06,1001,237
966.4,29.2,37.06,1001,237
966.4,29.2,37.06,1002,237
848.5,27.8,36.99,1000,237
567.5,26.1,37.08,999,237
562.8,26.3,37.13,999,237
566.5,26.1,37.11,999,237
430.4,22.3,37.24,1000,237
429.6,22.4,37.25,999,237
429.8,22.4,37.22,1000,237
294.9,17.2,37.25,1000,237
297.4,17.3,37.19,999,237
296.2,17.2,37.27,999,237
229.3,13.3,37.16,1000,237
229.3,13.2,37.2,1000,237
229.8,13.2,37.17,1000,237
168.2,8.9,37.08,1000,237
168.2,8.9,37.08,999,237
167.8,8.9,37.11,999,237
142.7,6.3,37.13,1001,237
142.8,6.3,37.12,1001,237
142.7,6.3,37.15,1001,237
113.4,3.9,37.15,1000,237
114.6,3.8,37.1,1000,237
114.5,3.8,37.11,1000,237
87.1,1.3,37,1000,237
87.1,1.3,37,1001,237
86.9,1.4,36.98,1000,237
276.1,16.3,37.09,1000,337
277.5,16.2,37.06,1000,337
278.7,16.2,37,1000,337
1286.2,30,37.18,999,337
1280.7,30.2,37.26,1000,337
1280.3,30,37.27,999,337
985.6,29.9,37.09,1000,337
986.3,29.9,37.08,1001,337
989.3,29.8,37.03,1000,337
700.1,28.9,37,999,337
701.3,28.9,36.99,999,337
695.6,28.9,37.11,999,337
521.5,25.8,37.1,1000,337
525.4,25.8,37.02,999,337
523.1,25.8,37.06,999,337
367.4,20,36.92,1000,337
362.8,20.1,37.04,1000,337
362.7,20.1,37.04,1000,337
274.2,15.4,37.12,1000,337
273.8,15.6,37.1,1001,337
272.6,15.6,37.14,1001,337
186.2,9.4,37.14,1000,337
186.6,9.5,37.1,1000,337
186.9,9.4,37.11,1000,337
153,7,37.08,1001,337
152.2,7.2,37.08,1001,337
153.5,7.1,37.09,1001,337
120.3,4.3,37.13,999,337
120.9,4.2,37.13,999,337
120.8,4.3,37.06,1000,337
90.1,1.5,37.1,999,337
90,1.5,37.11,999,337
90.6,1.4,37.08,1000,337
269.7,16.6,36.93,1000,437
267.8,16.6,37,1000,437
268.1,16.6,36.99,1000,437
1241,30.1,37.08,1000,437
1245.2,30.3,37.01,1000,437
1237.8,30.6,37.02,1000,437
1243.1,29.8,37.01,999,437
1237.9,30.6,37.05,1000,437
1238,30.4,37.02,1000,437
946.4,28.9,37.17,1000,437
940.2,29.2,37.22,1000,437
941.4,28.9,37.22,1000,437
645.8,29,37.09,999,437
646.5,29,37.08,999,437
645.4,28.9,37.09,1000,437
478.6,25.9,37.11,1000,437
480,25.7,37.1,1000,437
480.9,25.6,37.11,1000,437
326.5,20.3,37.16,1000,437
329,20.2,37.13,999,437
326.8,20.3,37.15,1000,437
252.3,16.1,36.95,1000,437
249.8,16.1,37.02,1001,437
249.3,16,37.05,1000,437
174.7,9.8,37.06,1001,437
173.5,9.9,37.07,1001,437
173.5,9.9,37.07,1001,437
143.4,7.5,37.05,999,437
142.2,7.6,37.09,999,437
142,7.6,37.1,999,437
112.4,4.5,37.09,1000,437
111.8,4.5,37.1,1000,437
113,4.4,37.09,1000,437
85.8,1.7,37.08,1000,437
85.6,1.8,37.03,1000,437
85.9,1.7,37.05,1000,437
218.5,10.2,37.08,1001,537
217.3,10.2,37.1,1000,537
217.7,10.2,37.09,1000,537
1101.4,21.9,37,1000,537
1096.3,22,37.04,1000,537
1096.3,22,37.01,1000,537
757.6,22.8,37.07,999,537
768.2,22.7,37.05,1000,537
765.9,22.7,37.1,1000,537
514.1,20.2,37.1,1001,537
512.6,20.3,37.09,1001,537
513,20.2,37.1,1001,537
366.8,17.5,37.03,999,537
371.6,17.4,37.03,1000,537
371,17.3,37.05,1000,537
248.7,13,37.06,1001,537
244.4,13,37.06,1001,537
251.3,13,37.02,1000,537
212.4,10.1,37.01,1001,537
214.9,10,36.98,1001,537
212.7,10.1,36.99,1001,537
151.7,6.3,37.03,1000,537
148.3,6.4,37.01,1000,537
149.5,6.5,37.02,1000,537
128.7,5,37.02,1000,537
129.8,4.9,37.02,999,537
130.3,4.9,37.01,1000,537
109.3,3.1,37.02,999,537
109.5,3.1,37,1000,537
109.2,3.1,37.03,999,537
84.2,1.1,36.93,1000,537
82.5,1.2,36.93,1000,537
83.4,1.2,36.91,1000,537
