"","DateTime","Tmin","Tmax","Tmean"
"1","1/01/2007",15.5,24.3,18.66875
"2","1/01/2008",14,23.4,18.15
"3","1/01/2009",13.5,25.7,18.7104166666667
"4","1/02/2007",16.4,24,19.6291666666667
"5","1/02/2008",15.7,25.4,20.3604166666667
"6","1/02/2009",15.7,25.9,20.0520833333333
"7","1/02/2013",17.26,21.83,19.0116666666667
"8","1/03/2006",15.3,23.7,18.0041666666667
"9","1/03/2007",14.9,25.7,19.7083333333333
"10","1/03/2008",13.2,25.1,17.8958333333333
"11","1/03/2009",14.8,22.1,17.7729166666667
"12","1/03/2013",15.1,25.59,20.6345833333333
"13","1/04/2006",14.9,25,19.3208333333333
"14","1/04/2007",15.9,25.1,19.8333333333333
"15","1/04/2008",15.8,23.9,17.9854166666667
"16","1/04/2009",16.6,22.5,18.4208333333333
"17","1/04/2013",14.91,19.79,16.7414583333333
"18","1/05/2006",17.5,22.9,19.7875
"19","1/05/2007",15.3,24.1,19.6479166666667
"20","1/05/2008",15.4,23.6,19.10625
"21","1/05/2009",15.3,22.7,18.3791666666667
"22","1/05/2011",15.6,17,16.0642857142857
"23","1/06/2006",16,22.7,18.8583333333333
"24","1/06/2007",14.4,20.4,16.9958333333333
"25","1/06/2008",15.9,24.5,19.69375
"26","1/06/2009",14.6,24.5,18.0770833333333
"27","1/07/2006",15.5,24.6,19.8541666666667
"28","1/07/2007",14.4,26.7,20.8875
"29","1/07/2008",14,25.4,20.1375
"30","1/08/2006",15.8,25.8,20.5291666666667
"31","1/08/2007",11.8,22.1,17.7104166666667
"32","1/08/2008",15.2,22,19.0458333333333
"33","1/09/2006",14.7,24.5,19.5479166666667
"34","1/09/2007",13.8,24.5,19.1854166666667
"35","1/09/2008",15.6,26.8,19.5
"36","1/10/2006",15.4,23.7,18.31875
"37","1/10/2007",15.8,24.4,18.0708333333333
"38","1/10/2008",13.5,26.1,20.3770833333333
"39","1/11/2006",15.5,22.9,19.15625
"40","1/11/2007",14.9,25.3,20.0604166666667
"41","1/11/2008",15,25.7,20
"42","1/12/2006",15.4,24.3,18.8333333333333
"43","1/12/2007",14.7,23.9,19.125
"44","1/12/2008",15.5,24.3,19.8958333333333
"45","10/01/2007",15.7,26.1,20.7916666666667
"46","10/01/2008",13.9,26.3,20.0291666666667
"47","10/01/2009",14.1,25.3,19.53125
"48","10/02/2007",14.7,25.5,19.7770833333333
"49","10/02/2008",15.1,23.6,17.5979166666667
"50","10/02/2009",15.9,22,18.0041666666667
"51","10/02/2013",13.6,27.04,20.50875
"52","10/03/2006",13.7,22.5,18.0020833333333
"53","10/03/2007",15.3,23.9,18.33125
"54","10/03/2008",13.7,23,17.325
"55","10/03/2009",15.7,26.7,21.1354166666667
"56","10/03/2013",16.44,24.07,18.9454166666667
"57","10/04/2006",15.4,24,18.9083333333333
"58","10/04/2007",16.4,27.1,20.8833333333333
"59","10/04/2008",14.9,22,17.3166666666667
"60","10/04/2009",15,24.6,19.8333333333333
"61","10/04/2013",16.6,25.03,20.4970833333333
"62","10/05/2006",14.8,21.7,17.48125
"63","10/05/2007",17.5,23.3,19.7166666666667
"64","10/05/2008",15,24.6,19.125
"65","10/05/2009",15.5,22.2,18.46875
"66","10/06/2006",17.2,24.4,19.8583333333333
"67","10/06/2007",13.8,22.6,16.95
"68","10/06/2008",16.1,20,17.8875
"69","10/06/2009",16.6,22.5,18.8625
"70","10/07/2006",12.7,22.6,18.2583333333333
"71","10/07/2007",16.4,22.1,18.6125
"72","10/07/2008",15.2,24.6,19.4270833333333
"73","10/08/2006",16.1,22.4,19
"74","10/08/2007",17.1,23.9,19.5979166666667
"75","10/08/2008",15.6,24.2,20.1770833333333
"76","10/09/2006",16.5,26,21.1229166666667
"77","10/09/2007",15.1,24.8,19.3645833333333
"78","10/09/2008",14.5,25.2,19.33125
"79","10/10/2006",15.3,25.7,20.2145833333333
"80","10/10/2007",14.8,24.3,18.6583333333333
"81","10/10/2008",13.5,25.2,19.1458333333333
"82","10/11/2006",15.2,20.8,17.5541666666667
"83","10/11/2007",14.2,23.9,17.4895833333333
"84","10/11/2008",14.1,22.8,16.8020833333333
"85","10/12/2006",14.8,25,19.98125
"86","10/12/2007",14.3,22.7,18.2083333333333
"87","10/12/2008",16.1,23.3,18.1916666666667
"88","11/01/2007",15.9,25.5,20.20625
"89","11/01/2008",14.8,24.8,19.40625
"90","11/01/2009",15,26.5,20.7166666666667
"91","11/02/2007",15.3,26.8,20.025
"92","11/02/2008",15,23.3,17.7020833333333
"93","11/02/2009",15.3,22.7,18.4833333333333
"94","11/02/2013",15.17,25.4,18.4741666666667
"95","11/03/2006",14,25.2,19.9
"96","11/03/2007",14.1,24.3,18.2145833333333
"97","11/03/2008",13,25.3,17.7041666666667
"98","11/03/2009",17.3,24.7,19.8541666666667
"99","11/03/2013",15.77,24.46,19.8202083333333
"100","11/04/2006",15.8,22.4,17.8208333333333
"101","11/04/2007",15.7,24.6,18.9833333333333
"102","11/04/2008",15,21.6,17.8020833333333
"103","11/04/2009",14.9,20.6,17.5729166666667
"104","11/04/2013",15.82,22.64,18.0527083333333
"105","11/05/2006",16.6,23.2,18.4333333333333
"106","11/05/2007",17.6,23.9,20.1854166666667
"107","11/05/2008",14.2,24.4,19.15625
"108","11/05/2009",15.4,19.3,16.6833333333333
"109","11/06/2006",16.9,23.7,19.5541666666667
"110","11/06/2007",13.2,22.9,17.3125
"111","11/06/2008",14.1,21.3,17.2958333333333
"112","11/06/2009",13.9,23.7,18.7291666666667
"113","11/06/2011",14.5,16.6,15.15625
"114","11/07/2006",15.4,22.3,18.4916666666667
"115","11/07/2007",15.1,24,18.66875
"116","11/07/2008",12.5,25.4,19.5354166666667
"117","11/08/2006",15.1,23.3,18.5604166666667
"118","11/08/2007",16.5,23.9,20.1645833333333
"119","11/08/2008",17.1,24.1,20.0666666666667
"120","11/09/2006",15.2,26,20.925
"121","11/09/2007",15.6,25.8,20.6583333333333
"122","11/09/2008",14.9,26.9,20.8208333333333
"123","11/10/2006",16,26.9,20.6791666666667
"124","11/10/2007",14.3,24,18.4916666666667
"125","11/10/2008",14.7,22.6,17.0916666666667
"126","11/11/2006",13.7,22.4,17.9979166666667
"127","11/11/2007",13.4,23,16.6333333333333
"128","11/11/2008",14.3,20.5,16.6833333333333
"129","11/12/2006",15.5,25.4,20.5145833333333
"130","11/12/2007",13.5,24.4,19.2125
"131","11/12/2008",15.6,22.5,18.7458333333333
"132","12/01/2007",16,22.6,18.6958333333333
"133","12/01/2008",15,25.3,17.9916666666667
"134","12/01/2009",15.9,26.3,19.7145833333333
"135","12/02/2007",14.9,26.5,19.45625
"136","12/02/2008",15.1,24.6,17.4333333333333
"137","12/02/2009",12.7,25,18.7541666666667
"138","12/02/2013",14.01,23.49,17.5610416666667
"139","12/03/2006",14.1,26.9,20.4125
"140","12/03/2007",13.9,26.5,19.025
"141","12/03/2008",13.3,25,18.1166666666667
"142","12/03/2009",15.7,23.8,19.8041666666667
"143","12/03/2013",15.85,24.9,18.3310416666667
"144","12/04/2006",14.4,24.7,18.575
"145","12/04/2007",15.9,25.7,19.8541666666667
"146","12/04/2008",13.9,22.9,18.0291666666667
"147","12/04/2009",14.3,18.1,16.0020833333333
"148","12/04/2013",15.88,21.23,18.0052083333333
"149","12/05/2006",15.5,23.1,18.3020833333333
"150","12/05/2007",17.3,22.9,19.6333333333333
"151","12/05/2008",15.3,23.8,17.9479166666667
"152","12/05/2009",14.5,18.3,15.9583333333333
"153","12/06/2006",15.7,23.6,19.5166666666667
"154","12/06/2007",14.8,22.3,18.28125
"155","12/06/2008",11.8,23.1,17.7520833333333
"156","12/06/2009",15.1,23.9,19.225
"157","12/06/2011",13.7,18,15.7114285714286
"158","12/07/2006",15.5,23.9,19.2020833333333
"159","12/07/2007",13.3,24.5,19.1416666666667
"160","12/07/2008",12,23.7,17.9416666666667
"161","12/08/2006",16.4,25.2,20.1291666666667
"162","12/08/2007",15.4,24,20.08125
"163","12/08/2008",15.7,23.1,18.75
"164","12/09/2006",13.9,26.9,21.075
"165","12/09/2007",14.9,25.7,20.8083333333333
"166","12/09/2008",15.8,19.8,17.9479166666667
"167","12/10/2006",16.7,24.8,21.3270833333333
"168","12/10/2007",13.6,23.5,17.7020833333333
"169","12/10/2008",13,23.9,18.0375
"170","12/11/2006",15.1,23.4,18.9708333333333
"171","12/11/2007",13.8,22.3,17.3229166666667
"172","12/11/2008",13.6,23.4,17.3229166666667
"173","12/12/2006",14.9,25.3,20.5541666666667
"174","12/12/2007",14.7,18.7,16.8958333333333
"175","12/12/2008",13.7,26.2,19.83125
"176","13/01/2007",15.2,21.5,17.86875
"177","13/01/2008",13.7,25,18.4375
"178","13/01/2009",14.3,24.8,19.1875
"179","13/02/2007",15.1,23.8,18.83125
"180","13/02/2008",14.2,21.5,17.1416666666667
"181","13/02/2009",14.8,25.1,18.1583333333333
"182","13/02/2013",14.71,23.61,17.4279166666667
"183","13/03/2006",14.1,24.7,17.78125
"184","13/03/2007",14.6,27,20.7604166666667
"185","13/03/2008",12.8,26.2,17.9020833333333
"186","13/03/2009",16.1,26,19.59375
"187","13/03/2013",15.17,23.89,19.3641666666667
"188","13/04/2006",15.6,22.7,18.8125
"189","13/04/2007",15.6,20.1,17.4645833333333
"190","13/04/2008",14.9,22.7,18.00625
"191","13/04/2009",14,23.3,18.3458333333333
"192","13/04/2013",16.32,21.99,18.4022916666667
"193","13/05/2006",14.8,23.2,18.4625
"194","13/05/2007",14.6,21.8,18.4395833333333
"195","13/05/2008",14.1,24.7,19.5604166666667
"196","13/05/2009",12.8,22,17.175
"197","13/06/2006",14.3,23.8,19.1729166666667
"198","13/06/2007",14.5,23.7,19.53125
"199","13/06/2008",12.3,23.1,18.3104166666667
"200","13/06/2009",14.3,23.9,19.2416666666667
"201","13/06/2011",15.7,16.7,16.1
"202","13/07/2006",14,23.5,18.6104166666667
"203","13/07/2007",13.4,24.7,19.5208333333333
"204","13/07/2008",13.8,23.1,18.59375
"205","13/08/2006",16.2,25.7,20.6583333333333
"206","13/08/2007",13.5,23.9,19.3125
"207","13/08/2008",12.6,25.2,19.5645833333333
"208","13/09/2006",14.7,27.5,21.775
"209","13/09/2007",15.9,26.5,20.2145833333333
"210","13/09/2008",13.5,21.1,17.5041666666667
"211","13/10/2006",17.6,26.9,22.0666666666667
"212","13/10/2007",13.6,24.7,19.0979166666667
"213","13/10/2008",13.4,24,17.1645833333333
"214","13/11/2006",15.3,24,17.9270833333333
"215","13/11/2007",14.3,21.9,17.4645833333333
"216","13/11/2008",14.1,23.8,18.3875
"217","13/12/2006",15.6,18.9,17.0833333333333
"218","13/12/2007",13.4,23,17.6125
"219","13/12/2008",14.6,26.9,20.3125
"220","14/01/2007",16.6,23.4,19.0583333333333
"221","14/01/2008",14,20.2,16.5854166666667
"222","14/01/2009",13.9,26.5,20.1041666666667
"223","14/02/2007",14.7,25,18.2979166666667
"224","14/02/2008",13,25.4,19.3916666666667
"225","14/02/2009",13.7,25.7,19.6333333333333
"226","14/02/2013",14.02,22.43,17.6264583333333
"227","14/03/2006",13.9,24.1,18.3458333333333
"228","14/03/2007",15,24.6,19.19375
"229","14/03/2008",13.9,23.8,18.1895833333333
"230","14/03/2009",15.4,21.9,17.4979166666667
"231","14/03/2013",14.73,21.68,17.4377083333333
"232","14/04/2006",15.8,22.1,17.5395833333333
"233","14/04/2007",16,22.6,17.8479166666667
"234","14/04/2008",15.2,23.1,17.6583333333333
"235","14/04/2009",14.9,24.8,18.8895833333333
"236","14/04/2013",15.93,22.67,19.17625
"237","14/05/2006",16.5,23.6,19.2583333333333
"238","14/05/2007",16.8,21.1,18.44375
"239","14/05/2008",15.4,22.6,18.4979166666667
"240","14/05/2009",14.5,21,16.9333333333333
"241","14/05/2011",15.4,22.8,18.7555555555556
"242","14/06/2006",13.7,24.9,18.9354166666667
"243","14/06/2007",14.2,23.4,18.7791666666667
"244","14/06/2008",15.7,20.3,17.8791666666667
"245","14/06/2009",14.4,22.7,18.50625
"246","14/07/2006",13.2,24.6,19.3145833333333
"247","14/07/2007",13.5,23.9,19.0541666666667
"248","14/07/2008",13.8,20.8,17.6375
"249","14/08/2006",15.9,25.3,20.3958333333333
"250","14/08/2007",14.4,24.9,20.1583333333333
"251","14/08/2008",15.9,26.2,21.0854166666667
"252","14/09/2006",16.2,28,22.3791666666667
"253","14/09/2007",15.1,24,18.8020833333333
"254","14/09/2008",13.7,24.7,18.8541666666667
"255","14/10/2006",15.8,27.2,21.74375
"256","14/10/2007",13.8,25.6,19.5291666666667
"257","14/10/2008",13.5,24.4,18.4083333333333
"258","14/11/2006",14.5,23.1,17.91875
"259","14/11/2007",15.2,22.4,18.0291666666667
"260","14/11/2008",14,24.1,18.14375
"261","14/12/2006",15.1,22.3,18.0645833333333
"262","14/12/2007",13.5,24.1,18.2583333333333
"263","14/12/2008",14.3,25.5,19.5791666666667
"264","15/01/2007",16.6,20.7,18.5083333333333
"265","15/01/2008",12.4,17.7,15.1583333333333
"266","15/01/2009",14.2,26.3,20.5645833333333
"267","15/02/2007",15.1,24.5,18.35625
"268","15/02/2008",15.6,25.3,18.7520833333333
"269","15/02/2009",15.3,26.6,20.5666666666667
"270","15/02/2013",12.29,25.85,19.001875
"271","15/03/2006",14.4,23,17.63125
"272","15/03/2007",14.8,25.5,18.23125
"273","15/03/2008",14.1,25.4,19.4958333333333
"274","15/03/2009",14.4,24.3,19.3145833333333
"275","15/03/2013",12.89,25,18.5966666666667
"276","15/04/2006",14,23.6,17.66875
"277","15/04/2007",15.4,23.8,19.09375
"278","15/04/2008",12.3,22.1,17.15
"279","15/04/2009",14.7,20.7,16.5166666666667
"280","15/04/2013",15.48,24.89,19.63875
"281","15/05/2006",16.2,23.7,18.8854166666667
"282","15/05/2007",15.9,22,18.85625
"283","15/05/2008",15.2,21.5,18.3229166666667
"284","15/05/2009",13.9,21.8,18.0083333333333
"285","15/05/2011",15.5,19,17.1529411764706
"286","15/06/2006",14.7,25.2,19.7708333333333
"287","15/06/2007",15,23.7,18.9833333333333
"288","15/06/2008",16.2,21.6,18.2875
"289","15/06/2009",13.5,24.6,19.3895833333333
"290","15/07/2006",15,24,19.34375
"291","15/07/2007",16.2,23.4,18.9229166666667
"292","15/07/2008",11.7,22,17.25
"293","15/08/2006",13.1,25.7,20.1458333333333
"294","15/08/2007",14.5,22.5,18.6625
"295","15/08/2008",17,25.5,21.0041666666667
"296","15/09/2006",15.8,26.8,20.7770833333333
"297","15/09/2007",14.3,23.2,16.9833333333333
"298","15/09/2008",14.3,26.2,20.30625
"299","15/10/2006",16.3,25.2,20.9541666666667
"300","15/10/2007",15.5,24.5,18.3916666666667
"301","15/10/2008",13.8,25.1,19.8604166666667
"302","15/11/2006",13.8,20.6,16.3291666666667
"303","15/11/2007",15.9,24,19.41875
"304","15/11/2008",13.3,25.5,19.03125
"305","15/12/2006",14.5,24,18.8041666666667
"306","15/12/2007",14.4,24.3,19.0979166666667
"307","15/12/2008",15.8,25.6,20.4645833333333
"308","16/01/2007",14.7,24,18.4645833333333
"309","16/01/2008",11.5,21.7,16.7208333333333
"310","16/01/2009",14.5,25.9,19.5166666666667
"311","16/02/2007",15.1,24.2,19.4875
"312","16/02/2008",15.5,25.4,18.4291666666667
"313","16/02/2009",14.9,26.4,20.3104166666667
"314","16/02/2013",14.4,26.27,20.325
"315","16/03/2006",14.4,25.5,18.4354166666667
"316","16/03/2007",13.7,23.9,18.4895833333333
"317","16/03/2008",14.5,23.5,18.5854166666667
"318","16/03/2009",14.9,24.1,19.7125
"319","16/03/2013",14.38,25.86,20.0908333333333
"320","16/04/2006",14.5,24.9,19.5125
"321","16/04/2007",17,23.1,19.3770833333333
"322","16/04/2008",13.6,22.9,17.0666666666667
"323","16/04/2009",14.1,23.2,18.49375
"324","16/04/2013",15.51,24.39,18.543125
"325","16/05/2006",14.7,22.7,18.20625
"326","16/05/2007",14.3,22.5,18.0583333333333
"327","16/05/2008",17.5,23.5,19.4458333333333
"328","16/05/2009",15.5,23.1,18.1479166666667
"329","16/06/2006",15.4,24.1,19.2979166666667
"330","16/06/2007",14.7,22.8,18.4208333333333
"331","16/06/2008",15.2,21.4,17.9958333333333
"332","16/06/2009",16.4,24.2,19.9208333333333
"333","16/06/2011",17.4,18.1,17.86
"334","16/07/2006",14.7,24.4,19.55625
"335","16/07/2007",15.9,23.3,18.8666666666667
"336","16/07/2008",14.8,23.5,18.96875
"337","16/08/2006",16.6,26,21.3416666666667
"338","16/08/2007",13.8,23.2,17.7416666666667
"339","16/08/2008",14.4,26.3,20.5291666666667
"340","16/09/2006",15.6,25.3,19.775
"341","16/09/2007",15.3,22.5,18.1145833333333
"342","16/09/2008",14.3,27.6,21.8958333333333
"343","16/10/2006",17.5,25.7,20.5458333333333
"344","16/10/2007",14.8,25.1,17.7145833333333
"345","16/10/2008",14,26.2,19.8916666666667
"346","16/11/2006",14.5,22.9,17.6854166666667
"347","16/11/2007",15.5,23.1,17.3229166666667
"348","16/11/2008",14,25.4,18.7666666666667
"349","16/12/2006",16,19.8,17.4375
"350","16/12/2007",13.1,24.8,19.3833333333333
"351","16/12/2008",15.9,23.9,19.3375
"352","17/01/2007",14.2,25.2,19.7604166666667
"353","17/01/2008",14.4,22.3,16.9958333333333
"354","17/01/2009",16,25.9,19.5729166666667
"355","17/02/2007",15.7,25.1,19.73125
"356","17/02/2008",15,23.9,19.3520833333333
"357","17/02/2009",17.2,23.7,19.93125
"358","17/02/2013",15.94,26.86,21.16125
"359","17/03/2006",14.3,23.1,18.3479166666667
"360","17/03/2007",14.7,22.2,18.45
"361","17/03/2008",15.3,22.9,17.4125
"362","17/03/2009",15,24.6,18.08125
"363","17/03/2013",17.22,25.37,21.2395833333333
"364","17/04/2006",15.6,24.8,19.68125
"365","17/04/2007",15.4,23.3,18.6020833333333
"366","17/04/2008",13.9,22.1,16.86875
"367","17/04/2009",12.9,23.8,18.8104166666667
"368","17/04/2013",15.61,20.54,17.4534285714286
"369","17/05/2006",15.4,24.1,18.4604166666667
"370","17/05/2007",16.4,21.2,18.4145833333333
"371","17/05/2008",16.4,21.7,18.59375
"372","17/05/2009",15.1,22.1,17.6166666666667
"373","17/06/2006",15.2,23.5,18.6625
"374","17/06/2007",14.7,21.7,17.81875
"375","17/06/2008",15.7,22.2,17.9479166666667
"376","17/06/2009",15.2,25,19.6791666666667
"377","17/06/2011",13.8,22.6,17.3192307692308
"378","17/07/2006",15.2,23.3,19.8833333333333
"379","17/07/2007",16.2,24.2,19.7333333333333
"380","17/07/2008",13.2,23.9,18.9958333333333
"381","17/08/2006",15.4,25.9,20.8958333333333
"382","17/08/2007",14.5,23.8,18.1854166666667
"383","17/08/2008",13.5,26.7,20.9791666666667
"384","17/09/2006",14.5,26.4,19.7354166666667
"385","17/09/2007",16.3,24.1,19.2416666666667
"386","17/09/2008",16.4,27.2,22.0083333333333
"387","17/10/2006",16.4,25.5,19.84375
"388","17/10/2007",13,25.5,19.1895833333333
"389","17/10/2008",14,26.3,19.66875
"390","17/11/2006",14.2,21,17.275
"391","17/11/2007",15.6,21.9,17.5208333333333
"392","17/11/2008",13.7,24.8,19.4125
"393","17/12/2006",15.4,24.8,18.9
"394","17/12/2007",13.9,26.5,20.5875
"395","17/12/2008",14.2,24.9,20.2
"396","18/01/2007",15.2,26.6,20.7958333333333
"397","18/01/2008",12.9,24.1,18.6083333333333
"398","18/01/2009",15.6,24.9,19.1270833333333
"399","18/02/2007",15,25.6,19.9333333333333
"400","18/02/2008",15.8,25.6,20.2791666666667
"401","18/02/2009",15,21.4,17.7770833333333
"402","18/02/2013",14.85,26,20.6147916666667
"403","18/03/2006",14.6,19.3,16.5395833333333
"404","18/03/2007",14.4,24.3,18.7333333333333
"405","18/03/2008",13.1,19.4,16.80625
"406","18/03/2009",14.2,25.3,19.1208333333333
"407","18/03/2013",15.99,25.57,20.7583333333333
"408","18/04/2006",15.1,24.9,18.4729166666667
"409","18/04/2007",16,23.3,18.5666666666667
"410","18/04/2008",13.4,24.4,18.0979166666667
"411","18/04/2009",14.9,25,19.5875
"412","18/05/2006",15.1,21.3,17.15625
"413","18/05/2007",14.9,21.7,17.5354166666667
"414","18/05/2008",15.5,22.4,18.2645833333333
"415","18/05/2009",13.5,24.5,18.9479166666667
"416","18/06/2006",13,23.2,18.9520833333333
"417","18/06/2007",11.9,22.7,17.74375
"418","18/06/2008",14.2,23,18.24375
"419","18/06/2009",14.4,24.5,19.76875
"420","18/06/2011",15.3,22.6,17.91
"421","18/07/2006",16.2,23.2,19.3791666666667
"422","18/07/2007",15.5,22.6,19.1604166666667
"423","18/07/2008",15.8,23.4,19.3166666666667
"424","18/08/2006",14.9,25.1,20.0333333333333
"425","18/08/2007",14.9,19.9,17.025
"426","18/08/2008",15.9,24.5,20.18125
"427","18/09/2006",14.9,21.8,17.3854166666667
"428","18/09/2007",15.7,22.5,18.5020833333333
"429","18/09/2008",16.3,25.4,19.7125
"430","18/10/2006",16.8,26.6,21.2166666666667
"431","18/10/2007",13,27.1,20.2229166666667
"432","18/10/2008",14.9,26.6,19.1479166666667
"433","18/11/2006",15.2,21.5,16.875
"434","18/11/2007",15,22.1,17.525
"435","18/11/2008",15,24.5,18.4895833333333
"436","18/12/2006",16,24.7,19.3
"437","18/12/2007",13,26.6,20.45
"438","18/12/2008",16.2,26.2,20.8
"439","19/01/2007",16,26.4,19.8208333333333
"440","19/01/2008",14.5,25.5,19.74375
"441","19/01/2009",14,26,18.23125
"442","19/02/2007",14.1,26,20.16875
"443","19/02/2008",17.2,22.5,18.9625
"444","19/02/2009",14.1,19.7,16.1833333333333
"445","19/02/2013",15.27,25,18.013125
"446","19/03/2006",12.8,23.6,16.8458333333333
"447","19/03/2007",14.9,23.5,17.5083333333333
"448","19/03/2008",12.1,23.7,17.0145833333333
"449","19/03/2009",14.6,25.5,19.1979166666667
"450","19/03/2013",15.92,22.78,18.58625
"451","19/04/2006",14.1,23.7,18.5020833333333
"452","19/04/2007",14.4,23.4,18.3666666666667
"453","19/04/2008",16.2,23.1,19.0354166666667
"454","19/04/2009",14.7,20.3,17.4583333333333
"455","19/05/2006",13.8,24.5,18.8895833333333
"456","19/05/2007",15.2,25,19.9458333333333
"457","19/05/2008",14.3,22.6,18.1125
"458","19/05/2009",15,20.8,17.4895833333333
"459","19/05/2011",16.5,18.2,17.06
"460","19/06/2006",15.1,22.9,18.8958333333333
"461","19/06/2007",11.1,23.8,17.925
"462","19/06/2008",12.1,23.7,18.625
"463","19/06/2009",16.2,22.5,19.04375
"464","19/06/2011",17.8,18.8,18.2526315789474
"465","19/07/2006",13.8,25.3,19.7979166666667
"466","19/07/2007",17.5,23,19.525
"467","19/07/2008",13.1,23.7,19.0166666666667
"468","19/08/2006",13.2,25.7,19.86875
"469","19/08/2007",15.4,21,17.5208333333333
"470","19/08/2008",15.3,21.6,18.4541666666667
"471","19/09/2006",14.6,25.3,19.19375
"472","19/09/2007",14.5,24.5,19.2
"473","19/09/2008",15.2,26.9,21.13125
"474","19/10/2006",16.2,26.4,21.3
"475","19/10/2007",14.7,25.8,19.0270833333333
"476","19/10/2008",15,25.6,19.075
"477","19/11/2006",14.4,23.5,18.4625
"478","19/11/2007",14.8,23.8,18.7416666666667
"479","19/11/2008",14.3,24.4,18.4979166666667
"480","19/12/2006",14.8,23.8,17.9291666666667
"481","19/12/2007",14.8,26.7,20.3145833333333
"482","19/12/2008",16.5,23.8,19.5770833333333
"483","2/01/2007",16,22.4,18.6895833333333
"484","2/01/2008",14.8,25.5,20.1416666666667
"485","2/01/2009",13.6,26.6,20.15
"486","2/02/2007",16.2,22.9,18.4583333333333
"487","2/02/2008",15.5,26.2,21.0458333333333
"488","2/02/2009",14.8,23.6,17.1979166666667
"489","2/02/2013",15.97,22.83,17.90625
"490","2/03/2006",13.9,27.2,20.7666666666667
"491","2/03/2007",15.4,22.3,17.91875
"492","2/03/2008",12.5,21.3,16.875
"493","2/03/2009",13.3,21,16.2416666666667
"494","2/03/2013",15.21,26.81,20.375
"495","2/04/2006",14.3,24.6,18.5604166666667
"496","2/04/2007",15.9,26.2,20.4833333333333
"497","2/04/2008",14.3,22.8,18.3416666666667
"498","2/04/2009",15.5,20.4,17.425
"499","2/04/2013",15.55,24.77,19.3035416666667
"500","2/05/2006",16.6,20.7,17.9
"501","2/05/2007",14.8,24.3,19.4229166666667
"502","2/05/2008",15,24.4,19.3083333333333
"503","2/05/2009",16.3,25.3,19.9375
"504","2/06/2006",13,23.7,18.4895833333333
"505","2/06/2007",15.1,22.3,18.5395833333333
"506","2/06/2008",15,21.3,16.9229166666667
"507","2/06/2009",15,24.1,18.3854166666667
"508","2/07/2006",16.5,24.9,20.1375
"509","2/07/2007",15.3,24.9,20.0708333333333
"510","2/07/2008",12.9,25.9,19.9125
"511","2/07/2011",17,18.7,17.7375
"512","2/08/2006",14,25.6,20.38125
"513","2/08/2007",14.4,22.9,19.3208333333333
"514","2/08/2008",16.4,23.1,19.4395833333333
"515","2/09/2006",16.2,25.2,20.21875
"516","2/09/2007",14.1,18.5,16.4583333333333
"517","2/09/2008",13.9,24.2,17.9645833333333
"518","2/10/2006",14,25.9,19.59375
"519","2/10/2007",14.8,22.4,18.475
"520","2/10/2008",14.5,24.9,19.41875
"521","2/11/2006",15.8,22.9,18.6145833333333
"522","2/11/2007",15.4,25.7,20.1645833333333
"523","2/11/2008",15.7,21.5,18.0854166666667
"524","2/12/2006",15,21,17.15625
"525","2/12/2007",15.3,24,19.36875
"526","2/12/2008",15.6,21.1,17.4520833333333
"527","20/01/2007",17,24.2,18.5770833333333
"528","20/01/2008",14.5,22.5,17.6604166666667
"529","20/01/2009",15.1,23.6,18.6520833333333
"530","20/02/2007",13.2,26.8,20.25625
"531","20/02/2008",15.7,24,17.4770833333333
"532","20/02/2009",11.9,25.6,18.2916666666667
"533","20/02/2013",13.19,21.97,17.6129166666667
"534","20/03/2006",14.4,25.5,18.9291666666667
"535","20/03/2007",14.2,24.3,19.1666666666667
"536","20/03/2008",14,25.2,18.9916666666667
"537","20/03/2009",14,23.4,18.1166666666667
"538","20/03/2013",15.15,22,17.62375
"539","20/04/2006",15.6,24.1,18.7125
"540","20/04/2007",16.5,24.2,19.08125
"541","20/04/2008",14.8,21.1,16.8395833333333
"542","20/04/2009",14,25,17.8583333333333
"543","20/05/2006",15.6,24.8,19.4375
"544","20/05/2007",16.2,25.5,20.425
"545","20/05/2008",15.7,23.7,19.5583333333333
"546","20/05/2009",14.9,24.4,19.3166666666667
"547","20/05/2011",15.8,19.7,17.4425
"548","20/06/2006",14.1,21.1,17.5145833333333
"549","20/06/2007",11.9,23.2,17.9458333333333
"550","20/06/2008",15.5,23,19.0729166666667
"551","20/06/2009",13.1,23.8,18.8354166666667
"552","20/07/2006",17,23.8,20.3229166666667
"553","20/07/2007",15.3,22.8,19.1375
"554","20/07/2008",15.4,21.5,18.38125
"555","20/08/2006",12.7,27.4,20.8166666666667
"556","20/08/2007",15.9,21.7,17.5708333333333
"557","20/08/2008",13.4,24.4,19.5333333333333
"558","20/09/2006",14.1,25.4,19.5416666666667
"559","20/09/2007",15,24.5,19.6125
"560","20/09/2008",15.6,21.5,18.3104166666667
"561","20/10/2006",16.1,27.2,21.7979166666667
"562","20/10/2007",14.8,24.9,18.7583333333333
"563","20/10/2008",16.3,24.4,18.5104166666667
"564","20/11/2006",14.9,22.2,18.3291666666667
"565","20/11/2007",13.8,24.7,18.69375
"566","20/11/2008",15.5,23.7,18.2833333333333
"567","20/12/2006",15.7,22.6,18.4458333333333
"568","20/12/2007",14.8,22.2,17.7395833333333
"569","20/12/2008",16.7,24.3,18.6916666666667
"570","21/01/2007",16.8,22.4,19.09375
"571","21/01/2008",14.9,24.2,18.4895833333333
"572","21/01/2009",15,23.7,18.24375
"573","21/02/2007",12.8,26.8,20.3583333333333
"574","21/02/2008",14.4,22.9,18.1583333333333
"575","21/02/2009",13.7,25.1,18.8041666666667
"576","21/02/2013",14.44,24.25,18.8358333333333
"577","21/03/2006",15.6,26.4,20.48125
"578","21/03/2007",15.5,23.9,19.75625
"579","21/03/2008",14.3,25.7,19.2708333333333
"580","21/03/2009",12.7,25.4,19.09375
"581","21/03/2013",15.4,24.28,19.39
"582","21/04/2006",15.7,21.1,17.96875
"583","21/04/2007",15,23.2,18.9979166666667
"584","21/04/2008",14.9,24,18.9416666666667
"585","21/04/2009",15.4,20.9,17.90625
"586","21/05/2006",14.7,24.7,18.7416666666667
"587","21/05/2007",15.7,25.3,20.2
"588","21/05/2008",17,23.1,19.33125
"589","21/05/2009",17.5,22.7,19.4666666666667
"590","21/05/2011",16.2,16.9,16.3933333333333
"591","21/06/2006",14.8,22.4,17.9104166666667
"592","21/06/2007",12.4,24.4,18.4729166666667
"593","21/06/2008",13.2,24.5,19.125
"594","21/06/2009",14,23,18.7473684210526
"595","21/07/2006",15.5,21.7,18.15
"596","21/07/2007",14.1,24.1,18.5291666666667
"597","21/07/2008",16.3,22.4,18.8229166666667
"598","21/08/2006",12.6,27.2,20.4145833333333
"599","21/08/2007",15.1,23.4,18.7354166666667
"600","21/08/2008",15.7,25.9,20.08125
"601","21/09/2006",15.6,20.8,17.5625
"602","21/09/2007",15.1,25.8,20.2666666666667
"603","21/09/2008",14.9,23.1,18.1104166666667
"604","21/10/2006",16.6,23.8,20.13125
"605","21/10/2007",14.7,22.9,18.225
"606","21/10/2008",16.1,22.8,18.00625
"607","21/11/2006",14.4,23.4,18.7416666666667
"608","21/11/2007",14.4,23.5,18.5666666666667
"609","21/11/2008",15.7,26,20.7354166666667
"610","21/12/2006",16.1,21.1,17.3833333333333
"611","21/12/2007",14.5,24.1,19.1104166666667
"612","21/12/2008",14.3,26.1,20.3291666666667
"613","22/01/2007",16,24.8,19.33125
"614","22/01/2008",15.3,21.6,17.9270833333333
"615","22/01/2009",15,23.1,17.5625
"616","22/02/2007",13.8,26.7,21.0708333333333
"617","22/02/2008",14.5,23.8,19.2520833333333
"618","22/02/2009",14,25.2,19.0583333333333
"619","22/02/2013",14.59,26.07,20.2270833333333
"620","22/03/2006",15.9,26.3,20.2833333333333
"621","22/03/2007",15.8,24.6,18.9145833333333
"622","22/03/2008",15.2,22.2,18.40625
"623","22/03/2009",14.4,25,18.7416666666667
"624","22/03/2013",16.2,23.99,18.9425
"625","22/04/2006",14,20.3,16.9791666666667
"626","22/04/2007",15.9,24.4,19.7104166666667
"627","22/04/2008",14.2,23.8,18.60625
"628","22/04/2009",14.2,21.9,17.86875
"629","22/05/2006",15.4,23.4,18.6895833333333
"630","22/05/2007",15.8,26,20.7291666666667
"631","22/05/2008",15.1,24.9,19.5083333333333
"632","22/05/2009",14.6,20.1,17.9604166666667
"633","22/06/2006",13.6,24,19.075
"634","22/06/2007",16.7,20.6,18.1229166666667
"635","22/06/2008",14.5,23.3,18.9479166666667
"636","22/07/2006",15.7,21.8,17.8333333333333
"637","22/07/2007",15.7,24,19.8166666666667
"638","22/07/2008",14.7,24.1,19.35
"639","22/07/2011",18.1,24.4,21.9666666666667
"640","22/08/2006",13,27.1,20.6354166666667
"641","22/08/2007",15.2,23.4,19.13125
"642","22/08/2008",14.3,26.1,20.86875
"643","22/09/2006",15.1,23.2,18.76875
"644","22/09/2007",15.8,26.8,21.3666666666667
"645","22/09/2008",13.3,26.2,19.9104166666667
"646","22/10/2006",16.5,24.6,19.175
"647","22/10/2007",14.8,23.3,17.0541666666667
"648","22/10/2008",16.2,23.3,18.2208333333333
"649","22/11/2006",14.8,21.8,16.7895833333333
"650","22/11/2007",15.5,23,18.7875
"651","22/11/2008",15.5,26.4,20.1291666666667
"652","22/12/2006",15.8,21.3,17.43125
"653","22/12/2007",14.3,25,19.9458333333333
"654","22/12/2008",16.8,26.7,21.6833333333333
"655","23/01/2007",16.4,24.4,19.49375
"656","23/01/2008",14.7,23.8,18.5895833333333
"657","23/01/2009",13.5,25.8,18.8083333333333
"658","23/02/2007",15.1,27.3,21.05625
"659","23/02/2008",13.1,25.6,19.94375
"660","23/02/2009",14.6,23.1,17.6895833333333
"661","23/02/2013",15.46,26.35,20.5152083333333
"662","23/03/2006",14.4,24.8,17.4479166666667
"663","23/03/2007",14.9,25.2,19.2145833333333
"664","23/03/2008",14.3,20,16.5958333333333
"665","23/03/2009",12,26.2,19.08125
"666","23/03/2013",15.04,20.06,16.7358333333333
"667","23/04/2006",14.5,19.9,16.6541666666667
"668","23/04/2007",15.8,25,19.4791666666667
"669","23/04/2008",16.4,23.8,19.26875
"670","23/04/2009",15,23.9,18.6375
"671","23/05/2006",15.2,23.9,19.3354166666667
"672","23/05/2007",16.8,21.4,18.8291666666667
"673","23/05/2008",15.2,21.8,17.25625
"674","23/05/2009",12.8,24.2,18.4229166666667
"675","23/05/2011",15.6,17.4,16.6136363636364
"676","23/06/2006",12.7,24.7,19.1520833333333
"677","23/06/2007",14.9,22.6,18.6958333333333
"678","23/06/2008",15.3,22.8,18.8833333333333
"679","23/07/2006",15.3,23.2,18.3833333333333
"680","23/07/2007",16.2,24,19.7229166666667
"681","23/07/2008",17.1,22,19.1416666666667
"682","23/07/2011",14.3,24.4,19.3416666666667
"683","23/08/2006",13.1,26.6,20.83125
"684","23/08/2007",16.2,24.7,19.7958333333333
"685","23/08/2008",15.4,25.3,20.6
"686","23/09/2006",16.6,23.9,19.96875
"687","23/09/2007",14.9,27,20.86875
"688","23/09/2008",14.6,25.4,18.5625
"689","23/10/2006",14.8,22.6,18.1375
"690","23/10/2007",14.1,21.5,17.6145833333333
"691","23/10/2008",16.1,23.1,18.7958333333333
"692","23/11/2006",14.3,17.6,15.7666666666667
"693","23/11/2007",14.6,25,18.11875
"694","23/11/2008",15.4,25,20.5854166666667
"695","23/12/2006",15.7,22.8,17.8666666666667
"696","23/12/2007",16.8,24.1,20.3291666666667
"697","23/12/2008",14.6,26.8,21.1875
"698","24/01/2007",14.4,26.6,20.7166666666667
"699","24/01/2008",16.9,23.8,19.1583333333333
"700","24/01/2009",13.8,22.7,17.0354166666667
"701","24/02/2007",14.6,27.9,20.6604166666667
"702","24/02/2008",15.4,24,19.46875
"703","24/02/2009",13.5,24.3,17.5145833333333
"704","24/02/2013",15.7,25.82,19.9870833333333
"705","24/03/2006",12.9,26.3,19.5083333333333
"706","24/03/2007",16.2,25.8,20.8666666666667
"707","24/03/2008",15.2,23.1,18.6854166666667
"708","24/03/2009",14.4,24.5,17.8520833333333
"709","24/03/2013",14,24.02,17.560625
"710","24/04/2006",12.6,23.1,16.6270833333333
"711","24/04/2007",16.4,24.7,19.4083333333333
"712","24/04/2008",15.7,20.6,17.7708333333333
"713","24/04/2009",16.8,23.7,19.7625
"714","24/05/2006",14.1,23.1,18.7625
"715","24/05/2007",16.2,23.7,19.4333333333333
"716","24/05/2008",13.7,23.5,18.2520833333333
"717","24/05/2009",14.1,24.6,19.38125
"718","24/05/2011",16.5,21.4,17.924
"719","24/06/2006",15.9,25,20.11875
"720","24/06/2007",15.3,22.4,18.325
"721","24/06/2008",14.8,23.1,18.4583333333333
"722","24/07/2006",14.9,21.2,17.4625
"723","24/07/2007",14.9,23.7,19.61875
"724","24/07/2008",15.2,20.4,17.70625
"725","24/07/2011",13.3,24.9,19.6083333333333
"726","24/08/2006",15.6,26.5,21.46875
"727","24/08/2007",12.8,25.9,19.725
"728","24/08/2008",16.1,25.7,21.2625
"729","24/09/2006",13.7,26.9,19.9729166666667
"730","24/09/2007",15.1,27.3,21.2875
"731","24/09/2008",14.7,25.4,18.6791666666667
"732","24/10/2006",15.3,24,19.075
"733","24/10/2007",13.6,24.1,17.7666666666667
"734","24/10/2008",16.7,24.8,19.2125
"735","24/11/2006",14.8,24.3,18.0541666666667
"736","24/11/2007",13.9,23.2,17.1729166666667
"737","24/11/2008",16.5,25.5,20.8520833333333
"738","24/12/2006",15.4,21.7,18.0875
"739","24/12/2007",16.2,24.5,19.4895833333333
"740","24/12/2008",14.5,26.7,21.1458333333333
"741","25/01/2007",16.1,26.2,21.28125
"742","25/01/2008",15,23.1,19.1104166666667
"743","25/01/2009",13.1,21.5,16.8520833333333
"744","25/02/2007",14.7,26.4,19.06875
"745","25/02/2008",13.8,25.4,19.18125
"746","25/02/2009",14.7,22.1,17.5708333333333
"747","25/02/2013",14.35,27.23,20.7541666666667
"748","25/03/2006",15.8,24.8,19.6458333333333
"749","25/03/2007",14.2,25.7,20.43125
"750","25/03/2008",15.9,24.8,19.79375
"751","25/03/2009",13.6,25.4,19.2833333333333
"752","25/03/2013",13.76,23.31,17.503125
"753","25/04/2006",13,22.2,17.5729166666667
"754","25/04/2007",16.2,21.1,18.4395833333333
"755","25/04/2008",15.8,21.2,18.1
"756","25/04/2009",17.1,25.1,20.8979166666667
"757","25/05/2006",15,23.3,18.5791666666667
"758","25/05/2007",14.9,24.2,19.7
"759","25/05/2008",14.9,23.9,18.2604166666667
"760","25/05/2009",14.1,24.9,19.7375
"761","25/05/2011",10.5,23.5,19.06875
"762","25/06/2006",15.3,24.6,19.8916666666667
"763","25/06/2007",16.1,22,18.6520833333333
"764","25/06/2008",13.7,23.2,18.3958333333333
"765","25/07/2006",13.3,24.9,18.8833333333333
"766","25/07/2007",16.5,24.2,20.05
"767","25/07/2008",14.6,22.6,18.2708333333333
"768","25/07/2011",13.8,26,20.05625
"769","25/08/2006",14.5,27.8,21.6666666666667
"770","25/08/2007",12.2,26.8,20.2854166666667
"771","25/08/2008",16.9,26.1,21.4541666666667
"772","25/09/2006",15.2,26.1,20.2979166666667
"773","25/09/2007",14.5,27.7,21.5625
"774","25/09/2008",13.9,24.1,18.9916666666667
"775","25/10/2006",15.7,25.8,20.0833333333333
"776","25/10/2007",14.3,24.7,17.875
"777","25/10/2008",15.9,25.7,19.4854166666667
"778","25/11/2006",15.5,23,17.3416666666667
"779","25/11/2007",14.3,24.7,17.9791666666667
"780","25/11/2008",16,24.2,19.8333333333333
"781","25/12/2006",15.5,23,18.65
"782","25/12/2007",16.3,25.3,19.4854166666667
"783","25/12/2008",14.7,25.1,18.9395833333333
"784","26/01/2007",15.8,24.1,19.5604166666667
"785","26/01/2008",15.4,21.8,17.3041666666667
"786","26/01/2009",13.1,23.1,17.43125
"787","26/02/2007",13.9,26.6,19.9520833333333
"788","26/02/2008",12.9,23.2,16.1791666666667
"789","26/02/2009",14.3,23.3,17.7104166666667
"790","26/02/2013",14.37,27.27,21.3781632653061
"791","26/03/2006",15.2,25.3,20
"792","26/03/2007",14.4,22,18.175
"793","26/03/2008",15.3,25.9,18.58125
"794","26/03/2009",15.6,25.7,20.6833333333333
"795","26/03/2013",14.94,22.65,17.04625
"796","26/04/2006",16.3,23.2,19.5645833333333
"797","26/04/2007",15.6,24.2,18.7479166666667
"798","26/04/2008",16.6,22.1,18.7770833333333
"799","26/04/2009",17.5,24.6,20.5145833333333
"800","26/04/2011",17.6,21.8,19.2727272727273
"801","26/05/2006",14.9,23.6,19.41875
"802","26/05/2007",16.2,21.6,18.49375
"803","26/05/2008",15.1,23,18.6895833333333
"804","26/05/2009",16.3,24.1,20.1125
"805","26/05/2011",14.5,24.2,18.9829787234043
"806","26/06/2006",15.4,23.8,19.4770833333333
"807","26/06/2007",14.8,22,18.83125
"808","26/06/2008",14.5,22.9,18.5666666666667
"809","26/07/2006",14,24.8,19.66875
"810","26/07/2007",16.1,24.6,20.3833333333333
"811","26/07/2008",15.5,23.4,19.4166666666667
"812","26/07/2011",13.5,26,19.5666666666667
"813","26/08/2006",15.3,27,20.6625
"814","26/08/2007",15.6,25.6,20.69375
"815","26/08/2008",14.8,26.5,20.3458333333333
"816","26/09/2006",16.3,27,21.0666666666667
"817","26/09/2007",14.9,25.4,20.8229166666667
"818","26/09/2008",14.4,26.5,19.6354166666667
"819","26/10/2006",14.8,24.3,17.6395833333333
"820","26/10/2007",13.9,21.9,16.51875
"821","26/10/2008",15.1,23.6,18.6958333333333
"822","26/11/2006",15.2,22.4,17.5875
"823","26/11/2007",13.9,24.3,18.46875
"824","26/11/2008",16.6,26.1,21.2208333333333
"825","26/12/2006",16.7,23.5,19.1291666666667
"826","26/12/2007",15.8,25,20.0604166666667
"827","26/12/2008",14,25,19.3625
"828","27/01/2007",15.2,26.3,20.19375
"829","27/01/2008",14.5,23.2,18.0125
"830","27/01/2009",14.1,24.7,18.9458333333333
"831","27/02/2007",15.6,26.8,19.9041666666667
"832","27/02/2008",13.3,23.6,17.4729166666667
"833","27/02/2009",15.2,24.3,19.4916666666667
"834","27/02/2013",15.89,27.28,21.525625
"835","27/03/2006",15.6,24.5,19.2958333333333
"836","27/03/2007",14.1,25.1,19.3229166666667
"837","27/03/2008",15.8,20.8,17.2833333333333
"838","27/03/2009",13.8,26.5,20.65625
"839","27/03/2013",13.8,21.72,17.2329166666667
"840","27/04/2006",17,21.3,18.6333333333333
"841","27/04/2007",15.8,24,18.525
"842","27/04/2008",15.8,24.3,19.38125
"843","27/04/2009",16.4,23.5,18.90625
"844","27/04/2011",15.6,20.4,17.3466666666667
"845","27/05/2006",14.8,24,19.30625
"846","27/05/2007",14.5,21.2,17.8854166666667
"847","27/05/2008",15.6,22.2,19.0375
"848","27/05/2009",17,24,19.8791666666667
"849","27/05/2011",14.8,22.7,16.4483870967742
"850","27/06/2006",16.7,23,19.09375
"851","27/06/2007",14.9,24.4,19.4020833333333
"852","27/06/2008",15.2,21.9,17.91875
"853","27/07/2006",14,23.9,19.4458333333333
"854","27/07/2007",15.1,25.7,20
"855","27/07/2008",15.2,24,19.5791666666667
"856","27/07/2011",14.8,20.4,16.035
"857","27/08/2006",14.3,25.5,19.0958333333333
"858","27/08/2007",15.6,24.2,19.975
"859","27/08/2008",14.9,24.6,19.0020833333333
"860","27/09/2006",15.7,26.6,19.8770833333333
"861","27/09/2007",15.4,26.1,20.2416666666667
"862","27/09/2008",14.2,26.1,20.4541666666667
"863","27/10/2006",13.3,25.7,19.5354166666667
"864","27/10/2007",14.7,23.4,18.1916666666667
"865","27/10/2008",15.3,22.7,18.375
"866","27/11/2006",15.6,22.9,18.29375
"867","27/11/2007",14.6,23.9,18.475
"868","27/11/2008",15.9,26.8,19.9375
"869","27/12/2006",16,22,17.975
"870","27/12/2007",15.9,24.6,19.4020833333333
"871","27/12/2008",15.6,25,18.44375
"872","28/01/2007",15.6,26.9,21.1520833333333
"873","28/01/2008",14.3,25.1,20.0520833333333
"874","28/01/2009",15.1,26.7,19.3583333333333
"875","28/02/2007",14.8,23.5,17.4958333333333
"876","28/02/2008",12.2,22.7,17.6770833333333
"877","28/02/2009",14.8,23.9,18.9854166666667
"878","28/02/2013",15.53,27.9,20.8272916666667
"879","28/03/2006",15.2,26,19.78125
"880","28/03/2007",14.4,22.9,18.2333333333333
"881","28/03/2008",15.7,21.8,17.2270833333333
"882","28/03/2009",16.6,26.3,21.4958333333333
"883","28/03/2013",14.97,21.93,17.1870833333333
"884","28/04/2006",16.7,22.9,19.1791666666667
"885","28/04/2007",15.7,23.5,18.275
"886","28/04/2008",15.5,24.1,19.4666666666667
"887","28/04/2009",14.7,23.4,18.7666666666667
"888","28/04/2011",15.8,16.6,16.32
"889","28/05/2006",16.6,24.6,20.05
"890","28/05/2007",15.7,22.3,18.5125
"891","28/05/2008",16.7,23.5,19.2375
"892","28/05/2009",16.4,22.2,18.5333333333333
"893","28/05/2011",13,14.6,13.6571428571429
"894","28/06/2006",15.1,22.8,18.5083333333333
"895","28/06/2007",14.8,25,20.43125
"896","28/06/2008",14,24.7,19.4604166666667
"897","28/07/2006",16,23,19.11875
"898","28/07/2007",15.5,23.9,17.7541666666667
"899","28/07/2008",15.4,25.4,20.3104166666667
"900","28/08/2006",15.5,24.1,19.50625
"901","28/08/2007",13.6,26.8,20.9416666666667
"902","28/08/2008",13.3,24.1,18.44375
"903","28/09/2006",14.7,23.6,19.2395833333333
"904","28/09/2007",13.9,26.4,19.9229166666667
"905","28/09/2008",15.1,27.7,20.5645833333333
"906","28/10/2006",15.4,23.4,18.88125
"907","28/10/2007",14.4,24.2,19.0104166666667
"908","28/10/2008",14.8,24.4,19.1708333333333
"909","28/11/2006",15.6,22.7,17.69375
"910","28/11/2007",12.8,24.4,18.5479166666667
"911","28/11/2008",15.2,24.7,19.4770833333333
"912","28/12/2006",16.4,23.3,19.40625
"913","28/12/2007",14.5,20.4,16.8604166666667
"914","28/12/2008",13.2,25,19.6270833333333
"915","29/01/2007",16.5,25.7,20.2145833333333
"916","29/01/2008",17.1,24.8,20.3916666666667
"917","29/01/2009",13.7,24.1,17.8520833333333
"918","29/02/2008",13.9,23.9,18.4395833333333
"919","29/03/2006",16.5,25.4,20.1729166666667
"920","29/03/2007",15.7,24.6,19.4875
"921","29/03/2008",15.1,22,17.3229166666667
"922","29/03/2009",15.9,24.4,19.64375
"923","29/03/2013",13.87,22.93,17.901875
"924","29/04/2006",15.8,22.4,18.8
"925","29/04/2007",14.7,25.8,19.24375
"926","29/04/2008",16.7,24.4,20.1125
"927","29/04/2009",15.9,23.1,18.81875
"928","29/04/2011",15,16.9,15.925
"929","29/05/2006",15.1,22.6,18.95625
"930","29/05/2007",17.2,22,19.3354166666667
"931","29/05/2008",14.1,22.3,18.03125
"932","29/05/2009",16.9,23.6,19.6854166666667
"933","29/06/2006",14.4,24.4,19.5770833333333
"934","29/06/2007",17.4,22.5,19.8104166666667
"935","29/06/2008",14.1,25.5,20.0833333333333
"936","29/07/2006",13,22.9,18.6395833333333
"937","29/07/2007",13.3,25.2,18.2854166666667
"938","29/07/2008",17.2,23.8,19.96875
"939","29/08/2006",14.3,27,20.8958333333333
"940","29/08/2007",13.2,26.1,20.6666666666667
"941","29/08/2008",15.7,25.2,20.0083333333333
"942","29/09/2006",14.1,25.3,19.6104166666667
"943","29/09/2007",14.3,27.1,20.4916666666667
"944","29/09/2008",16.5,25.7,20.5708333333333
"945","29/10/2006",15.6,23.9,18.6291666666667
"946","29/10/2007",16.3,24.2,19.6166666666667
"947","29/10/2008",15.7,25.9,19.6770833333333
"948","29/11/2006",15.8,22.3,17.0104166666667
"949","29/11/2007",14.5,24.9,19.525
"950","29/11/2008",16.3,22.9,18.375
"951","29/12/2006",16,20.1,17.3354166666667
"952","29/12/2007",13.7,24.6,19.3354166666667
"953","29/12/2008",15.4,25.8,19.3875
"954","3/01/2007",14.5,24,19.4458333333333
"955","3/01/2008",14.5,27.1,21.0375
"956","3/01/2009",15.3,26.9,20.3375
"957","3/02/2007",17.1,24.3,19.4333333333333
"958","3/02/2008",16.2,26.7,21.6229166666667
"959","3/02/2009",14.6,25.5,19.74375
"960","3/02/2013",14.94,23.09,18.8954166666667
"961","3/03/2006",17.1,26.9,20.9979166666667
"962","3/03/2007",12.7,24.5,18.5354166666667
"963","3/03/2008",13.6,23.4,17.7895833333333
"964","3/03/2009",12.4,24.6,18.8333333333333
"965","3/03/2013",16.52,24.42,19.05875
"966","3/04/2006",15.8,23.8,19.44375
"967","3/04/2007",16,25.3,19.3291666666667
"968","3/04/2008",15,24.5,19.7104166666667
"969","3/04/2009",14.6,23.4,17.7104166666667
"970","3/04/2013",15.82,25.72,20.9395833333333
"971","3/05/2006",16,22.3,18.5375
"972","3/05/2007",15.4,24.2,19.33125
"973","3/05/2008",14.8,23.3,18.8833333333333
"974","3/05/2009",16.2,24.4,19.4270833333333
"975","3/06/2006",13.1,24.2,18.9583333333333
"976","3/06/2007",14.7,22.8,18.5854166666667
"977","3/06/2008",13.6,23.9,18.7333333333333
"978","3/06/2009",15.2,21.8,18.51875
"979","3/07/2006",14.3,25.5,20.1541666666667
"980","3/07/2007",15.9,18,16.81875
"981","3/07/2008",13.9,25.6,19.575
"982","3/07/2011",13.5,16.6,14.6133333333333
"983","3/08/2006",16.6,23.2,19.4645833333333
"984","3/08/2007",14.4,24.4,19.5625
"985","3/08/2008",15.6,24.6,19.9375
"986","3/09/2006",16.5,26.1,20.7791666666667
"987","3/09/2007",15,23.3,18.9375
"988","3/09/2008",14.4,24.8,19.3666666666667
"989","3/10/2006",14.9,27.3,21.1541666666667
"990","3/10/2007",14.1,25.7,19.0083333333333
"991","3/10/2008",15,25.2,18.7375
"992","3/11/2006",15.6,23.8,18.5020833333333
"993","3/11/2007",15.2,23.7,18.1166666666667
"994","3/11/2008",14.3,25.2,18.8916666666667
"995","3/12/2006",12.7,23,17.6166666666667
"996","3/12/2007",15.4,23.9,19.4291666666667
"997","3/12/2008",13.9,23.6,18.6604166666667
"998","30/01/2007",17.3,24.5,19.3708333333333
"999","30/01/2008",16.3,23.4,19.3125
"1000","30/01/2009",14.3,25.7,19.5791666666667
"1001","30/03/2006",14.6,24.7,18.55625
"1002","30/03/2007",15.6,23.2,18.46875
"1003","30/03/2008",15.3,23,17.4791666666667
"1004","30/03/2009",15.6,24.6,19.9541666666667
"1005","30/03/2013",14.74,25.43,19.3152083333333
"1006","30/04/2006",17,24.1,19.89375
"1007","30/04/2007",14.5,24.6,19.2645833333333
"1008","30/04/2008",15.8,23.8,19.9041666666667
"1009","30/04/2009",15.6,24.6,18.8875
"1010","30/04/2011",15.7,17.4,16.395652173913
"1011","30/05/2006",16,23,18.9375
"1012","30/05/2007",15.6,24.1,19.33125
"1013","30/05/2008",15.8,21.1,17.69375
"1014","30/05/2009",14.8,22.8,17.61875
"1015","30/06/2006",13.6,26,20.1479166666667
"1016","30/06/2007",14.6,24.6,19.8979166666667
"1017","30/06/2008",13,26.1,20.19375
"1018","30/07/2006",17.3,22.5,19.26875
"1019","30/07/2007",15.2,24.6,19.7416666666667
"1020","30/07/2008",16.5,22.1,18.9729166666667
"1021","30/08/2006",15.8,27.1,20.38125
"1022","30/08/2007",12.5,25.8,19.6020833333333
"1023","30/08/2008",14.3,24.4,19.5770833333333
"1024","30/09/2006",15.1,23.6,18.8520833333333
"1025","30/09/2007",15.2,27,20.0729166666667
"1026","30/09/2008",14,25,19.9583333333333
"1027","30/10/2006",14.2,24.1,19.35625
"1028","30/10/2007",13.5,25.7,19.84375
"1029","30/10/2008",14.8,24.6,18.6333333333333
"1030","30/11/2006",15.3,23.9,18.3625
"1031","30/11/2007",15.3,24.2,18.15625
"1032","30/11/2008",16.2,25.5,19.8708333333333
"1033","30/12/2006",15.4,19,16.7791666666667
"1034","30/12/2007",14.5,26.7,20.9729166666667
"1035","30/12/2008",14.5,25.7,19.6270833333333
"1036","31/01/2007",17.1,25,19.825
"1037","31/01/2008",16.4,25,20.1520833333333
"1038","31/01/2009",15.5,25.7,18.9458333333333
"1039","31/03/2006",13.8,25.7,18.4833333333333
"1040","31/03/2007",14.2,25.1,19.2604166666667
"1041","31/03/2008",15.3,23.1,18.0791666666667
"1042","31/03/2009",16,19.5,17.9125
"1043","31/03/2013",15.04,21.92,17.21625
"1044","31/05/2006",14,23.1,18.8104166666667
"1045","31/05/2007",15.1,21.1,18.1291666666667
"1046","31/05/2008",15.7,23.8,19.25
"1047","31/05/2009",15.9,25.7,19.8916666666667
"1048","31/07/2006",14,22.8,19.3458333333333
"1049","31/07/2007",14.6,22.4,18.38125
"1050","31/07/2008",13.9,23.1,18.3770833333333
"1051","31/08/2006",14.3,27.3,20.0208333333333
"1052","31/08/2007",12.4,26.1,19.9958333333333
"1053","31/08/2008",16,25.9,19.9645833333333
"1054","31/10/2006",15.4,25.6,19.14375
"1055","31/10/2007",13.6,26.1,19.9395833333333
"1056","31/10/2008",14.7,27,20.2083333333333
"1057","31/12/2006",15.5,22.3,17.4604166666667
"1058","31/12/2007",14.7,25.5,20.0645833333333
"1059","31/12/2008",15.2,22.8,18.46875
"1060","4/01/2007",16.7,23.5,19.7708333333333
"1061","4/01/2008",14.7,27.5,21.49375
"1062","4/01/2009",15.8,25.3,19.3041666666667
"1063","4/02/2007",16.6,23.6,18.6375
"1064","4/02/2008",16.7,25.1,20.50625
"1065","4/02/2009",14.4,21,16.33125
"1066","4/02/2013",16.1,25.12,20.1316666666667
"1067","4/03/2006",15.6,22,18.3791666666667
"1068","4/03/2007",14.1,22.1,17.6375
"1069","4/03/2008",14.6,24.4,19.3708333333333
"1070","4/03/2009",14.2,24.8,20.0958333333333
"1071","4/03/2013",15.26,26.17,19.5233333333333
"1072","4/04/2006",16.3,21.2,17.61875
"1073","4/04/2007",14.9,25.4,18.9833333333333
"1074","4/04/2008",13.9,24.3,19.66875
"1075","4/04/2009",13.9,24.1,18.71875
"1076","4/04/2013",14.32,22.89,17.6883333333333
"1077","4/05/2006",15.3,24.5,19.8395833333333
"1078","4/05/2007",15.6,24.5,19.7104166666667
"1079","4/05/2008",14.6,23.2,18.7645833333333
"1080","4/05/2009",16.4,25,20.2958333333333
"1081","4/06/2006",15.8,23.3,19.1958333333333
"1082","4/06/2007",14.7,23.6,18.7729166666667
"1083","4/06/2008",17.1,22.4,19.125
"1084","4/06/2009",14.1,24.4,18.74375
"1085","4/07/2006",14,25.7,20.4270833333333
"1086","4/07/2007",14.7,21.3,18.00625
"1087","4/07/2008",13.8,24,18.3833333333333
"1088","4/08/2006",15.9,20.1,17.6833333333333
"1089","4/08/2007",16.8,23.8,20.3104166666667
"1090","4/08/2008",16.2,21.9,18.96875
"1091","4/09/2006",15.8,25.5,19.775
"1092","4/09/2007",16.3,21.6,18.2104166666667
"1093","4/09/2008",15.3,26.5,20.89375
"1094","4/10/2006",15.3,28.2,22.1125
"1095","4/10/2007",15,25,19.6583333333333
"1096","4/10/2008",14.7,21.2,17.0729166666667
"1097","4/11/2006",15.8,24.3,18.5083333333333
"1098","4/11/2007",15.3,20.1,17.3729166666667
"1099","4/11/2008",15.1,23.1,18.1520833333333
"1100","4/12/2006",14.5,24.9,19.50625
"1101","4/12/2007",14.5,23.7,18.35625
"1102","4/12/2008",14.7,19.8,16.84375
"1103","5/01/2007",16.7,22.4,19.0270833333333
"1104","5/01/2008",14,26.8,21.0229166666667
"1105","5/01/2009",15.9,25.2,19.8125
"1106","5/02/2007",16.5,19.6,17.6354166666667
"1107","5/02/2008",15.5,24.6,18.5833333333333
"1108","5/02/2009",13.7,23.8,18.73125
"1109","5/02/2013",13.45,26.95,20.5914583333333
"1110","5/03/2006",16.2,24.1,19.3520833333333
"1111","5/03/2007",14.1,26.3,19.5708333333333
"1112","5/03/2008",14.7,23.9,17.9333333333333
"1113","5/03/2009",16.4,24.3,19.45
"1114","5/03/2013",15.8,24.2,18.2302083333333
"1115","5/04/2006",15.3,22.4,17.2645833333333
"1116","5/04/2007",14.6,25.3,19.9708333333333
"1117","5/04/2008",16.4,23.7,20.08125
"1118","5/04/2009",13,22.9,16.23125
"1119","5/04/2013",12.6,24.82,18.7579166666667
"1120","5/05/2006",14.8,24.6,19.01875
"1121","5/05/2007",16.1,22.8,18.7270833333333
"1122","5/05/2008",16.1,22.8,18.8708333333333
"1123","5/05/2009",14.2,25.4,19.7083333333333
"1124","5/06/2006",15.6,21.3,18.1208333333333
"1125","5/06/2007",16.8,23.8,19.2416666666667
"1126","5/06/2008",14.9,21.7,17.4791666666667
"1127","5/06/2009",16.2,24.4,19.75
"1128","5/07/2006",13.7,27.1,20.7604166666667
"1129","5/07/2007",14.6,21.8,18.2125
"1130","5/07/2008",15.7,25.4,20.0020833333333
"1131","5/08/2006",14.8,22.6,17.2791666666667
"1132","5/08/2007",16.6,23,19.06875
"1133","5/08/2008",15.3,19.9,17.58125
"1134","5/09/2006",14.7,25.4,19.8083333333333
"1135","5/09/2007",14.5,22,17.1520833333333
"1136","5/09/2008",18.6,25.6,21.4291666666667
"1137","5/10/2006",16.2,27.8,21.1604166666667
"1138","5/10/2007",15,26.5,20.5270833333333
"1139","5/10/2008",14.2,20.7,17.05
"1140","5/11/2006",15.7,25,19.1270833333333
"1141","5/11/2007",14.8,20.7,17.55625
"1142","5/11/2008",14.3,21.6,17.3208333333333
"1143","5/12/2006",15.5,24.5,19.0020833333333
"1144","5/12/2007",13.4,23.8,18.49375
"1145","5/12/2008",13.5,24.8,18.85
"1146","6/01/2007",15,23.8,18.3604166666667
"1147","6/01/2008",16.1,22.1,18.56875
"1148","6/01/2009",15.2,24.4,18.8125
"1149","6/02/2007",16,23.4,19.24375
"1150","6/02/2008",14.4,24.1,17.5166666666667
"1151","6/02/2009",14.8,25.1,18.4729166666667
"1152","6/02/2013",13.53,25.8,19.280625
"1153","6/03/2006",16.1,24.3,20.1770833333333
"1154","6/03/2007",14.2,27.3,20.7083333333333
"1155","6/03/2008",13.3,21.4,17.34375
"1156","6/03/2009",13.5,24.9,19.09375
"1157","6/03/2013",14.07,24.8,17.6566666666667
"1158","6/04/2006",14.1,23.5,18.26875
"1159","6/04/2007",15.3,24.8,20.1791666666667
"1160","6/04/2008",14.5,23.8,18.6083333333333
"1161","6/04/2009",11.3,23.1,17.7333333333333
"1162","6/04/2013",14.8,26.31,20.11
"1163","6/05/2006",15.3,23.2,18.6916666666667
"1164","6/05/2007",15.2,21.8,17.6854166666667
"1165","6/05/2008",13.7,24.6,19.1416666666667
"1166","6/05/2009",15.3,24.6,19.6979166666667
"1167","6/06/2006",15.3,23.3,18.6541666666667
"1168","6/06/2007",15.6,23.7,18.7666666666667
"1169","6/06/2008",16,20.7,18.1354166666667
"1170","6/06/2009",14.6,24.7,19.3166666666667
"1171","6/07/2006",13.9,25.4,20.3770833333333
"1172","6/07/2007",14.2,22.8,18.5
"1173","6/07/2008",15.2,23.3,18.525
"1174","6/08/2006",14.7,21.7,17.05625
"1175","6/08/2007",13.4,23.5,18.8958333333333
"1176","6/08/2008",15.3,24.4,19.6354166666667
"1177","6/09/2006",14.6,25.7,20.1354166666667
"1178","6/09/2007",14.8,24.3,18.48125
"1179","6/09/2008",15.4,26.2,21.10625
"1180","6/10/2006",16,27.6,21.5604166666667
"1181","6/10/2007",14.1,27.4,20.33125
"1182","6/10/2008",12.5,24.9,17.2833333333333
"1183","6/11/2006",16.1,24,18.6916666666667
"1184","6/11/2007",14.8,24.5,18.625
"1185","6/11/2008",14.2,21,17.3854166666667
"1186","6/12/2006",15.2,24.1,19.0479166666667
"1187","6/12/2007",15.5,24.5,19.125
"1188","6/12/2008",14.1,23.3,18.825
"1189","7/01/2007",15.3,24.5,18.74375
"1190","7/01/2008",15.3,25.8,19.4229166666667
"1191","7/01/2009",15,20.4,17.3708333333333
"1192","7/02/2007",16.7,23.8,19.9875
"1193","7/02/2008",15.6,22.8,18.0958333333333
"1194","7/02/2009",15.7,25.3,19.4583333333333
"1195","7/02/2013",14.23,26.88,20.5602083333333
"1196","7/03/2006",16.1,26.5,19.99375
"1197","7/03/2007",15,27.7,21.6541666666667
"1198","7/03/2008",13.7,21,16.2916666666667
"1199","7/03/2009",15.4,24.4,19.1875
"1200","7/03/2013",15.11,26.9,19.9085416666667
"1201","7/04/2006",14.8,23.1,18.4375
"1202","7/04/2007",14.7,26.2,20.5770833333333
"1203","7/04/2008",15,24.2,18.75625
"1204","7/04/2009",15.1,23.5,18.7208333333333
"1205","7/04/2013",14.92,25.22,18.1279166666667
"1206","7/05/2006",15.8,20.4,17.2625
"1207","7/05/2007",16,20.6,17.7645833333333
"1208","7/05/2008",13.4,25.3,19.9229166666667
"1209","7/05/2009",14.5,22.4,17.2833333333333
"1210","7/06/2006",14.3,23.8,19.23125
"1211","7/06/2007",15,23.6,18.6229166666667
"1212","7/06/2008",15.9,21.2,17.86875
"1213","7/06/2009",13.5,24.5,19.3875
"1214","7/07/2006",15.6,24.6,20.1041666666667
"1215","7/07/2007",14.2,22.4,19.15
"1216","7/07/2008",14.9,23.5,18.3979166666667
"1217","7/08/2006",15.6,21,17.6958333333333
"1218","7/08/2007",13.2,25.2,19.9791666666667
"1219","7/08/2008",16.3,24,20.275
"1220","7/09/2006",14.9,25.6,20.3583333333333
"1221","7/09/2007",13.6,22.8,16.2625
"1222","7/09/2008",12.5,26.4,20.6208333333333
"1223","7/10/2006",15,26.6,21.0125
"1224","7/10/2007",15,23,18.06875
"1225","7/10/2008",13.2,22.8,17.9666666666667
"1226","7/11/2006",15.2,22.3,17.0458333333333
"1227","7/11/2007",14.2,23.7,17.4854166666667
"1228","7/11/2008",15.2,23.2,18.4895833333333
"1229","7/12/2006",15.1,23.6,18.4208333333333
"1230","7/12/2007",14.6,24.5,18.8104166666667
"1231","7/12/2008",13.8,25.5,19.6958333333333
"1232","8/01/2007",15,25.3,20.4020833333333
"1233","8/01/2008",13.4,25.7,18.4625
"1234","8/01/2009",12.7,24.4,16.9104166666667
"1235","8/02/2007",16.6,25.4,19.3479166666667
"1236","8/02/2008",14.8,20.1,16.7791666666667
"1237","8/02/2009",14.9,25,19.3270833333333
"1238","8/02/2013",15.29,24.7,19.815
"1239","8/03/2006",15.1,24.5,18.70625
"1240","8/03/2007",15,27.7,21.5708333333333
"1241","8/03/2008",12.9,22.8,17.4229166666667
"1242","8/03/2009",14.2,24.8,18.7583333333333
"1243","8/03/2013",16.37,26.54,19.7233333333333
"1244","8/04/2006",15.7,24.6,19.4020833333333
"1245","8/04/2007",15.4,25.8,20.1083333333333
"1246","8/04/2008",15.9,24.1,19.5395833333333
"1247","8/04/2009",14.8,24,18.2979166666667
"1248","8/04/2013",16.14,25.3,19.676875
"1249","8/05/2006",13.9,24.4,18.8020833333333
"1250","8/05/2007",14.4,23.8,18.6104166666667
"1251","8/05/2008",14.1,25.2,20.2791666666667
"1252","8/05/2009",13.3,22.7,17.7604166666667
"1253","8/06/2006",13.5,24.9,19.4208333333333
"1254","8/06/2007",13.7,23.3,18.2416666666667
"1255","8/06/2008",15.1,20.7,16.9041666666667
"1256","8/06/2009",15.7,23.6,19.6291666666667
"1257","8/07/2006",15.4,23.9,19.7625
"1258","8/07/2007",14.8,24.2,19.5166666666667
"1259","8/07/2008",14.4,23,18.1291666666667
"1260","8/08/2006",15.9,20.4,18.1479166666667
"1261","8/08/2007",14.9,24.2,20.1458333333333
"1262","8/08/2008",14.9,25.5,20.3104166666667
"1263","8/09/2006",13.2,25,19.675
"1264","8/09/2007",13.3,24.4,18.3270833333333
"1265","8/09/2008",14,27,21.1
"1266","8/10/2006",17.4,27,22.4
"1267","8/10/2007",13.2,24.8,18.8333333333333
"1268","8/10/2008",14.4,24.9,18.84375
"1269","8/11/2006",15.4,21.3,17.28125
"1270","8/11/2007",12.5,21,15.7791666666667
"1271","8/11/2008",15.8,21.1,17.83125
"1272","8/12/2006",15.1,23.4,18.6208333333333
"1273","8/12/2007",14.6,18.3,16.1520833333333
"1274","8/12/2008",14,25.6,20.04375
"1275","9/01/2007",16.8,26.4,21.2395833333333
"1276","9/01/2008",13.4,26,19.74375
"1277","9/01/2009",13.1,21.9,16.49375
"1278","9/02/2007",15,27.6,19.0854166666667
"1279","9/02/2008",14.8,24.9,18.96875
"1280","9/02/2009",17,21.4,18.54375
"1281","9/02/2013",14.53,27,19.780625
"1282","9/03/2006",15.6,18.1,16.5541666666667
"1283","9/03/2007",15.1,26.3,21.09375
"1284","9/03/2008",13.6,24.3,18.4145833333333
"1285","9/03/2009",14.8,25.7,20.5708333333333
"1286","9/03/2013",14.77,26.43,20.5847916666667
"1287","9/04/2006",15.4,23.5,17.8166666666667
"1288","9/04/2007",15.6,26.4,21.2520833333333
"1289","9/04/2008",15.9,24.9,19.5958333333333
"1290","9/04/2009",14,24.7,18.9708333333333
"1291","9/04/2013",15.23,24.53,19.6683333333333
"1292","9/05/2006",14.6,25,19.8270833333333
"1293","9/05/2007",14.5,23.2,18.84375
"1294","9/05/2008",16.7,25.4,21.0104166666667
"1295","9/05/2009",14.7,24.3,19.0833333333333
"1296","9/06/2006",16.2,23.3,19.7583333333333
"1297","9/06/2007",16,22.5,18.4645833333333
"1298","9/06/2008",13.1,23.7,18.625
"1299","9/06/2009",16.6,23.6,19.6520833333333
"1300","9/07/2006",16.2,23,18.8625
"1301","9/07/2007",15.2,24,19.4041666666667
"1302","9/07/2008",9.1,23.1,17.1520833333333
"1303","9/08/2006",13.6,23.3,18.8416666666667
"1304","9/08/2007",14.7,24,19.0875
"1305","9/08/2008",14,25.7,20.3
"1306","9/09/2006",14.1,24.8,20.0458333333333
"1307","9/09/2007",13.9,26,19.9833333333333
"1308","9/09/2008",14.8,27.3,21.4729166666667
"1309","9/10/2006",16.8,26.4,20.8020833333333
"1310","9/10/2007",16.9,23.6,18.7229166666667
"1311","9/10/2008",14.5,22.6,17.66875
"1312","9/11/2006",14.4,22.8,18.1125
"1313","9/11/2007",12.4,24,17.9291666666667
"1314","9/11/2008",15.9,24.3,18.525
"1315","9/12/2006",14.7,24.3,19.5520833333333
"1316","9/12/2007",13.7,22.9,18.3083333333333
"1317","9/12/2008",14.4,24.4,18.6854166666667
